#weight  minuslogpost  log10_alpha   log10_rs         vw  minuslogprior  minuslogprior__0        chi2  chi2__lisa_likelihood
      1     1.5272166    -1.365171 -2.0617555 0.74898276      1.5040774         1.5040774 0.046278379            0.046278379
      1     1.5208545   -1.3726463 -2.0569215 0.72433609      1.5040774         1.5040774 0.033554189            0.033554189
      1     1.5173867   -1.3678007 -2.0535727 0.72352319      1.5040774         1.5040774 0.026618696            0.026618696
      1     1.5260539   -1.3572132 -2.0704773 0.71699646      1.5040774         1.5040774 0.043952942            0.043952942
      1     1.5379501   -1.3696236 -2.0711308 0.71274331      1.5040774         1.5040774  0.06774543             0.06774543
      1     1.5409064   -1.3621054 -2.0460486 0.68695206      1.5040774         1.5040774 0.073658063            0.073658063
      1     1.5409069   -1.3518982 -2.0751386 0.66163726      1.5040774         1.5040774 0.073658923            0.073658923
      1     1.5489722   -1.3457815 -2.0874513 0.66894551      1.5040774         1.5040774 0.089789688            0.089789688
      1     1.5249717   -1.3175162 -2.0664601 0.68065406      1.5040774         1.5040774 0.041788588            0.041788588
      1     1.5291749   -1.3255123 -2.0628338 0.69345586      1.5040774         1.5040774 0.050195051            0.050195051
      1     1.5174698   -1.2849091 -2.0499271 0.77336247      1.5040774         1.5040774 0.026784733            0.026784733
      1      1.518184   -1.2812895 -2.0514784  0.7717738      1.5040774         1.5040774 0.028213194            0.028213194
      1     1.5441677   -1.2726675 -2.0219987 0.76263106      1.5040774         1.5040774 0.080180701            0.080180701
      1     1.5453259   -1.2697602 -2.0236741 0.76524007      1.5040774         1.5040774 0.082497032            0.082497032
      1     1.6024011   -1.2498084 -2.0219175 0.74413451      1.5040774         1.5040774  0.19664748             0.19664748
      1     1.6970154   -1.2403506 -1.9870649 0.75597596      1.5040774         1.5040774  0.38587608             0.38587608
      1      1.831529   -1.2236616 -1.9654546 0.73745321      1.5040774         1.5040774   0.6549033              0.6549033
      1     1.7220262   -1.2304146 -1.9656409 0.73115143      1.5040774         1.5040774  0.43589767             0.43589767
      1     1.7843981   -1.2569188 -1.9219353 0.75826178      1.5040774         1.5040774  0.56064147             0.56064147
      1     1.7579219   -1.2673642 -1.9280864 0.74387033      1.5040774         1.5040774  0.50768904             0.50768904
1 1.5423277 -1.2834978 -1.9957409 0.78449673 1.5040774 1.5040774  0.076500556  0.076500556
1 1.5542168 -1.3428888 -1.9638721 0.81398201 1.5040774 1.5040774   0.10027881   0.10027881
1  1.568642  -1.359179 -1.9387743 0.82101817 1.5040774 1.5040774   0.12912924   0.12912924
1   1.56009 -1.3439593 -1.9269241 0.81398566 1.5040774 1.5040774    0.1120253    0.1120253
1 1.5457202 -1.3552178 -1.9272479 0.78907473 1.5040774 1.5040774  0.083285525  0.083285525
1 1.5374267 -1.3832491 -1.9514697 0.77043576 1.5040774 1.5040774  0.066698527  0.066698527
1 1.5375128 -1.3829453 -1.9520306  0.7707077 1.5040774 1.5040774  0.066870855  0.066870855
1 1.5526474  -1.392179  -1.950969 0.78321482 1.5040774 1.5040774  0.097140041  0.097140041
1 1.5526558 -1.3921745 -1.9509779 0.78322688 1.5040774 1.5040774  0.097156875  0.097156875
1 1.5414682 -1.3934999 -1.9718385 0.76840274 1.5040774 1.5040774  0.074781595  0.074781595
1 1.5227763 -1.3619083 -1.9675775 0.75958218 1.5040774 1.5040774  0.037397719  0.037397719
1 1.5236031  -1.362678 -1.9647754 0.76036847 1.5040774 1.5040774  0.039051431  0.039051431
1 1.5395443 -1.3296649 -1.9657975 0.79632541 1.5040774 1.5040774  0.070933841  0.070933841
1 1.6143236 -1.2865126  -1.943009 0.75735388 1.5040774 1.5040774   0.22049249   0.22049249
1 1.6220559 -1.2885094 -1.9531001 0.73478375 1.5040774 1.5040774   0.23595702   0.23595702
1 1.5649611 -1.2995751 -1.9696273 0.74315202 1.5040774 1.5040774   0.12176747   0.12176747
1 1.5512013 -1.3136237 -1.9614444 0.74073636 1.5040774 1.5040774  0.094247856  0.094247856
1 1.5060359 -1.3544424  -2.001795 0.72289836 1.5040774 1.5040774 0.0039170085 0.0039170085
1 1.5593733 -1.3940621 -1.9899942 0.78686604 1.5040774 1.5040774   0.11059189   0.11059189
1 1.5575363  -1.400944 -1.9803627 0.78082676 1.5040774 1.5040774   0.10691782   0.10691782
1   1.54757  -1.360513 -2.0056878 0.79550307 1.5040774 1.5040774 0.086985295 0.086985295
1 1.5769505  -1.389273 -2.0474395 0.80268657 1.5040774 1.5040774   0.1457462   0.1457462
1 1.5637555 -1.3863628 -2.0522525 0.78636407 1.5040774 1.5040774  0.11935629  0.11935629
1  1.593373 -1.4084254  -2.091489 0.79338581 1.5040774 1.5040774   0.1785913   0.1785913
1 1.5752918 -1.3733165 -2.1107991 0.79579718 1.5040774 1.5040774  0.14242885  0.14242885
1 1.5878977 -1.3728088 -2.1070856 0.81814308 1.5040774 1.5040774  0.16764061  0.16764061
1 1.5884572 -1.3787164 -2.1100516 0.81128655 1.5040774 1.5040774  0.16875968  0.16875968
1 1.6027918  -1.401446 -2.0825334 0.81896629 1.5040774 1.5040774  0.19742879  0.19742879
1 1.5311187 -1.3634002 -2.0363894 0.76622516 1.5040774 1.5040774 0.054082594 0.054082594
1 1.5363099 -1.3304546 -2.0119297 0.79943905 1.5040774 1.5040774 0.064465092 0.064465092
1 1.5286211 -1.3289734 -1.9938651 0.78466653 1.5040774 1.5040774 0.049087357 0.049087357
1 1.5376357 -1.3430703 -1.9860068 0.79286257 1.5040774 1.5040774  0.06711653  0.06711653
1 1.5295742 -1.3574865 -1.9954977 0.77375582 1.5040774 1.5040774 0.050993516 0.050993516
1 1.5226465 -1.3605511  -1.957982 0.75743303 1.5040774 1.5040774 0.037138186 0.037138186
1  1.524092 -1.3380777 -1.9625389 0.74274025 1.5040774 1.5040774 0.040029263 0.040029263
1 1.5624909 -1.3206514 -1.9327358 0.74842334 1.5040774 1.5040774  0.11682707  0.11682707
1 1.5647341 -1.3197016 -1.9330653 0.74723897 1.5040774 1.5040774  0.12131343  0.12131343
1 1.5643303 -1.3233628 -1.9302134 0.74350968 1.5040774 1.5040774  0.12050573  0.12050573
1 1.6242586  -1.303201  -1.918861 0.74564681 1.5040774 1.5040774   0.2403625   0.2403625
1 1.6487835 -1.3013903 -1.9194561 0.73172581 1.5040774 1.5040774  0.28941214  0.28941214
1 1.6543169  -1.3145012 -1.8956589 0.72900299 1.5040774 1.5040774  0.30047905  0.30047905
1 1.6146662  -1.3119004 -1.8777911 0.71811611 1.5040774 1.5040774  0.22117759  0.22117759
1 1.7039455  -1.3163256 -1.8708218 0.72849712 1.5040774 1.5040774   0.3997363   0.3997363
1 1.7045662  -1.3161836 -1.8708103 0.72854993 1.5040774 1.5040774  0.40097768  0.40097768
1 1.6976867  -1.3151117 -1.8727968 0.73323726 1.5040774 1.5040774  0.38721863  0.38721863
2 1.7114807  -1.2985031 -1.8792354 0.72671046 1.5040774 1.5040774  0.41480658  0.41480658
1 1.7392116  -1.3016781 -1.8821466 0.73095856 1.5040774 1.5040774  0.47026846  0.47026846
1 1.5416681  -1.3018032 -1.9197269 0.70511192 1.5040774 1.5040774 0.075181491 0.075181491
2 1.5749652  -1.2839841 -1.9259927 0.71413596 1.5040774 1.5040774  0.14177564  0.14177564
1 1.5793321  -1.2645033 -1.9422354 0.71288289 1.5040774 1.5040774  0.15050937  0.15050937
3 1.5877012  -1.2787875 -1.9565885  0.6768627 1.5040774 1.5040774  0.16724761  0.16724761
1 1.7311506  -1.3211349 -2.8631649 0.59961551 1.5040774 1.5040774  0.45414644  0.45414644
1 1.5559494  -1.4046873 -2.1569728 0.59223229 1.5040774 1.5040774  0.10374408  0.10374408
4 1.5384033  -1.2897992 -2.1400429 0.66523868 1.5040774 1.5040774 0.068651726 0.068651726
1 1.7076345  -1.4321849 -2.5742018 0.55552431 1.5040774 1.5040774  0.40711412  0.40711412
1 1.7111377  -1.4449033 -2.5657591 0.56379021 1.5040774 1.5040774  0.41412059  0.41412059
1 1.7047081  -1.2707659 -2.5380272 0.68170836 1.5040774 1.5040774   0.4012615   0.4012615
3 1.5974947  -1.2400923 -2.3272744 0.63885862 1.5040774 1.5040774  0.18683456  0.18683456
2 2.5470027 -0.99851463 -2.1239667 0.72315798 1.5040774 1.5040774   2.0858506   2.0858506
1 1.7627735  -1.6908493 -1.3947372 0.54826566 1.5040774 1.5040774  0.51739229  0.51739229
 1 1.7302438 -1.6545311 -1.1598815 0.84595522 1.5040774 1.5040774  0.4523328  0.4523328
 2 1.7291581 -1.6317649 -1.1737544 0.84215218 1.5040774 1.5040774 0.45016134 0.45016134
 1 1.7305353 -1.6382005 -1.2273288 0.88689427 1.5040774 1.5040774 0.45291578 0.45291578
 1  1.724169 -1.6081715 -1.2341018  0.8185524 1.5040774 1.5040774 0.44018321 0.44018321
 3 1.7124759 -1.7956883 -1.7561731 0.76334807 1.5040774 1.5040774 0.41679704 0.41679704
 2 1.6553604 -1.5667595 -1.9514327 0.77927711 1.5040774 1.5040774   0.302566   0.302566
 6 1.7294206   -1.95171 -2.4844377 0.42170486 1.5040774 1.5040774 0.45068637 0.45068637
13 1.7285495 -1.9383645 -2.4677458  0.4139281 1.5040774 1.5040774 0.44894421 0.44894421
 2 1.7250889 -1.6201918 -2.6742347  0.4865991 1.5040774 1.5040774 0.44202303 0.44202303
 3 1.7310541 -1.8714343 -2.3238564 0.86945499 1.5040774 1.5040774 0.45395343 0.45395343
 1 1.7305321 -1.7168355 -2.4613471 0.64578331 1.5040774 1.5040774 0.45290938 0.45290938
 1 1.6651405 -1.4152902 -2.3384654 0.72871712 1.5040774 1.5040774 0.32212616 0.32212616
 1 1.6947772 -1.3748318 -2.4967501 0.77087289 1.5040774 1.5040774 0.38139966 0.38139966
 1 1.6910775 -1.5485091 -2.2799094 0.73190469 1.5040774 1.5040774 0.37400013 0.37400013
 2 1.6997191 -1.6216797 -2.4850057 0.45911565 1.5040774 1.5040774 0.39128346 0.39128346
 1 1.6978726 -1.6876621 -2.4064602 0.42358678 1.5040774 1.5040774 0.38759041 0.38759041
 1 1.6260667 -1.5484306 -2.0428207 0.62505734 1.5040774 1.5040774  0.2439787  0.2439787
 1 1.5859424 -1.5203939 -2.0364787 0.60933661 1.5040774 1.5040774 0.16373002 0.16373002
 6 1.9898184 -1.2696003 -1.5986256 0.81916741 1.5040774 1.5040774 0.97148204 0.97148204
 1 1.7264716 -1.7000619 -1.3341453 0.82163816 1.5040774 1.5040774 0.44478833 0.44478833
3 1.7051247  -1.637037    -1.1931462 0.73530245 1.5040774 1.5040774  0.40209457  0.40209457
1 1.6912265  -1.655279    -1.3965177 0.74488461 1.5040774 1.5040774  0.37429811  0.37429811
3 1.8449024 -1.2793593    -1.4395716 0.85657016 1.5040774 1.5040774  0.68165002  0.68165002
3 1.8252045 -1.2837248    -1.4540336 0.85821721 1.5040774 1.5040774  0.64225427  0.64225427
2 1.8420592 -1.2798818    -1.4501799 0.85635811 1.5040774 1.5040774  0.67596355  0.67596355
1 3.5792522 -1.4564845    -1.3047076 0.49981427 1.5040774 1.5040774   4.1503497   4.1503497
1 1.5695587 -1.8903583    -1.4051954 0.56012013 1.5040774 1.5040774  0.13096267  0.13096267
3 1.5422591 -1.7383476    -1.5356668 0.55020723 1.5040774 1.5040774 0.076363382 0.076363382
3 1.6837175 -1.9367008    -1.7398914 0.51354343 1.5040774 1.5040774  0.35928019  0.35928019
3 1.5164518 -1.9077776    -1.2342255 0.60602263 1.5040774 1.5040774  0.02474885  0.02474885
1 1.6933876 -1.7547671    -1.1982437 0.52853523 1.5040774 1.5040774  0.37862042  0.37862042
1  1.707344 -1.7848292    -1.0757147 0.53385193 1.5040774 1.5040774  0.40653328  0.40653328
1 1.7138647 -1.5927964    -1.0357714 0.71712646 1.5040774 1.5040774  0.41957463  0.41957463
2 1.7262886 -1.5392878   -0.96481887 0.76520058 1.5040774 1.5040774   0.4444224   0.4444224
1 1.7300539 -1.5656806    -1.0982647 0.86703616 1.5040774 1.5040774  0.45195307  0.45195307
2 1.7251533 -1.7734685    -1.0256692 0.72209082 1.5040774 1.5040774  0.44215171  0.44215171
1 1.7335462 -1.6088214   -0.15714744 0.79609244 1.5040774 1.5040774  0.45893769  0.45893769
3 1.7335942 -1.6844001   0.012858192 0.84806405 1.5040774 1.5040774  0.45903369  0.45903369
1 1.7335261 -1.4990811 -0.0020956477 0.78895146 1.5040774 1.5040774  0.45889748  0.45889748
1 2.0559973 -1.6110643   0.043016014 0.63771015 1.5040774 1.5040774   1.1038398   1.1038398
 1 1.7650422  -1.5926191  0.33057441 0.67334863 1.5040774 1.5040774 0.52192959 0.52192959
 2 1.7335711  -1.3440522  0.15732515  0.8699398 1.5040774 1.5040774 0.45898748 0.45898748
 2 1.7326611  -1.8849809  -1.2738166  0.8414398 1.5040774 1.5040774 0.45716747 0.45716747
 1 1.7280458   -1.890428  -1.0080544 0.70259738 1.5040774 1.5040774 0.44793674 0.44793674
 2 1.7305935  -1.8303826  -2.3439254 0.63230217 1.5040774 1.5040774  0.4530323  0.4530323
 1 1.7335921  -1.7758895  -3.0992852 0.60769533 1.5040774 1.5040774 0.45902941 0.45902941
 2 1.7335973  -1.3009411  -3.4720601 0.69791825 1.5040774 1.5040774 0.45903976 0.45903976
 1 1.7335974  -1.4099436  -3.4583717  0.6796955 1.5040774 1.5040774 0.45903994 0.45903994
 2 1.7300099  -1.4171327  -2.7698581 0.59047323 1.5040774 1.5040774 0.45186509 0.45186509
18 1.7335975  -1.7017987  -3.6201032 0.85705535 1.5040774 1.5040774 0.45904023 0.45904023
 3 1.7335975  -1.7912295  -3.7909913 0.48735319 1.5040774 1.5040774 0.45904024 0.45904024
 1 1.7335975  -1.8006905  -3.7561478  0.4891284 1.5040774 1.5040774 0.45904024 0.45904024
 2 1.7335975  -1.7313343  -3.6800525 0.49105303 1.5040774 1.5040774 0.45904023 0.45904023
 2 1.7335975  -1.8118138  -3.8963834 0.77137998 1.5040774 1.5040774 0.45904024 0.45904024
 4 1.7333401  -1.9480678 -0.62435189 0.45377658 1.5040774 1.5040774  0.4585254  0.4585254
 8 1.7326663  -1.5621172 -0.46859213 0.41019792 1.5040774 1.5040774 0.45717786 0.45717786
 2 1.7333964  -1.8787666 -0.53880991 0.43871482 1.5040774 1.5040774 0.45863792 0.45863792
 1 1.8999975  -1.6912704  -1.0494277 0.54148683 1.5040774 1.5040774 0.79184011 0.79184011
17 2.2157163 -0.43558699  -2.8425876 0.67282275 1.5040774 1.5040774  1.4232777  1.4232777
 1 1.7332778 -0.77079355  -3.2267324 0.69347977 1.5040774 1.5040774 0.45840075 0.45840075
6 1.7331888 -0.77043007 -3.2099935 0.69617342 1.5040774 1.5040774 0.45822271 0.45822271
1 1.7312494 -0.79401101 -3.0745081 0.71485249 1.5040774 1.5040774 0.45434396 0.45434396
3 1.7026183 -0.49810863 -3.0056058 0.72207946 1.5040774 1.5040774 0.39708171 0.39708171
5 1.7332694 -0.66106498  -3.301043 0.63749378 1.5040774 1.5040774 0.45838404 0.45838404
1 1.7291217  -0.6249374 -3.1355916 0.65527555 1.5040774 1.5040774 0.45008862 0.45008862
2 1.7335719 -0.78412718 -3.4045431 0.83736379 1.5040774 1.5040774 0.45898906 0.45898906
2 1.7019953 -0.71210986 -2.9430127 0.88472884 1.5040774 1.5040774 0.39583587 0.39583587
4 1.9096763 -0.79332182 -2.4203898 0.76975682 1.5040774 1.5040774 0.81119789 0.81119789
2 1.6306821  -1.1675688 -2.5059384 0.75796874 1.5040774 1.5040774 0.25320942 0.25320942
2 1.6687358  -1.1455386 -2.6128876 0.78324775 1.5040774 1.5040774  0.3293168  0.3293168
6 1.6613358  -1.1871076 -2.5490641 0.75156405 1.5040774 1.5040774 0.31451671 0.31451671
5 1.7335472  -1.6301446 -2.9966748 0.66398276 1.5040774 1.5040774 0.45893963 0.45893963
3 1.7303308  -1.0182219  -3.010705 0.84114724 1.5040774 1.5040774 0.45250684 0.45250684
1 1.6959207  -1.3382487 -2.5365572 0.76494813 1.5040774 1.5040774 0.38368669 0.38368669
1 1.7329704  -1.3866129  -2.972185 0.76155937 1.5040774 1.5040774 0.45778595 0.45778595
2 1.7295319   -1.550256 -2.6641482 0.85383416 1.5040774 1.5040774 0.45090906 0.45090906
3 1.7315086  -1.6746496 -2.6597372 0.78249359 1.5040774 1.5040774 0.45486231 0.45486231
3 1.7169423  -1.9584421 -1.6810835 0.69799562 1.5040774 1.5040774 0.42572979 0.42572979
3 1.7334666  -1.7917893 -2.8838298 0.80752389 1.5040774 1.5040774 0.45877843 0.45877843
3 1.7335975  -1.9958894 -3.8449026 0.68642128 1.5040774 1.5040774 0.45904024 0.45904024
 3 1.7335975  -1.9995293   -3.9196749 0.67495182 1.5040774 1.5040774 0.45904024 0.45904024
 8 1.7333859  -1.9927336   -2.7551746 0.53148647 1.5040774 1.5040774 0.45861693 0.45861693
12 1.7266551  -1.8094785   -2.2861657 0.66584052 1.5040774 1.5040774 0.44515532 0.44515532
 2 1.6431295  -1.8069576   -1.7931821 0.60856067 1.5040774 1.5040774 0.27810425 0.27810425
 2 1.6333854  -1.8112176   -1.7269853 0.61976888 1.5040774 1.5040774 0.25861597 0.25861597
 2 1.7335974  -1.7383518   -3.3855545 0.64586296 1.5040774 1.5040774  0.4590401  0.4590401
 1 1.7335975  -1.6633917   -3.5008681 0.64112628 1.5040774 1.5040774 0.45904021 0.45904021
 2 1.7323725  -1.5119554  -0.27948004 0.46493281 1.5040774 1.5040774 0.45659021 0.45659021
 1 1.7332656  -1.4520406 -0.082668216 0.40245275 1.5040774 1.5040774 0.45837634 0.45837634
 3 1.8073697  -1.2863011     0.100442 0.45945075 1.5040774 1.5040774 0.60658465 0.60658465
 2 1.7346583  -1.2967501   0.36846875 0.48797554 1.5040774 1.5040774 0.46116185 0.46116185
 2 1.7338569  -1.6186733   0.40355508 0.47214665 1.5040774 1.5040774 0.45955905 0.45955905
31 2.1062567  -1.4125199   -1.1881155 0.43612156 1.5040774 1.5040774  1.2043587  1.2043587
16 1.8874773  -1.3084308   -2.1482721 0.50522275 1.5040774 1.5040774 0.76679974 0.76679974
 4 1.7650932 -0.51646532   -3.2012469 0.41345431 1.5040774 1.5040774 0.52203151 0.52203151
 2 1.7146843  -1.3129461   -2.5753094  0.6973565 1.5040774 1.5040774 0.42121388 0.42121388
 2 4.3170659  -1.4889077  -0.94312779 0.53709543 1.5040774 1.5040774  5.6259769  5.6259769
 9 1.7269539  -0.8486932   -3.2158077 0.42001983 1.5040774 1.5040774   0.445753   0.445753
 1 1.7335943 -0.71227878   -3.7243347 0.40672948 1.5040774 1.5040774 0.45903371 0.45903371
 5 1.7330459 -0.49217806   -3.4570896 0.46977345 1.5040774 1.5040774 0.45793698 0.45793698
14 1.7333561 -0.46927931  -3.5154721  0.4671454 1.5040774 1.5040774 0.45855732 0.45855732
 7 1.7333161 -0.47403724   -3.505165 0.46697695 1.5040774 1.5040774 0.45847748 0.45847748
 2 1.7335973 -0.37471767  -3.9086065 0.47289483 1.5040774 1.5040774 0.45903975 0.45903975
16  1.717699 -0.37508546  -3.0986589 0.83941981 1.5040774 1.5040774 0.42724326 0.42724326
 2 1.7170848 -0.37526322  -3.0964139 0.83953035 1.5040774 1.5040774 0.42601484 0.42601484
 6 1.6416492  -1.6210352  -1.9269357 0.67128209 1.5040774 1.5040774  0.2751437  0.2751437
 9 1.7334362   -1.847851 -0.16094925 0.49737005 1.5040774 1.5040774 0.45871762 0.45871762
 4 1.7249906  -1.8115883  0.68058747 0.56374035 1.5040774 1.5040774 0.44182641 0.44182641
 1 1.7335975  -1.3373383  -3.7739595 0.88547472 1.5040774 1.5040774 0.45904024 0.45904024
 2 1.7335975  -1.1911138  -3.7657938   0.896932 1.5040774 1.5040774 0.45904023 0.45904023
 1 1.7048734  -1.0289176  -2.7288607 0.68540902 1.5040774 1.5040774 0.40159197 0.40159197
 4 1.7335818 -0.96079088  -3.3584615  0.6426202 1.5040774 1.5040774 0.45900882 0.45900882
 3  1.648089  -1.3669069  -2.6051439 0.45782037 1.5040774 1.5040774 0.28802322 0.28802322
 3   1.65053  -1.6476148  -1.8710756 0.41731978 1.5040774 1.5040774 0.29290518 0.29290518
 1 1.7298822  -1.8904281  -2.4954666 0.50579207 1.5040774 1.5040774 0.45160951 0.45160951
 5 1.7281937  -1.7284768  -2.6423894 0.48195842 1.5040774 1.5040774 0.44823263 0.44823263
 1 1.7335635  -1.5405198  -3.2073307 0.50285804 1.5040774 1.5040774 0.45897211 0.45897211
 3 1.7335971 -0.65567822  -3.6396854 0.70833204 1.5040774 1.5040774 0.45903939 0.45903939
 2 1.7335975 -0.60828156  -3.8943496 0.71898167 1.5040774 1.5040774 0.45904023 0.45904023
11 1.7335973 -0.55456204  -3.7149832 0.75432664 1.5040774 1.5040774 0.45903988 0.45903988
 7  1.733582 -0.57554634 -3.4712537 0.72483196 1.5040774 1.5040774 0.45900924 0.45900924
 3 2.5932022  -1.2815884 -1.7142465 0.74581664 1.5040774 1.5040774  2.1782497  2.1782497
 5 1.8446177  -1.3549355 -1.6919884 0.70203615 1.5040774 1.5040774 0.68108051 0.68108051
 3 1.7318532  -1.6870105 -2.5862344 0.65881253 1.5040774 1.5040774 0.45555168 0.45555168
 5  1.732415  -1.6755725 -2.6379481 0.64971048 1.5040774 1.5040774 0.45667521 0.45667521
 8 1.7332137  -1.4986734 -3.0768942 0.47653531 1.5040774 1.5040774 0.45827257 0.45827257
14  1.731064  -1.5485047 -2.8768084 0.48189896 1.5040774 1.5040774 0.45397325 0.45397325
 1 1.7335205  -1.4538284 -3.2200334 0.46991452 1.5040774 1.5040774 0.45888619 0.45888619
18 1.7335975  -1.5701458 -3.6596817 0.51859359 1.5040774 1.5040774 0.45904022 0.45904022
 7 1.7335975  -1.8704569 -3.8311282  0.7945658 1.5040774 1.5040774 0.45904024 0.45904024
 1 1.7335975  -1.5015727 -3.7270094 0.61709078 1.5040774 1.5040774 0.45904024 0.45904024
 3  1.733585  -1.9959454 -3.0469205 0.51406361 1.5040774 1.5040774 0.45901524 0.45901524
 8 1.7335974  -1.3370266 -3.6679272 0.44480951 1.5040774 1.5040774 0.45904002 0.45904002
10 1.7317379  -1.5019372 -2.8669853 0.53753326 1.5040774 1.5040774 0.45532097 0.45532097
 1 1.7111407  -1.3551512 -1.7219842 0.75904922 1.5040774 1.5040774  0.4141267  0.4141267
 2 1.7230078 -0.90026663 -2.9249607 0.77662318 1.5040774 1.5040774 0.43786078 0.43786078
 1 1.7335283 -0.94976505 -3.2532479 0.68625091 1.5040774 1.5040774 0.45890182 0.45890182
 1 1.7335975 -0.88445168 -3.6686064 0.69916225 1.5040774 1.5040774 0.45904012 0.45904012
 6 1.7335974  -0.8518797  -3.643939 0.69658949 1.5040774 1.5040774 0.45904001 0.45904001
 1   1.73345 -0.93867687 -3.2128502 0.67728522 1.5040774 1.5040774 0.45874515 0.45874515
 4 1.7335975   -1.387109  -3.7114907  0.6442886 1.5040774 1.5040774  0.45904024  0.45904024
 4 1.7335975   -1.328434  -3.7227468 0.65992671 1.5040774 1.5040774  0.45904024  0.45904024
 4 1.7111972  -1.1342664  -2.6820235 0.68692855 1.5040774 1.5040774  0.41423965  0.41423965
 2 1.8677758  -1.3687746   -1.686875  0.7161682 1.5040774 1.5040774   0.7273969   0.7273969
 4 1.7179704  -1.6992257  -1.7299195 0.85059933 1.5040774 1.5040774  0.42778605  0.42778605
 7 1.7315799  -1.5758373 -0.92711461 0.84206676 1.5040774 1.5040774   0.4550051   0.4550051
 2 1.7330595  -1.3901205   0.1775033 0.73611612 1.5040774 1.5040774  0.45796417  0.45796417
 8 1.5466648  -1.3111832   -2.093367 0.61442532 1.5040774 1.5040774 0.085174866 0.085174866
 4 1.7317253  -1.8959807 -0.41098441 0.55892295 1.5040774 1.5040774  0.45529571  0.45529571
 5 1.8490643  -1.7991042 -0.36102845 0.59299436 1.5040774 1.5040774  0.68997382  0.68997382
 1 1.7324766  -1.8836519  -0.1044048 0.56800678 1.5040774 1.5040774  0.45679851  0.45679851
 2 1.7325549  -1.7472715 -0.30989355 0.51917965 1.5040774 1.5040774   0.4569551   0.4569551
 1 1.7333467   -1.213574  -3.2849646  0.4211994 1.5040774 1.5040774  0.45853857  0.45853857
 4 1.7335975  -1.2143406   -3.799003 0.61807309 1.5040774 1.5040774  0.45904024  0.45904024
 3 1.7335975  -1.1811478  -3.6774524 0.59252536 1.5040774 1.5040774   0.4590402   0.4590402
10 1.7332572  -1.0319408  0.23640552 0.82796296 1.5040774 1.5040774  0.45835958  0.45835958
 4 2.2811627 -0.96287744 -0.31661723 0.82611767 1.5040774 1.5040774   1.5541707   1.5541707
 6 1.7335972  -1.6218798  0.51736906 0.89936529 1.5040774 1.5040774  0.45903962  0.45903962
 4 1.7335974 -0.32050527  -3.9742752 0.47414437 1.5040774 1.5040774  0.45904007  0.45904007
 5 1.7135927 -0.71414706  -3.0989943 0.51603566 1.5040774 1.5040774  0.41903067  0.41903067
 6 1.7031831 -0.76646373 -3.0147285  0.5449693 1.5040774 1.5040774 0.39821148 0.39821148
 1 1.7330051 -0.76888173 -3.3396272 0.49869994 1.5040774 1.5040774 0.45785546 0.45785546
 1 1.7192648  -1.2527811 -2.8640833 0.50765359 1.5040774 1.5040774 0.43037472 0.43037472
 1 1.7335974  -1.1410737 -3.6338453  0.5676528 1.5040774 1.5040774 0.45904004 0.45904004
 3 1.7312759 -0.60212063 -3.2108495 0.62514587 1.5040774 1.5040774 0.45439708 0.45439708
 3 1.7335795 -0.66162777 -3.4729339 0.62989044 1.5040774 1.5040774 0.45900418 0.45900418
 2 1.7335975  -1.7033945 -3.6653238 0.84390751 1.5040774 1.5040774 0.45904024 0.45904024
 2 1.7335975  -1.7097438 -3.6855246 0.84258353 1.5040774 1.5040774 0.45904024 0.45904024
 9 1.7335966  -1.6833334 -3.2534022 0.65144631 1.5040774 1.5040774 0.45903847 0.45903847
 1 1.7334956  -1.7082462 -2.8838412 0.64619921 1.5040774 1.5040774 0.45883634 0.45883634
 1 1.7170388  -1.9674782 -2.0460533 0.54970463 1.5040774 1.5040774 0.42592286 0.42592286
 6 1.6925234  -1.9339903 -1.8932419 0.55628568 1.5040774 1.5040774   0.376892   0.376892
 7 1.7171552   -1.994664 -1.5398858  0.4820446 1.5040774 1.5040774 0.42615567 0.42615567
 2 1.7335974  -1.7577634  0.4989323 0.89276754 1.5040774 1.5040774 0.45904007 0.45904007
 2 1.7120837  -1.8932665 -2.0875144 0.55322131 1.5040774 1.5040774 0.41601252 0.41601252
11 1.6224445 -0.88188085 -2.7155449 0.62329702 1.5040774 1.5040774 0.23673428 0.23673428
 4 1.7334529  -1.8341977 0.76444629 0.71519812 1.5040774 1.5040774 0.45875104 0.45875104
 3 1.7334858  -1.8243869  0.8316829 0.71732272 1.5040774 1.5040774 0.45881683 0.45881683
 7  1.731003   -1.789695 0.90868746 0.72870437 1.5040774 1.5040774  0.4538512  0.4538512
 2 1.7335722  -1.5800555  0.6947896 0.79458327 1.5040774 1.5040774 0.45898954 0.45898954
 5 1.7335943  -1.5403687  0.4779384 0.80189772 1.5040774 1.5040774 0.45903382 0.45903382
 2 1.7335972  -1.9730743 0.79594542 0.81358005 1.5040774 1.5040774 0.45903954 0.45903954
 3 1.7335975  -1.6607431 -3.8307193 0.44095494 1.5040774 1.5040774 0.45904024 0.45904024
 9 1.7335975  -1.7402643 -3.6969317 0.44323101 1.5040774 1.5040774 0.45904023 0.45904023
 1 1.7335975  -1.4197101   -3.75245 0.41637957 1.5040774 1.5040774  0.4590402  0.4590402
 6 1.7335974  -1.3620132 -3.6039965 0.50481656 1.5040774 1.5040774 0.45903998 0.45903998
 3 1.7261489  -1.0876223 -2.8501871  0.6562922 1.5040774 1.5040774 0.44414293 0.44414293
 3 1.7263176  -1.1599505 -2.8695856 0.79931165 1.5040774 1.5040774  0.4444804  0.4444804
 3 1.7224256  -1.1625811  -2.825528 0.80332713 1.5040774 1.5040774 0.43669638 0.43669638
 1 1.7320048  -1.8826439 -1.5659156 0.89402102 1.5040774 1.5040774 0.45585477 0.45585477
 8 1.7335975 -0.31267005 -3.9441841 0.64641871 1.5040774 1.5040774  0.4590402  0.4590402
11 1.7335975 -0.31288226   -3.92722 0.64446953 1.5040774 1.5040774 0.45904018 0.45904018
 7 1.7335975  -1.3749735 -3.9523494 0.75952496 1.5040774 1.5040774 0.45904024 0.45904024
 3 1.7335943  -1.4936974 -3.2929126 0.71246855 1.5040774 1.5040774 0.45903386 0.45903386
 8 1.7335975  -1.4137342 -3.9945551 0.68469464 1.5040774 1.5040774 0.45904024 0.45904024
 1 1.7335975  -1.2821209  -3.910212 0.58221562 1.5040774 1.5040774 0.45904024 0.45904024
 2 1.7335975  -1.6962682 -3.8981175 0.50358486 1.5040774 1.5040774 0.45904024 0.45904024
 2 1.7335975  -1.9615862  -3.835156 0.44808619 1.5040774 1.5040774 0.45904024 0.45904024
 6 1.7175262  -1.8834678 -1.2523644 0.48347911 1.5040774 1.5040774 0.42689762 0.42689762
 5 1.7184781  -1.9225863 -1.2793879  0.4866405 1.5040774 1.5040774 0.42880131 0.42880131
 7 1.6262724  -1.7472819  -1.424642 0.52042519 1.5040774 1.5040774   0.2443901   0.2443901
 6 1.7263814  -1.7435511 -2.6328985 0.44007409 1.5040774 1.5040774    0.444608    0.444608
 5 1.6079912  -1.4079684 -2.3128514 0.56036832 1.5040774 1.5040774  0.20782762  0.20782762
 1 1.7335772 -0.65895515 -3.4251061 0.72330925 1.5040774 1.5040774  0.45899967  0.45899967
 6 1.7330794 -0.64663912 -3.3082459 0.59813127 1.5040774 1.5040774  0.45800402  0.45800402
11 1.7334746  -0.6458081  -3.386113 0.60813512 1.5040774 1.5040774  0.45879433  0.45879433
 1 1.7333804 -0.64500256 -3.3514997 0.61046796 1.5040774 1.5040774  0.45860599  0.45860599
 5 1.7335548 -0.58452393 -3.4653582 0.61344132 1.5040774 1.5040774  0.45895483  0.45895483
 1 1.7335975  -1.6620643 -3.7162024 0.65665796 1.5040774 1.5040774  0.45904024  0.45904024
16 1.7335951  -1.8499079 -3.1658235 0.87047952 1.5040774 1.5040774  0.45903546  0.45903546
 3 1.7335975  -1.7654412 -3.4318736 0.88150734 1.5040774 1.5040774  0.45904012  0.45904012
 4 1.7335975  -1.2753172 -3.8045576 0.78557345 1.5040774 1.5040774  0.45904024  0.45904024
 3 1.7335975  -1.2282524 -3.7696174 0.80450744 1.5040774 1.5040774  0.45904023  0.45904023
 2 1.7324272  -1.9898411 -2.3466762  0.8322805 1.5040774 1.5040774  0.45669967  0.45669967
 6 1.7335901  -1.8777319 -3.0776601 0.82061196 1.5040774 1.5040774  0.45902549  0.45902549
 7 1.7335975  -1.7649516 -3.9476828 0.54135523 1.5040774 1.5040774  0.45904024  0.45904024
 6 1.7065071  -1.8766465  -1.699895 0.45266279 1.5040774 1.5040774  0.40485934  0.40485934
 4 1.5282883  -1.3783763 -2.0439762 0.61309141 1.5040774 1.5040774 0.048421824 0.048421824
 1 1.5277782  -1.3732751 -2.0544035 0.61220321 1.5040774 1.5040774 0.047401695 0.047401695
 3 1.7335901  -1.4143493 -3.2220241 0.64481007 1.5040774 1.5040774  0.45902549  0.45902549
 4 1.7132073  -1.9559015  -1.9821679 0.56867085 1.5040774 1.5040774  0.4182598  0.4182598
 1 1.7329494  -1.6852025 -0.38199111 0.46453984 1.5040774 1.5040774 0.45774392 0.45774392
 1 1.7335974  -1.3433746  -3.6720391  0.4056045 1.5040774 1.5040774 0.45903991 0.45903991
 2 1.7335975 -0.74871029  -3.8746404 0.48170538 1.5040774 1.5040774 0.45904015 0.45904015
 5 1.7335829  -1.0260817  -3.4605125 0.50340858 1.5040774 1.5040774 0.45901103 0.45901103
 4 1.9365995 -0.47503857  -3.1023593 0.47183949 1.5040774 1.5040774 0.86504424 0.86504424
 4 2.1858469 -0.54254531   -2.858092 0.58978251 1.5040774 1.5040774  1.3635391  1.3635391
 4 3.3867386  -0.7449858  -2.4720432 0.66673436 1.5040774 1.5040774  3.7653225  3.7653225
 1 1.6576636  -1.2926186  -2.4320124 0.60989704 1.5040774 1.5040774  0.3071725  0.3071725
10 1.7335975   -0.970134  -3.9236108 0.59411463 1.5040774 1.5040774 0.45904024 0.45904024
 7 1.7335975 -0.90639703  -3.9296892 0.55817114 1.5040774 1.5040774 0.45904024 0.45904024
 1 1.7335362  -1.9151963  -2.9785167 0.49656539 1.5040774 1.5040774 0.45891763 0.45891763
 3 1.6799107  -1.9345156  -1.5790036 0.51372267 1.5040774 1.5040774  0.3516666  0.3516666
 2 2.6886896  -1.2055916  -1.8823338 0.74290936 1.5040774 1.5040774  2.3692243  2.3692243
 2 1.7335966  -1.1102117  -3.4804277 0.75056619 1.5040774 1.5040774 0.45903846 0.45903846
 4 1.7335969  -1.0193698  -3.4993559 0.69933575 1.5040774 1.5040774 0.45903901 0.45903901
 4 1.7335974  -1.0579718  -3.6742617 0.56624055 1.5040774 1.5040774 0.45904008 0.45904008
 1 1.7335975  -1.0304325  -3.8072414 0.57387353 1.5040774 1.5040774 0.45904023 0.45904023
 1 1.6728172   -1.204349  -2.5790522  0.7955223 1.5040774 1.5040774 0.33747955 0.33747955
 3 1.7335709  -1.7629664  -3.0398846 0.79803071 1.5040774 1.5040774  0.4589871  0.4589871
13  1.732165 -1.8414156   -2.5046692 0.87843269 1.5040774 1.5040774  0.45617524  0.45617524
 6 1.7296096 -1.4228022   -2.7300062 0.60576341 1.5040774 1.5040774  0.45106438  0.45106438
 3 1.7327511 -1.5167483   -2.8276253 0.60505883 1.5040774 1.5040774  0.45734738  0.45734738
 3 1.7335228 -1.5791609   -3.0151122 0.59712693 1.5040774 1.5040774  0.45889088  0.45889088
 2 1.7329291 -1.5315365   -2.8826637 0.57718889 1.5040774 1.5040774  0.45770337  0.45770337
 3 1.7333972 -1.5080792   -3.0111292 0.57125237 1.5040774 1.5040774  0.45863954  0.45863954
10 1.7090916  -1.964254   -1.9438539  0.5650762 1.5040774 1.5040774  0.41002841  0.41002841
 3 1.5331983 -1.5076063   -1.9403792 0.54057808 1.5040774 1.5040774 0.058241856 0.058241856
14 2.2486485 -1.6520431  -0.98143564 0.54919914 1.5040774 1.5040774   1.4891422   1.4891422
 1 1.7335975 -1.1283454   -3.8012667 0.55205073 1.5040774 1.5040774  0.45904023  0.45904023
 6 1.7335973  -0.882502   -3.6680733 0.59244841 1.5040774 1.5040774  0.45903988  0.45903988
 1  1.733483 -1.6784405   -2.9653591 0.79195215 1.5040774 1.5040774  0.45881129  0.45881129
 4 1.7316444 -1.6160187   -2.7110119 0.82550223 1.5040774 1.5040774  0.45513407  0.45513407
 2 1.6940939 -1.4591049   -2.4019812  0.7319129 1.5040774 1.5040774  0.38003309  0.38003309
 2 1.7352836 -1.5192465  -0.66076865 0.72456441 1.5040774 1.5040774  0.46241239  0.46241239
 3 1.7335835 -1.8351277 -0.036258028 0.73705485 1.5040774 1.5040774  0.45901213  0.45901213
38 1.7334444 -1.7832186    0.8662657 0.89743702 1.5040774 1.5040774  0.45873409  0.45873409
11 1.7335702 -1.6942902    0.9125516 0.83470455 1.5040774 1.5040774  0.45898552  0.45898552
 2 1.7466445 -1.5966914   0.35935226 0.67205168 1.5040774 1.5040774  0.48513424  0.48513424
 3  2.092057 -1.5117464   0.56644104 0.67333154 1.5040774 1.5040774   1.1759592   1.1759592
15 1.9431086   -1.324193 -0.77873066 0.44226843 1.5040774 1.5040774 0.87806234 0.87806234
 2 1.7213286  -1.3937684  -2.8430126 0.45914462 1.5040774 1.5040774 0.43450248 0.43450248
 4 1.7303053  -1.2771375  -3.0685543 0.42420934 1.5040774 1.5040774 0.45245581 0.45245581
11 1.7328764  -0.8762605  -3.3632316 0.40755469 1.5040774 1.5040774 0.45759805 0.45759805
 2 1.7172059  -1.5243423  -2.4754853 0.82281075 1.5040774 1.5040774 0.42625707 0.42625707
 1 1.6778755  -1.4539458  -2.2748229 0.84393811 1.5040774 1.5040774  0.3475963  0.3475963
 5 1.7333653  -1.1167368  -3.1637114 0.79972002 1.5040774 1.5040774 0.45857583 0.45857583
10 1.7333845  -1.1052545  -3.1722861 0.79276726 1.5040774 1.5040774 0.45861424 0.45861424
 2  1.733437  -1.6894791  -2.9219625 0.84965881 1.5040774 1.5040774 0.45871913 0.45871913
 2 1.7335968  -1.3449685   -3.444973 0.87142682 1.5040774 1.5040774 0.45903887 0.45903887
 7 1.7335648 -0.56706187  -3.5577491 0.52114672 1.5040774 1.5040774 0.45897484 0.45897484
 4 1.7335956 -0.44167967  -3.6404663 0.71781768 1.5040774 1.5040774  0.4590365  0.4590365
 9 1.7335953 -0.83489546  -3.4896771 0.75086647 1.5040774 1.5040774 0.45903576 0.45903576
 3 1.7335975 -0.72359955  -3.8900247 0.56530427 1.5040774 1.5040774 0.45904022 0.45904022
 5 1.7335959  -1.0137121  -3.5045441 0.59153564 1.5040774 1.5040774 0.45903692 0.45903692
26 1.7335975  -1.5274159  -3.9478189 0.68101671 1.5040774 1.5040774 0.45904024 0.45904024
 1 1.7335975  -1.5277331  -3.6723708  0.6804807 1.5040774 1.5040774 0.45904024 0.45904024
 3 1.7335975  -1.3402353  -3.8327099 0.76401993 1.5040774 1.5040774 0.45904024 0.45904024
 1 1.7335975  -1.4723277  -3.5672741 0.77537468 1.5040774 1.5040774 0.45904017 0.45904017
 1 1.7335767  -1.4170528   -3.213286 0.79805565 1.5040774 1.5040774 0.45899862 0.45899862
 4  1.728827   -1.659271  -2.5459101 0.80438195 1.5040774 1.5040774 0.44949929 0.44949929
 4  1.707731  -1.5613778  -2.2730819 0.86604166 1.5040774 1.5040774 0.40730714 0.40730714
 7 1.7331302  -1.4547407 -0.45620728 0.83094333 1.5040774 1.5040774 0.45810571 0.45810571
 2 1.7335975  -1.5836709  -3.8430006 0.75351741 1.5040774 1.5040774 0.45904024 0.45904024
 3 1.7335955  -1.9363786  -3.1307975 0.57604813 1.5040774 1.5040774 0.45903627 0.45903627
 4 1.7335975  -1.4585863  -3.9514529 0.48000359 1.5040774 1.5040774 0.45904024 0.45904024
 5  1.733485  -1.7413104  -3.0872011 0.42892218 1.5040774 1.5040774 0.45881529 0.45881529
 8  2.594183 -0.78789813  0.22479599 0.51342225 1.5040774 1.5040774  2.1802112  2.1802112
12 3.7858383 -0.74797855 -0.10557799  0.4134174 1.5040774 1.5040774  4.5635218  4.5635218
 1  1.733597  -0.4213573  -3.8816098 0.44043366 1.5040774 1.5040774 0.45903921 0.45903921
 7 1.7335024 -0.61444588  -3.3520126 0.80179151 1.5040774 1.5040774 0.45885006 0.45885006
 2 1.7325166 -0.64643461  -3.1875268 0.79503486 1.5040774 1.5040774 0.45687838 0.45687838
 1 1.7333794 -0.36787518  -3.4129408 0.69934338 1.5040774 1.5040774 0.45860395 0.45860395
16  1.730197 -0.48599935  -3.1781808 0.73572408 1.5040774 1.5040774  0.4522393  0.4522393
 5 1.7214413 -0.50676832   -3.068079 0.77315696 1.5040774 1.5040774 0.43472775 0.43472775
 1 1.7140067  -1.9405226  -1.5442929 0.69542427 1.5040774 1.5040774 0.41985868 0.41985868
 1 1.7331899  -1.8597456  -2.8074431 0.51582583 1.5040774 1.5040774 0.45822508 0.45822508
 7 1.7335975  -1.8649784  -3.5827254 0.57493532 1.5040774 1.5040774 0.45904024 0.45904024
 3 1.7335975   -1.956181  -3.6247079 0.51409538 1.5040774 1.5040774 0.45904024 0.45904024
 7 1.7335975  -1.8882367  -3.7389484 0.45469205 1.5040774 1.5040774 0.45904024 0.45904024
 9  1.732775  -1.2320328   -3.026633 0.81455127 1.5040774 1.5040774  0.45739529  0.45739529
 3  1.733441  -1.9789077 -0.82187962 0.76775393 1.5040774 1.5040774  0.45872719  0.45872719
12 1.7335821  -1.2372035  0.36025133 0.89724042 1.5040774 1.5040774  0.45900934  0.45900934
 2 1.7335975 -0.80915777  -3.8874114 0.73421876 1.5040774 1.5040774  0.45904024  0.45904024
12 1.8415108   -1.148983 0.020049478 0.52685855 1.5040774 1.5040774  0.67486685  0.67486685
 4 1.7335974 -0.70645823  -3.8843242 0.40817993 1.5040774 1.5040774  0.45903995  0.45903995
 1 1.7188554  -1.2362893  -2.8308038 0.53835773 1.5040774 1.5040774  0.42955592  0.42955592
 1 1.6873351 -0.61795598   -2.898999 0.78177275 1.5040774 1.5040774  0.36651546  0.36651546
 1 1.7270683 -0.36645527  -3.1960017 0.69703423 1.5040774 1.5040774  0.44598189  0.44598189
 9 1.7335134 -0.44121977  -3.4501895 0.66948344 1.5040774 1.5040774  0.45887199  0.45887199
 1 1.7315186  -1.6450663 -0.86696046 0.79156007 1.5040774 1.5040774   0.4548825   0.4548825
 1  1.731781  -1.7038289 -0.54983189 0.71457473 1.5040774 1.5040774  0.45540725  0.45540725
 6 1.7311957  -1.7139431  -2.6091708 0.57029698 1.5040774 1.5040774  0.45423658  0.45423658
 4 1.7158073  -1.7991439  -1.1718796 0.70982791 1.5040774 1.5040774  0.42345979  0.42345979
 2 1.7451069   -1.448561  -1.0832707 0.77127811 1.5040774 1.5040774  0.48205909  0.48205909
 5 1.7335927  -1.6454888 0.088786868 0.82016301 1.5040774 1.5040774  0.45903056  0.45903056
13 1.7334932  -1.2753178  0.65482984 0.83823612 1.5040774 1.5040774  0.45883157  0.45883157
 1 1.7335975  -1.2696331  -3.6492647 0.74346153 1.5040774 1.5040774   0.4590402   0.4590402
 3 1.7333605  -1.4013317  -3.1936669 0.43717188 1.5040774 1.5040774  0.45856614  0.45856614
 8 1.5311131  -1.4837672  -2.0756851 0.45454088 1.5040774 1.5040774 0.054071348 0.054071348
 1 1.7148238   -1.499912  -1.7682591 0.45044435 1.5040774 1.5040774   0.4214929   0.4214929
 2 3.7750048   -1.163247  -1.3580751 0.82860666 1.5040774 1.5040774   4.5418549   4.5418549
 3 1.5235399  -1.2473545  -2.1801425 0.81933843 1.5040774 1.5040774 0.038924911 0.038924911
 1 1.6755266  -1.5032662  -1.9210218 0.87443893 1.5040774 1.5040774  0.34289846  0.34289846
 4 1.7142404  -1.9217594  -1.2756858 0.68576489 1.5040774 1.5040774  0.42032599  0.42032599
 1 1.7331833  -1.8319584 -0.64901745 0.42666768 1.5040774 1.5040774  0.45821171  0.45821171
 3 1.7329317  -1.8143253 -0.68566904 0.43530933 1.5040774 1.5040774  0.45770857  0.45770857
14 1.7303464  -1.9511954 -0.93299874 0.49002373 1.5040774 1.5040774  0.45253807  0.45253807
 4 1.7335342  -1.9600593 -0.33561606 0.46366022 1.5040774 1.5040774  0.45891356  0.45891356
 3 1.7321388  -1.8143093 -0.43736722 0.53897825 1.5040774 1.5040774  0.45612282  0.45612282
 8 1.7332879  -1.9939509 -0.76055897 0.44883987 1.5040774 1.5040774  0.45842107  0.45842107
 2 1.7407733 -0.88562653 0.086274166 0.86936401 1.5040774 1.5040774  0.47339174  0.47339174
 8 1.9475509 -0.20404485  -3.0741827 0.67884298 1.5040774 1.5040774  0.88694706  0.88694706
 3 1.7948565 -0.92465199  0.45397629 0.80223048 1.5040774 1.5040774  0.58155823  0.58155823
 1 1.7335975  -1.6055111   -3.501896 0.69840033 1.5040774 1.5040774  0.45904015  0.45904015
15   1.73348  -1.9571972  -2.7642009 0.86239164 1.5040774 1.5040774  0.45880522  0.45880522
21 1.7335961  -1.9745442    -3.15037 0.83350646 1.5040774 1.5040774  0.45903747  0.45903747
14 1.7335968  -1.9848771   -3.191001 0.85101608 1.5040774 1.5040774  0.45903885  0.45903885
18 1.7335509  -1.9908446  -2.8430313 0.85395766 1.5040774 1.5040774  0.45894693  0.45894693
 6  1.626584  -1.6688034  -2.0012327 0.45302035 1.5040774 1.5040774  0.24501312  0.24501312
 5 3.5749324 -1.1855048   -2.1186915 0.56637089 1.5040774 1.5040774    4.14171    4.14171
 1 1.6658024 -1.3224872   -2.6036613 0.51588143 1.5040774 1.5040774 0.32345004 0.32345004
 2 1.7334788 -1.7793033   -2.8332223 0.61189958 1.5040774 1.5040774 0.45880278 0.45880278
 2 1.7334829 -1.7798416   -2.8368474 0.61124335 1.5040774 1.5040774 0.45881097 0.45881097
 2 1.7335975 -1.9300885    -3.841576  0.5878476 1.5040774 1.5040774 0.45904024 0.45904024
 3 1.7335975  -1.883255   -3.3981824  0.7573153 1.5040774 1.5040774 0.45904012 0.45904012
 1 1.7335975 -1.4229305   -3.8731129 0.58757317 1.5040774 1.5040774 0.45904024 0.45904024
 8 1.7333158 -1.8381137 -0.096347317 0.52317076 1.5040774 1.5040774 0.45847674 0.45847674
17 1.7327534 -1.6613777  -0.17939573 0.52158968 1.5040774 1.5040774 0.45735208 0.45735208
 6 1.6396191 -1.8436337   -1.7686237 0.59351339 1.5040774 1.5040774 0.27108342 0.27108342
 3 1.6672074 -1.7218931   -2.0785512  0.5560562 1.5040774 1.5040774 0.32625998 0.32625998
 3  1.663396 -1.7618164   -2.0195108 0.55372438 1.5040774 1.5040774 0.31863725 0.31863725
 4 1.7313469 -1.9090412   -2.3923218 0.57747945 1.5040774 1.5040774 0.45453893 0.45453893
 1 1.7253482 -1.7693131   -2.3021156 0.59329162 1.5040774 1.5040774 0.44254169 0.44254169
 5 1.7257697 -1.7846419   -2.2617192 0.60818298 1.5040774 1.5040774 0.44338467 0.44338467
11 1.6807795 -1.7844302   -1.9925219 0.57978778 1.5040774 1.5040774 0.35340417 0.35340417
13 1.7335968 -1.9408149   0.04174323 0.78925849 1.5040774 1.5040774 0.45903886 0.45903886
 4 1.7337324 -1.7075561   0.46841504 0.81657184 1.5040774 1.5040774 0.45931007 0.45931007
 4 2.1439072 -1.4952713   0.35648883 0.53248823 1.5040774 1.5040774  1.2796596  1.2796596
 2 1.7236701 -1.9045532    -1.940611 0.75095994 1.5040774 1.5040774 0.43918547 0.43918547
17 1.7335794  -1.7871036  0.83255649 0.78248303 1.5040774 1.5040774 0.45900396 0.45900396
13  1.733929  -1.6900086  0.18598082 0.68937904 1.5040774 1.5040774 0.45970321 0.45970321
 4 1.7335906  -1.8671777  0.64072532 0.71671005 1.5040774 1.5040774 0.45902639 0.45902639
 5 1.7335565  -1.8882673  0.71196775 0.71570992 1.5040774 1.5040774 0.45895829 0.45895829
13 2.2283335  -1.7578913  0.68175796 0.63942968 1.5040774 1.5040774  1.4485122  1.4485122
 2 1.7334374   -1.929753  -2.6806545  0.6316892 1.5040774 1.5040774 0.45872007 0.45872007
 5 1.7227325  -1.4918324  -1.1358937 0.79238253 1.5040774 1.5040774 0.43731027 0.43731027
 1 1.7332937  -1.7711093 -0.86220666 0.84295904 1.5040774 1.5040774  0.4584326  0.4584326
 1 1.7335906  -1.8496992 -0.27719579 0.81440522 1.5040774 1.5040774 0.45902642 0.45902642
 3 1.7333684   -1.988872 -0.71267263 0.72572428 1.5040774 1.5040774 0.45858209 0.45858209
 7 1.7335975  -1.6951444   -3.536302 0.86379282 1.5040774 1.5040774 0.45904021 0.45904021
 1 1.7335975    -1.65164  -3.6350665 0.81696783 1.5040774 1.5040774 0.45904023 0.45904023
 1 1.7335974  -1.8546897   -3.366669 0.79300249 1.5040774 1.5040774 0.45904001 0.45904001
 2 1.7335684  -1.7980844  -0.3626719 0.79535753 1.5040774 1.5040774 0.45898205 0.45898205
 1 1.7258672  -1.8383355 -0.77271069 0.68146163 1.5040774 1.5040774 0.44357969 0.44357969
 5 1.7335975  -1.9951648  -3.7979044 0.81943253 1.5040774 1.5040774 0.45904024 0.45904024
 1 1.7334641  -1.9153164  -2.7982504 0.79466786 1.5040774 1.5040774 0.45877336 0.45877336
 6  1.733444  -1.9684759  -2.7433627 0.77769371 1.5040774 1.5040774 0.45873324 0.45873324
 2 1.7335516 -0.84952086  -3.3579428 0.86719052 1.5040774 1.5040774 0.45894832 0.45894832
18 1.7335975 -0.89451656  -3.9626494 0.89854913 1.5040774 1.5040774 0.45904024 0.45904024
 2 1.7321952 -1.3931446 -0.74879644 0.86657582 1.5040774 1.5040774 0.45623554 0.45623554
 1 1.7322199 -1.3979413 -0.73490732  0.8702319 1.5040774 1.5040774 0.45628507 0.45628507
 4 1.7316027 -1.8937122   -1.369364 0.81244424 1.5040774 1.5040774 0.45505065 0.45505065
 7 1.7333513 -1.9893814  -1.0810204  0.8101862 1.5040774 1.5040774 0.45854785 0.45854785
17 1.7769654 -1.8663781 -0.45234215  0.6231878 1.5040774 1.5040774 0.54577596 0.54577596
 4 1.6476492 -1.8787284 -0.47599491 0.63600574 1.5040774 1.5040774 0.28714362 0.28714362
 5 1.7327596 -1.8203974  0.67909031  0.8109994 1.5040774 1.5040774 0.45736439 0.45736439
 6 1.7335877 -1.7992598  0.92957235 0.88453665 1.5040774 1.5040774 0.45902056 0.45902056
 1 1.7335924 -1.7877527  0.91959121 0.87979733 1.5040774 1.5040774 0.45902994 0.45902994
 2 1.7270543 -1.9584732  -2.0632363 0.63909984 1.5040774 1.5040774 0.44595374 0.44595374
 1 1.5982783 -1.5784638   -2.129568  0.5408133 1.5040774 1.5040774  0.1884019  0.1884019
 1 1.7228061 -1.6298512  -2.5539501 0.53464407 1.5040774 1.5040774 0.43745738 0.43745738
 6 1.7148623 -1.7858178  -2.2219419 0.56327115 1.5040774 1.5040774 0.42156989 0.42156989
 2 1.7335952   -1.76668  -3.2525348 0.53646259 1.5040774 1.5040774 0.45903558 0.45903558
 6 1.7241749 -1.6389462  -2.7199686  0.4187255 1.5040774 1.5040774 0.44019506 0.44019506
 1 1.7244748 -1.6365331  -2.7239587 0.42150193 1.5040774 1.5040774 0.44079484 0.44079484
 8 1.6730097 -1.5564663  -2.4875844 0.42092727 1.5040774 1.5040774 0.33786454 0.33786454
 1 1.6933413 -1.8052658  -1.3898433 0.48470374 1.5040774 1.5040774 0.37852774 0.37852774
 4 1.8200406 -1.3834993  -1.7988037 0.65414238 1.5040774 1.5040774 0.63192647 0.63192647
 5 1.7067635 -1.3873451  -1.8402986  0.6489204 1.5040774 1.5040774 0.40537223 0.40537223
 2 1.5880566  -1.5291153  -1.6274658 0.72983523 1.5040774 1.5040774   0.1679585   0.1679585
 8 1.6853958  -1.6370586  -1.4990779 0.75904094 1.5040774 1.5040774   0.3626368   0.3626368
 8 1.5241653  -1.2404787   -2.455303 0.50332754 1.5040774 1.5040774 0.040175852 0.040175852
 5 1.6831112  -1.2560737  -2.7571971   0.476362 1.5040774 1.5040774  0.35806766  0.35806766
11 1.7331314 -0.75766362  -3.2409712 0.86399483 1.5040774 1.5040774  0.45810808  0.45810808
 4 1.7335975 -0.94028568  -3.9602224 0.70323384 1.5040774 1.5040774  0.45904024  0.45904024
 8 1.7119823   -1.481611  -2.7570636  0.4108801 1.5040774 1.5040774  0.41580974  0.41580974
 3 2.3538973  -1.3695824  -1.9483506 0.46860819 1.5040774 1.5040774   1.6996399   1.6996399
 3 1.7310366  -1.9306609  -1.3421283 0.40198504 1.5040774 1.5040774  0.45391832  0.45391832
 4 1.7125064  -1.2514602  -2.6847616 0.75327391 1.5040774 1.5040774    0.416858    0.416858
 1 1.7317962  -1.2911101  -2.8655892   0.644913 1.5040774 1.5040774   0.4554377   0.4554377
 8 1.7335684 -0.58617481  -3.4753539  0.6294047 1.5040774 1.5040774  0.45898205  0.45898205
 9 1.6649201 -0.61170363  -2.9061652 0.62463834 1.5040774 1.5040774  0.32168549  0.32168549
 4 1.7335975  -1.4231628  -3.7462273 0.78550179 1.5040774 1.5040774  0.45904024  0.45904024
12 1.7321663  -1.5287508 -0.63520233 0.78812217 1.5040774 1.5040774  0.45617771  0.45617771
 3 1.7331777  -1.5388507 -0.43535508 0.79814516 1.5040774 1.5040774  0.45820071  0.45820071
 4 1.6737129  -1.6530352   -2.006358 0.72920064 1.5040774 1.5040774  0.33927103  0.33927103
 9 1.7300478  -1.7128235  -1.0287752 0.77862802 1.5040774 1.5040774  0.45194076  0.45194076
 4 1.7335887  -1.5379733  -3.2147621 0.71894558 1.5040774 1.5040774  0.45902255  0.45902255
 7 1.6616873  -1.1133229  -2.6204974 0.89191533 1.5040774 1.5040774  0.31521973  0.31521973
 1 3.4825547 -1.1792718 -1.7020386 0.80264284 1.5040774 1.5040774  3.9569545  3.9569545
 4 2.0448634 -1.2393432 -1.2690368 0.84691091 1.5040774 1.5040774  1.0815719  1.0815719
 9  1.733609 -1.2462057 0.18945946 0.81864359 1.5040774 1.5040774 0.45906319 0.45906319
 1 1.7334323 -1.2390677 0.16325944 0.82930298 1.5040774 1.5040774 0.45870974 0.45870974
 6 1.7335392 -1.6187899 0.99291422 0.85656701 1.5040774 1.5040774 0.45892367 0.45892367
11 1.7259351 -1.6141039 0.97596434 0.85744886 1.5040774 1.5040774  0.4437155  0.4437155
 2 1.7328494 -1.3980319 -0.5202365 0.84210752 1.5040774 1.5040774 0.45754403 0.45754403
 2 1.7996707   -1.23292 -0.4322231 0.77258071 1.5040774 1.5040774 0.59118653 0.59118653
 1 1.7504198 -1.3252791 -1.2685014 0.87265098 1.5040774 1.5040774 0.49268482 0.49268482
 1 1.7210393 -1.3975083 -1.3423148 0.84589155 1.5040774 1.5040774 0.43392376 0.43392376
 4 1.8601376 -1.4948385 -1.3009519 0.69599455 1.5040774 1.5040774 0.71212046 0.71212046
 3 2.4986848 -1.4599852 -1.3618699 0.67918274 1.5040774 1.5040774  1.9892148  1.9892148
 2 1.6506351 -1.9370493 -1.4553268 0.53607255 1.5040774 1.5040774 0.29311533 0.29311533
 5 1.6386595 -1.7859321 -1.6361881 0.65702591 1.5040774 1.5040774 0.26916414 0.26916414
 1 1.7081375 -1.8856791 -1.2733443 0.68637514 1.5040774 1.5040774 0.40812012 0.40812012
 1 1.7334111 -1.4046209 -3.0939645 0.55370125 1.5040774 1.5040774 0.45866745 0.45866745
 2 1.7335975 -1.2977297  -3.800936  0.6544726 1.5040774 1.5040774 0.45904024 0.45904024
 1 1.7328075 -1.0126806 -3.1197158 0.83432155 1.5040774 1.5040774 0.45746015 0.45746015
 5 1.7335931 -1.0204149 -3.4438597 0.85844402 1.5040774 1.5040774 0.45903137 0.45903137
 9 1.7335973    -1.1239 -3.5725722 0.88362211 1.5040774 1.5040774 0.45903974 0.45903974
 1 1.7335974  -1.1877997  -3.6083631 0.88003875 1.5040774 1.5040774  0.45904006  0.45904006
 2 1.7335975  -1.1666721  -3.7180919   0.857925 1.5040774 1.5040774  0.45904021  0.45904021
 3 1.7335975   -1.330299  -3.6796983 0.74056773 1.5040774 1.5040774  0.45904022  0.45904022
 2 1.6068322  -1.7651928  -1.2949705 0.66199391 1.5040774 1.5040774  0.20550959  0.20550959
 1 1.5351631  -1.8258184  -1.5811331 0.59359768 1.5040774 1.5040774 0.062171441 0.062171441
 2 1.6566241  -1.7471571  -1.8888412 0.61511708 1.5040774 1.5040774   0.3050934   0.3050934
 7 1.7107546  -1.7686145  -2.1458483 0.58661682 1.5040774 1.5040774   0.4133544   0.4133544
 2 1.6721115  -1.6972979  -1.9404081 0.64551824 1.5040774 1.5040774  0.33606813  0.33606813
 7 1.7335236 -0.96734958  -3.3060389 0.58951542 1.5040774 1.5040774  0.45889239  0.45889239
 1 1.7334468   -1.236114  -3.1093801 0.62630502 1.5040774 1.5040774  0.45873888  0.45873888
 2 1.7323142  -1.6604377 -0.55234368 0.44811362 1.5040774 1.5040774   0.4564737   0.4564737
 4 1.7335975  -1.3412397  -3.9121559 0.88072741 1.5040774 1.5040774  0.45904024  0.45904024
 1  1.732143  -1.9688965  -2.3527553 0.81026144 1.5040774 1.5040774  0.45613114  0.45613114
 6 1.7326266  -1.9859663   -2.416615 0.81384234 1.5040774 1.5040774  0.45709841  0.45709841
 7 1.7334366  -1.7180048  -2.9110641 0.80159004 1.5040774 1.5040774  0.45871831  0.45871831
 7 1.7332863  -1.6901309  -2.8642884 0.81015045 1.5040774 1.5040774  0.45841788  0.45841788
 3  1.508592  -1.6342755  -1.7704126 0.57612653 1.5040774 1.5040774 0.009029298 0.009029298
 4 1.7335975  -1.4468346  -3.6073516 0.59119105 1.5040774 1.5040774  0.45904021  0.45904021
 6 1.7335968  -1.8829024  -3.3677906 0.43323159 1.5040774 1.5040774  0.45903888  0.45903888
15 1.7322804  -1.9246551  -2.4862334 0.69349117 1.5040774 1.5040774  0.45640593  0.45640593
 1 1.7335975  -1.5335767   -3.6694321 0.55761256 1.5040774 1.5040774 0.45904023 0.45904023
 1  1.733597  -1.4497856   -3.4677556 0.54124294 1.5040774 1.5040774 0.45903929 0.45903929
 1 1.7335975  -1.4201623   -3.7506901 0.50768658 1.5040774 1.5040774 0.45904023 0.45904023
 6 1.7335973  -1.5109513    -3.531539 0.48817827 1.5040774 1.5040774 0.45903976 0.45903976
 5  1.656693  -1.3300226   -2.1774542 0.49905463 1.5040774 1.5040774 0.30523114 0.30523114
 1 1.6771934  -1.3397959   -2.1536502 0.49986439 1.5040774 1.5040774 0.34623199 0.34623199
 2 1.7016971  -1.3694179   -2.6319345 0.54000452 1.5040774 1.5040774  0.3952395  0.3952395
 2 1.7000644  -1.6772222   -2.1676751 0.68986286 1.5040774 1.5040774 0.39197399 0.39197399
 1 1.5830087  -1.2248384   -2.3707291 0.75634159 1.5040774 1.5040774 0.15786254 0.15786254
 2 1.7335485  -1.0941383   -3.2181657 0.69687062 1.5040774 1.5040774 0.45894216 0.45894216
12 1.7343623  -1.4513846  -0.53831073 0.44753042 1.5040774 1.5040774 0.46056971 0.46056971
 1 1.7321689   -1.920383   0.66647732 0.40101833 1.5040774 1.5040774 0.45618307 0.45618307
 6 1.7352501  -1.9869266   0.45915215 0.42148755 1.5040774 1.5040774 0.46234548 0.46234548
 3 2.3553686  -1.5469032   -1.6556937 0.58722596 1.5040774 1.5040774  1.7025824  1.7025824
 8 1.7435569 -0.59639413   -3.0559475 0.48001823 1.5040774 1.5040774 0.47895895 0.47895895
24 2.1116994 -0.85398985 -0.021556967 0.43916068 1.5040774 1.5040774  1.2152441  1.2152441
 9  2.104418 -0.85756721 -0.021420517 0.44064628 1.5040774 1.5040774  1.2006812  1.2006812
11 1.5694499  -1.7161412   -1.5375761 0.57602615 1.5040774 1.5040774 0.13074491 0.13074491
11 1.5847497  -1.7173735   -1.5184043 0.57125059 1.5040774 1.5040774 0.16134452 0.16134452
 5 1.7335969  -1.5253218   0.60805379 0.87411185 1.5040774 1.5040774 0.45903894 0.45903894
 2 1.8237035  -1.4453729  0.61486515 0.81224092 1.5040774 1.5040774 0.63925216 0.63925216
 2 1.8787038  -1.3242932 -0.97509019 0.78694238 1.5040774 1.5040774 0.74925276 0.74925276
 7 1.7335907  -1.7818349 -0.30624175 0.86122812 1.5040774 1.5040774 0.45902667 0.45902667
 4 1.7335961  -1.7185411  0.60280513 0.81459366 1.5040774 1.5040774 0.45903734 0.45903734
 2 1.7335972   -1.892685  0.15783931 0.81611173 1.5040774 1.5040774 0.45903955 0.45903955
 4 1.6692767  -1.6027287  -1.0367773  0.6813821 1.5040774 1.5040774 0.33039853 0.33039853
 1 1.7275492  -1.7866372  -2.2864988 0.65206932 1.5040774 1.5040774 0.44694362 0.44694362
 3 1.7326646  -1.5764213  -2.8286493 0.74680635 1.5040774 1.5040774 0.45717447 0.45717447
 5 1.7335957  -1.8509041  -3.1818139 0.67066399 1.5040774 1.5040774 0.45903653 0.45903653
 9 1.7122424  -1.9928115  -1.9419504 0.50583934 1.5040774 1.5040774 0.41632993 0.41632993
 3 1.7267696  -1.8039471  -1.6954712 0.84841756 1.5040774 1.5040774 0.44538443 0.44538443
 2 1.7332253  -1.6616403 -0.35643371 0.74467434 1.5040774 1.5040774 0.45829576 0.45829576
 4 1.6070925  -1.7409263  -1.4176113 0.54135267 1.5040774 1.5040774 0.20603029 0.20603029
 2  1.625166  -1.7691556  -1.3364267 0.54231631 1.5040774 1.5040774 0.24217726 0.24217726
 4 1.7319801  -1.8541419  -2.4551329 0.88698296 1.5040774 1.5040774  0.4558055  0.4558055
 2 1.7395619   -1.490572 -0.56558302 0.72097813 1.5040774 1.5040774 0.47096898 0.47096898
11 1.7335948 -0.24550261  -3.7031475 0.74483648 1.5040774 1.5040774 0.45903483 0.45903483
 5  1.733593 -0.52511444  -3.5782268 0.66806776 1.5040774 1.5040774 0.45903125 0.45903125
 5 1.7307556 -0.68499562  -3.1082036 0.79329378 1.5040774 1.5040774 0.45335631 0.45335631
 4 1.7335247 -0.57962574  -3.4049308 0.89983283 1.5040774 1.5040774 0.45889456 0.45889456
 3 1.6437303 -0.52582476   -2.8613447 0.83634804 1.5040774 1.5040774  0.2793058  0.2793058
12 1.7335975 -0.21243122   -3.9799074 0.84045836 1.5040774 1.5040774 0.45904018 0.45904018
 5 1.7335711 -0.80954528   -3.4030803 0.88761578 1.5040774 1.5040774 0.45898741 0.45898741
 1  1.715698 -0.99316812   -2.8704388 0.83501471 1.5040774 1.5040774  0.4232413  0.4232413
 5 1.7322154  -1.4189797   -2.9230365 0.55378527 1.5040774 1.5040774 0.45627609 0.45627609
 1 1.7329715  -1.4673184   -2.9522944 0.56222619 1.5040774 1.5040774 0.45778812 0.45778812
 4 1.8464182  -1.1723575  -0.26126917 0.47585095 1.5040774 1.5040774 0.68468159 0.68468159
 3   1.78341  -1.1838099  -0.20656849 0.47306868 1.5040774 1.5040774 0.55866518 0.55866518
 6 1.7331956  -1.1444811   -3.1171814 0.88474317 1.5040774 1.5040774 0.45823643 0.45823643
 2 1.7326273  -1.7287529  -0.35237725   0.524613 1.5040774 1.5040774 0.45709972 0.45709972
13  1.732806  -1.8649624 -0.041757129 0.56085136 1.5040774 1.5040774 0.45745714 0.45745714
 2 1.7335973  -1.9468806   0.36580893 0.76252336 1.5040774 1.5040774 0.45903979 0.45903979
 5 1.7335966  -1.9599928 -0.074474803 0.80542158 1.5040774 1.5040774 0.45903841 0.45903841
 1 1.7335853  -1.9505569  -0.57103886 0.83722855 1.5040774 1.5040774 0.45901583 0.45901583
 1  1.773887  -1.6634807  -0.42803515 0.55340564 1.5040774 1.5040774 0.53961917 0.53961917
 2 1.7335975   -1.990191   -3.6957946 0.40090713 1.5040774 1.5040774 0.45904024 0.45904024
 7 1.7335975  -1.8780889   -3.9726978 0.41065225 1.5040774 1.5040774 0.45904024 0.45904024
 5 2.4154105  -1.3399334   -1.7446811 0.66740425 1.5040774 1.5040774  1.8226662  1.8226662
 1 1.6641021  -1.5578212   -1.7241196 0.79750985 1.5040774 1.5040774 0.32004947 0.32004947
 1 1.6664712  -1.5937183   -1.8457035 0.78540531 1.5040774 1.5040774 0.32478769 0.32478769
 1 1.7335975  -1.0754671  -3.7004342 0.84360862 1.5040774 1.5040774 0.45904018 0.45904018
 5  1.744672  -1.3922667  0.97983854 0.83847941 1.5040774 1.5040774 0.48118927 0.48118927
 3 1.7334013    -1.72753 -0.44040893 0.76004098 1.5040774 1.5040774 0.45864789 0.45864789
 2 1.8022033  -1.2158616 -0.43801437 0.77968048 1.5040774 1.5040774 0.59625189 0.59625189
11 1.7420457   -1.237682 -0.30754905 0.78571894 1.5040774 1.5040774 0.47593653 0.47593653
11  1.733807  -1.0817824   0.7406822 0.88616509 1.5040774 1.5040774 0.45945917 0.45945917
 2 1.7310526  -1.0577292  0.73975592 0.88831808 1.5040774 1.5040774 0.45395036 0.45395036
 8 1.7366695  -1.1495105 -0.21023601 0.82346378 1.5040774 1.5040774 0.46518412 0.46518412
 5 1.6890769  -1.2054252  -2.7569441 0.51709924 1.5040774 1.5040774 0.36999906 0.36999906
 2 1.7335613  -1.3126682  -3.2828403  0.5201652 1.5040774 1.5040774 0.45896779 0.45896779
 1 1.7246535  -1.6194605  -1.3662791 0.85790462 1.5040774 1.5040774 0.44115227 0.44115227
 3 1.7333978  -1.8344958 -0.81699971 0.81928016 1.5040774 1.5040774  0.4586408  0.4586408
 2  1.732749  -1.7408584 -0.91960122  0.8144257 1.5040774 1.5040774 0.45734321 0.45734321
10 1.7335952   -1.842867 -0.22434701 0.86016061 1.5040774 1.5040774 0.45903561 0.45903561
 2 1.6209056 -0.57144037  -2.7241483 0.77396303 1.5040774 1.5040774 0.23365645 0.23365645
10 4.6354303    -0.76941  -2.2998575 0.75497196 1.5040774 1.5040774  6.2627058  6.2627058
12 2.8329057 -0.54339356  -2.7050899 0.67054947 1.5040774 1.5040774  2.6576567  2.6576567
 3 1.7333157 -0.71448131   -3.245686 0.73626547 1.5040774 1.5040774 0.45847653 0.45847653
 1 1.7335909 -0.44009046  -3.5680069 0.88244488 1.5040774 1.5040774 0.45902706 0.45902706
 5 1.7335975  -0.7423836  -3.9349689 0.85532325 1.5040774 1.5040774 0.45904024 0.45904024
 4 1.7335975 -0.76356878  -3.7716197 0.88617425 1.5040774 1.5040774  0.45904017  0.45904017
14 1.7267017 -0.30285004  -3.1034644 0.67045841 1.5040774 1.5040774  0.44524852  0.44524852
 8 1.7334819 -0.36307029  -3.5807894 0.47284708 1.5040774 1.5040774  0.45880911  0.45880911
 6 1.7921942 -0.49716645  -3.0862334 0.50296808 1.5040774 1.5040774  0.57623364  0.57623364
 5 1.7258409  -1.7487977  -2.2940052 0.83365128 1.5040774 1.5040774  0.44352705  0.44352705
 5 1.6885777  -1.5817956  -1.7895574 0.83348612 1.5040774 1.5040774  0.36900061  0.36900061
17 1.7335969  -1.9701534  0.65800396 0.79293197 1.5040774 1.5040774    0.459039    0.459039
 5 1.7127645  -1.3620143  -2.6076043 0.76338937 1.5040774 1.5040774  0.41737429  0.41737429
 3 1.5433368  -1.0107414  -2.3086483 0.69733413 1.5040774 1.5040774 0.078518876 0.078518876
 5 1.6703871  -1.2344098  -2.3413345 0.47825567 1.5040774 1.5040774  0.33261937  0.33261937
 1 1.5361922   -1.187548  -2.4541988 0.50126946 1.5040774 1.5040774 0.064229679 0.064229679
 2 1.5371711  -1.1874807   -2.452686 0.50131377 1.5040774 1.5040774 0.066187499 0.066187499
 4 1.7335974 -0.65656539  -3.6936371 0.75681103 1.5040774 1.5040774  0.45903997  0.45903997
 2 1.7323219 -0.63191407  -3.1883645 0.81544445 1.5040774 1.5040774  0.45648908  0.45648908
 7 1.7332081 -0.54448994  -3.2906792 0.81174856 1.5040774 1.5040774  0.45826146  0.45826146
 1 1.7332204 -0.73368669   -3.231422 0.79759862 1.5040774 1.5040774  0.45828591  0.45828591
13 1.7335974 -0.65216758  -3.6964942 0.70916647 1.5040774 1.5040774  0.45903995  0.45903995
28  1.733597  -0.4052068  -3.7324978 0.67201727 1.5040774 1.5040774  0.45903914  0.45903914
 9  1.733462  -1.3977126 -0.30745288 0.89552705 1.5040774 1.5040774  0.45876912  0.45876912
 4 1.7222406  -1.6214573  -2.4527549 0.74263341 1.5040774 1.5040774  0.43632638  0.43632638
 4 1.7128333 -1.6205522   -2.3273598 0.76128942 1.5040774 1.5040774 0.41751179 0.41751179
 3 1.6516178 -1.3874868    -1.792885 0.89425884 1.5040774 1.5040774 0.29508083 0.29508083
 3 1.6125161 -1.3967095   -1.8591498 0.84315571 1.5040774 1.5040774 0.21687731 0.21687731
 2 1.7303361 -1.4116705   -2.8007746 0.84342217 1.5040774 1.5040774 0.45251749 0.45251749
 7 1.7309697 -1.4768881    -2.769898 0.89263887 1.5040774 1.5040774 0.45378467 0.45378467
 2  1.733476 -1.5750284   -3.0082247 0.86543345 1.5040774 1.5040774 0.45879722 0.45879722
 1 1.7334663 -1.5964837   -2.9897598  0.8699716 1.5040774 1.5040774 0.45877788 0.45877788
 9 1.7334513 -1.7152955   -2.9202214 0.81294408 1.5040774 1.5040774 0.45874775 0.45874775
 1 1.7237944 -1.7439168   -1.1454887 0.74454907 1.5040774 1.5040774 0.43943411 0.43943411
 8 1.7335939 -1.9839925  0.079097858 0.44022833 1.5040774 1.5040774 0.45903305 0.45903305
 2 1.7335966 -1.9804838  0.011123796 0.44786723 1.5040774 1.5040774 0.45903847 0.45903847
 1 1.7335904  -1.980159 0.0013833776 0.44771966 1.5040774 1.5040774 0.45902602 0.45902602
 4 1.7330592 -1.6636091  -0.32390544 0.46111511 1.5040774 1.5040774 0.45796365 0.45796365
10 1.7335707  -1.775028 -0.089502692 0.40286261 1.5040774 1.5040774 0.45898651 0.45898651
14 1.7335739 -1.7736374  -0.10346901 0.40173264 1.5040774 1.5040774   0.458993   0.458993
 9 1.7333691  -1.490071    0.6906621  0.7452818 1.5040774 1.5040774 0.45858343 0.45858343
 5 1.8269455 -1.5392234   0.59564423 0.75452134 1.5040774 1.5040774 0.64573613 0.64573613
 9 1.7458376 -1.6076709   0.41073912 0.57693818 1.5040774 1.5040774 0.48352034 0.48352034
 3 1.7358835 -1.3714516  -0.28732448 0.74311434 1.5040774 1.5040774 0.46361219 0.46361219
 1 1.7334366 -1.6592714  -0.20142152 0.74495727 1.5040774 1.5040774 0.45871847 0.45871847
1 1.7331252 -1.6053268 -0.39656121 0.76064789 1.5040774 1.5040774 0.45809565 0.45809565
4 1.9673634 -1.5786743  0.64290991 0.86774469 1.5040774 1.5040774 0.92657206 0.92657206
1 1.7335964 -1.5232709  0.54000505 0.84471229 1.5040774 1.5040774   0.459038   0.459038
8 1.7337077 -1.3193774  0.35653423  0.8009285 1.5040774 1.5040774 0.45926068 0.45926068
5 1.7586331 -1.2961968  0.42963066 0.77802418 1.5040774 1.5040774 0.50911134 0.50911134
3 1.7335973 -1.9372752  0.19672683 0.80794144 1.5040774 1.5040774 0.45903989 0.45903989
3 1.7334997 -1.5650798 -0.34262429 0.83427246 1.5040774 1.5040774 0.45884458 0.45884458
1  1.733346 -1.4204005 -0.29578518 0.83093278 1.5040774 1.5040774 0.45853728 0.45853728
6 2.1878652 -1.4335592  -1.2865122 0.44477584 1.5040774 1.5040774  1.3675757  1.3675757
7 1.7335042 -1.9374511 -0.08585608 0.50970654 1.5040774 1.5040774 0.45885359 0.45885359
8 2.6682977 -1.5889675  -1.2070974 0.53687781 1.5040774 1.5040774  2.3284406  2.3284406
3  1.728541 -1.3208436  -2.7775141 0.60876658 1.5040774 1.5040774 0.44892717 0.44892717
9 1.7335975 -1.6515716  -3.5738714 0.69622238 1.5040774 1.5040774 0.45904022 0.45904022
1 1.7335975 -1.3400459  -3.7736466 0.85545025 1.5040774 1.5040774 0.45904024 0.45904024
9 1.7335975 -1.5098604  -3.9046721 0.87700822 1.5040774 1.5040774 0.45904024 0.45904024
6 1.7335971 -1.8632798  -3.2728949 0.87392889 1.5040774 1.5040774 0.45903938 0.45903938
1 1.7284073 -1.7170396  -1.1816238 0.79391813 1.5040774 1.5040774  0.4486599  0.4486599
5 1.7324833 -1.7551615  -1.0165273 0.82076206 1.5040774 1.5040774 0.45681186 0.45681186
2 1.7008362 -1.6216094  -1.6580873 0.82052774 1.5040774 1.5040774  0.3935177  0.3935177
2 1.6612261  -1.502888  -1.5420641 0.78365412 1.5040774 1.5040774 0.31429745 0.31429745
 2 1.6784207 -1.3353363   -2.4677677 0.74349405 1.5040774 1.5040774  0.34868662  0.34868662
 4 1.7335964 -1.5371534   -3.4343078 0.48795547 1.5040774 1.5040774  0.45903798  0.45903798
 1 1.6492401 -1.5997593   -1.2960112 0.69726992 1.5040774 1.5040774  0.29032539  0.29032539
 1 1.7192576 -1.8684532  -0.86688155 0.67295542 1.5040774 1.5040774  0.43036049  0.43036049
 5  2.085819 -1.7582055  -0.64512636  0.5819711 1.5040774 1.5040774   1.1634833   1.1634833
 3 1.7317122 -1.4671796  -0.69482548 0.79487794 1.5040774 1.5040774  0.45526957  0.45526957
 3 1.7327308 -1.7135791   -1.0639794 0.87788451 1.5040774 1.5040774  0.45730685  0.45730685
 1 1.7335975  -1.618997   -3.8267347 0.83125847 1.5040774 1.5040774  0.45904024  0.45904024
10 1.7335975 -1.6495391   -3.7384164 0.83016827 1.5040774 1.5040774  0.45904024  0.45904024
 4 1.7334534 -1.3415714   -3.1080728 0.77036451 1.5040774 1.5040774  0.45875198  0.45875198
 3 1.7092313 -1.4763508   -2.4435941 0.85111213 1.5040774 1.5040774  0.41030781  0.41030781
11 1.5334254 -1.5229347   -2.1212694 0.49111997 1.5040774 1.5040774 0.058695923 0.058695923
 2 1.6082561 -1.5363212   -2.2653291 0.49626099 1.5040774 1.5040774  0.20835738  0.20835738
 5  1.733428 -1.3124177   -3.1204262 0.57310939 1.5040774 1.5040774  0.45870124  0.45870124
 5 1.7335646 -1.1020366   -3.3901224 0.49852643 1.5040774 1.5040774  0.45897438  0.45897438
 4   1.60259 -1.2675286   -2.5697541 0.49698362 1.5040774 1.5040774  0.19702525  0.19702525
16 1.7156341 -1.9355655   -1.9851753 0.44568636 1.5040774 1.5040774  0.42311336  0.42311336
 6 1.7221418 -1.9673475    -1.688634 0.44143213 1.5040774 1.5040774  0.43612885  0.43612885
 3 1.7327402 -1.5885302 -0.075856488 0.51299106 1.5040774 1.5040774  0.45732555  0.45732555
 2 1.7358856 -1.7336524   0.13909183 0.52867835 1.5040774 1.5040774  0.46361638  0.46361638
14 1.7271989  -1.8947726    -2.4783399 0.42280992 1.5040774 1.5040774  0.44624299  0.44624299
14 1.7233242  -1.7582821    0.77189946 0.46343477 1.5040774 1.5040774  0.43849361  0.43849361
 6 1.7330075   -1.686668  0.0083198284 0.55896166 1.5040774 1.5040774  0.45786011  0.45786011
 1 1.7335951  -1.9126973   -0.25340445 0.82884276 1.5040774 1.5040774  0.45903544  0.45903544
12  1.733582  -1.5905109   -0.20476472 0.87745002 1.5040774 1.5040774  0.45900922  0.45900922
 2 1.7335966  -1.6862711       0.48828 0.82224657 1.5040774 1.5040774  0.45903848  0.45903848
 2 1.7335862   -1.400083     0.1258473 0.88398122 1.5040774 1.5040774  0.45901752  0.45901752
 8 1.7335808  -1.4208913   0.031320738 0.89365299 1.5040774 1.5040774  0.45900672  0.45900672
 1 1.7272934 -0.28066024    -3.2157829 0.77193088 1.5040774 1.5040774  0.44643199  0.44643199
 5 1.7205833 -0.50136131    -3.1400986 0.60277857 1.5040774 1.5040774  0.43301183  0.43301183
 4 1.7327767 -0.56165835    -3.3091341 0.60373432 1.5040774 1.5040774  0.45739855  0.45739855
 4 1.7335522  -1.8971082    -2.9507973 0.54812408 1.5040774 1.5040774  0.45894957  0.45894957
 2 1.7335974  -1.8942064    -3.3663022 0.57237673 1.5040774 1.5040774  0.45904009  0.45904009
 2 1.7335975  -1.2562745    -3.9601912 0.62343232 1.5040774 1.5040774  0.45904024  0.45904024
 3 1.7322029    -1.69754    -1.0635564  0.8521591 1.5040774 1.5040774   0.4562511   0.4562511
 4 1.7333061  -1.7473936 -0.0023976857 0.68986719 1.5040774 1.5040774  0.45845734  0.45845734
 4 1.5243768  -1.6937774    -1.6299938  0.5806803 1.5040774 1.5040774 0.040598799 0.040598799
 6 1.7335366  -1.0478643    -3.2435379 0.63979911 1.5040774 1.5040774  0.45891834  0.45891834
11 1.7335851  -1.0464869    -3.3339254 0.65141894 1.5040774 1.5040774  0.45901538  0.45901538
 8 1.7335627  -1.2375808    -3.1869947 0.67245116 1.5040774 1.5040774  0.45897063  0.45897063
 1 1.7335947  -1.2195747  -3.4240076 0.56629242 1.5040774 1.5040774 0.45903453 0.45903453
 3 1.7335377  -1.2771385  -3.2207204  0.5619473 1.5040774 1.5040774  0.4589206  0.4589206
 3 1.7335948   -1.103353  -3.4438259 0.59266725 1.5040774 1.5040774 0.45903484 0.45903484
 7 1.7335825 -0.85512269  -3.3851277 0.67303831 1.5040774 1.5040774 0.45901012 0.45901012
 6 1.7335891  -1.8938756  -3.0512128 0.87554432 1.5040774 1.5040774 0.45902348 0.45902348
 1 1.7335886   -1.894751  -3.0462915 0.87520175 1.5040774 1.5040774 0.45902249 0.45902249
 2 1.7335975  -1.5773922  -3.5919634 0.78235566 1.5040774 1.5040774 0.45904021 0.45904021
11 1.7335975  -1.5857488  -3.5500455 0.80699148 1.5040774 1.5040774 0.45904019 0.45904019
 1 1.7332105  -1.3475137   -2.989094 0.70905788 1.5040774 1.5040774  0.4582662  0.4582662
 1 1.7330734  -1.0836488   -3.060562 0.69661702 1.5040774 1.5040774 0.45799205 0.45799205
 1 1.7335974 -0.95912695  -3.6442893 0.79372854 1.5040774 1.5040774 0.45903999 0.45903999
 3 1.7335975 -0.93532881  -3.9866068 0.77185159 1.5040774 1.5040774 0.45904024 0.45904024
 2  1.733597  -1.0827551   -3.518232 0.74946476 1.5040774 1.5040774 0.45903927 0.45903927
 2 1.7335975  -1.2123241  -3.8871208  0.7068363 1.5040774 1.5040774 0.45904024 0.45904024
 3 1.7335975  -1.9988321   -3.565282 0.89316782 1.5040774 1.5040774 0.45904024 0.45904024
 1 1.7331839   -1.679342  0.06146745 0.52540537 1.5040774 1.5040774 0.45821307 0.45821307
 4 1.7392361  -1.5257693 -0.97571261 0.43092159 1.5040774 1.5040774 0.47031731 0.47031731
 5  1.710802  -1.9746266  -1.6549888 0.48326596 1.5040774 1.5040774 0.41344915 0.41344915
 6 1.7332236  -1.7679237  0.20101731 0.67546418 1.5040774 1.5040774 0.45829232 0.45829232
 1 1.7322367   -1.549888 -0.42030584 0.45561714 1.5040774 1.5040774 0.45631869 0.45631869
 3 1.7335786  -1.8093149 -0.048395506 0.42356374 1.5040774 1.5040774   0.4590024   0.4590024
 9 1.6990096  -1.9935846   0.75775709 0.50244357 1.5040774 1.5040774  0.38986434  0.38986434
 2 1.7200077  -1.6439161   -1.2382077 0.44336623 1.5040774 1.5040774  0.43186068  0.43186068
 5 2.2779456  -1.7520595   -1.2176665 0.60136213 1.5040774 1.5040774   1.5477365   1.5477365
 6 1.7279217   -1.842571   -2.2230468 0.63285341 1.5040774 1.5040774  0.44768867  0.44768867
 1 1.7213083  -1.7629763   -2.2494243 0.73626066 1.5040774 1.5040774  0.43446175  0.43446175
10 1.7089135  -1.7414476   -1.3301487   0.733917 1.5040774 1.5040774  0.40967213  0.40967213
 3 1.7335933  -1.9951054  -0.15193454 0.74705429 1.5040774 1.5040774   0.4590319   0.4590319
 5 1.7335973 -0.60730145    -3.776796 0.57255442 1.5040774 1.5040774  0.45903989  0.45903989
 9 1.7335098 -0.72659832    -3.411947 0.56368406 1.5040774 1.5040774  0.45886473  0.45886473
 2 1.7324843 -0.59503444   -3.2689657  0.6146046 1.5040774 1.5040774  0.45681379  0.45681379
 5  1.575168 -0.86306457   -2.6609399 0.87753971 1.5040774 1.5040774  0.14218125  0.14218125
10 1.6969596   -1.549472   -1.6883435 0.86132416 1.5040774 1.5040774  0.38576444  0.38576444
 3 1.6779626  -1.9010163   -1.7355065 0.61875288 1.5040774 1.5040774  0.34777046  0.34777046
 4 1.6243911   -1.740661    -1.687641    0.67446 1.5040774 1.5040774  0.24062748  0.24062748
 1 1.7305165  -1.9253427   -2.3286698 0.70860923 1.5040774 1.5040774  0.45287826  0.45287826
 4  1.728342  -1.8275888   -1.9048176 0.88923362 1.5040774 1.5040774   0.4485292   0.4485292
 1 1.5503045  -1.2753845   -2.2341981 0.79950201 1.5040774 1.5040774 0.092454214 0.092454214
 1 1.7319833  -1.4003075   -2.8124159 0.68852744 1.5040774 1.5040774  0.45581179  0.45581179
 3  1.743136  -1.7988918    -0.322631 0.56969779 1.5040774 1.5040774  0.47811727  0.47811727
1 1.7326492 -1.8791286 0.76003652 0.51462334 1.5040774 1.5040774  0.45714351  0.45714351
7 1.5521681 -1.6289491 -1.8322914 0.61775925 1.5040774 1.5040774 0.096181476 0.096181476
6 1.6802604 -1.8644744 -1.1133457 0.53960204 1.5040774 1.5040774  0.35236593  0.35236593
7 1.8296156 -1.5482446 -1.2275674 0.46906562 1.5040774 1.5040774  0.65107645  0.65107645
