#weight  minuslogpost  log10_alpha   log10_rs         vw  minuslogprior  minuslogprior__0        chi2  chi2__lisa_likelihood
      1     1.6239303   -1.4250106 -2.0467617 0.83792975      1.5040774         1.5040774  0.23970587             0.23970587
      1     1.6119448   -1.4386259  -2.014524 0.81215687      1.5040774         1.5040774  0.21573476             0.21573476
      1     1.5765781    -1.414435 -2.0266545 0.78420403      1.5040774         1.5040774  0.14500132             0.14500132
      1     1.5782191   -1.4179256  -2.029542 0.78243626      1.5040774         1.5040774  0.14828346             0.14828346
      1     1.5782268   -1.4225424  -1.995797 0.78574727      1.5040774         1.5040774  0.14829887             0.14829887
      1     1.5815763   -1.4268013 -1.9964182 0.78613988      1.5040774         1.5040774  0.15499789             0.15499789
      1      1.590679   -1.4255536 -1.9974201 0.79808998      1.5040774         1.5040774  0.17320314             0.17320314
      1     1.5870971   -1.4089683 -2.0189016 0.80416326      1.5040774         1.5040774  0.16603931             0.16603931
      1     1.5913907   -1.4171567 -2.0260833 0.80112245      1.5040774         1.5040774   0.1746266              0.1746266
      1      1.552853   -1.4034585  -2.025995  0.7640269      1.5040774         1.5040774 0.097551182            0.097551182
      1     1.5908603   -1.4367299 -2.0135035 0.78572667      1.5040774         1.5040774  0.17356578             0.17356578
      1     1.5750197   -1.4355612 -1.9881352 0.77291524      1.5040774         1.5040774  0.14188451             0.14188451
      1     1.5716755   -1.4510099 -1.9968518 0.75424604      1.5040774         1.5040774  0.13519617             0.13519617
      1     1.5238787    -1.419272 -1.9746305 0.72719285      1.5040774         1.5040774 0.039602699            0.039602699
      1     1.5400643    -1.447408 -1.9642727 0.70269251      1.5040774         1.5040774 0.071973892            0.071973892
      1     1.5348805   -1.4546122 -1.9223168 0.72870307      1.5040774         1.5040774 0.061606242            0.061606242
      1     1.5225706   -1.4486539  -1.920672 0.71812218      1.5040774         1.5040774 0.036986313            0.036986313
      1      1.550161   -1.4705348  -1.949315 0.70134799      1.5040774         1.5040774 0.092167174            0.092167174
      1     1.5615333   -1.4892133 -1.9305908 0.69374025      1.5040774         1.5040774  0.11491187             0.11491187
      1     1.5657091   -1.4972663 -1.9283968 0.69064238      1.5040774         1.5040774  0.12326347             0.12326347
1 1.5488661 -1.5012593 -1.9266107 0.70228736 1.5040774 1.5040774 0.089577486 0.089577486
1 1.5329742 -1.4846981 -1.8700539 0.69929135 1.5040774 1.5040774 0.057793545 0.057793545
1 1.5263962 -1.4934484 -1.8552708  0.7020587 1.5040774 1.5040774 0.044637518 0.044637518
1 1.5417754 -1.4966995  -1.860521  0.7198254 1.5040774 1.5040774 0.075396007 0.075396007
1 1.5362654 -1.4708512  -1.846862 0.72859169 1.5040774 1.5040774 0.064375933 0.064375933
1 1.5987253  -1.539847 -1.7237462 0.74399526 1.5040774 1.5040774  0.18929577  0.18929577
1  1.607562 -1.5284009 -1.7186915 0.75486395 1.5040774 1.5040774  0.20696914  0.20696914
1 1.5766074 -1.5151801  -1.708975 0.73642189 1.5040774 1.5040774     0.14506     0.14506
1 1.6391813  -1.523066 -1.7396871 0.78777627 1.5040774 1.5040774  0.27020778  0.27020778
1 1.6612748 -1.5036626 -1.6933155 0.81848802 1.5040774 1.5040774  0.31439481  0.31439481
1 1.6766105 -1.5389944  -1.680152 0.82093485 1.5040774 1.5040774  0.34506619  0.34506619
1 1.6580032 -1.5400697 -1.6326354 0.78604838 1.5040774 1.5040774  0.30785152  0.30785152
1 1.6292401 -1.5168432 -1.6452957 0.76808874 1.5040774 1.5040774  0.25032537  0.25032537
1 1.6147597 -1.5372791 -1.6583869 0.75088803 1.5040774 1.5040774  0.22136462  0.22136462
1 1.5623273 -1.5757841 -1.7090919 0.70748964 1.5040774 1.5040774  0.11649989  0.11649989
1 1.5451011 -1.5438016 -1.7340667 0.70829309 1.5040774 1.5040774  0.08204745  0.08204745
1 1.5810608 -1.5522495 -1.7442607 0.72769867 1.5040774 1.5040774  0.15396675  0.15396675
1 1.6103216 -1.5593087 -1.6869752 0.74214078 1.5040774 1.5040774  0.21248839  0.21248839
1 1.5937623 -1.5418418  -1.683545  0.7370723 1.5040774 1.5040774  0.17936978  0.17936978
1 1.5695647 -1.5475501 -1.6799093 0.71986072 1.5040774 1.5040774  0.13097461  0.13097461
1 1.5281004 -1.5283979 -1.6846822 0.68940324 1.5040774 1.5040774 0.048046099 0.048046099
1 1.5287588 -1.5225013 -1.7145914 0.69779812 1.5040774 1.5040774 0.049362811 0.049362811
1  1.533189 -1.5480812 -1.7237465 0.68314764 1.5040774 1.5040774   0.0582233   0.0582233
1 1.5422132 -1.5582415 -1.7293989  0.6820946 1.5040774 1.5040774 0.076271603 0.076271603
1 1.5396327 -1.5426489 -1.7581679 0.68607525 1.5040774 1.5040774 0.071110536 0.071110536
1 1.5309573 -1.5443443 -1.7573964 0.69829203 1.5040774 1.5040774 0.053759766 0.053759766
1 1.5471915 -1.5304235 -1.8032261 0.71280171 1.5040774 1.5040774 0.086228264 0.086228264
1 1.5323477 -1.5121378 -1.7986651 0.70966441 1.5040774 1.5040774 0.056540651 0.056540651
1 1.5943379 -1.5080225 -1.7822789 0.75747297 1.5040774 1.5040774   0.1805211   0.1805211
1 1.5991897 -1.5351768 -1.7940596 0.74835901 1.5040774 1.5040774  0.19022464  0.19022464
1 1.6188488 -1.5494572 -1.7677588 0.75690993 1.5040774 1.5040774  0.22954274  0.22954274
1 1.5447715 -1.5418686 -1.7479724  0.7087246 1.5040774 1.5040774 0.081388212 0.081388212
1 1.5800075 -1.5584214 -1.7578582 0.72434562 1.5040774 1.5040774  0.15186019  0.15186019
1 1.6146216 -1.5136977 -1.7598941  0.7704486 1.5040774 1.5040774  0.22108839  0.22108839
1 1.6146596 -1.5137158 -1.7598319 0.77046885 1.5040774 1.5040774  0.22116438  0.22116438
1 1.6110647 -1.5113035 -1.7592652 0.76843666 1.5040774 1.5040774  0.21397463  0.21397463
1  1.606238 -1.4934983 -1.8078308 0.77602978 1.5040774 1.5040774  0.20432117  0.20432117
1 1.6011386 -1.4989102 -1.8109555 0.76873452 1.5040774 1.5040774  0.19412232  0.19412232
1  1.563324 -1.5044683 -1.8139344 0.73591875 1.5040774 1.5040774  0.11849313  0.11849313
1 1.5859797 -1.5300215 -1.8152281 0.74036423 1.5040774 1.5040774  0.16380451  0.16380451
1 1.5830544  -1.532028 -1.7841272 0.73788082 1.5040774 1.5040774  0.15795406  0.15795406
1 1.5771009  -1.535155 -1.7838222 0.73226658 1.5040774 1.5040774  0.14604694  0.14604694
1 1.5728072 -1.5318976 -1.7766691 0.73084087 1.5040774 1.5040774  0.13745956  0.13745956
1 1.5548002 -1.5196321 -1.7836924  0.7236277 1.5040774 1.5040774  0.10144564  0.10144564
1 1.5436769 -1.5281727 -1.7641565 0.71281469 1.5040774 1.5040774 0.079199015 0.079199015
1 1.5447999 -1.5361847 -1.7689657 0.71045428 1.5040774 1.5040774  0.08144496  0.08144496
1 1.5456649  -1.536432 -1.7687982 0.71095223 1.5040774 1.5040774 0.083175072 0.083175072
1 1.5709978  -1.550044  -1.763835 0.72201675 1.5040774 1.5040774  0.13384089  0.13384089
1 1.5486795 -1.5706971 -1.7672644 0.69814679 1.5040774 1.5040774 0.089204143 0.089204143
1 1.5495718 -1.5709098 -1.7687265  0.6985409 1.5040774 1.5040774 0.090988707 0.090988707
1  1.561773 -1.5277091 -1.7534277 0.72500035 1.5040774 1.5040774  0.11539117  0.11539117
1 1.5276018 -1.5228102 -1.7233513 0.69961168 1.5040774 1.5040774 0.047048781 0.047048781
1 1.5728386 -1.5459648 -1.6993713 0.72355142 1.5040774 1.5040774   0.1375225   0.1375225
1 1.5795182 -1.5446587 -1.6990092 0.72808392 1.5040774 1.5040774   0.1508817   0.1508817
1 1.5904258 -1.5562486 -1.6661812 0.72880141 1.5040774 1.5040774  0.17269671  0.17269671
1 1.6270043 -1.5924381 -1.6792086 0.74027077 1.5040774 1.5040774  0.24585376  0.24585376
1 1.6089983 -1.5708195 -1.6803202 0.73637223 1.5040774 1.5040774   0.2098418   0.2098418
1 1.6198084 -1.5688645 -1.6684849 0.74383891 1.5040774 1.5040774  0.23146199  0.23146199
1  1.643993 -1.5655427 -1.6833239    0.76649 1.5040774 1.5040774  0.27983114  0.27983114
1 1.6276811 -1.5619898 -1.6803607 0.75353473 1.5040774 1.5040774  0.24720745  0.24720745
1 1.6358486 -1.5913833 -1.6729606 0.74716636 1.5040774 1.5040774   0.26354235   0.26354235
1 1.6417771 -1.5879793  -1.655126 0.75217904 1.5040774 1.5040774   0.27539943   0.27539943
1 1.5855536  -1.546949 -1.6791715 0.72975311 1.5040774 1.5040774   0.16295237   0.16295237
1 1.5599666 -1.5594545 -1.6830274 0.71100748 1.5040774 1.5040774   0.11177833   0.11177833
1 1.5507488 -1.5555187 -1.6716871 0.70604918 1.5040774 1.5040774  0.093342817  0.093342817
1 1.5925503 -1.5962234  -1.621665 0.71464565 1.5040774 1.5040774   0.17694575   0.17694575
2 1.5940905 -1.6006855 -1.6252317 0.71427112 1.5040774 1.5040774   0.18002619   0.18002619
1 1.6374569 -1.6620322 -1.6209189 0.71785599 1.5040774 1.5040774   0.26675903   0.26675903
1 1.6306172 -1.6627758  -1.627837  0.7134526 1.5040774 1.5040774   0.25307958   0.25307958
1 1.6594654 -1.6624784 -1.6418019 0.73534233 1.5040774 1.5040774   0.31077596   0.31077596
1 1.6579791 -1.6614276 -1.6457197 0.73463785 1.5040774 1.5040774   0.30780333   0.30780333
1 1.6232904 -1.6677695 -1.6425326 0.70745428 1.5040774 1.5040774   0.23842609   0.23842609
1 1.6057782  -1.650522 -1.6372934 0.70404475 1.5040774 1.5040774   0.20340166   0.20340166
1 1.6074391 -1.6943438 -1.5976631 0.69021427 1.5040774 1.5040774   0.20672347   0.20672347
1 1.5492707 -1.6970427 -1.6163606 0.64518888 1.5040774 1.5040774  0.090386567  0.090386567
1 1.5483646 -1.6979015 -1.6171745 0.64557831 1.5040774 1.5040774  0.088574427  0.088574427
1 1.5092663 -1.6967241 -1.6116806 0.62632964 1.5040774 1.5040774  0.010377888  0.010377888
1 1.5067531 -1.6768519 -1.6211419 0.62484483 1.5040774 1.5040774  0.005351478  0.005351478
1 1.5083321 -1.6853955 -1.6382389 0.61944251 1.5040774 1.5040774 0.0085094408 0.0085094408
1 1.5231194 -1.6540875 -1.6294854 0.61915677 1.5040774 1.5040774  0.038084052  0.038084052
1 1.5285466   -1.664115 -1.5925444 0.65213057 1.5040774 1.5040774 0.048938376 0.048938376
1 1.5737025   -1.657627 -1.6148688 0.67911408 1.5040774 1.5040774  0.13925014  0.13925014
1 1.5883137  -1.6787863  -1.623459 0.67234457 1.5040774 1.5040774  0.16847262  0.16847262
1  1.535995  -1.6817051 -1.5971556 0.64809043 1.5040774 1.5040774 0.063835243 0.063835243
1 1.5243406  -1.6792909 -1.6002386 0.64445648 1.5040774 1.5040774 0.040526462 0.040526462
4 1.5874009   -1.698175 -1.7483018 0.49592668 1.5040774 1.5040774  0.16664695  0.16664695
1 1.5735262  -1.3805986 -2.1348513  0.6344549 1.5040774 1.5040774  0.13889755  0.13889755
3 1.5937046  -1.4618587 -2.3426464 0.49305448 1.5040774 1.5040774  0.17925443  0.17925443
2 1.6374122  -1.6403597 -2.1773077 0.49821347 1.5040774 1.5040774  0.26666955  0.26666955
7 1.6801007  -1.7325915 -2.1562312 0.43382605 1.5040774 1.5040774  0.35204654  0.35204654
1 1.7314979  -1.6076067 -2.6308264  0.6214666 1.5040774 1.5040774  0.45484106  0.45484106
2 1.7329432  -1.7005227 -2.7036043 0.61467389 1.5040774 1.5040774  0.45773154  0.45773154
3  1.731552  -1.8945015 -2.4192791 0.77911995 1.5040774 1.5040774  0.45494911  0.45494911
3 1.5448999  -1.4632672  -2.240097 0.50076347 1.5040774 1.5040774  0.08164506  0.08164506
1 1.7299577 -0.96461794 -2.9803197 0.75938562 1.5040774 1.5040774  0.45176063  0.45176063
2 1.5368186 -0.95398751 -2.4593716  0.7969316 1.5040774 1.5040774 0.065482499 0.065482499
1 1.6402205  -1.4901354 -2.3895399 0.50183954 1.5040774 1.5040774  0.27228614  0.27228614
3 1.6532401  -1.4749833 -2.3752401 0.53790814 1.5040774 1.5040774  0.29832537  0.29832537
3 1.7306711  -1.5709632 -2.6037375 0.65491253 1.5040774 1.5040774  0.45318731  0.45318731
3 1.7217798  -1.6070257 -2.4188018 0.84699164 1.5040774 1.5040774  0.43540487  0.43540487
1 1.7138338 -1.4009982 -2.5132635 0.62349132 1.5040774 1.5040774  0.41951282  0.41951282
1 1.7127237 -1.7526791 -2.4097787 0.45408217 1.5040774 1.5040774  0.41729252  0.41729252
3 1.6458129 -1.5832208 -1.6751598 0.46307331 1.5040774 1.5040774  0.28347099  0.28347099
2 1.7203401 -1.7681833  -1.379325  0.4220808 1.5040774 1.5040774  0.43252545  0.43252545
1 1.7182302 -1.8234856 -2.1203722 0.59863581 1.5040774 1.5040774  0.42830563  0.42830563
5 1.5374044 -1.2265225 -2.0721668 0.82325311 1.5040774 1.5040774 0.066654071 0.066654071
1 1.5146381 -1.2189387 -2.1434342 0.81652075 1.5040774 1.5040774 0.021121339 0.021121339
1 1.6291475 -1.4353828 -2.1391928 0.68857116 1.5040774 1.5040774  0.25014015  0.25014015
2 1.7287544 -1.9172464  -1.941469  0.8178677 1.5040774 1.5040774  0.44935402  0.44935402
1 1.7284221 -1.8969866 -1.8848059 0.82734684 1.5040774 1.5040774  0.44868945  0.44868945
1 1.7024575 -1.6746327 -1.8489562 0.80946359 1.5040774 1.5040774  0.39676012  0.39676012
3 1.6610952 -1.7095859 -1.8029378 0.71197097 1.5040774 1.5040774  0.31403554  0.31403554
2  1.727631 -1.7749412 -2.3375348 0.59821856 1.5040774 1.5040774  0.44710714  0.44710714
3 1.7268636 -1.9623441 -2.2809861 0.51633188 1.5040774 1.5040774   0.4455725   0.4455725
1 1.7270212 -1.9603087 -2.2866214 0.51753479 1.5040774 1.5040774  0.44588767  0.44588767
4 1.7263279 -1.8888526 -2.2264385 0.57604191 1.5040774 1.5040774  0.44450109  0.44450109
1 1.7242338 -1.6895279  -2.309464 0.65192882 1.5040774 1.5040774   0.4403129   0.4403129
1 1.6584097 -1.7512847 -1.9415405 0.59052202 1.5040774 1.5040774  0.30866456  0.30866456
2 1.5837488 -1.5860654 -1.8714411 0.69211977 1.5040774 1.5040774  0.15934285  0.15934285
2 1.7288343 -1.8963176 -2.3804608 0.54218765 1.5040774 1.5040774  0.44951377  0.44951377
 1 1.7031874 -1.5868837 -2.5628075 0.44526977 1.5040774 1.5040774 0.39822009 0.39822009
 1 1.7328442 -1.4259176 -2.9504809 0.56873265 1.5040774 1.5040774 0.45753361 0.45753361
 1 1.7317413 -1.4808054 -2.8166815 0.74621981 1.5040774 1.5040774 0.45532782 0.45532782
 1 1.7335835 -1.9237767 -3.0096672 0.72102004 1.5040774 1.5040774  0.4590122  0.4590122
 4 1.7335772 -1.9022942 -2.9852835 0.68625512 1.5040774 1.5040774 0.45899969 0.45899969
 2  1.733453 -1.8597041 -2.7737781 0.59583213 1.5040774 1.5040774 0.45875123 0.45875123
 1 1.7325072 -1.9625222 -2.4633491  0.7530297 1.5040774 1.5040774 0.45685969 0.45685969
 1 1.7331142 -1.9947164 -2.5452952 0.80603388 1.5040774 1.5040774 0.45807351 0.45807351
 2  1.733105 -1.9916054 -2.5453685 0.80704857 1.5040774 1.5040774  0.4580552  0.4580552
 1 1.7331133  -1.970325 -2.5667383 0.82239966 1.5040774 1.5040774 0.45807177 0.45807177
 2 1.7330357 -1.9516675 -2.5687931 0.81064505 1.5040774 1.5040774 0.45791658 0.45791658
 1  1.713338  -1.705007 -2.1744974 0.61974478 1.5040774 1.5040774 0.41852117 0.41852117
 3 1.7141497 -1.8834008 -2.1858344 0.49968047 1.5040774 1.5040774 0.42014459 0.42014459
 1  1.733595  -1.121369 -3.3934804 0.71171174 1.5040774 1.5040774 0.45903526 0.45903526
 4 1.7335884 -1.1207144 -3.3630203 0.77908285 1.5040774 1.5040774 0.45902196 0.45902196
 2 1.6356176  -1.157508 -2.4749378 0.73472621 1.5040774 1.5040774 0.26308031 0.26308031
 3 1.6429849 -1.4445914 -1.7478674 0.83484921 1.5040774 1.5040774 0.27781502 0.27781502
 6 1.7303129 -1.6330108 -1.0905209 0.83556609 1.5040774 1.5040774 0.45247108 0.45247108
 1 1.7297889 -1.5492064 -1.1228949 0.87946144 1.5040774 1.5040774  0.4514231  0.4514231
10 1.7291034 -1.4308414 -1.0528254 0.85041291 1.5040774 1.5040774 0.45005197 0.45005197
 5 1.7175165 -1.4620591  -1.337506 0.86903384 1.5040774 1.5040774  0.42687829  0.42687829
 1 1.7290043 -1.8638335 -1.2087712 0.74698291 1.5040774 1.5040774  0.44985383  0.44985383
 5 1.7311833 -1.7088494 -2.6122628 0.73594328 1.5040774 1.5040774  0.45421186  0.45421186
 1 1.7335961 -1.6918377 -3.2624504 0.57809815 1.5040774 1.5040774  0.45903735  0.45903735
 1 1.5246446 -1.3224408 -2.2859152  0.4844408 1.5040774 1.5040774 0.041134475 0.041134475
 2 1.7292345 -1.7147282 -2.5064045 0.69084807 1.5040774 1.5040774  0.45031427  0.45031427
 3 1.7298684 -1.5009314 -2.7239798 0.74078583 1.5040774 1.5040774  0.45158195  0.45158195
 6 1.7335767 -1.3379534 -3.2372109 0.74767015 1.5040774 1.5040774  0.45899863  0.45899863
 2 1.7335975 -1.5459719 -3.6326198 0.62695255 1.5040774 1.5040774  0.45904023  0.45904023
 2 1.7276299 -1.6453054 -2.4328483  0.6560843 1.5040774 1.5040774  0.44710502  0.44710502
 3 1.6960902 -1.7320152  -2.181065 0.55459477 1.5040774 1.5040774  0.38402565  0.38402565
 1 1.7306128  -1.470576 -2.7783394 0.57427523 1.5040774 1.5040774  0.45307074  0.45307074
 1 1.7295771 -1.5053012 -2.6272982 0.67467192 1.5040774 1.5040774  0.45099938  0.45099938
 4 1.7335925 -1.6725998 -3.1606577 0.67076576 1.5040774 1.5040774  0.45903016  0.45903016
 1 1.7334142 -1.7295816 -2.8799877  0.6842022 1.5040774 1.5040774  0.45867355  0.45867355
 3 1.7335973  -1.911985 -3.2914914 0.82205789 1.5040774 1.5040774  0.45903973  0.45903973
 3 1.7335972 -1.9699938 -3.2627791 0.82246465 1.5040774 1.5040774  0.45903969  0.45903969
11 1.7335975   -1.56525 -3.9597224 0.71629731 1.5040774 1.5040774  0.45904024  0.45904024
 1 1.7335975 -1.0805821 -3.9596102 0.59923854 1.5040774 1.5040774  0.45904024  0.45904024
 2 1.7331958 -1.1253035 -3.0688398 0.66252507 1.5040774 1.5040774  0.45823676  0.45823676
 2  1.733278  -0.9722911   -3.140436 0.71111834 1.5040774 1.5040774 0.45840119 0.45840119
 3 1.7332939  -1.3260108   0.1512049 0.76654143 1.5040774 1.5040774 0.45843301 0.45843301
 3 1.7335975  -1.4676172  -3.8133605  0.5501908 1.5040774 1.5040774 0.45904024 0.45904024
 1 1.7335975  -1.4923065  -3.6293964 0.51481146 1.5040774 1.5040774 0.45904018 0.45904018
 2 1.7335962  -1.4792653  -3.4551317 0.47851835 1.5040774 1.5040774 0.45903763 0.45903763
 2 1.5271513   -1.439351  -1.7395711 0.69303671 1.5040774 1.5040774 0.04614773 0.04614773
 3 1.7248669  -1.9513796  -1.3495458 0.71050881 1.5040774 1.5040774 0.44157901 0.44157901
 3 2.0576379 -0.80260054 -0.22294154 0.89856986 1.5040774 1.5040774   1.107121   1.107121
12 2.0143136 -0.86990141 -0.32401701 0.89054244 1.5040774 1.5040774  1.0204724  1.0204724
10 1.9161704 -0.87902604 -0.24358259 0.87787855 1.5040774 1.5040774 0.82418597 0.82418597
 4 1.7335975  -1.7619672  -3.6850901 0.83025352 1.5040774 1.5040774 0.45904024 0.45904024
 7 1.7288989  -1.7968307  -2.2833466 0.87932053 1.5040774 1.5040774 0.44964292 0.44964292
14 1.7291257  -1.7953494  -2.3059205 0.87755617 1.5040774 1.5040774 0.45009659 0.45009659
 1 1.7305993  -1.7798278  -2.4415846 0.87616313 1.5040774 1.5040774 0.45304384 0.45304384
 7 1.6768792 -0.87756339  -2.7614949 0.77775128 1.5040774 1.5040774 0.34560353 0.34560353
 1 1.7114222 -0.73623969  -2.9139288 0.74985799 1.5040774 1.5040774 0.41468953 0.41468953
 4 1.7259487 -0.69460048  -3.0418612 0.81414163 1.5040774 1.5040774 0.44374263 0.44374263
 6 1.7335035 -0.56850387  -3.3701439  0.7304949 1.5040774 1.5040774 0.45885216 0.45885216
 2 1.7334434 -0.48245577  -3.3787416 0.71893031 1.5040774 1.5040774 0.45873207 0.45873207
 1 1.5893252  -1.6559566  -1.2218776  0.6723598 1.5040774 1.5040774 0.17049556 0.17049556
1 1.7316956  -1.4654646 -0.068975451 0.71660136 1.5040774 1.5040774 0.45523646 0.45523646
3 1.7329962  -1.3670468 -0.046100263 0.42593981 1.5040774 1.5040774 0.45783762 0.45783762
5 1.7334079  -1.3925562  -0.35407813 0.43471818 1.5040774 1.5040774 0.45866109 0.45866109
2 2.1002497  -1.4630045   -1.8186931 0.51638289 1.5040774 1.5040774  1.1923447  1.1923447
4  1.558222  -1.5395321   -1.8415293 0.68709728 1.5040774 1.5040774 0.10828911 0.10828911
5  1.678498  -1.8413824   -1.7260803 0.67593543 1.5040774 1.5040774 0.34884121 0.34884121
5 1.7335975  -1.9427232   -3.5023151 0.75782034 1.5040774 1.5040774 0.45904023 0.45904023
7 1.7335975  -1.9641131   -3.5518022 0.85126025 1.5040774 1.5040774 0.45904024 0.45904024
1 1.7335715  -1.9013351   -2.9545359 0.86832608 1.5040774 1.5040774 0.45898823 0.45898823
6 1.7335497  -1.9005175   -2.9097513 0.81132929 1.5040774 1.5040774 0.45894458 0.45894458
3  1.733595   -1.041595   -3.4301812 0.74649311 1.5040774 1.5040774 0.45903511 0.45903511
2 1.7335974 -0.83678751    -3.770082 0.53786761 1.5040774 1.5040774 0.45904008 0.45904008
1 1.7335952 -0.87488214   -3.5862847 0.53415516 1.5040774 1.5040774 0.45903553 0.45903553
6 1.7335975  -1.9321833    -3.949469 0.68918281 1.5040774 1.5040774 0.45904024 0.45904024
6 1.7335959  -1.9398623   -3.1123178 0.64289379 1.5040774 1.5040774 0.45903705 0.45903705
4 1.7335967  -1.5679914   -3.3548656  0.8642456 1.5040774 1.5040774 0.45903863 0.45903863
4 1.7335975  -1.5417882   -3.6423233 0.87469906 1.5040774 1.5040774 0.45904023 0.45904023
8 1.7335941  -1.6785246   -3.3172751 0.47994102 1.5040774 1.5040774 0.45903333 0.45903333
5 1.7335956  -1.7342805   -3.3494631 0.45422267 1.5040774 1.5040774 0.45903633 0.45903633
5 1.7335972  -1.5249554   -3.5464417 0.43136019 1.5040774 1.5040774 0.45903952 0.45903952
 3 1.7071824   -1.701263  -2.4487263 0.43682412 1.5040774 1.5040774 0.40620991 0.40620991
 3 1.6871402  -1.6174011  -2.3482723 0.51905481 1.5040774 1.5040774 0.36612557 0.36612557
 3 2.0643513  -1.0394348  0.18347737 0.55457889 1.5040774 1.5040774  1.1205478  1.1205478
19 1.9710942 -0.85672759    0.213292 0.50036957 1.5040774 1.5040774 0.93403356 0.93403356
17 1.7322161   -1.246633 -0.16331321 0.40834703 1.5040774 1.5040774 0.45627745 0.45627745
 3 1.7325373  -1.2409157 -0.16699785 0.40844791 1.5040774 1.5040774 0.45691982 0.45691982
20 1.7335802  -1.9159397 -0.22594523 0.41920901 1.5040774 1.5040774 0.45900554 0.45900554
 2 1.8105577  -1.3125573 -0.65921838  0.4349056 1.5040774 1.5040774 0.61296063 0.61296063
 1 2.4918519   -1.437229  0.26712303  0.5362136 1.5040774 1.5040774   1.975549   1.975549
 1 1.8260398  -1.8540382 -0.63501003  0.6212744 1.5040774 1.5040774  0.6439249  0.6439249
 4  1.648056  -1.4190576  -2.0352397 0.43252155 1.5040774 1.5040774 0.28795722 0.28795722
 1 1.7284681  -1.8614791  -1.3939443 0.77643408 1.5040774 1.5040774 0.44878147 0.44878147
 6 1.6636665  -1.4453333  -1.6417793 0.83649089 1.5040774 1.5040774 0.31917815 0.31917815
 1 1.5698161  -1.3972214  -2.0803063 0.77393397 1.5040774 1.5040774 0.13147742 0.13147742
 2 1.7296688  -1.8426067  -2.2449834  0.8698395 1.5040774 1.5040774 0.45118286 0.45118286
15 1.7332003  -1.8573446   -2.711747 0.81339725 1.5040774 1.5040774 0.45824587 0.45824587
 6 1.7331857  -1.8554579   -2.708839 0.81309119 1.5040774 1.5040774 0.45821663 0.45821663
 3 1.7335975  -1.5267378   -3.712305 0.83577374 1.5040774 1.5040774 0.45904024 0.45904024
10 1.6039204  -1.2891662  -2.3105761 0.83440837 1.5040774 1.5040774 0.19968592 0.19968592
 4 1.5838663  -1.3582788  -2.0300486  0.8432902 1.5040774 1.5040774 0.15957776 0.15957776
2 1.7284488 -1.4645594 -1.1349386 0.89614547 1.5040774 1.5040774  0.44874286  0.44874286
5 1.5466697 -1.5902379 -1.6171561 0.69144166 1.5040774 1.5040774 0.085184602 0.085184602
3 1.6687672 -1.3806279 -1.7175774 0.69534393 1.5040774 1.5040774  0.32937967  0.32937967
3 1.7335076 -1.7891318 -2.8501939 0.61629384 1.5040774 1.5040774  0.45886049  0.45886049
1  1.697584 -1.7287727 -1.9855268 0.73750424 1.5040774 1.5040774  0.38701322  0.38701322
1 1.7069961 -1.8577106 -1.9489307 0.67956222 1.5040774 1.5040774  0.40583731  0.40583731
1 1.7335956  -1.713822 -3.2038524 0.66481559 1.5040774 1.5040774  0.45903632  0.45903632
1 1.7335955 -1.8268227 -3.1951342 0.69363133 1.5040774 1.5040774  0.45903625  0.45903625
1 1.7295278 -1.8345262 -2.3435821 0.79934781 1.5040774 1.5040774  0.45090086  0.45090086
3 1.7335949 -1.1097127 -3.4456705 0.83424993 1.5040774 1.5040774  0.45903496  0.45903496
1 1.7335928 -1.1373898 -3.4042537 0.83752024 1.5040774 1.5040774  0.45903087  0.45903087
2 1.7335975 -1.3609355 -3.6168471 0.65550932 1.5040774 1.5040774  0.45904022  0.45904022
7 1.7333462 -1.4431792 -2.9513737 0.64730481 1.5040774 1.5040774  0.45853766  0.45853766
1  1.733592  -1.539822 -3.3732623 0.44346673 1.5040774 1.5040774   0.4590292   0.4590292
3 1.6330948  -1.014814 -2.8964446 0.40561937 1.5040774 1.5040774  0.25803476  0.25803476
7 1.6651507 -1.4191154  -2.622269 0.43039018 1.5040774 1.5040774  0.32214668  0.32214668
1  1.678498 -1.4092906 -2.6663963 0.43207482 1.5040774 1.5040774  0.34884128  0.34884128
7 1.6816341 -1.3346196 -2.1240197 0.53717536 1.5040774 1.5040774  0.35511339  0.35511339
1 1.7138796 -1.2189918 -2.6919084 0.61494745 1.5040774 1.5040774  0.41960443  0.41960443
7 1.7311037 -1.9109567 -2.3835669 0.66867599 1.5040774 1.5040774  0.45405256  0.45405256
5 1.7334988  -1.9286402  -2.9527117  0.4716169 1.5040774 1.5040774  0.45884285  0.45884285
1 1.6195437  -1.2717213  -2.6060026 0.48749464 1.5040774 1.5040774  0.23093263  0.23093263
4 2.8710524  -1.4662718  -1.4480998 0.66570467 1.5040774 1.5040774   2.7339501   2.7339501
3 1.6657924  -1.7277796  -1.7201125 0.71352898 1.5040774 1.5040774  0.32343004  0.32343004
5 1.7335975 -0.99398708  -3.9454173  0.8464868 1.5040774 1.5040774  0.45904024  0.45904024
5 1.7335973 -0.48849178  -3.7310123 0.85752085 1.5040774 1.5040774  0.45903982  0.45903982
1 1.5375163  -1.3214743  -2.0482658 0.80667928 1.5040774 1.5040774 0.066877721 0.066877721
1 1.7335797  -1.3438249  -3.2034576 0.62861709 1.5040774 1.5040774  0.45900468  0.45900468
7 1.7183828  -1.7974561   -2.153611 0.59828655 1.5040774 1.5040774  0.42861075  0.42861075
5  1.667256  -1.8183427  -1.9584811  0.5502347 1.5040774 1.5040774  0.32635711  0.32635711
1  1.633482  -1.7188378  -2.0259835 0.52194682 1.5040774 1.5040774  0.25880918  0.25880918
9 1.5750923  -1.7450746   -1.537647 0.52847302 1.5040774 1.5040774  0.14202984  0.14202984
2 1.5348598   -1.663796  -1.5452208 0.62867421 1.5040774 1.5040774 0.061564814 0.061564814
5   1.73111 -0.94577449   -3.061782 0.85154768 1.5040774 1.5040774  0.45406526  0.45406526
1 1.6796257 -0.72514737  -2.8840839  0.8871592 1.5040774 1.5040774  0.35109658  0.35109658
1 1.7335952 -0.93941438   -3.463566 0.75607348 1.5040774 1.5040774  0.45903567  0.45903567
4 1.7334275 -0.70440023  -3.2998925 0.67755613 1.5040774 1.5040774  0.45870016  0.45870016
1 1.7332333   -0.734492   -3.268707 0.63147307 1.5040774 1.5040774  0.45831171  0.45831171
7 1.5778975 -0.69422304  -2.6743383 0.74407218 1.5040774 1.5040774  0.14764025  0.14764025
3 1.7307503  -1.4050521 -0.97556297 0.88947319 1.5040774 1.5040774  0.45334583  0.45334583
 7 1.7318071  -1.4969616 -2.7493447 0.61576291 1.5040774 1.5040774 0.45545945 0.45545945
 4 1.7335889  -1.5018646 -3.2749726 0.54076172 1.5040774 1.5040774 0.45902292 0.45902292
 1 1.7335972  -1.6188429 -3.4679427 0.50349805 1.5040774 1.5040774 0.45903965 0.45903965
 2 1.7335967  -1.6388261 -3.4007665 0.50553485 1.5040774 1.5040774 0.45903864 0.45903864
 4 1.7271385  -1.6311284 -2.4317726 0.65248982 1.5040774 1.5040774 0.44612216 0.44612216
 2 1.7329484  -1.8330097 -1.1814425  0.8685297 1.5040774 1.5040774  0.4577421  0.4577421
 9  1.649096  -1.2048111 -2.6910002 0.50273017 1.5040774 1.5040774 0.29003726 0.29003726
 3 1.5922124  -1.2716446 -2.5191003 0.51645615 1.5040774 1.5040774 0.17627006 0.17627006
 2 1.6496277  -1.3152885 -2.5395168 0.53638431 1.5040774 1.5040774 0.29110057 0.29110057
 5 1.7335037  -1.0249926 -3.2753284 0.58210223 1.5040774 1.5040774 0.45885258 0.45885258
 1 1.7335975 -0.78656241 -3.8743156 0.83898933 1.5040774 1.5040774 0.45904023 0.45904023
 5 1.7335932  -1.4019254 -3.3140205 0.88725549 1.5040774 1.5040774 0.45903157 0.45903157
 4 1.7335975   -1.320993 -3.6057656 0.87940595 1.5040774 1.5040774 0.45904015 0.45904015
 3 1.7278065   -1.705814 -2.4778383 0.73201028 1.5040774 1.5040774 0.44745819 0.44745819
11 1.7335975  -1.0590315 -3.6844232 0.89260552 1.5040774 1.5040774 0.45904015 0.45904015
 6 1.7335975  -1.1441689 -3.9341974 0.80178052 1.5040774 1.5040774 0.45904024 0.45904024
 9 1.7290033  -1.7850061 -1.5577183 0.86587006 1.5040774 1.5040774 0.44985175 0.44985175
10 1.6969756  -1.7310175 -1.8853658  0.7518518 1.5040774 1.5040774 0.38579648 0.38579648
 5 1.7332565 -0.97003102 0.40322717 0.86649248 1.5040774 1.5040774 0.45835818 0.45835818
21 1.7525302   -1.282304 0.77954036 0.86004045 1.5040774 1.5040774 0.49690567 0.49690567
 4 1.7335302  -1.3205209 -0.033563091 0.87937598 1.5040774 1.5040774 0.45890554 0.45890554
 1 1.7335868  -1.4128563    0.2712021 0.85237759 1.5040774 1.5040774 0.45901881 0.45901881
 6 1.7285783   -1.443931   -2.7317074 0.81301749 1.5040774 1.5040774 0.44900189 0.44900189
 1 1.7335963  -1.7662719  0.040154115   0.843595 1.5040774 1.5040774 0.45903773 0.45903773
11 1.7335933   -1.724179  0.049759413 0.79968848 1.5040774 1.5040774 0.45903177 0.45903177
 6 1.7335969  -1.9048974   0.18358713 0.77460721 1.5040774 1.5040774 0.45903892 0.45903892
 6 1.7335571  -1.9460854  -0.52248555  0.7641166 1.5040774 1.5040774 0.45895947 0.45895947
 2 1.7335583  -1.8968384  -0.46918844 0.76921458 1.5040774 1.5040774 0.45896172 0.45896172
 2 1.7232107  -1.5034036   -2.5719933 0.84355673 1.5040774 1.5040774 0.43826653 0.43826653
 1 1.7073192  -1.6123449   -2.2588574 0.79036235 1.5040774 1.5040774 0.40648367 0.40648367
 3 1.7267695  -1.8034655   -2.2368096 0.81785508 1.5040774 1.5040774 0.44538423 0.44538423
 3 1.7333994  -1.5714698  -0.12329325 0.40861554 1.5040774 1.5040774 0.45864402 0.45864402
 1 2.0642009  -1.3388118  -0.96760113 0.42689804 1.5040774 1.5040774   1.120247   1.120247
 9 2.0369481  -1.3446248  -0.99206099 0.42282731 1.5040774 1.5040774  1.0657413  1.0657413
 8 1.7277174  -0.7733262   -3.2161105  0.4647086 1.5040774 1.5040774 0.44728004 0.44728004
 8 1.5604928  -1.1073154   -2.6696194 0.41317613 1.5040774 1.5040774 0.11283077 0.11283077
 9 1.7322732  -1.6144734  -0.80079522 0.81039269 1.5040774 1.5040774 0.45639158 0.45639158
 2 1.7335387 -0.86425804   -3.3400107 0.61338113 1.5040774 1.5040774 0.45892265 0.45892265
 4  1.733559    -1.32268   -3.1759708 0.71656456 1.5040774 1.5040774 0.45896329 0.45896329
 3 1.7335975  -1.7370203   -3.7495972 0.47996726 1.5040774 1.5040774 0.45904024 0.45904024
 9 1.7335975 -1.7381332   -3.7639292 0.45336879 1.5040774 1.5040774 0.45904024 0.45904024
11  1.733595 -1.9094616   -3.2040791 0.51753428 1.5040774 1.5040774 0.45903521 0.45903521
 1 1.7321544 -1.8882425   -1.5369079 0.88962942 1.5040774 1.5040774  0.4561541  0.4561541
10 1.7324609 -1.9252857   -1.5669797 0.89325856 1.5040774 1.5040774 0.45676693 0.45676693
 1 1.7320764  -1.897044   -1.4946161 0.86524413 1.5040774 1.5040774 0.45599791 0.45599791
10 1.6624705 -1.8232543   -1.7150246  0.4893984 1.5040774 1.5040774 0.31678625 0.31678625
 1   1.67136 -1.7893307   -1.9718038 0.47291286 1.5040774 1.5040774 0.33456516 0.33456516
 1 1.7335352 -1.4091152   -3.0818092 0.68265278 1.5040774 1.5040774 0.45891552 0.45891552
 2 1.7328483 -1.5658846  -0.55446525 0.79028838 1.5040774 1.5040774 0.45754177 0.45754177
10 1.7334482 -1.6974246  -0.61654356 0.83906786 1.5040774 1.5040774 0.45874166 0.45874166
 9 1.7335973 -1.9765834   0.60344519 0.78634897 1.5040774 1.5040774  0.4590398  0.4590398
 1 1.7335975 -1.6753973   -3.6760803  0.6784701 1.5040774 1.5040774 0.45904024 0.45904024
 1 1.7335975  -1.681452   -3.5546142 0.59674838 1.5040774 1.5040774 0.45904023 0.45904023
 2 1.7335975 -1.2754441   -3.7982374 0.60534961 1.5040774 1.5040774 0.45904024 0.45904024
 2 1.7335975 -1.6654736    -3.628542 0.70163148 1.5040774 1.5040774 0.45904023 0.45904023
 1 1.8030963 -1.1776506   -0.4282546 0.79351171 1.5040774 1.5040774 0.59803781 0.59803781
 5 1.7351313 -1.3462203   0.25285332 0.49520103 1.5040774 1.5040774 0.46210781 0.46210781
 2 1.7335972 -1.9485181 -0.051353851 0.86189709 1.5040774 1.5040774 0.45903969 0.45903969
 3 1.7335973 -1.9354613  0.010594738 0.86772382 1.5040774 1.5040774 0.45903987 0.45903987
 2 1.7322826 -1.8957403    -1.550033 0.89695103 1.5040774 1.5040774 0.45641039 0.45641039
 3 1.7318131  -1.7234451   -1.0194191 0.80896381 1.5040774 1.5040774 0.45547137 0.45547137
 2 1.7188804  -1.9658663  -0.03404761 0.63012652 1.5040774 1.5040774 0.42960602 0.42960602
 1 1.7338074  -1.0852469 -0.053067979 0.85738575 1.5040774 1.5040774 0.45946001 0.45946001
 1 1.7173217 -0.41346385    -3.109778 0.68495075 1.5040774 1.5040774  0.4264886  0.4264886
19 1.7146605 -0.41154976   -3.0969803 0.68326901 1.5040774 1.5040774  0.4211663  0.4211663
 1 1.5559525  -1.6335827   -1.6957826 0.52669141 1.5040774 1.5040774 0.10375021 0.10375021
 9 1.7292012  -1.9006736   -2.2370848 0.76652128 1.5040774 1.5040774 0.45024765 0.45024765
 3 1.7207286  -1.6398731   -1.4533694  0.8426452 1.5040774 1.5040774 0.43330238 0.43330238
 1 1.7290759  -1.5067169  -0.96198929 0.76247638 1.5040774 1.5040774 0.44999697 0.44999697
 1  1.733589  -1.7143293 -0.038662942 0.79433067 1.5040774 1.5040774 0.45902315 0.45902315
 1 1.7335837  -1.6312543   0.14617905 0.77099871 1.5040774 1.5040774 0.45901254 0.45901254
 1 1.7333625  -1.3520538  -0.25148934 0.85722745 1.5040774 1.5040774 0.45857021 0.45857021
 1 1.7295429 -0.93823672   -2.9741154 0.68309666 1.5040774 1.5040774 0.45093101 0.45093101
 1 1.7275406  -1.0643177   -2.8675011 0.69259944 1.5040774 1.5040774 0.44692631 0.44692631
 4 1.7242204  -1.1357844   -2.8429078 0.60882551 1.5040774 1.5040774 0.44028602 0.44028602
 3 1.7326649  -1.1967965   -3.0144317  0.6041004 1.5040774 1.5040774  0.4571751  0.4571751
 1 1.5462975  -1.1765943   -2.4313958 0.57367357 1.5040774 1.5040774 0.08444022 0.08444022
 1 1.8448631  -1.6873789   0.60848919 0.65994488 1.5040774 1.5040774 0.68157146 0.68157146
 5 1.8271061  -0.6920841   0.67025276  0.8711251 1.5040774 1.5040774 0.64605749 0.64605749
 4 1.7355069  -1.5836085 -0.049879266 0.55113794 1.5040774 1.5040774 0.46285898 0.46285898
 5 1.7327352  -1.6349183 -0.58360737 0.40020696 1.5040774 1.5040774  0.45731559  0.45731559
 1 1.7223114  -1.8572835  -1.5126376 0.75260939 1.5040774 1.5040774  0.43646808  0.43646808
 9 1.7325658 -0.81669894  -3.1602885 0.81695651 1.5040774 1.5040774  0.45697688  0.45697688
 1 1.7110402 -0.79817674  -2.9262449 0.81773041 1.5040774 1.5040774  0.41392561  0.41392561
 3 1.5161567  -1.1497531  -2.3094561 0.75086553 1.5040774 1.5040774 0.024158576 0.024158576
 3 1.5162107  -1.1038779  -2.3374244 0.75205811 1.5040774 1.5040774 0.024266629 0.024266629
 5 1.5442215   -1.122121  -2.2011554 0.74968896 1.5040774 1.5040774 0.080288301 0.080288301
 1 1.7326131  -1.4736956  -2.8611888 0.59155095 1.5040774 1.5040774  0.45707132  0.45707132
10   1.73357  -1.7093099  -3.0554104 0.69051401 1.5040774 1.5040774  0.45898525  0.45898525
 8  1.733577  -1.7148073  -3.0752273 0.68987766 1.5040774 1.5040774   0.4589993   0.4589993
 1 1.7335963  -1.6430475  -3.2745451 0.59686062 1.5040774 1.5040774   0.4590379   0.4590379
 1 1.7335618  -1.6099081  -3.0853551 0.57510322 1.5040774 1.5040774   0.4589688   0.4589688
 5 1.7089676  -1.5593187  -2.3280754 0.68743858 1.5040774 1.5040774  0.40978041  0.40978041
 5 1.7176647  -1.7190292  -1.1642525    0.47029 1.5040774 1.5040774  0.42717453  0.42717453
 6 1.5518611  -1.5344487   -1.885519 0.49852489 1.5040774 1.5040774 0.095567357 0.095567357
 3 1.6976297  -1.4641538  -2.4624852 0.56829599 1.5040774 1.5040774  0.38710467  0.38710467
 5 1.6064037  -1.5684073  -1.7922261 0.73724811 1.5040774 1.5040774  0.20465264  0.20465264
 6  2.123959   -1.308897  -1.8563723 0.65877177 1.5040774 1.5040774   1.2397632   1.2397632
 7 1.5873965  -1.3282895  -2.2250801 0.62995804 1.5040774 1.5040774  0.16663827  0.16663827
 4 1.6693605  -1.5209544  -1.7233074 0.82650976 1.5040774 1.5040774  0.33056611  0.33056611
 3  1.733583  -1.4806403  -3.2102216  0.8327693 1.5040774 1.5040774 0.45901119 0.45901119
 4 1.7335975  -1.8444475  -3.5471803 0.77933733 1.5040774 1.5040774 0.45904023 0.45904023
 1 1.7312296  -1.9451736  -1.7714738 0.85751037 1.5040774 1.5040774 0.45430443 0.45430443
10 1.7311943  -1.9875621  -1.4689297 0.77392396 1.5040774 1.5040774 0.45423388 0.45423388
 5 1.7281745  -1.9139037  -2.2248794  0.5836972 1.5040774 1.5040774 0.44819423 0.44819423
 8 1.7330642 -0.63478879  -3.3249526   0.581199 1.5040774 1.5040774 0.45797358 0.45797358
 3 1.7332032 -0.69294153  -3.2582115 0.66707899 1.5040774 1.5040774 0.45825163 0.45825163
14 1.7325872 -0.26483959  -3.3623537 0.69661245 1.5040774 1.5040774 0.45701965 0.45701965
 9 1.7330863 -0.33339174  -3.3757182 0.70206954 1.5040774 1.5040774 0.45801784 0.45801784
 9 1.8220546   -1.515675  -0.9780446 0.47169986 1.5040774 1.5040774 0.63595439 0.63595439
 1 1.6868914  -1.3696049  -2.4409105 0.86079729 1.5040774 1.5040774 0.36562807 0.36562807
 1 1.7335972  -1.4308355  -3.4639839 0.80860054 1.5040774 1.5040774 0.45903962 0.45903962
 9 1.7335975  -1.2157355  -3.7998122 0.80047734 1.5040774 1.5040774 0.45904024 0.45904024
 1 1.8530557  -1.6363748 -0.12157319 0.59180503 1.5040774 1.5040774 0.69795667 0.69795667
 7 1.7335973  -1.9426565   0.5168694 0.75008145 1.5040774 1.5040774  0.4590398  0.4590398
 3 1.7329053  -1.4924336 0.058746399 0.52742035 1.5040774 1.5040774 0.45765584 0.45765584
 6 1.7273312  -1.5471263  -1.0069364 0.72812504 1.5040774 1.5040774 0.44650753 0.44650753
 6 1.5882194  -1.3552336    -1.93964 0.84945518 1.5040774 1.5040774 0.16828408 0.16828408
 6 3.5250715  -1.6183758 -0.88259702 0.65573302 1.5040774 1.5040774  4.0419883  4.0419883
 3 2.6410246  -1.4251062   0.2818807 0.65853243 1.5040774 1.5040774  2.2738945  2.2738945
 1 1.7330009  -1.5088099  -0.6263326 0.85159653 1.5040774 1.5040774 0.45784706 0.45784706
 7  1.733392  -1.5776965 -0.52136119 0.84877305 1.5040774 1.5040774 0.45862924 0.45862924
 5 1.7334225  -1.5116835 -0.41676822 0.85408226 1.5040774 1.5040774 0.45869019 0.45869019
 2 1.7318761  -1.4629632   0.7867666  0.7576525 1.5040774 1.5040774 0.45559737 0.45559737
 7 3.1298379  -1.6415744  0.79397124 0.77791136 1.5040774 1.5040774   3.251521   3.251521
 1 1.7335875   -1.665274  0.43587221 0.74945269 1.5040774 1.5040774 0.45902025 0.45902025
 4 1.7329176   -1.757563  0.62874846  0.7537394 1.5040774 1.5040774 0.45768039 0.45768039
 1 1.7670514 -0.49011535  -2.9611806 0.60175451 1.5040774 1.5040774 0.52594807 0.52594807
 4 1.7248794 -0.72730683  -3.1942567 0.47648176 1.5040774 1.5040774 0.44160394 0.44160394
 3 1.7262273  -0.5414148  -3.2482698 0.48848638 1.5040774 1.5040774 0.44429984 0.44429984
 1  1.732438 -0.39898366   -3.403064 0.50393106 1.5040774 1.5040774 0.45672121 0.45672121
 2 1.7310263   -0.451555  -3.3018728  0.5644356 1.5040774 1.5040774 0.45389772 0.45389772
 1 1.7333278 -0.30583147  -3.4968211 0.54397762 1.5040774 1.5040774  0.4585008  0.4585008
 6 1.7335624 -0.31924476  -3.6214521 0.53462197 1.5040774 1.5040774 0.45896994 0.45896994
12 1.7335351 -0.90351336  -3.4245487 0.49904714 1.5040774 1.5040774 0.45891538 0.45891538
 8 1.7327477  -1.3340289  -2.9072313  0.6470603 1.5040774 1.5040774 0.45734057 0.45734057
 3 2.0460017  -1.0890939 -0.17738381 0.77206824 1.5040774 1.5040774  1.0838485  1.0838485
 4 1.7308584  -1.6983638 -0.68662554 0.72502609 1.5040774 1.5040774   0.453562   0.453562
 6 1.7039041  -1.6054597  -1.1027368 0.71626767 1.5040774 1.5040774 0.39965349 0.39965349
 3 1.7138349  -1.7573646  -1.8900724 0.79524405 1.5040774 1.5040774 0.41951508 0.41951508
 2  1.726747 -1.8435391 -1.9126675 0.84228508 1.5040774 1.5040774 0.44533924 0.44533924
 1 1.7304029 -1.9157457 -1.7680715  0.8502314 1.5040774 1.5040774 0.45265098 0.45265098
 2 1.7332044 -1.9649746 -2.5868292 0.86782385 1.5040774 1.5040774 0.45825409 0.45825409
 8 1.7335934  -1.747458  -3.176375 0.86410188 1.5040774 1.5040774 0.45903202 0.45903202
27 1.7335975 -1.6746512 -3.5818877 0.85489474 1.5040774 1.5040774 0.45904022 0.45904022
 2 1.7335962 -1.8317364 -3.2172133 0.83370763 1.5040774 1.5040774 0.45903753 0.45903753
 4 1.7335656 -1.8868407 -2.9529013 0.82333546 1.5040774 1.5040774 0.45897634 0.45897634
 3 1.7335956 -1.9887155 -3.1213045 0.83694123 1.5040774 1.5040774 0.45903648 0.45903648
 2 1.7637827 -1.6890578 -1.3837753 0.54543154 1.5040774 1.5040774 0.51941067 0.51941067
 6  1.730573  -1.632907 -2.6602759 0.56696334 1.5040774 1.5040774 0.45299123 0.45299123
 8 1.7335975 -1.4063811 -3.7089592 0.63798003 1.5040774 1.5040774 0.45904024 0.45904024
 1  1.728284  -1.828908 -1.2595518 0.41794856 1.5040774 1.5040774  0.4484133  0.4484133
 2  1.727019 -1.8015025 -1.2844058 0.41421613 1.5040774 1.5040774 0.44588311 0.44588311
 2  1.723954 -1.4730298 -2.6922051 0.54543147 1.5040774 1.5040774 0.43975329 0.43975329
 3 1.7215066 -1.5998631 -2.4534343  0.5838817 1.5040774 1.5040774 0.43485847 0.43485847
 1 1.7199216  -1.678755 -2.3528023 0.58105245 1.5040774 1.5040774 0.43168844 0.43168844
 2 1.6887264 -1.9091847 -1.9222829 0.53700413 1.5040774 1.5040774 0.36929807 0.36929807
 4 1.6877632  -1.803191 -2.0856983 0.47517434 1.5040774 1.5040774 0.36737168 0.36737168
 4 1.6494653 -1.5688807 -2.3336418 0.48323323 1.5040774 1.5040774 0.29077571 0.29077571
 6   1.64982 -1.5699431 -2.3331987 0.48318785 1.5040774 1.5040774 0.29148516 0.29148516
 6 1.7200323 -1.9080475  -1.2002575 0.48974343 1.5040774 1.5040774 0.43190982 0.43190982
 2 1.6999311 -1.8731539 -0.93841372   0.567927 1.5040774 1.5040774 0.39170746 0.39170746
17 1.7321597 -1.7791837  -2.7001755 0.53101384 1.5040774 1.5040774 0.45616467 0.45616467
 1 1.7334541 -1.3297972  -3.0497818 0.67494522 1.5040774 1.5040774 0.45875344 0.45875344
 1 1.7335975 -1.3179939  -3.5954322 0.68443014 1.5040774 1.5040774  0.4590402  0.4590402
 1 1.7335081 -1.4924603   -3.076735 0.83598845 1.5040774 1.5040774 0.45886141 0.45886141
 2  1.733354 -1.9212446  -2.7261683 0.77828844 1.5040774 1.5040774 0.45855315 0.45855315
 2  1.733566 -1.8633605  -2.9752042 0.74312315 1.5040774 1.5040774 0.45897716 0.45897716
 2 1.7335975 -1.8119472  -3.6846893 0.66232176 1.5040774 1.5040774 0.45904024 0.45904024
 1 1.7335768 -1.7444748   -3.026093 0.59647779 1.5040774 1.5040774 0.45899873 0.45899873
 7 1.7335975 -1.8206634  -3.6348061  0.6057529 1.5040774 1.5040774 0.45904024 0.45904024
 1 1.7335975 -1.8230261  -3.6424894 0.60588031 1.5040774 1.5040774 0.45904024 0.45904024
 1 1.7335975 -1.9962763  -3.4589131  0.4374997 1.5040774 1.5040774 0.45904011 0.45904011
 4 1.7335975 -1.9872803  -3.4679725 0.43059079 1.5040774 1.5040774 0.45904011 0.45904011
 5 1.7335975 -1.9162753  -3.4552019 0.59491622 1.5040774 1.5040774 0.45904022 0.45904022
 4 1.7335917 -1.8132803  -3.0822274 0.65521659 1.5040774 1.5040774 0.45902865 0.45902865
 5 1.7335974 -1.7209193  -3.4595414 0.55689508 1.5040774 1.5040774  0.4590401  0.4590401
 7 1.7335975  -1.259764   -3.762864 0.52663885 1.5040774 1.5040774 0.45904022 0.45904022
 5 1.7335975 -1.3171613  -3.6339468 0.60385384 1.5040774 1.5040774 0.45904021 0.45904021
 8 1.7335973 -1.2118311  -3.6070231 0.53785487 1.5040774 1.5040774 0.45903987 0.45903987
 1 1.7166118  -0.9032413   -2.8551393 0.73399349 1.5040774 1.5040774 0.42506889 0.42506889
 8 1.7335947  -1.0353556    -3.457098 0.79081266 1.5040774 1.5040774 0.45903463 0.45903463
 4 1.7335445  -0.8483557   -3.3139554 0.77516734 1.5040774 1.5040774 0.45893418 0.45893418
 1 1.7114842  -1.2777219   -1.6769054 0.88136476 1.5040774 1.5040774 0.41481368 0.41481368
 1 1.6900663  -1.7819458   -1.5433572 0.71441385 1.5040774 1.5040774  0.3719778  0.3719778
12 1.7125128  -1.8273217   -1.8711869 0.74100244 1.5040774 1.5040774 0.41687085 0.41687085
 1 1.7266667  -1.8073119   -2.4276147 0.53844267 1.5040774 1.5040774 0.44517867 0.44517867
 2 1.7335958  -1.8881939   -3.1238605 0.60889144 1.5040774 1.5040774 0.45903673 0.45903673
 4 1.7335973  -1.8858393   -3.2729988 0.58953984 1.5040774 1.5040774 0.45903973 0.45903973
 6 1.7335975  -1.7839442   -3.5061568 0.58774438 1.5040774 1.5040774 0.45904022 0.45904022
 1 1.7335975  -1.7043555   -3.6760124 0.50258005 1.5040774 1.5040774 0.45904023 0.45904023
 2 1.7254145 -0.88681485   -3.0118182 0.59840461 1.5040774 1.5040774 0.44267413 0.44267413
24 1.7332101  -0.3213817   -3.4862692 0.50627108 1.5040774 1.5040774 0.45826548 0.45826548
 2 1.7335449 -0.49596133   -3.6454885 0.40097526 1.5040774 1.5040774 0.45893492 0.45893492
 9 1.7330388  -1.8023244  -0.27561631 0.54971906 1.5040774 1.5040774  0.4579229  0.4579229
 1 1.6459202 -0.81069113   -2.8440137 0.57575925 1.5040774 1.5040774 0.28368554 0.28368554
 4 2.2701752  -1.4482592   -1.8114596 0.58815776 1.5040774 1.5040774  1.5321956  1.5321956
 3 1.7335134  -1.7962371 -0.076255309 0.47346741 1.5040774 1.5040774 0.45887206 0.45887206
 7 1.7335624  -1.8699679   0.20139217 0.50984589 1.5040774 1.5040774 0.45896991 0.45896991
 1  1.733575  -1.8730089   0.22709698   0.503318 1.5040774 1.5040774 0.45899518 0.45899518
 1  1.733206  -1.4667536 -0.057625437 0.43067014 1.5040774 1.5040774 0.45825711 0.45825711
 2 1.7332115  -1.4617723  -0.06739793 0.43314687 1.5040774 1.5040774 0.45826814 0.45826814
 5 1.7394406  -1.1948493  -0.10309095 0.42128487 1.5040774 1.5040774 0.47072641 0.47072641
10 1.7352468     -1.1864  -0.06987104 0.41984984 1.5040774 1.5040774 0.46233887 0.46233887
 5 1.7471259  -1.1449263  -0.24351026 0.41888127 1.5040774 1.5040774 0.48609705 0.48609705
14  1.735179  -1.1574084  -0.11819612 0.42576649 1.5040774 1.5040774 0.46220316 0.46220316
 5 1.9122825   -1.224078   0.42520822 0.48328717 1.5040774 1.5040774 0.81641021 0.81641021
 4 1.7354547  -1.2549494   0.45335231 0.48691613 1.5040774 1.5040774 0.46275465 0.46275465
 6 1.7317566  -1.2480608   0.41191096 0.48191315 1.5040774 1.5040774 0.45535834 0.45535834
 1 1.7980214  -1.0485248  -0.40484053 0.85296126 1.5040774 1.5040774 0.58788793 0.58788793
21 1.7374935  -1.1019415  -0.26003653 0.85697801 1.5040774 1.5040774 0.46683225 0.46683225
10 1.7335913  -1.6470124  -0.13386138 0.87230411 1.5040774 1.5040774 0.45902771 0.45902771
 4 1.6716846  -1.3804527   -2.3631435 0.85324337 1.5040774 1.5040774 0.33521442 0.33521442
 3 1.7339986  -1.1925802   -1.8833612 0.88350464 1.5040774 1.5040774  0.4598425  0.4598425
 1 1.7335498 -0.90317293   -3.2903949 0.73781051 1.5040774 1.5040774 0.45894478 0.45894478
 5 1.6970794 -0.34376991   -2.9205811 0.78286023 1.5040774 1.5040774 0.38600394 0.38600394
 7 1.6639673 -0.41094765   -2.9248764  0.7826988 1.5040774 1.5040774 0.31977987 0.31977987
 6 1.7318508 -0.67033224   -3.1436959 0.74106967 1.5040774 1.5040774 0.45554676 0.45554676
 3 1.7317611 -0.60382318   -3.1911052 0.85561374 1.5040774 1.5040774 0.45536737 0.45536737
 4  1.713731  -1.0025874   -2.3049749  0.8409826 1.5040774 1.5040774 0.41930711 0.41930711
 4 1.7315731  -1.0719733 -2.9738201 0.73669017 1.5040774 1.5040774   0.45499137   0.45499137
 1 1.7234415   -1.150609 -2.7954815  0.7371961 1.5040774 1.5040774   0.43872819   0.43872819
 1 1.7211811  -1.1557588 -2.7400491 0.67639102 1.5040774 1.5040774   0.43420731   0.43420731
12 1.7335754 -0.81321582  -3.386425 0.65812771 1.5040774 1.5040774   0.45899593   0.45899593
16 1.7136753 -0.54927382 -3.0276012 0.70749119 1.5040774 1.5040774   0.41919588   0.41919588
12 1.7335974 -0.63860267 -3.6998335  0.7538321 1.5040774 1.5040774   0.45903997   0.45903997
14 1.7335975 -0.63500508 -3.7486431 0.76021997 1.5040774 1.5040774   0.45904013   0.45904013
 1 1.6428879 -0.94423974  -2.635586 0.74649494 1.5040774 1.5040774     0.277621     0.277621
 2  1.733306  -1.1215599 -3.0897054 0.70934778 1.5040774 1.5040774   0.45845717   0.45845717
 1 1.6959169  -1.6113674 -1.4793743 0.78228393 1.5040774 1.5040774   0.38367897   0.38367897
 4 1.7176467  -1.9873611 -1.8515759 0.64712417 1.5040774 1.5040774   0.42713869   0.42713869
 3 1.6975492  -1.9017506 -1.3592379 0.67708608 1.5040774 1.5040774   0.38694364   0.38694364
 4 1.7335975  -1.5911968 -3.7102971 0.65454501 1.5040774 1.5040774   0.45904024   0.45904024
 6 1.7335975  -1.5823118 -3.7231244 0.65852983 1.5040774 1.5040774   0.45904024   0.45904024
 1 1.5058797  -1.7686958 -1.5496007 0.59758554 1.5040774 1.5040774 0.0036046296 0.0036046296
10 1.7326994  -1.4033879 -1.0073607 0.83519409 1.5040774 1.5040774   0.45724397   0.45724397
 6  1.678105  -1.4576594 -1.4857258 0.79190374 1.5040774 1.5040774   0.34805517   0.34805517
 6 1.6255401  -1.4611488 -1.6630287 0.78508712 1.5040774 1.5040774   0.24292533   0.24292533
 4 1.5876755  -1.5018979 -1.6442337 0.73650693 1.5040774 1.5040774   0.16719626   0.16719626
 1 1.5705808   -1.509087 -1.7019601 0.73297402 1.5040774 1.5040774   0.13300684   0.13300684
 6 1.7334555 -0.49460958 -3.4314639 0.61324052 1.5040774 1.5040774 0.45875616 0.45875616
 3 1.7008771 -0.51312025 -2.9959687 0.60644268 1.5040774 1.5040774 0.39359944 0.39359944
 1 1.7335975  -1.1238324 -3.8312963 0.53646624 1.5040774 1.5040774 0.45904023 0.45904023
 2 1.7319412  -1.4586339 -2.8453243 0.78191029 1.5040774 1.5040774 0.45572752 0.45572752
 9 1.7335531  -1.3665047 -3.1692369 0.72625892 1.5040774 1.5040774 0.45895134 0.45895134
 1 1.7335815  -1.1670177  -3.277686 0.63888217 1.5040774 1.5040774 0.45900823 0.45900823
 6 1.7335733  -1.1694094 -3.2508834 0.63895484 1.5040774 1.5040774 0.45899182 0.45899182
 1  1.733594   -1.155255 -3.3683131 0.64774634 1.5040774 1.5040774 0.45903327 0.45903327
 8 1.7328644  -1.4898619 0.10143928 0.52467478 1.5040774 1.5040774 0.45757401 0.45757401
12 1.7346371  -1.7555338  0.6240819 0.43187552 1.5040774 1.5040774 0.46111938 0.46111938
 2 1.6977591  -1.4681156 -2.4620738 0.56717194 1.5040774 1.5040774 0.38736332 0.38736332
 3 1.7329419  -1.3974728 -2.9659236 0.57718501 1.5040774 1.5040774 0.45772899 0.45772899
10 1.7335975  -1.9781834 -3.9017729 0.65252916 1.5040774 1.5040774 0.45904024 0.45904024
 9 1.7335975  -1.9923425 -3.8546565 0.64320878 1.5040774 1.5040774 0.45904024 0.45904024
 4 1.7335975   -1.955022 -3.3072629 0.61820353 1.5040774 1.5040774 0.45904011 0.45904011
 1 1.6507648  -1.7700388 -1.7606773 0.67476145 1.5040774 1.5040774 0.29337483 0.29337483
 5 1.7334255  -1.0436049 -3.1981988  0.6144178 1.5040774 1.5040774 0.45869625 0.45869625
 1 1.7329025  -1.2130968 -3.1004152 0.54410376 1.5040774 1.5040774 0.45765015 0.45765015
 2 1.6767045  -1.3133558 -2.5528501 0.56330435 1.5040774 1.5040774 0.34525428 0.34525428
 3 1.6250113 -0.72990655  -2.790043   0.871801 1.5040774 1.5040774 0.24186775 0.24186775
 6 1.6255003 -0.72187563 -2.7940895 0.87487368 1.5040774 1.5040774 0.24284572 0.24284572
 4 1.6308306 -0.71511129 -2.8053649  0.8801832 1.5040774 1.5040774 0.25350638 0.25350638
 6 1.7277392  -1.6670577 -2.4163597 0.62912148 1.5040774 1.5040774 0.44732371 0.44732371
 4 1.7182089  -1.3387469 -2.8358612 0.47760412 1.5040774 1.5040774 0.42826307 0.42826307
 4 1.7186386  -1.3646635 -2.8245377 0.47444211 1.5040774 1.5040774 0.42912233 0.42912233
17 1.7254631   -1.834649 -2.2344024 0.73340483 1.5040774 1.5040774 0.44277137 0.44277137
 6 1.7444549  -1.9192274 0.48581501 0.62022318 1.5040774 1.5040774 0.48075507 0.48075507
 7 1.7335971  -1.7203895 -3.4637497 0.42926003 1.5040774 1.5040774 0.45903939 0.45903939
 3 1.7335969  -1.7021498 -3.4580329 0.42274763 1.5040774 1.5040774 0.45903909 0.45903909
15 1.7326539   -1.619025 -2.9511798 0.45826898 1.5040774 1.5040774 0.45715296 0.45715296
10 1.7318943  -1.7580804 -2.7957621 0.45612927 1.5040774 1.5040774 0.45563379 0.45563379
 4 1.7146777  -1.7359714 -2.3289388 0.54220941 1.5040774 1.5040774 0.42120051 0.42120051
 1 1.7211095  -1.6273988 -2.3993486 0.59228981 1.5040774 1.5040774 0.43406418 0.43406418
 2 1.7335966  -1.0904815 -3.5334061 0.56815102 1.5040774 1.5040774 0.45903844 0.45903844
 2 1.7328536  -0.9170666 -3.1173734  0.7635192 1.5040774 1.5040774  0.4575525  0.4575525
 3 1.6971158 -0.88111226 -2.7933078 0.70127955 1.5040774 1.5040774 0.38607678 0.38607678
 1 1.7292589 -0.97423588 -2.9828317 0.77680138 1.5040774 1.5040774  0.4503631  0.4503631
 1 1.6420165  -1.6678209 -1.9179611 0.68746712 1.5040774 1.5040774 0.27587824 0.27587824
 3 1.7297969  -1.1554327 -2.9381911 0.58974397 1.5040774 1.5040774 0.45143896 0.45143896
 6 1.7332138  -1.4611134 -2.9771194 0.76123916 1.5040774 1.5040774 0.45827274 0.45827274
 1  1.708792  -1.1487108  -2.6600132 0.70512221 1.5040774 1.5040774  0.40942919  0.40942919
 4 1.5460113  -1.5219235  -2.1212966 0.53258538 1.5040774 1.5040774 0.083867838 0.083867838
 4 1.6252648  -1.1344064  -2.5584399 0.59329762 1.5040774 1.5040774   0.2423749   0.2423749
11 1.7335197  -1.4725286 -0.16202848 0.43000686 1.5040774 1.5040774  0.45888464  0.45888464
 1 1.7335957  -1.9729793 0.051291905 0.74254944 1.5040774 1.5040774  0.45903659  0.45903659
 4 1.7335975  -1.7506168    -3.75642  0.7490093 1.5040774 1.5040774  0.45904024  0.45904024
11  1.733305  -1.9833581  -2.6382743  0.6607956 1.5040774 1.5040774  0.45845524  0.45845524
 2 1.8411701  -1.8518596 -0.98340817 0.59575294 1.5040774 1.5040774  0.67418545  0.67418545
 2 1.7185663  -1.9289401  -1.1904729 0.49858746 1.5040774 1.5040774  0.42897782  0.42897782
 3 1.7333953  -1.8346235 -0.54319435 0.41702395 1.5040774 1.5040774  0.45863572  0.45863572
 2 1.5110647  -1.5092194  -1.8276518 0.64277498 1.5040774 1.5040774 0.013974669 0.013974669
 5 1.5351119  -1.1029797  -2.3711209 0.61361457 1.5040774 1.5040774 0.062069006 0.062069006
 1 1.5362665  -1.2558894  -2.0711914 0.65993706 1.5040774 1.5040774 0.064378199 0.064378199
 3  1.933729  -1.4415813   -1.449091 0.70366952 1.5040774 1.5040774  0.85930322  0.85930322
 4 1.7335975  -1.4287835  -3.5873517 0.60541883 1.5040774 1.5040774   0.4590402   0.4590402
 6 1.7335975  -1.3438759  -3.9324235 0.49509897 1.5040774 1.5040774  0.45904024  0.45904024
 1 1.7335975  -0.8085991  -3.8980474 0.51116751 1.5040774 1.5040774  0.45904022  0.45904022
 2 1.7418219 -0.99765642  -2.4589695 0.57720852 1.5040774 1.5040774  0.47548896  0.47548896
 7 1.7335975 -0.96915221  -3.6719438 0.68596058 1.5040774 1.5040774  0.45904017  0.45904017
 5 1.7335975 -0.90401759  -3.8401107 0.69150242 1.5040774 1.5040774  0.45904024  0.45904024
 1 1.7335975 -1.1307658    -3.961054 0.77213826 1.5040774 1.5040774 0.45904024 0.45904024
 4 1.7228181 -1.8098569   -1.0834444  0.7125098 1.5040774 1.5040774  0.4374814  0.4374814
 3 1.7334516 -1.9357257  -0.58486885 0.73248047 1.5040774 1.5040774 0.45874842 0.45874842
 2  1.732587 -1.6448253  -0.77197161 0.80412231 1.5040774 1.5040774 0.45701915 0.45701915
 3 1.7335961  -1.797162 -0.077679549 0.85958633 1.5040774 1.5040774 0.45903742 0.45903742
 4 1.7326514 -1.8469328   -1.1665962 0.82903158 1.5040774 1.5040774 0.45714794 0.45714794
 6 1.7335787 -1.9600936   -2.9229254  0.5850627 1.5040774 1.5040774 0.45900255 0.45900255
 3 1.7333953  -1.543757 -0.059991975 0.42535501 1.5040774 1.5040774  0.4586358  0.4586358
 6 2.3695327  -1.420127   0.10284206 0.62310538 1.5040774 1.5040774  1.7309106  1.7309106
 2 1.7554555 -1.7341925 -0.033227617 0.65441299 1.5040774 1.5040774 0.50275629 0.50275629
11 1.7318449 -1.8533648    0.8454685 0.68051221 1.5040774 1.5040774 0.45553501 0.45553501
 7 1.8774593  -1.284617   -1.2773181 0.84141456 1.5040774 1.5040774 0.74676371 0.74676371
 5 1.7335538  -1.335952   -3.1325286  0.6604181 1.5040774 1.5040774 0.45895273 0.45895273
 2 1.7313593 -1.4995717   -2.7507201 0.69888122 1.5040774 1.5040774 0.45456371 0.45456371
 3 1.6866213 -1.8750453   -1.8743595 0.48875613 1.5040774 1.5040774 0.36508773 0.36508773
 3 1.6968864 -1.9232185   -1.8336053 0.49136306 1.5040774 1.5040774 0.38561798 0.38561798
13 1.6898706 -1.8316271   -2.0342797 0.47906538 1.5040774 1.5040774 0.37158646 0.37158646
 6 1.7333085 -1.7820297   0.83297882 0.72615357 1.5040774 1.5040774 0.45846222 0.45846222
 1 1.7711084 -1.7304019 -0.070168082 0.59566477 1.5040774 1.5040774 0.53406209 0.53406209
 1 1.7176474 -1.8963736   -1.7924341 0.72756094 1.5040774 1.5040774 0.42714005 0.42714005
 3 1.7335975 -0.62590312   -3.7647591 0.67321902 1.5040774 1.5040774   0.45904013   0.45904013
 6 1.7335974 -0.66831491   -3.7883936 0.59358182 1.5040774 1.5040774   0.45904011   0.45904011
 3 1.7335964 -0.93090633   -3.5051342 0.66373803 1.5040774 1.5040774   0.45903796   0.45903796
15 1.5067106  -1.2019934   -2.1424829  0.7085032 1.5040774 1.5040774 0.0052664545 0.0052664545
 5 1.6265502  -1.0344234   -2.2533249 0.68343244 1.5040774 1.5040774   0.24494559   0.24494559
 7 1.7283261  -1.2259617   -2.9365721 0.53870983 1.5040774 1.5040774   0.44849747   0.44849747
 1  1.737442  -1.3060032  -0.47092122 0.41159394 1.5040774 1.5040774    0.4667292    0.4667292
 6 1.7335716  -1.7293452 0.0041649997 0.41129629 1.5040774 1.5040774   0.45898845   0.45898845
 4 1.7398439  -1.7456645   0.51873839 0.42894403 1.5040774 1.5040774   0.47153311   0.47153311
 1 1.7335497  -1.7309877   0.35199739 0.43886855 1.5040774 1.5040774   0.45894467   0.45894467
16 1.7016103  -1.7105323   0.92819139 0.46151519 1.5040774 1.5040774   0.39506587   0.39506587
 2 1.7325903  -1.6105632   -2.9113736  0.4954926 1.5040774 1.5040774   0.45702576   0.45702576
 3 1.7335031  -1.9783368   -2.9429012 0.45246254 1.5040774 1.5040774   0.45885132   0.45885132
 9 1.7335915 -0.72315096   -3.5445846 0.58437338 1.5040774 1.5040774   0.45902828   0.45902828
 2  1.695004 -0.63163884   -3.0310232 0.54330392 1.5040774 1.5040774   0.38185317   0.38185317
 1  1.710434 -0.55372879   -3.0925603 0.56662471 1.5040774 1.5040774   0.41271328   0.41271328
11 1.7335743 -0.26459439    -3.701824 0.46252505 1.5040774 1.5040774   0.45899373   0.45899373
 2 1.7297957 -0.41443077   -3.2027472 0.73394173 1.5040774 1.5040774   0.45143661   0.45143661
 9 1.7184207  -1.0118421   -2.8495115 0.76925831 1.5040774 1.5040774    0.4286866    0.4286866
 3  1.722456  -1.0542864   -2.8722556 0.77613385 1.5040774 1.5040774   0.43675719   0.43675719
17 1.7335975  -1.1721008  -3.6510929 0.57706542 1.5040774 1.5040774 0.45904014 0.45904014
 2 1.7335973  -1.3208177  -3.6147209 0.47353505 1.5040774 1.5040774  0.4590398  0.4590398
 9 1.7335975  -1.0344132  -3.8489036 0.43441828 1.5040774 1.5040774 0.45904019 0.45904019
 9 1.7335973 -0.97928836  -3.7016306 0.51224349 1.5040774 1.5040774 0.45903984 0.45903984
 5 1.7335975  -1.1971876  -3.9280934 0.47626319 1.5040774 1.5040774 0.45904024 0.45904024
 4 1.7335925  -1.4314679  -3.2916471 0.73081268 1.5040774 1.5040774 0.45903022 0.45903022
 2 1.7335975  -1.7658626  -3.8683415 0.62098856 1.5040774 1.5040774 0.45904024 0.45904024
 2 1.7335975  -1.6903683  -3.7414258 0.70422817 1.5040774 1.5040774 0.45904024 0.45904024
 4 1.7334794   -1.942964  -2.7773206  0.6594688 1.5040774 1.5040774 0.45880391 0.45880391
 2 1.7331804  -1.4716108 -0.61186797 0.89442712 1.5040774 1.5040774 0.45820602 0.45820602
 5 1.7013716  -1.5210865  -1.6181968 0.87580675 1.5040774 1.5040774 0.39458835 0.39458835
 1 1.7267451  -1.6472761  -1.3821146 0.86883605 1.5040774 1.5040774 0.44533537 0.44533537
 2 1.7304671  -1.5759373  -1.1045695 0.87422263 1.5040774 1.5040774 0.45277947 0.45277947
 4 1.7331057  -1.6609049 -0.85892191 0.87269298 1.5040774 1.5040774 0.45805663 0.45805663
 1 1.7330415  -1.5988995 -0.78097052 0.86903001 1.5040774 1.5040774 0.45792816 0.45792816
 1 1.7330446  -1.5895124 -0.79130658  0.8789541 1.5040774 1.5040774 0.45793442 0.45793442
 3 1.7335773  -1.0655815  -3.3396387 0.82622258 1.5040774 1.5040774 0.45899982 0.45899982
 3 1.7335127  -1.3461647  -3.1451957 0.84762295 1.5040774 1.5040774 0.45887062 0.45887062
 5 1.6422408 -0.56521448  -2.8436276 0.81470163 1.5040774 1.5040774 0.27632686 0.27632686
 2 1.7335102  -1.4171125  0.13010169 0.78456343 1.5040774 1.5040774  0.4588657  0.4588657
12 1.7335478  -1.954595  0.71406161  0.7000008 1.5040774 1.5040774   0.4589409   0.4589409
 4 1.7331253 -1.9682744  0.77994795  0.6991663 1.5040774 1.5040774  0.45809585  0.45809585
 3 1.7285422 -1.5894742  -1.0510955  0.8129662 1.5040774 1.5040774  0.44892967  0.44892967
 1 1.6745583 -1.5441177   -1.552624  0.7903944 1.5040774 1.5040774   0.3409618   0.3409618
 2  1.669342 -1.4675457  -1.4846794 0.76546125 1.5040774 1.5040774  0.33052915  0.33052915
 2 1.6287876 -1.3916996  -1.7247002 0.75006766 1.5040774 1.5040774  0.24942032  0.24942032
 1 1.5735148 -1.4432682  -2.0795141 0.71523464 1.5040774 1.5040774  0.13887474  0.13887474
 8 1.7295789 -1.9072685  -1.5466654 0.79723617 1.5040774 1.5040774  0.45100296  0.45100296
 2 1.7327211 -1.9379216  -1.2682524 0.81443463 1.5040774 1.5040774  0.45728749  0.45728749
22 1.7325815 -1.9787875   -1.612939  0.8762596 1.5040774 1.5040774   0.4570083   0.4570083
 3 1.7303958 -1.9092541  -1.7333071 0.84910656 1.5040774 1.5040774  0.45263677  0.45263677
 6  1.645591 -1.5183427  -2.0638636  0.7779139 1.5040774 1.5040774  0.28302714  0.28302714
 1 1.6349364  -1.472998  -2.1448903  0.7666646 1.5040774 1.5040774  0.26171796  0.26171796
 1 1.5937596 -1.6903992  -1.6365364 0.67446938 1.5040774 1.5040774  0.17936448  0.17936448
 6 1.7056003 -1.6254144 -0.97067203 0.69026419 1.5040774 1.5040774  0.40304573  0.40304573
 6  1.661767 -1.6469031  -1.0595219 0.66377191 1.5040774 1.5040774  0.31537926  0.31537926
 5 1.6672506 -1.7094277  -1.9790927 0.60770532 1.5040774 1.5040774  0.32634643  0.32634643
 2 1.5368352 -1.7103855  -1.6808745 0.62152144 1.5040774 1.5040774 0.065515695 0.065515695
 8 1.7331426 -1.6928612  -3.0177111  0.4060044 1.5040774 1.5040774  0.45813047  0.45813047
 2 1.6495265 -1.4867278  -2.3462459 0.54146247 1.5040774 1.5040774  0.29089824  0.29089824
15  1.703367 -1.9774523 -1.9008088  0.5527591 1.5040774 1.5040774  0.39857926  0.39857926
 1 1.6613722 -1.7127145  -1.497884 0.71031736 1.5040774 1.5040774  0.31458958  0.31458958
 3 1.5258381 -1.5401156 -1.7035876 0.68099593 1.5040774 1.5040774 0.043521319 0.043521319
12  1.539503 -1.5250844  -1.697292 0.70648228 1.5040774 1.5040774 0.070851201 0.070851201
 2 1.7302389 -1.9985657 -1.9526182 0.78902314 1.5040774 1.5040774  0.45232291  0.45232291
 3 2.5038193 -1.3664239 -1.5343829  0.6965059 1.5040774 1.5040774   1.9994839   1.9994839
 3 1.7065313 -1.2909056 -2.5320901 0.66952128 1.5040774 1.5040774  0.40490782  0.40490782
 3 1.7157552 -1.7631179 -1.5701569 0.77642378 1.5040774 1.5040774  0.42335557  0.42335557
 1 1.7335975 -1.8902088 -3.9068758 0.79412136 1.5040774 1.5040774  0.45904024  0.45904024
 3 1.7335975 -1.8634787 -3.9442118 0.80115297 1.5040774 1.5040774  0.45904024  0.45904024
 4 1.7335817 -1.9121888 -3.0051897 0.76670984 1.5040774 1.5040774  0.45900867  0.45900867
 3 1.7335791 -1.9127983 -2.9700491 0.65921209 1.5040774 1.5040774   0.4590035   0.4590035
 8 1.7335912    -1.9385 -3.0433493 0.65707676 1.5040774 1.5040774  0.45902757  0.45902757
 5 1.7335517 -1.9357188  -2.898525 0.71509965 1.5040774 1.5040774  0.45894856  0.45894856
 3 1.7335972 -1.8959108 -3.2949202 0.74102439 1.5040774 1.5040774  0.45903965  0.45903965
 9 1.7335969 -1.8919766 -3.2472368  0.7417913 1.5040774 1.5040774  0.45903896  0.45903896
 3 1.7335975 -1.8805893 -3.5647185  0.6517388 1.5040774 1.5040774  0.45904024  0.45904024
 5  1.733582  -1.279618 -3.2656437 0.73194566 1.5040774 1.5040774  0.45900914  0.45900914
 3 1.7335975 -1.9730455 -3.4346029 0.60987344 1.5040774 1.5040774  0.45904023  0.45904023
 2 1.7335975 -1.7477338 -3.7833135 0.65178239 1.5040774 1.5040774  0.45904024  0.45904024
 2 2.3764362  -1.6200102 -0.67249089 0.66362822 1.5040774 1.5040774  1.7447176  1.7447176
 1 1.5998057  -1.6623898 -0.69277075 0.66871764 1.5040774 1.5040774 0.19145662 0.19145662
 2 1.7067304  -1.3551354  -2.4720807 0.66979331 1.5040774 1.5040774 0.40530594 0.40530594
 2 1.7334529  -1.6916789  -2.9677999 0.54986031 1.5040774 1.5040774 0.45875108 0.45875108
 1 1.7374053  -1.4406107  -0.6784772 0.75763142 1.5040774 1.5040774 0.46665591 0.46665591
 5   1.73331   -1.419991  0.40301395 0.56396296 1.5040774 1.5040774 0.45846515 0.45846515
 2 1.7333747    -1.71787 -0.33625569 0.42495983 1.5040774 1.5040774 0.45859468 0.45859468
11 1.7335975 -0.66831922  -3.9632415 0.42351223 1.5040774 1.5040774 0.45904018 0.45904018
15 1.7335972  -0.7480708  -3.8317726 0.40764474 1.5040774 1.5040774  0.4590396  0.4590396
 1 1.7322181 -0.74470974  -3.3519341  0.4305345 1.5040774 1.5040774  0.4562815  0.4562815
 1 1.7335296 -0.97351741  -3.3675188 0.52883622 1.5040774 1.5040774 0.45890445 0.45890445
 4 1.7335782 -0.82252671  -3.4236323 0.60908786 1.5040774 1.5040774 0.45900168 0.45900168
 1 1.7326764  -1.0182757  -3.0466761 0.69884843 1.5040774 1.5040774 0.45719798 0.45719798
 4 1.7334937  -1.4799336  -3.0470422 0.59365021 1.5040774 1.5040774  0.4588327  0.4588327
 9 1.7327283  -1.4097881 -0.13631027 0.45661216 1.5040774 1.5040774 0.45730176 0.45730176
 1  1.733114   -1.430848 0.035003187 0.45787686 1.5040774 1.5040774 0.45807313 0.45807313
 1 1.7328814  -1.5546544 0.031796472 0.51114863 1.5040774 1.5040774 0.45760809 0.45760809
14 1.7329998  -1.5386493 0.029209741 0.51585586 1.5040774 1.5040774  0.4578449  0.4578449
12 1.7325479  -1.5496484 -0.31570152  0.4761227 1.5040774 1.5040774 0.45694099 0.45694099
 4 1.6516661  -1.7216376  -1.3742047 0.52996872 1.5040774 1.5040774  0.2951774  0.2951774
5 2.0073022  -1.3158116   0.19906801 0.59309009 1.5040774 1.5040774   1.0064497   1.0064497
4 2.4698889 -0.96900453   -0.3811858   0.827851 1.5040774 1.5040774    1.931623    1.931623
4 2.3689466  -1.9087024   0.84996211 0.58006211 1.5040774 1.5040774   1.7297384   1.7297384
6 1.7913676  -1.9591731   0.50126142 0.61305168 1.5040774 1.5040774  0.57458046  0.57458046
7 1.7327755  -1.8452312   -0.2306164 0.54244323 1.5040774 1.5040774  0.45739627  0.45739627
5 1.7335831  -1.6664352   0.41082411 0.73098345 1.5040774 1.5040774  0.45901143  0.45901143
5 1.7335845  -1.6891576   0.37064509 0.72157343 1.5040774 1.5040774   0.4590142   0.4590142
5 1.7333897  -1.5351389 -0.021757959 0.42507036 1.5040774 1.5040774  0.45862466  0.45862466
7 1.7396058  -1.6817122   0.51715564 0.64263487 1.5040774 1.5040774  0.47105688  0.47105688
2 1.5057908  -1.4913798   -2.0405007 0.53880078 1.5040774 1.5040774 0.003426716 0.003426716
4 1.7357232  -1.7093523  -0.68758769 0.51877738 1.5040774 1.5040774  0.46329165  0.46329165
9 1.7335192  -1.8958738  -0.28551514 0.45727944 1.5040774 1.5040774  0.45888358  0.45888358
6 1.7832852 -0.57302359   -3.0518977 0.48161703 1.5040774 1.5040774  0.55841569  0.55841569
5 1.7335974 -0.25057087   -3.8733636 0.67358419 1.5040774 1.5040774  0.45904001  0.45904001
4 1.5815582  -1.0736997   -2.5914392  0.5680613 1.5040774 1.5040774  0.15496152  0.15496152
2 1.6943394  -1.1594881   -2.6221248 0.63907025 1.5040774 1.5040774  0.38052395  0.38052395
2 1.7336027  -1.4669564   0.20810701 0.76504688 1.5040774 1.5040774  0.45905053  0.45905053
3 1.7038421  -1.6174585   -1.2523476 0.74906078 1.5040774 1.5040774  0.39952933  0.39952933
2 1.8097651  -1.4977699   -1.1194787 0.71907774 1.5040774 1.5040774  0.61137531  0.61137531
4 1.7076968  -1.6698102   -2.4495108 0.48166461 1.5040774 1.5040774  0.40723884  0.40723884
3 1.6348631 -1.3277592  -2.6333666 0.44534736 1.5040774 1.5040774  0.2615715  0.2615715
5 1.7335971 -1.2590871  -3.6037783 0.47192195 1.5040774 1.5040774 0.45903942 0.45903942
2 1.7065598 -1.3647842  -2.5340124 0.60362952 1.5040774 1.5040774 0.40496488 0.40496488
4 1.7328728 -1.8695647 -0.89397881 0.76053304 1.5040774 1.5040774 0.45759087 0.45759087
6  1.715072 -1.7249179  -1.2297405 0.73711884 1.5040774 1.5040774 0.42198915 0.42198915
8 1.8401649 -1.3967768  0.67298065  0.6274972 1.5040774 1.5040774 0.67217502 0.67217502
4 1.7353348 -1.3810835  0.19834837 0.44921259 1.5040774 1.5040774  0.4625148  0.4625148
2 1.7347504 -1.3912909  0.23026162 0.47123866 1.5040774 1.5040774 0.46134603 0.46134603
1   1.73285 -1.6623478 -0.12708742 0.53796217 1.5040774 1.5040774 0.45754524 0.45754524
1 1.7334896 -1.7916736  0.35227271 0.52740531 1.5040774 1.5040774 0.45882443 0.45882443
1 1.7335195 -1.8229713  0.22710652 0.50204149 1.5040774 1.5040774 0.45888411 0.45888411
1 1.7576242 -1.5983708 -0.58991027 0.51784223 1.5040774 1.5040774 0.50709351 0.50709351
1 1.7727114 -1.6268503 -0.62746075  0.5271484 1.5040774 1.5040774 0.53726791 0.53726791
1 1.7571576 -1.7392458 -0.25679666 0.57413901 1.5040774 1.5040774 0.50616042 0.50616042
1 1.7276594 -1.8306435  -2.2651449 0.65826164 1.5040774 1.5040774 0.44716393 0.44716393
2 1.7207134  -1.598685  -2.4529929  0.7134914 1.5040774 1.5040774 0.43327202 0.43327202
3 1.7335335 -1.6056039  -3.0499797 0.74193738 1.5040774 1.5040774 0.45891225 0.45891225
4 1.7335975 -1.9013262  -3.4023493 0.65273129 1.5040774 1.5040774 0.45904019 0.45904019
2 1.7335941  -1.898632  -3.0790241 0.59788349 1.5040774 1.5040774 0.45903332 0.45903332
6 1.7335753 -1.8480321  -3.0847964 0.50963637 1.5040774 1.5040774 0.45899574 0.45899574
10 1.7334328  -1.9996484 -0.84250659 0.40360484 1.5040774 1.5040774  0.45871087  0.45871087
 8 1.7324533  -1.8361625  0.67063781 0.40198861 1.5040774 1.5040774  0.45675184  0.45675184
 1  1.794048  -1.4018729  0.37824508 0.54692618 1.5040774 1.5040774  0.57994116  0.57994116
 6 1.9095015  -1.3839783   0.7099538 0.53541581 1.5040774 1.5040774  0.81084811  0.81084811
 3 1.5580826  -1.4044923   -2.395349 0.45745484 1.5040774 1.5040774  0.10801036  0.10801036
 3 1.5250089  -1.3862637  -2.3527853 0.45747527 1.5040774 1.5040774 0.041863039 0.041863039
 1 1.7335937  -1.2167269  -3.5482305  0.4009301 1.5040774 1.5040774  0.45903255  0.45903255
 4 1.6913705 -0.43183309  -2.8123915 0.80671642 1.5040774 1.5040774  0.37458621  0.37458621
 5 1.6294833 -0.54041398   -2.823898 0.77765506 1.5040774 1.5040774  0.25081173  0.25081173
 6 1.7283055 -0.52031735  -3.1253066 0.77177643 1.5040774 1.5040774  0.44845622  0.44845622
 3 1.7332742  -1.1783127  0.57494975 0.85505562 1.5040774 1.5040774  0.45839363  0.45839363
 2 1.7335139  -1.1588596  0.29350974 0.86708568 1.5040774 1.5040774  0.45887304  0.45887304
 7 1.7335462  -1.1968608  0.32521413 0.86759414 1.5040774 1.5040774  0.45893753  0.45893753
 4 1.9248815  -1.1119273 -0.16849362 0.76984539 1.5040774 1.5040774  0.84160817  0.84160817
 4 1.7333446  -0.6308525  -3.3127085 0.86476569 1.5040774 1.5040774   0.4585344   0.4585344
 4 1.7335973 -0.37755798  -3.7706655 0.75944343 1.5040774 1.5040774  0.45903977  0.45903977
 6 1.7335684  -1.0534573  -3.2719281 0.72651711 1.5040774 1.5040774  0.45898203  0.45898203
 1 1.7311462 -0.92722023  -3.0662259 0.61697149 1.5040774 1.5040774  0.45413764  0.45413764
 2 1.7221299  -1.3658079  -2.7539396 0.54666276 1.5040774 1.5040774  0.43610491  0.43610491
 3 1.6813742  -1.7167652   -1.364367 0.54212455 1.5040774 1.5040774  0.35459355  0.35459355
18 1.7327848  -1.8416542  -0.4681567 0.49943848 1.5040774 1.5040774  0.45741489  0.45741489
33 1.6334183  -1.4675524   -2.444392 0.47034703 1.5040774 1.5040774  0.25868176  0.25868176
 2  1.564334  -1.4271085  -2.3297228 0.49722336 1.5040774 1.5040774   0.1205133   0.1205133
 3  1.551425  -1.6078813  -1.7828501 0.50040476 1.5040774 1.5040774 0.094695209 0.094695209
 4 1.7334123  -1.7096332  -2.8885165  0.6827257 1.5040774 1.5040774  0.45866982  0.45866982
 1 1.7331929  -1.0365256  -3.0986932 0.70743512 1.5040774 1.5040774  0.45823105  0.45823105
 2 2.2203762  -1.3953914  0.40472114  0.7173578 1.5040774 1.5040774   1.4325976   1.4325976
 2 1.6639571   -1.388649  0.40225581 0.71509855 1.5040774 1.5040774  0.31975943  0.31975943
11 1.9117981  -1.4496114  0.64483714 0.70309707 1.5040774 1.5040774  0.81544146  0.81544146
 2  1.734655  -1.4571647  0.89269221 0.78319026 1.5040774 1.5040774  0.46115522  0.46115522
 1 1.5975929  -1.5808111  -1.7323364 0.72633034 1.5040774 1.5040774   0.1870311   0.1870311
31 1.7335975 -0.22452314  -3.9682128 0.72631147 1.5040774 1.5040774   0.4590402   0.4590402
 7 1.7253504  -1.5895834   -1.287082 0.85453034 1.5040774 1.5040774  0.44254591  0.44254591
 5 1.7335975  -1.6935046  -3.6904977    0.87748 1.5040774 1.5040774  0.45904024  0.45904024
 1 1.7335975  -1.6823532  -3.6280418 0.88429573 1.5040774 1.5040774  0.45904023  0.45904023
 1 1.7335975  -1.7415865  -3.9896312 0.82799314 1.5040774 1.5040774  0.45904024  0.45904024
 3 1.7335534  -1.9903323 -0.07017152 0.50184586 1.5040774 1.5040774  0.45895198  0.45895198
 3 1.7335956  -1.9034779 -0.25630947 0.84981904 1.5040774 1.5040774  0.45903634  0.45903634
 3 1.7321637  -1.5223211  -0.6286813 0.78805082 1.5040774 1.5040774   0.4561727   0.4561727
 1 1.7378559  -1.3639539  -1.4283146 0.82764438 1.5040774 1.5040774  0.46755706  0.46755706
3 2.5358005 -1.0195916  -2.2604049 0.62625261 1.5040774 1.5040774  2.0634463  2.0634463
4 2.1677974 -1.6521911 -0.85977812 0.55135074 1.5040774 1.5040774    1.32744    1.32744
2 1.7299994 -1.3730819  -2.7675255 0.61484851 1.5040774 1.5040774 0.45184404 0.45184404
7 1.7333656 -1.7888522  -2.7443282 0.63145459 1.5040774 1.5040774 0.45857649 0.45857649
6 1.7335975 -1.7955578  -3.4783302 0.59059214 1.5040774 1.5040774 0.45904021 0.45904021
2 1.7335975 -1.7413086  -3.6034651 0.58384434 1.5040774 1.5040774 0.45904023 0.45904023
4 1.7335935 -1.8162844  -3.2294388  0.5024762 1.5040774 1.5040774 0.45903226 0.45903226
7 1.7335925 -1.6605671  -3.1519856 0.65943755 1.5040774 1.5040774 0.45903012 0.45903012
8 1.7326266 -1.4297925  -2.8689333 0.70170277 1.5040774 1.5040774 0.45709849 0.45709849
2 1.7286668 -1.4155167  -2.7543204  0.7649365 1.5040774 1.5040774 0.44917871 0.44917871
3 1.7080237 -1.5971063  -1.1608081 0.74054127 1.5040774 1.5040774 0.40789257 0.40789257
2 1.7234608 -1.6637875  -1.0576642 0.75081617 1.5040774 1.5040774 0.43876679 0.43876679
6 1.7158383 -1.6186176   -1.121366 0.74810904 1.5040774 1.5040774 0.42352173 0.42352173
2 1.7113779 -1.5541201  -1.5790369 0.88188898 1.5040774 1.5040774 0.41460099 0.41460099
1 1.7204163 -1.3703272  -2.5688323 0.67680146 1.5040774 1.5040774 0.43267786 0.43267786
5 1.7331763 -1.7399742  0.15931564 0.54974025 1.5040774 1.5040774 0.45819783 0.45819783
3 1.8117585  -1.614872   0.2628383 0.41174792 1.5040774 1.5040774  0.6153622  0.6153622
6  1.746793 -1.6687749 -0.79030645 0.51265136 1.5040774 1.5040774 0.48543115 0.48543115
2 1.7335972 -1.6731328  -3.3257781 0.63394805 1.5040774 1.5040774 0.45903967 0.45903967
2 1.7297045 -1.6870975  -2.5478601 0.80810418 1.5040774 1.5040774 0.45125411 0.45125411
5 1.7293935 -1.6646191 -2.5606327 0.80528678 1.5040774 1.5040774 0.45063228 0.45063228
4 1.7326088 -1.8582981 -1.0017015 0.77606798 1.5040774 1.5040774 0.45706287 0.45706287
1 1.7287433 -1.8376885 -1.9667028 0.89372724 1.5040774 1.5040774 0.44933173 0.44933173
6 1.7282365 -1.3709004 -2.7686077 0.87536152 1.5040774 1.5040774  0.4483182  0.4483182
1 1.6903057 -1.5095942 -2.1822294 0.87852843 1.5040774 1.5040774 0.37245659 0.37245659
3 1.7289552 -1.9250915 -2.2258277 0.72594987 1.5040774 1.5040774 0.44975561 0.44975561
1 1.7250787 -1.8732731 -2.1954913 0.69104132 1.5040774 1.5040774 0.44200256 0.44200256
1 1.8930943 -1.2657492 -1.4019997 0.85695108 1.5040774 1.5040774 0.77803374 0.77803374
