#weight  minuslogpost  log10_alpha   log10_rs         vw  minuslogprior  minuslogprior__0       chi2  chi2__lisa_likelihood
     17     3.0749507   -1.2810981 -1.0553508 0.48829977      1.6351057         1.6351057    2.87969                2.87969
      1     5.4538658   -1.2830667 -1.0563257  0.4899558      1.6351057         1.6351057  7.6375202              7.6375202
     78     4.6664152   -1.2792276 -1.0625586 0.48380602      1.6351057         1.6351057  6.0626191              6.0626191
     76     3.5257866   -1.2791846 -1.0658478 0.48501894      1.6351057         1.6351057  3.7813619              3.7813619
      1     3.6582606    -1.280842 -1.0622137 0.48628225      1.6351057         1.6351057    4.04631                4.04631
     10     3.7369102   -1.2808747 -1.0622849 0.48644433      1.6351057         1.6351057  4.2036091              4.2036091
     41     3.6146583   -1.2806989 -1.0623611 0.48586554      1.6351057         1.6351057  3.9591053              3.9591053
     16        2.8126   -1.2840303 -1.0516953 0.48837388      1.6351057         1.6351057  2.3549887              2.3549887
     17     3.3621773   -1.2825804 -1.0510182 0.48996058      1.6351057         1.6351057  3.4541432              3.4541432
     31     3.0457648    -1.285476 -1.0474563 0.49092256      1.6351057         1.6351057  2.8213183              2.8213183
     62     3.3177574   -1.2842549 -1.0466824 0.49111339      1.6351057         1.6351057  3.3653034              3.3653034
     10     2.6934636   -1.2840803 -1.0468491 0.49034875      1.6351057         1.6351057  2.1167159              2.1167159
      4     3.0125002   -1.2843945 -1.0469256 0.49093512      1.6351057         1.6351057   2.754789               2.754789
     18      2.532432   -1.2883957 -1.0348987 0.49323688      1.6351057         1.6351057  1.7946526              1.7946526
     29     3.8769318   -1.2882637  -1.035105 0.49430953      1.6351057         1.6351057  4.4836523              4.4836523
      9     4.2613902   -1.2882237 -1.0359969 0.49445911      1.6351057         1.6351057   5.252569               5.252569
     31      2.132501   -1.2884863 -1.0344514 0.49270094      1.6351057         1.6351057 0.99479061             0.99479061
      2     2.6061432   -1.2888043  -1.034077 0.49367167      1.6351057         1.6351057  1.9420751              1.9420751
    203     2.4480961   -1.2893755 -1.0317254 0.49379699      1.6351057         1.6351057  1.6259808              1.6259808
     95     2.4815284   -1.2893665  -1.031692 0.49382907      1.6351057         1.6351057  1.6928455              1.6928455
 15 2.0321757 -1.2909601 -1.0300822 0.49317188 1.6351057 1.6351057 0.79414011 0.79414011
 43 2.8442388 -1.2895574 -1.0310346 0.49440452 1.6351057 1.6351057  2.4182662  2.4182662
  2 2.5900526 -1.2896775 -1.0311372 0.49426227 1.6351057 1.6351057  1.9098939  1.9098939
  2  2.423347 -1.2900145 -1.0312671 0.49431317 1.6351057 1.6351057  1.5764827  1.5764827
 13  1.943025 -1.2902812 -1.0311825 0.49364027 1.6351057 1.6351057 0.61583864 0.61583864
 11 2.2562689 -1.2898103  -1.032312 0.49392382 1.6351057 1.6351057  1.2423266  1.2423266
105 3.0158651 -1.2926859 -1.0285206 0.49365641 1.6351057 1.6351057  2.7615189  2.7615189
  3 4.6890028 -1.2899055 -1.0254944 0.49470457 1.6351057 1.6351057  6.1077943  6.1077943
 33 4.8050299 -1.2896474 -1.0260537 0.49425557 1.6351057 1.6351057  6.3398485  6.3398485
  1 3.1772448 -1.2914173 -1.0267725  0.4923238 1.6351057 1.6351057  3.0842783  3.0842783
 24 3.1618897  -1.291258 -1.0270406  0.4922777 1.6351057 1.6351057   3.053568   3.053568
115 2.4352362 -1.2903506  -1.027586 0.49318087 1.6351057 1.6351057  1.6002611  1.6002611
 47 4.1480476 -1.2888326  -1.032306 0.49054871 1.6351057 1.6351057  5.0258839  5.0258839
 26  2.300591 -1.2887545 -1.0374187 0.49229499 1.6351057 1.6351057  1.3309706  1.3309706
 41 2.6597885 -1.2889167 -1.0374815 0.49273015 1.6351057 1.6351057  2.0493656  2.0493656
 71  2.378156 -1.2882505  -1.036847 0.49101717 1.6351057 1.6351057  1.4861007  1.4861007
 17 2.7609001 -1.2893146 -1.0368094 0.49140784 1.6351057 1.6351057   2.251589   2.251589
  2 2.7483168 -1.2888873 -1.0379364 0.49111934 1.6351057 1.6351057  2.2264223  2.2264223
 22 3.0647219 -1.2874337 -1.0371552 0.49021997 1.6351057 1.6351057  2.8592326  2.8592326
 52 2.2777933 -1.2883991 -1.0381055 0.49128446 1.6351057 1.6351057  1.2853753  1.2853753
91 2.8367722 -1.2891634 -1.0374233   0.491273 1.6351057 1.6351057 2.4033332 2.4033332
10 2.3713205 -1.2887975 -1.0373552 0.49143293 1.6351057 1.6351057 1.4724297 1.4724297
21  2.878158 -1.2887501 -1.0388217 0.49103493 1.6351057 1.6351057 2.4861047 2.4861047
10 2.8749633 -1.2872582 -1.0398924 0.48984703 1.6351057 1.6351057 2.4797153 2.4797153
54 3.1836925 -1.2861996 -1.0414029 0.48925643 1.6351057 1.6351057 3.0971737 3.0971737
15 2.8005353 -1.2863002 -1.0416002 0.48952089 1.6351057 1.6351057 2.3308593 2.3308593
27 2.3492402 -1.2868612 -1.0398648 0.49196642 1.6351057 1.6351057 1.4282691 1.4282691
24 2.3789991 -1.2868451 -1.0397626 0.49199657 1.6351057 1.6351057  1.487787  1.487787
35 2.5869102 -1.2859295 -1.0417517 0.49151673 1.6351057 1.6351057 1.9036091 1.9036091
24   2.38411 -1.2869916 -1.0428317  0.4909087 1.6351057 1.6351057 1.4980087 1.4980087
11 2.6590978 -1.2870899 -1.0428167 0.49069739 1.6351057 1.6351057 2.0479843 2.0479843
21 3.6969214 -1.2857226 -1.0478603 0.49115898 1.6351057 1.6351057 4.1236316 4.1236316
 6 3.5685342 -1.2856108 -1.0479067   0.491114 1.6351057 1.6351057 3.8668571 3.8668571
 5 4.2423584 -1.2811071 -1.0528599 0.48681895 1.6351057 1.6351057 5.2145055 5.2145055
 9  4.635964 -1.2808163 -1.0542036 0.48941288 1.6351057 1.6351057 6.0017167 6.0017167
26  4.298273 -1.2801631 -1.0572658 0.48883288 1.6351057 1.6351057 5.3263347 5.3263347
15 2.6301627 -1.2808231  -1.057313 0.48724523 1.6351057 1.6351057 1.9901141 1.9901141
19 2.6180218  -1.280821 -1.0580978 0.48726983 1.6351057 1.6351057 1.9658322 1.9658322
11 2.7809843  -1.281637 -1.0575756 0.48791493 1.6351057 1.6351057 2.2917573 2.2917573
56 2.7377872 -1.2812362 -1.0576097 0.48791852 1.6351057 1.6351057  2.205363  2.205363
 6 3.6785623 -1.2786916 -1.0607425 0.48647475 1.6351057 1.6351057 4.0869133 4.0869133
32 3.6905711 -1.2787041 -1.0606959 0.48662035 1.6351057 1.6351057 4.1109309 4.1109309
13 6.0659045 -1.2782046 -1.0597838 0.48762667 1.6351057 1.6351057 8.8615977 8.8615977
10 5.4732815 -1.2829131 -1.0564176 0.49002785 1.6351057 1.6351057 7.6763516 7.6763516
10 4.2596092  -1.281841 -1.0528109 0.49012501 1.6351057 1.6351057  5.249007  5.249007
26 3.8196199 -1.2835059 -1.0474258 0.48763641 1.6351057 1.6351057 4.3690285 4.3690285
24 4.2120505 -1.2826794 -1.0502909 0.49058986 1.6351057 1.6351057 5.1538897 5.1538897
30 5.4251233 -1.2828191 -1.0510536 0.49141951 1.6351057 1.6351057 7.5800352 7.5800352
27  5.546452 -1.2848082 -1.0529436 0.49056882 1.6351057 1.6351057 7.8226927 7.8226927
24 3.5068822 -1.2754551 -1.0726004 0.48424702 1.6351057 1.6351057 3.7435532 3.7435532
28 4.3476017 -1.2759372 -1.0713662 0.48566081 1.6351057 1.6351057 5.4249921 5.4249921
 3 4.3475793 -1.2759372 -1.0713662 0.48566079 1.6351057 1.6351057 5.4249474 5.4249474
15 4.7076833 -1.2784505 -1.0691359 0.48337968 1.6351057 1.6351057 6.1451553 6.1451553
 4 3.8624715 -1.2782217  -1.069018 0.48403633 1.6351057 1.6351057 4.4547318 4.4547318
42 4.6547737  -1.277141 -1.0668036 0.48305985 1.6351057 1.6351057  6.039336  6.039336
36 3.9342004 -1.2814488 -1.0602106 0.48575615 1.6351057 1.6351057 4.5981894 4.5981894
13 4.4859088 -1.2794391  -1.056743 0.48744612 1.6351057 1.6351057 5.7016063 5.7016063
15 2.6432167 -1.2812347 -1.0571661 0.48776494 1.6351057 1.6351057  2.016222  2.016222
53  2.592001  -1.281002 -1.0570871  0.4872892 1.6351057 1.6351057 1.9137907 1.9137907
40 2.6178717 -1.2813733  -1.057421 0.48728171 1.6351057 1.6351057  1.965532  1.965532
40 3.4841632 -1.2828442 -1.0558637 0.48709068 1.6351057 1.6351057  3.6981152  3.6981152
16 5.0674806  -1.285057 -1.0520135 0.49005568 1.6351057 1.6351057  6.8647499  6.8647499
10  5.495614 -1.2829647 -1.0553203 0.49064913 1.6351057 1.6351057  7.7210167  7.7210167
 1 5.7821425  -1.283119 -1.0553922 0.49071387 1.6351057 1.6351057  8.2940738  8.2940738
19 4.9252886 -1.2855654  -1.049632 0.49127605 1.6351057 1.6351057  6.5803658  6.5803658
20 4.1329797 -1.2852059 -1.0425454 0.49236633 1.6351057 1.6351057  4.9957482  4.9957482
41 3.4848393 -1.2849605 -1.0426489 0.49141472 1.6351057 1.6351057  3.6994674  3.6994674
54 3.2600773 -1.2855314 -1.0429288 0.49200133 1.6351057 1.6351057  3.2499433  3.2499433
25 3.1013362 -1.2866305 -1.0393869 0.48977556 1.6351057 1.6351057  2.9324611  2.9324611
 1 3.4426047 -1.2927737 -1.0210599 0.49359811 1.6351057 1.6351057   3.614998   3.614998
 3 1.8995097 -1.2944157 -1.0180759 0.49540656 1.6351057 1.6351057 0.52880806 0.52880806
 2 1.9947702 -1.2943665 -1.0182101 0.49522903 1.6351057 1.6351057 0.71932916 0.71932916
 3 6.1141746 -1.2645751 -1.1032943 0.47600566 1.6351057 1.6351057  8.9581379  8.9581379
 2 4.8597452 -1.2707296 -1.0841601 0.48068205 1.6351057 1.6351057  6.4492791  6.4492791
 4  2.242514 -1.2851309  -1.045787 0.49024296 1.6351057 1.6351057  1.2148166  1.2148166
 4  4.045128  -1.274665 -1.0777403 0.48368847 1.6351057 1.6351057  4.8200447  4.8200447
 3 3.3083414 -1.2791409 -1.0627848  0.4848032 1.6351057 1.6351057  3.3464714  3.3464714
 5 3.6726623  -1.281429  -1.052481 0.48800252 1.6351057 1.6351057  4.0751134  4.0751134
 2 3.8250536 -1.2805974 -1.0540722 0.48767488 1.6351057 1.6351057  4.3798959  4.3798959
 1 3.7517695 -1.2819607 -1.0504677 0.48767642 1.6351057 1.6351057  4.2333277  4.2333277
2 2.0245741 -1.3054382 -0.98577559 0.50314022 1.6351057 1.6351057 0.77893681 0.77893681
1 2.0594436 -1.3056692 -0.98496858 0.50333988 1.6351057 1.6351057 0.84867594 0.84867594
4 2.0176452 -1.3059427 -0.98432638 0.50350586 1.6351057 1.6351057 0.76507911 0.76507911
5 4.0214509 -1.3079609 -0.97514714  0.5037645 1.6351057 1.6351057  4.7726905  4.7726905
1 4.6122026 -1.3059396 -0.98019654 0.50225172 1.6351057 1.6351057   5.954194   5.954194
7 6.7698412 -1.3075203 -0.98292002 0.50051806 1.6351057 1.6351057  10.269471  10.269471
2 5.2787481 -1.3041581 -0.98346182 0.50230074 1.6351057 1.6351057   7.287285   7.287285
2 4.5893036 -1.3120482 -0.96642925 0.50891458 1.6351057 1.6351057  5.9083958  5.9083958
1  2.910498 -1.3068091 -0.97942385 0.50451074 1.6351057 1.6351057  2.5507846  2.5507846
1 1.8708487 -1.2991461  -1.0050097 0.49960369 1.6351057 1.6351057 0.47148612 0.47148612
3 1.7992071 -1.2990761  -1.0055857 0.49941409 1.6351057 1.6351057 0.32820285 0.32820285
1 2.2558011  -1.317574  -0.9523461 0.50953705 1.6351057 1.6351057  1.2413909  1.2413909
3 2.4945851 -1.3201137 -0.94586061 0.51204407 1.6351057 1.6351057  1.7189589  1.7189589
1 4.4768136 -1.3143472 -0.96181027 0.50574646 1.6351057 1.6351057  5.6834159  5.6834159
1 6.9589695  -1.335201 -0.90086369  0.5173964 1.6351057 1.6351057  10.647728  10.647728
1 4.9321188 -1.3463916 -0.87095161 0.52663623 1.6351057 1.6351057  6.5940264  6.5940264
2 6.2697189 -1.3392679 -0.88835431 0.52374781 1.6351057 1.6351057  9.2692264  9.2692264
4 4.7121849 -1.3144741  -0.9653638  0.5098537 1.6351057 1.6351057  6.1541585  6.1541585
1 4.4415859 -1.3048197 -0.98770518 0.50482386 1.6351057 1.6351057  5.6129605  5.6129605
1 4.1861432 -1.3065382 -0.98190911 0.50567987 1.6351057 1.6351057  5.1020751  5.1020751
3 3.8675623 -1.3180218 -0.95667105 0.51109567 1.6351057 1.6351057   4.4649133   4.4649133
3 3.2979012 -1.3085152 -0.97998656 0.50617994 1.6351057 1.6351057    3.325591    3.325591
2 2.3825058 -1.2989754  -1.0042243 0.50010334 1.6351057 1.6351057   1.4948004   1.4948004
2 1.6960096 -1.2978192  -1.0102164 0.49819657 1.6351057 1.6351057  0.12180794  0.12180794
1 1.6556436 -1.3015822 -0.99922182 0.50050656 1.6351057 1.6351057 0.041075831 0.041075831
2 1.6610583 -1.3012491 -0.99982303 0.49989983 1.6351057 1.6351057 0.051905197 0.051905197
3 1.8304656 -1.3048913 -0.99077315 0.50217319 1.6351057 1.6351057  0.39071996  0.39071996
2 1.7449089 -1.3041849 -0.99203211 0.50142573 1.6351057 1.6351057  0.21960657  0.21960657
6  1.810871 -1.3027688 -0.99735009 0.50063859 1.6351057 1.6351057  0.35153067  0.35153067
5 3.0556746 -1.3128009 -0.97085806 0.50761961 1.6351057 1.6351057   2.8411379   2.8411379
2 2.8362218 -1.3126216  -0.9711023 0.50746601 1.6351057 1.6351057   2.4022324   2.4022324
3 4.3304941 -1.3117685 -0.97677422 0.50538987 1.6351057 1.6351057   5.3907769   5.3907769
1  1.969454 -1.2902862  -1.0315093 0.49284185 1.6351057 1.6351057  0.66869665  0.66869665
3 1.9692779 -1.2903521  -1.0310756  0.4937597 1.6351057 1.6351057  0.66834442  0.66834442
6 1.9557015 -1.2912388  -1.0280757 0.49444935 1.6351057 1.6351057  0.64119166  0.64119166
1 2.1383499 -1.2905761  -1.0306717  0.4941946 1.6351057 1.6351057   1.0064886   1.0064886
5 2.0935226 -1.2967053  -1.0150404 0.49659142 1.6351057 1.6351057  0.91683395  0.91683395
1  1.878739 -1.2929818  -1.0236191 0.49536832 1.6351057 1.6351057  0.48726674  0.48726674
1   5.16496 -1.2739702  -1.0742954 0.48461974 1.6351057 1.6351057   7.0597087   7.0597087
1 5.8755553 -1.2704107  -1.0911203 0.48128488 1.6351057 1.6351057   8.4808992   8.4808992
9 4.7591609  -1.269044  -1.0940242  0.4784082 1.6351057 1.6351057  6.2481105  6.2481105
4 3.5246532 -1.2772765  -1.0706953 0.48373581 1.6351057 1.6351057   3.779095   3.779095
4  3.335715 -1.2773701  -1.0700035 0.48407409 1.6351057 1.6351057  3.4012186  3.4012186
3 2.5651631 -1.3005575  -1.0049165 0.49991264 1.6351057 1.6351057  1.8601149  1.8601149
4 2.1341991  -1.302118  -1.0003139 0.50065154 1.6351057 1.6351057 0.99818698 0.99818698
1 2.3232832 -1.3035381 -0.99671223 0.50071784 1.6351057 1.6351057  1.3763552  1.3763552
2 1.8572641 -1.3132935 -0.96584319 0.50720032 1.6351057 1.6351057 0.44431697 0.44431697
2 1.9407655 -1.3149444 -0.96155214 0.50827945 1.6351057 1.6351057 0.61131969 0.61131969
4   1.70267 -1.3067904 -0.98418567 0.50363095 1.6351057 1.6351057 0.13512863 0.13512863
3  1.835805 -1.3107832  -0.9726212 0.50616474 1.6351057 1.6351057 0.40139859 0.40139859
7 3.4244684 -1.3292312 -0.92374358 0.51673821 1.6351057 1.6351057  3.5787256  3.5787256
1 2.7287491 -1.3249948 -0.93448403 0.51438943 1.6351057 1.6351057  2.1872869  2.1872869
3 4.3139391 -1.3461817 -0.87080689 0.52571108 1.6351057 1.6351057  5.3576669  5.3576669
1 4.0847989 -1.3333448 -0.91397264 0.51845294 1.6351057 1.6351057  4.8993865  4.8993865
2 4.3235331 -1.3311982 -0.92057255 0.51658648 1.6351057 1.6351057  5.3768549  5.3768549
2 3.9599116 -1.3312916  -0.9195388 0.51662737 1.6351057 1.6351057  4.6496119  4.6496119
1 4.3886771 -1.3274705 -0.93026419 0.51617519 1.6351057 1.6351057  5.5071429  5.5071429
1 3.8265825 -1.3245246 -0.93757716 0.51453537 1.6351057 1.6351057  4.3829537  4.3829537
2 4.1759127 -1.3314585 -0.91687302 0.51892119 1.6351057 1.6351057   5.081614   5.081614
1 4.5183898 -1.3454895 -0.87995073 0.52515213 1.6351057 1.6351057  5.7665683  5.7665683
 2 4.8722965 -1.3325588 -0.91678482 0.51679122 1.6351057 1.6351057  6.4743817  6.4743817
 3 4.8302053 -1.3349103 -0.91051263 0.51812231 1.6351057 1.6351057  6.3901992  6.3901992
 1 3.3722614 -1.3372013  -0.9007983 0.52032374 1.6351057 1.6351057  3.4743114  3.4743114
 1 3.4546354 -1.3378219 -0.89893439 0.52053938 1.6351057 1.6351057  3.6390596  3.6390596
 4 3.2282567 -1.3244618 -0.93515425 0.51232314 1.6351057 1.6351057   3.186302   3.186302
 1 3.2970273 -1.3081694 -0.97594004 0.50368056 1.6351057 1.6351057  3.3238432  3.3238432
 4  3.244706 -1.3089842 -0.97350216 0.50418659 1.6351057 1.6351057  3.2192007  3.2192007
 3 2.0557171  -1.300198  -1.0053294 0.49914748 1.6351057 1.6351057 0.84122286 0.84122286
11 2.3106997 -1.2967969  -1.0149018 0.49625016 1.6351057 1.6351057  1.3511881  1.3511881
 3 2.2246048 -1.2862086  -1.0417999 0.49100806 1.6351057 1.6351057  1.1789982  1.1789982
 1 2.6065309 -1.2874213  -1.0360778 0.49201993 1.6351057 1.6351057  1.9428505  1.9428505
 2  3.768144 -1.2835155  -1.0454817 0.49013012 1.6351057 1.6351057  4.2660766  4.2660766
 4 4.7600166  -1.310104 -0.96742288 0.50662066 1.6351057 1.6351057  6.2498219  6.2498219
 2 3.1079777 -1.3128521 -0.96287707 0.50719605 1.6351057 1.6351057   2.945744   2.945744
 1 2.1991087 -1.3067966 -0.98190684 0.50449576 1.6351057 1.6351057  1.1280061  1.1280061
 1 2.0425863 -1.2878732  -1.0371661 0.49191166 1.6351057 1.6351057 0.81496137 0.81496137
 4 1.9821201 -1.2921664  -1.0273078 0.49415115 1.6351057 1.6351057 0.69402889 0.69402889
 2 2.3305312 -1.2866797  -1.0428649 0.49126626 1.6351057 1.6351057   1.390851   1.390851
 1  2.687212  -1.289156   -1.037029 0.49275829 1.6351057 1.6351057  2.1042128  2.1042128
 2 2.0685966 -1.2974411  -1.0119269 0.49849876 1.6351057 1.6351057 0.86698183 0.86698183
5 2.0052535 -1.3121751 -0.96903034 0.50725647 1.6351057 1.6351057 0.74029568 0.74029568
2 1.8474189 -1.3110942 -0.97096243  0.5063058 1.6351057 1.6351057 0.42462639 0.42462639
3 2.2848707 -1.3109802 -0.96975943 0.50689327 1.6351057 1.6351057  1.2995302  1.2995302
1 2.2628798 -1.3036369  -0.9961861 0.50134623 1.6351057 1.6351057  1.2555483  1.2555483
4 2.3702575 -1.3042045 -0.99472019 0.50163977 1.6351057 1.6351057  1.4703037  1.4703037
6 1.8321397 -1.3073529 -0.98365269 0.50326001 1.6351057 1.6351057 0.39406802 0.39406802
2 2.1393388 -1.3083377 -0.97851982 0.50530792 1.6351057 1.6351057  1.0084662  1.0084662
1 1.9458383 -1.3063612 -0.98522616 0.50395063 1.6351057 1.6351057 0.62146524 0.62146524
1  3.975317 -1.3028038  -0.9950239 0.50338225 1.6351057 1.6351057  4.6804226  4.6804226
3 5.3371517 -1.3186741 -0.95215629 0.51279023 1.6351057 1.6351057   7.404092   7.404092
2 2.1546931 -1.3023998 -0.99430513 0.50184176 1.6351057 1.6351057  1.0391749  1.0391749
1 1.9186349 -1.2957015  -1.0148393 0.49748369 1.6351057 1.6351057 0.56705849 0.56705849
1  1.898254 -1.2999351  -1.0030233 0.49864821 1.6351057 1.6351057  0.5262967  0.5262967
3 1.9019054 -1.2939765  -1.0207831 0.49496608 1.6351057 1.6351057 0.53359951 0.53359951
5 2.1405931 -1.2989646  -1.0084695 0.49823442 1.6351057 1.6351057  1.0109749  1.0109749
1 1.8306704 -1.3006509  -1.0030619   0.499399 1.6351057 1.6351057 0.39112942 0.39112942
1 1.7424785 -1.2942815  -1.0193939 0.49561122 1.6351057 1.6351057 0.21474566 0.21474566
3 2.5582022  -1.312132 -0.96526791  0.5066169 1.6351057 1.6351057   1.846193   1.846193
5 3.1946241 -1.3035528 -0.99133842 0.49994446 1.6351057 1.6351057  3.1190368  3.1190368
2  3.139061 -1.3022987  -0.9948948 0.49926291 1.6351057 1.6351057  3.0079107  3.0079107
 2 2.6076084 -1.3192562 -0.94730094 0.51158506 1.6351057 1.6351057  1.9450055  1.9450055
 4 2.7796556 -1.3189207 -0.95349342 0.50989151 1.6351057 1.6351057     2.2891     2.2891
 3 2.2305517 -1.3060435 -0.98848096 0.50219852 1.6351057 1.6351057  1.1908921  1.1908921
 2 2.0630463 -1.3063279 -0.98722361 0.50278253 1.6351057 1.6351057 0.85588129 0.85588129
 3 5.1054811 -1.2994583  -1.0063028 0.49610132 1.6351057 1.6351057  6.9407509  6.9407509
 2 4.4875068 -1.2902699  -1.0327163 0.49059816 1.6351057 1.6351057  5.7048022  5.7048022
 2 4.0279944 -1.2914196  -1.0277444 0.49168769 1.6351057 1.6351057  4.7857775  4.7857775
 3 3.1076347 -1.3003466  -1.0036927 0.49767295 1.6351057 1.6351057  2.9450581  2.9450581
 1 2.0457814 -1.3068454 -0.98533502 0.50284398 1.6351057 1.6351057 0.82135149 0.82135149
10 4.3605687 -1.3073204 -0.97861521 0.50217602 1.6351057 1.6351057  5.4509262  5.4509262
 1 2.9779891  -1.311916 -0.97035899 0.50489991 1.6351057 1.6351057  2.6857669  2.6857669
 6 1.8843618 -1.3061482 -0.98478702 0.50374304 1.6351057 1.6351057 0.49851238 0.49851238
 1 1.9920324 -1.3096309 -0.97511951 0.50586748 1.6351057 1.6351057 0.71385357 0.71385357
 1 2.0808388 -1.3068931 -0.98115139  0.5039916 1.6351057 1.6351057 0.89146625 0.89146625
13 2.2575898 -1.3088933  -0.9755511 0.50511969 1.6351057 1.6351057  1.2449682  1.2449682
 4 2.4662993  -1.304973 -0.98592726 0.50299363 1.6351057 1.6351057  1.6623874  1.6623874
 9 2.5412491 -1.3030935  -0.9905292 0.50201806 1.6351057 1.6351057  1.8122868  1.8122868
 3 2.4259354 -1.3073317 -0.97932785 0.50364411 1.6351057 1.6351057  1.5816595  1.5816595
 2 2.8078686 -1.3025421 -0.99209418 0.50033066 1.6351057 1.6351057   2.345526   2.345526
 9 2.4556942 -1.2986165  -1.0044341 0.49777344 1.6351057 1.6351057  1.6411771  1.6411771
 9 3.7485074 -1.2961435  -1.0111175 0.49538717 1.6351057 1.6351057   4.2268034   4.2268034
 3 3.8077587 -1.3263711 -0.93373967 0.51450361 1.6351057 1.6351057   4.3453061   4.3453061
 2 3.2473369 -1.3338085 -0.91147363 0.51897758 1.6351057 1.6351057   3.2244624   3.2244624
 7 2.6223451 -1.3274274 -0.92774327 0.51550197 1.6351057 1.6351057   1.9744789   1.9744789
 5 2.6292629 -1.3105259 -0.97689869  0.5059134 1.6351057 1.6351057   1.9883145   1.9883145
 2 3.3501153 -1.3302108 -0.92141057 0.51670806 1.6351057 1.6351057   3.4300192   3.4300192
10 2.7534286 -1.2893423  -1.0339603 0.49408147 1.6351057 1.6351057    2.236646    2.236646
 1 1.9307851 -1.2925285  -1.0241851  0.4953413 1.6351057 1.6351057  0.59135887  0.59135887
 2 2.9224933 -1.3229625 -0.94118531 0.51297429 1.6351057 1.6351057   2.5747752   2.5747752
 2 3.2598893 -1.3183576 -0.95352879 0.50867635 1.6351057 1.6351057   3.2495673   3.2495673
 4 3.5314922 -1.3420394 -0.88721684 0.52269917 1.6351057 1.6351057   3.7927731   3.7927731
 1 3.5119851  -1.342358 -0.88620139  0.5230722 1.6351057 1.6351057   3.7537589   3.7537589
 4  2.867491 -1.3208121 -0.94711182 0.51063369 1.6351057 1.6351057   2.4647706   2.4647706
 1 2.7410905  -1.321527 -0.94467066  0.5114017 1.6351057 1.6351057   2.2119697   2.2119697
 2 1.7513317 -1.3033424 -0.99481608 0.50088778 1.6351057 1.6351057  0.23245217  0.23245217
 4 1.7443485 -1.3021168 -0.99803746 0.50047238 1.6351057 1.6351057  0.21848567  0.21848567
 7 1.6708887 -1.3029969 -0.99544056 0.50125613 1.6351057 1.6351057 0.071566173 0.071566173
 7 1.9424639 -1.2978862  -1.0110593  0.4977954 1.6351057 1.6351057  0.61471652  0.61471652
 2 2.5424712 -1.3113138 -0.97232182 0.50488544 1.6351057 1.6351057   1.8147312   1.8147312
 3 3.8648313 -1.3355999 -0.90284018 0.52094265 1.6351057 1.6351057   4.4594513   4.4594513
1 2.4533839 -1.3248248 -0.93428046 0.51408916 1.6351057 1.6351057   1.6365565   1.6365565
1 2.6906932 -1.3262066 -0.93093572 0.51479646 1.6351057 1.6351057   2.1111751   2.1111751
3 3.8315109 -1.2742083  -1.0789593 0.48176784 1.6351057 1.6351057   4.3928105   4.3928105
4 3.6213047 -1.2760846  -1.0736625 0.48287499 1.6351057 1.6351057   3.9723981   3.9723981
1  3.441953 -1.2907426   -1.032338 0.49152563 1.6351057 1.6351057   3.6136946   3.6136946
6 3.9286803 -1.2954778   -1.020327 0.49437359 1.6351057 1.6351057   4.5871493   4.5871493
4 4.0595925 -1.2974583  -1.0146001 0.49560963 1.6351057 1.6351057   4.8489736   4.8489736
4 3.2244177 -1.2989598  -1.0100029 0.49699573 1.6351057 1.6351057   3.1786241   3.1786241
7 2.3197017 -1.3042453 -0.98917637 0.50124248 1.6351057 1.6351057    1.369192    1.369192
2 1.9907041 -1.3105337 -0.97402754 0.50506727 1.6351057 1.6351057  0.71119687  0.71119687
1  1.657836 -1.3006432  -1.0018129 0.49970335 1.6351057 1.6351057 0.045460772 0.045460772
1 1.7222083 -1.3044824 -0.99077362 0.50167556 1.6351057 1.6351057  0.17420526  0.17420526
8 2.5044721 -1.3118407 -0.97306455 0.50555063 1.6351057 1.6351057   1.7387329   1.7387329
4 2.5869934  -1.304561 -0.98896865 0.50097797 1.6351057 1.6351057   1.9037756   1.9037756
3 2.4051844 -1.3059637 -0.98517242 0.50188348 1.6351057 1.6351057   1.5401575   1.5401575
3  2.863964 -1.3266734 -0.92614129 0.51451048 1.6351057 1.6351057   2.4577167   2.4577167
2 1.9897937 -1.3162813  -0.9569711 0.50912437 1.6351057 1.6351057  0.70937613  0.70937613
8 1.7844794 -1.2930293  -1.0234484 0.49500054 1.6351057 1.6351057  0.29874757  0.29874757
1 1.9717863 -1.2890275  -1.0350281 0.49246867 1.6351057 1.6351057  0.67336136  0.67336136
9 2.1396541 -1.2859032  -1.0429109 0.49044244 1.6351057 1.6351057   1.0090969   1.0090969
 2 2.0707526 -1.2882467  -1.0364124 0.49162987 1.6351057 1.6351057 0.87129387 0.87129387
 6 2.1401666 -1.2873534    -1.04036 0.49095235 1.6351057 1.6351057  1.0101219  1.0101219
 3 2.2899789 -1.2989927  -1.0084171 0.49772583 1.6351057 1.6351057  1.3097465  1.3097465
 1 2.4853909 -1.3091398 -0.98028584 0.50381988 1.6351057 1.6351057  1.7005704  1.7005704
 1  2.397269 -1.2912033  -1.0258827 0.49325054 1.6351057 1.6351057  1.5243267  1.5243267
 7 2.2409747 -1.2983831  -1.0047326 0.49806654 1.6351057 1.6351057  1.2117381  1.2117381
 3 2.7877284 -1.3042659 -0.98817532 0.50118584 1.6351057 1.6351057  2.3052455  2.3052455
 3 2.3482312 -1.3030427 -0.99198907 0.50048331 1.6351057 1.6351057   1.426251   1.426251
11  2.426179 -1.2861661  -1.0418483  0.4899034 1.6351057 1.6351057  1.5821468  1.5821468
 6  2.344568 -1.2848806  -1.0455448 0.48947047 1.6351057 1.6351057  1.4189247  1.4189247
12 2.2601689  -1.285645  -1.0433518 0.48996963 1.6351057 1.6351057  1.2501265  1.2501265
 1 2.3255382 -1.3018304  -1.0002646 0.49928764 1.6351057 1.6351057  1.3808651  1.3808651
 6 3.0386215 -1.2955174  -1.0184775 0.49791954 1.6351057 1.6351057  2.8070316  2.8070316
 9 2.4756455 -1.2947703  -1.0176781   0.497507 1.6351057 1.6351057  1.6810796  1.6810796
 5 2.7996251  -1.306575 -0.98849516 0.50363665 1.6351057 1.6351057  2.3290389  2.3290389
 2 3.2394546 -1.3129129 -0.97135136 0.50600964 1.6351057 1.6351057   3.208698   3.208698
22 3.0686075 -1.3166257 -0.96036571 0.50851308 1.6351057 1.6351057  2.8670037  2.8670037
 1 3.2482921 -1.3278741 -0.92860976 0.51565616 1.6351057 1.6351057  3.2263729  3.2263729
 2  4.563169 -1.3381047 -0.90082048 0.52071175 1.6351057 1.6351057  5.8561266  5.8561266
 1 4.4823741 -1.3379656 -0.90113471 0.52065271 1.6351057 1.6351057  5.6945369  5.6945369
5 5.5631624  -1.365408 -0.82154821 0.53574807 1.6351057 1.6351057  7.8561134  7.8561134
2 4.5116047 -1.3527819  -0.8548583 0.52843627 1.6351057 1.6351057   5.752998   5.752998
1 4.0559733  -1.327099 -0.93190612 0.51476044 1.6351057 1.6351057  4.8417353  4.8417353
5 1.6859985  -1.298668  -1.0075988 0.49873925 1.6351057 1.6351057 0.10178561 0.10178561
3 2.1611514 -1.3062246 -0.98786419 0.50251208 1.6351057 1.6351057  1.0520915  1.0520915
2 2.1689955 -1.3008051  -1.0034365 0.49889796 1.6351057 1.6351057  1.0677797  1.0677797
8 1.8233638 -1.2923537  -1.0254804   0.494341 1.6351057 1.6351057 0.37651633 0.37651633
6 1.9710298 -1.2891007  -1.0346924 0.49226848 1.6351057 1.6351057 0.67184818 0.67184818
3 1.9903606 -1.2919225  -1.0278251 0.49376879 1.6351057 1.6351057 0.71050996 0.71050996
2 3.2460303  -1.276586  -1.0715249 0.48401952 1.6351057 1.6351057  3.2218493  3.2218493
8 2.0255035 -1.3029849 -0.99599901 0.50180689 1.6351057 1.6351057 0.78079569 0.78079569
9 2.1692696  -1.296243  -1.0148796 0.49800169 1.6351057 1.6351057  1.0683279  1.0683279
4 2.3650823 -1.2921285  -1.0277477 0.49494987 1.6351057 1.6351057  1.4599534  1.4599534
1 2.8425605 -1.2967056  -1.0168209 0.49611359 1.6351057 1.6351057  2.4149098  2.4149098
1 2.7293793 -1.2911628  -1.0314699 0.49266243 1.6351057 1.6351057  2.1885474  2.1885474
5 2.9223138 -1.2875112  -1.0421518 0.49050373 1.6351057 1.6351057  2.5744162  2.5744162
7 2.3367545 -1.2850403  -1.0443095 0.49003102 1.6351057 1.6351057  1.4032977  1.4032977
1  2.186551 -1.3114406 -0.97315148 0.50538735 1.6351057 1.6351057  1.1028907  1.1028907
5 3.4445456 -1.3224833 -0.93987669 0.51103221 1.6351057 1.6351057  3.6188799  3.6188799
1 3.7572463 -1.3200506 -0.94664568 0.50939601 1.6351057 1.6351057  4.2442814  4.2442814
4 3.6716106 -1.3147741 -0.96584402 0.50671517 1.6351057 1.6351057 4.0730098 4.0730098
1 3.9152865 -1.3259109 -0.93584272 0.51354056 1.6351057 1.6351057 4.5603618 4.5603618
1 3.6273961 -1.3255531 -0.93430385 0.51494628 1.6351057 1.6351057  3.984581  3.984581
2  3.739127   -1.32541 -0.93476199 0.51494625 1.6351057 1.6351057 4.2080426 4.2080426
4 7.7568832 -1.3039114  -1.0017359 0.50056238 1.6351057 1.6351057 12.243555 12.243555
1 6.4641859  -1.271204  -1.0923756 0.47972682 1.6351057 1.6351057 9.6581604 9.6581604
2 5.4977079 -1.2678081  -1.0956011 0.47955906 1.6351057 1.6351057 7.7252044 7.7252044
4 2.4067402 -1.3148847 -0.95932262 0.50772314 1.6351057 1.6351057 1.5432692 1.5432692
4 2.8452321 -1.2981248  -1.0058015 0.49719155 1.6351057 1.6351057 2.4202528 2.4202528
1 3.4295287 -1.3341472 -0.90991147 0.51876831 1.6351057 1.6351057 3.5888461 3.5888461
1 6.4041973 -1.3498101 -0.86656219 0.52884574 1.6351057 1.6351057 9.5381833 9.5381833
6  5.798068 -1.3213729 -0.94687586 0.51388603 1.6351057 1.6351057 8.3259247 8.3259247
3  3.895114 -1.2874741  -1.0359877 0.49367588 1.6351057 1.6351057 4.5200167 4.5200167
4 4.1442011  -1.286421  -1.0392267 0.49312429 1.6351057 1.6351057 5.0181909 5.0181909
1 5.2549374 -1.2830663  -1.0489928 0.49152425 1.6351057 1.6351057 7.2396635 7.2396635
4 3.6650998 -1.2992467  -1.0044333 0.50113772 1.6351057 1.6351057 4.0599883 4.0599883
1 4.1610763 -1.3000961 -0.99748064   0.501229 1.6351057 1.6351057 5.0519413 5.0519413
1 4.6511655  -1.332177 -0.90873936 0.51912739 1.6351057 1.6351057 6.0321197 6.0321197
1 5.2904762 -1.3189061 -0.94316126 0.51157796 1.6351057 1.6351057 7.3107411 7.3107411
5 3.6736389 -1.3108373 -0.96681011 0.50634666 1.6351057 1.6351057 4.0770664 4.0770664
7 2.5878646 -1.2983243  -1.0042074 0.49898315 1.6351057 1.6351057  1.9055179  1.9055179
4 3.4214078 -1.2764265  -1.0690461  0.4840307 1.6351057 1.6351057  3.5726044  3.5726044
2 2.4315055  -1.285517   -1.045473 0.48935849 1.6351057 1.6351057  1.5927997  1.5927997
3  3.233541 -1.3233919 -0.93393883 0.51374736 1.6351057 1.6351057  3.1968707  3.1968707
4 3.6088249 -1.3202989 -0.94133191 0.51221418 1.6351057 1.6351057  3.9474384  3.9474384
2  4.892708 -1.3239103 -0.92970001   0.514872 1.6351057 1.6351057  6.5152046  6.5152046
1 5.9734307 -1.3269274 -0.92203875  0.5134885 1.6351057 1.6351057    8.67665    8.67665
1 5.2867383 -1.3526384 -0.85944966 0.52786993 1.6351057 1.6351057  7.3032653  7.3032653
4 5.1969338 -1.3564838 -0.84974675 0.53025648 1.6351057 1.6351057  7.1236563  7.1236563
7 5.4592981 -1.3430683  -0.8871069 0.52233025 1.6351057 1.6351057  7.6483849  7.6483849
1 3.7732139 -1.3284452 -0.92695298 0.51481188 1.6351057 1.6351057  4.2762165  4.2762165
1 1.7968018 -1.3066219 -0.98329899 0.50341153 1.6351057 1.6351057 0.32339238 0.32339238
5 2.3254764 -1.3139543 -0.96158782 0.50755636 1.6351057 1.6351057  1.3807415  1.3807415
3 1.8249804 -1.3018941 -0.99571136 0.50047592 1.6351057 1.6351057 0.37974947 0.37974947
1  2.008883 -1.3068167 -0.98463166 0.50266647 1.6351057 1.6351057 0.74755476 0.74755476
3 1.8502173 -1.3111191 -0.97274161 0.50567551 1.6351057 1.6351057 0.43022324 0.43022324
1 2.1971231 -1.3193357 -0.94933395 0.51091573 1.6351057 1.6351057  1.1240348  1.1240348
1 2.1610155 -1.3189757 -0.95026522 0.51073546 1.6351057 1.6351057  1.0518196  1.0518196
2 2.4713147 -1.3022971 -0.99994143 0.49988791 1.6351057 1.6351057  1.6724181  1.6724181
9 2.3522304  -1.294862  -1.0209013 0.49635932 1.6351057 1.6351057  1.4342496  1.4342496
 3 7.2369609 -1.2855607  -1.0492459 0.49278499 1.6351057 1.6351057    11.20371    11.20371
 1 4.1102128 -1.3011899   -1.006276  0.4992191 1.6351057 1.6351057   4.9502142   4.9502142
 1 3.2833926 -1.3015327  -1.0036909 0.50005973 1.6351057 1.6351057   3.2965739   3.2965739
 2  2.907126 -1.3134286 -0.96892294 0.50634814 1.6351057 1.6351057   2.5440407   2.5440407
 1 3.8238031 -1.3193507 -0.95419816 0.50959851 1.6351057 1.6351057   4.3773949   4.3773949
 1 4.7873042 -1.3006076  -1.0081698 0.49974903 1.6351057 1.6351057   6.3043972   6.3043972
 5 6.8016923 -1.3244692 -0.93929489 0.51567329 1.6351057 1.6351057   10.333173   10.333173
 1 5.0143306 -1.3171314 -0.95671272 0.51172288 1.6351057 1.6351057     6.75845     6.75845
 5  5.281044 -1.3187269 -0.95214827 0.51263738 1.6351057 1.6351057   7.2918766   7.2918766
13 5.4663778 -1.3073599 -0.99025642 0.50357458 1.6351057 1.6351057   7.6625443   7.6625443
 3 4.1532232 -1.3500757 -0.86358417 0.52694031 1.6351057 1.6351057    5.036235    5.036235
 3 5.5055647 -1.3467183 -0.87202277 0.52406832 1.6351057 1.6351057   7.7409181   7.7409181
 4 4.7735902 -1.3538573 -0.85273269 0.52855699 1.6351057 1.6351057   6.2769692   6.2769692
 1  2.934371 -1.2831726  -1.0487984  0.4897862 1.6351057 1.6351057   2.5985306   2.5985306
 1 3.2359692 -1.2790162  -1.0612369 0.48688397 1.6351057 1.6351057   3.2017271   3.2017271
 1 4.9334961 -1.2756981  -1.0676539 0.48439891 1.6351057 1.6351057   6.5967808   6.5967808
 8 1.7449631  -1.301894 -0.99848728 0.50093215 1.6351057 1.6351057  0.21971495  0.21971495
11 1.6464173 -1.3036296  -0.9930896 0.50155269 1.6351057 1.6351057 0.022623222 0.022623222
 2  1.645054 -1.3024215 -0.99645763 0.50074283 1.6351057 1.6351057 0.019896584 0.019896584
 4 1.6461438 -1.3012672 -0.99941438 0.49998146 1.6351057 1.6351057 0.022076262 0.022076262
 5 3.6100341 -1.3288805 -0.92526467 0.51534978 1.6351057 1.6351057  3.9498568  3.9498568
 9 2.5064712 -1.3246048 -0.93622422 0.51354655 1.6351057 1.6351057  1.7427312  1.7427312
12 3.8622171 -1.3153787 -0.95736885 0.51050629 1.6351057 1.6351057  4.4542229  4.4542229
 4 7.4155006 -1.2938735  -1.0259958 0.49808812 1.6351057 1.6351057   11.56079   11.56079
 3 6.2447691 -1.2952909  -1.0211411 0.49873509 1.6351057 1.6351057  9.2193269  9.2193269
 1 6.0947428 -1.3198288 -0.95514064 0.51156531 1.6351057 1.6351057  8.9192742  8.9192742
 2 3.9265017 -1.3142719 -0.96922659  0.5073785 1.6351057 1.6351057   4.582792   4.582792
 4 3.6964009 -1.3144093 -0.96838907 0.50755127 1.6351057 1.6351057  4.1225904  4.1225904
 2 4.4539288 -1.3494367   -0.865555 0.52788926 1.6351057 1.6351057  5.6376463  5.6376463
 1 4.3980637  -1.349318 -0.86510244 0.52770483 1.6351057 1.6351057   5.525916   5.525916
 3 5.4278161 -1.3636465 -0.82816086 0.53358811 1.6351057 1.6351057  7.5854208  7.5854208
 3 6.0369493 -1.3739931 -0.79933177  0.5396498 1.6351057 1.6351057  8.8036872  8.8036872
 2 6.0614155 -1.3633216 -0.82346634 0.53376988 1.6351057 1.6351057  8.8526196  8.8526196
 3 6.0665369 -1.3632959 -0.82354874 0.53375297 1.6351057 1.6351057  8.8628624  8.8628624
 3 3.2992174 -1.3043408 -0.99191273 0.50002074 1.6351057 1.6351057  3.3282234  3.3282234
 3 4.1942869 -1.3056791 -0.98744975 0.50041553 1.6351057 1.6351057  5.1183624  5.1183624
 2 3.3160334 -1.2918621  -1.0260957 0.49240177 1.6351057 1.6351057  3.3618554  3.3618554
 1 1.7120276 -1.3017746 -0.99687262 0.50030684 1.6351057 1.6351057 0.15384388 0.15384388
 7 1.7346318 -1.2961847  -1.0130348  0.4971336 1.6351057 1.6351057 0.19905224 0.19905224
 1 1.7480041  -1.298063   -1.007837 0.49836232 1.6351057 1.6351057 0.22579679 0.22579679
2 2.6816086  -1.318993 -0.94898413 0.50962017 1.6351057 1.6351057 2.0930058 2.0930058
2  2.612202 -1.3187215 -0.94988127 0.50941954 1.6351057 1.6351057 1.9541927 1.9541927
2 2.5880391 -1.3173057 -0.95459557 0.50850964 1.6351057 1.6351057 1.9058668 1.9058668
1 2.5552739 -1.2859649  -1.0429462 0.48952077 1.6351057 1.6351057 1.8403365 1.8403365
2 3.0336508 -1.2817795  -1.0527588 0.48824472 1.6351057 1.6351057 2.7970903 2.7970903
5 2.6880326 -1.2885863  -1.0332772 0.49329773 1.6351057 1.6351057 2.1058538 2.1058538
1 2.3258078 -1.3037824 -0.98997229  0.5012096 1.6351057 1.6351057 1.3814043 1.3814043
1 4.2383242 -1.2981687  -1.0023078 0.49852787 1.6351057 1.6351057  5.206437  5.206437
4 4.5283151  -1.285929  -1.0373241 0.49175228 1.6351057 1.6351057  5.786419  5.786419
3 3.5550295 -1.2818277  -1.0515482 0.48902581 1.6351057 1.6351057 3.8398476 3.8398476
7 2.8493292 -1.3187743 -0.94872336 0.50937993 1.6351057 1.6351057  2.428447  2.428447
8 3.0627999 -1.3293589 -0.91964556 0.51571917 1.6351057 1.6351057 2.8553885 2.8553885
5 3.3436743 -1.2974533  -1.0071216 0.49977801 1.6351057 1.6351057 3.4171372 3.4171372
1 3.6437926 -1.2994212  -1.0012432  0.5010239 1.6351057 1.6351057 4.0173738 4.0173738
3 4.0564047 -1.2985837  -1.0036547 0.50078137 1.6351057 1.6351057 4.8425981 4.8425981
4 4.2738647 -1.2980007  -1.0051855 0.50049862 1.6351057 1.6351057 5.2775181 5.2775181
1 3.6989832 -1.2882563  -1.0332333 0.49397381 1.6351057 1.6351057 4.1277552 4.1277552
2 3.2861335 -1.2907185  -1.0256057 0.49525754 1.6351057 1.6351057 3.3020557 3.3020557
5 3.7531831  -1.290802  -1.0252935 0.49537485 1.6351057 1.6351057 4.2361549 4.2361549
1  4.266999 -1.2941512  -1.0174196  0.4938153 1.6351057 1.6351057 5.2637867 5.2637867
 7 3.8235256 -1.2778545  -1.0655851 0.48382783 1.6351057 1.6351057  4.3768399  4.3768399
 3 3.7304343 -1.2772336   -1.067813 0.48348662 1.6351057 1.6351057  4.1906572  4.1906572
 3 3.8112584  -1.321925 -0.94525904 0.51288033 1.6351057 1.6351057  4.3523054  4.3523054
 1  4.429901 -1.3270894 -0.93275313 0.51385852 1.6351057 1.6351057  5.5895906  5.5895906
 2 3.6379136 -1.2930595  -1.0273953 0.49339436 1.6351057 1.6351057  4.0056158  4.0056158
 6  1.866909 -1.3063546  -0.9874216 0.50292318 1.6351057 1.6351057 0.46360669 0.46360669
 2 2.9719983 -1.2828542  -1.0537924 0.48718875 1.6351057 1.6351057  2.6737852  2.6737852
 1 3.5246653 -1.2806208  -1.0608845 0.48541588 1.6351057 1.6351057  3.7791193  3.7791193
 2 3.4631442 -1.2810259  -1.0597859 0.48565384 1.6351057 1.6351057   3.656077   3.656077
 1 4.1523375 -1.3134527 -0.96400852  0.5054255 1.6351057 1.6351057  5.0344637  5.0344637
 1   2.81114 -1.2989927  -1.0024043 0.49850238 1.6351057 1.6351057  2.3520688  2.3520688
 2 2.8657158 -1.2987969  -1.0029174 0.49837182 1.6351057 1.6351057  2.4612202  2.4612202
10 3.2856905 -1.2841799  -1.0453165 0.48883707 1.6351057 1.6351057  3.3011697  3.3011697
 3 3.1542104 -1.3031407 -0.99040822 0.50075667 1.6351057 1.6351057  3.0382095  3.0382095
 6 3.1627522 -1.3078584 -0.97658737 0.50377911 1.6351057 1.6351057  3.0552931  3.0552931
 1 2.6572558 -1.3215455 -0.94132135 0.51141048 1.6351057 1.6351057  2.0443002  2.0443002
 1 2.3471378 -1.3183132 -0.95006635 0.50985305 1.6351057 1.6351057  1.4240644  1.4240644
 3  2.089301 -1.3153331 -0.95927615 0.50802495 1.6351057 1.6351057 0.90839073 0.90839073
 2 3.0738608 -1.3102073 -0.97064024 0.50512321 1.6351057 1.6351057  2.8775103  2.8775103
 3 3.0250502 -1.3034071 -0.99709723 0.49993693 1.6351057 1.6351057  2.7798891  2.7798891
 1 4.2735493 -1.2788837  -1.0639402 0.48778285 1.6351057 1.6351057 5.2768872 5.2768872
 3 4.2137979 -1.2782092  -1.0620877 0.48715231 1.6351057 1.6351057 5.1573844 5.1573844
 2 4.2386462 -1.2781373  -1.0622683 0.48710516 1.6351057 1.6351057 5.2070811 5.2070811
 2 2.9352376 -1.2881759  -1.0378585 0.49335934 1.6351057 1.6351057 2.6002639 2.6002639
 5 2.6323691 -1.2918444  -1.0274046 0.49545941 1.6351057 1.6351057 1.9945269 1.9945269
 2 2.3118663 -1.3024925 -0.99846263 0.50150596 1.6351057 1.6351057 1.3535213 1.3535213
 7 2.1878001 -1.2937825  -1.0225776 0.49618297 1.6351057 1.6351057 1.1053889 1.1053889
 5 2.8872781 -1.3101262 -0.97050618 0.50655733 1.6351057 1.6351057 2.5043449 2.5043449
 1 2.3395249 -1.3066785 -0.98280738 0.50242179 1.6351057 1.6351057 1.4088384 1.4088384
11 3.0108218 -1.3336054 -0.90878727 0.51823026 1.6351057 1.6351057 2.7514323 2.7514323
 4 2.7111532  -1.329721 -0.91877121 0.51685192 1.6351057 1.6351057  2.152095  2.152095
 3 2.2434338 -1.3179277 -0.95160894 0.50963653 1.6351057 1.6351057 1.2166563 1.2166563
 7 2.4261308 -1.3056908 -0.99020206 0.50192328 1.6351057 1.6351057 1.5820503 1.5820503
 5 2.4403902 -1.3077557 -0.98482206   0.503187 1.6351057 1.6351057 1.6105692 1.6105692
 2 2.2631003 -1.3146163    -0.96471 0.50762363 1.6351057 1.6351057 1.2559894 1.2559894
 9 2.3019275 -1.3163252  -0.9591781 0.50851338 1.6351057 1.6351057 1.3336437 1.3336437
 3 2.5107389 -1.3105491 -0.97616781 0.50495688 1.6351057 1.6351057 1.7512664 1.7512664
11 2.5884395 -1.3030661 -0.99552517 0.50258712 1.6351057 1.6351057 1.9066677 1.9066677
 2 4.3722284 -1.2842025  -1.0530693 0.48993415 1.6351057 1.6351057 5.4742455 5.4742455
 5 3.6417794  -1.282959  -1.0565146 0.48833597 1.6351057 1.6351057 4.0133476 4.0133476
 6 4.4733961 -1.2831664  -1.0520348 0.48623647 1.6351057 1.6351057  5.6765808  5.6765808
 3 4.2406933 -1.2831064  -1.0522792 0.48632554 1.6351057 1.6351057  5.2111753  5.2111753
 1 3.7863609 -1.2774488    -1.06927  0.4832908 1.6351057 1.6351057  4.3025105  4.3025105
 6 2.5904744 -1.3033125 -0.99159155 0.50270205 1.6351057 1.6351057  1.9107375  1.9107375
 6 2.2908109 -1.3024752 -0.99408462  0.5020776 1.6351057 1.6351057  1.3114104  1.3114104
 2 2.2691906 -1.3030247 -0.99251096 0.50240474 1.6351057 1.6351057    1.26817    1.26817
 4 4.5473458 -1.3137528 -0.96588842  0.5097059 1.6351057 1.6351057  5.8244803  5.8244803
 1 3.3651751 -1.3199643 -0.94289292 0.51151732 1.6351057 1.6351057  3.4601389  3.4601389
 2 4.0675552 -1.2742073  -1.0749106 0.48255359 1.6351057 1.6351057   4.864899   4.864899
 3 5.6768874 -1.2677934  -1.0920914 0.47882873 1.6351057 1.6351057  8.0835634  8.0835634
 6 4.0879362 -1.2786885  -1.0601255 0.48593938 1.6351057 1.6351057   4.905661   4.905661
 2 3.6973619 -1.2746121  -1.0750913 0.48223133 1.6351057 1.6351057  4.1245125  4.1245125
 2 3.5768255 -1.2921614  -1.0252034 0.49243169 1.6351057 1.6351057  3.8834397  3.8834397
 4 2.6327801 -1.2964623   -1.014877 0.49565646 1.6351057 1.6351057   1.995349   1.995349
 9 2.4611102 -1.2981709   -1.007012 0.49712355 1.6351057 1.6351057  1.6520091  1.6520091
 4 2.2911342 -1.2861524  -1.0435583 0.48996199 1.6351057 1.6351057  1.3120571  1.3120571
 1 3.2913207 -1.2784942  -1.0646428 0.48662278 1.6351057 1.6351057  3.3124302  3.3124302
11 2.0910205 -1.2915945  -1.0282611  0.4946492 1.6351057 1.6351057 0.91182959 0.91182959
 6 4.3758112  -1.350815 -0.86100845 0.52715855 1.6351057 1.6351057  5.4814111  5.4814111
 4 1.8706138 -1.3079108 -0.97948788  0.5039082 1.6351057 1.6351057 0.47101619 0.47101619
 3 2.0267169 -1.3177415 -0.95323541 0.50992322 1.6351057 1.6351057 0.78322257 0.78322257
 5 2.6179674 -1.3239425 -0.93755382 0.51298906 1.6351057 1.6351057  1.9657235  1.9657235
 2 2.2817926 -1.2898313  -1.0321921 0.49202588 1.6351057 1.6351057  1.2933739  1.2933739
 3 2.0932479 -1.2991174  -1.0037865 0.49983067 1.6351057 1.6351057  0.9162845  0.9162845
 1 3.6315165 -1.2857158  -1.0403204 0.49217686 1.6351057 1.6351057  3.9928217  3.9928217
 1 5.9890843 -1.2687516  -1.0929597 0.48086516 1.6351057 1.6351057  8.7079574  8.7079574
 3 4.5730231 -1.2702937  -1.0879015 0.48089366 1.6351057 1.6351057  5.8758348  5.8758348
16 2.1051793 -1.2916495  -1.0260115 0.49506103 1.6351057 1.6351057 0.94014719 0.94014719
17 2.3796187  -1.294591  -1.0201631 0.49691667 1.6351057 1.6351057   1.489026   1.489026
 1 2.4010741 -1.3047562 -0.98669305  0.5018627 1.6351057 1.6351057   1.531937   1.531937
 2 2.3332886 -1.2854229  -1.0458496 0.48953939 1.6351057 1.6351057  1.3963659  1.3963659
 5 2.5842808 -1.2981848  -1.0118567 0.49799329 1.6351057 1.6351057  1.8983502  1.8983502
 3 2.3455567 -1.2943308  -1.0221627 0.49621111 1.6351057 1.6351057  1.4209022  1.4209022
 1 2.2787299 -1.3014084  -1.0022873 0.49961375 1.6351057 1.6351057  1.2872484  1.2872484
 6 1.7202608 -1.2988372  -1.0076512 0.49824632 1.6351057 1.6351057 0.17031028 0.17031028
 1  3.663822 -1.3269686 -0.93182913 0.51429659 1.6351057 1.6351057  4.0574327  4.0574327
 5 3.9828116  -1.297446  -1.0146581 0.49567396 1.6351057 1.6351057   4.695412   4.695412
 1 3.7831612 -1.3288161 -0.92072773 0.51478756 1.6351057 1.6351057  4.2961112  4.2961112
 4  3.023981 -1.3242938 -0.93183881 0.51306961 1.6351057 1.6351057  2.7777506  2.7777506
 4 2.8783127 -1.3271594 -0.92594377 0.51444255 1.6351057 1.6351057   2.486414   2.486414
 3  3.107364 -1.3317491  -0.9123058 0.51834457 1.6351057 1.6351057  2.9445167  2.9445167
 2 2.2787549  -1.314592 -0.96100339 0.50894462 1.6351057 1.6351057  1.2872985  1.2872985
 2 2.3083193 -1.3106027 -0.97029084 0.50598316 1.6351057 1.6351057  1.3464274  1.3464274
 1 2.6239188 -1.3127423 -0.96412061 0.50718109 1.6351057 1.6351057  1.9776263  1.9776263
 5 2.3411008 -1.3110913 -0.96942481 0.50570027 1.6351057 1.6351057  1.4119903  1.4119903
 1 2.2443282 -1.3074454 -0.97974816 0.50352794 1.6351057 1.6351057  1.2184451  1.2184451
13 2.7780932 -1.3080919 -0.97762765 0.50342727 1.6351057 1.6351057  2.2859751  2.2859751
 6 2.4025054 -1.3106296 -0.97087743 0.50497734 1.6351057 1.6351057  1.5347994  1.5347994
 2 2.1893463 -1.3148145 -0.96022643 0.50771842 1.6351057 1.6351057  1.1084813  1.1084813
10 2.2092191 -1.3183464 -0.95042554 0.50994307 1.6351057 1.6351057   1.148227   1.148227
 1  2.113567 -1.3132865 -0.96521986 0.50659821 1.6351057 1.6351057 0.95692264 0.95692264
 7 2.2940405 -1.2852209  -1.0462807 0.48954958 1.6351057 1.6351057  1.3178697  1.3178697
 5 2.3896935 -1.2897178  -1.0341849  0.4918176 1.6351057 1.6351057  1.5091757  1.5091757
 3 2.1382872 -1.3006344  -1.0040931 0.49893522 1.6351057 1.6351057   1.006363   1.006363
 3 3.2406273 -1.2984992  -1.0087664 0.50022139 1.6351057 1.6351057  3.2110434  3.2110434
 5 2.4398902 -1.2879559  -1.0351243 0.49177822 1.6351057 1.6351057  1.6095691  1.6095691
 9 2.1128016 -1.3088115 -0.97985347 0.50377348 1.6351057 1.6351057 0.95539182 0.95539182
 1 2.2303412 -1.2887183  -1.0358161 0.49143757 1.6351057 1.6351057   1.190471   1.190471
 3 3.9319728 -1.3357191 -0.90656811 0.52010721 1.6351057 1.6351057  4.5937342  4.5937342
 5 3.9606859  -1.274936  -1.0783097 0.48249482 1.6351057 1.6351057  4.6511604  4.6511604
1 3.2527074 -1.2969276  -1.0143888  0.4955207 1.6351057 1.6351057  3.2352035  3.2352035
4 3.4742571 -1.2840453  -1.0514917 0.48748905 1.6351057 1.6351057  3.6783028  3.6783028
1 3.3689388 -1.3108891 -0.97384924 0.50398807 1.6351057 1.6351057  3.4676663  3.4676663
4 3.1574464 -1.3057384 -0.98664169 0.50109574 1.6351057 1.6351057  3.0446815  3.0446815
3 2.0983536 -1.3176211 -0.95483679 0.50984206 1.6351057 1.6351057 0.92649586 0.92649586
3 2.9543238 -1.3154856 -0.96167909 0.50727133 1.6351057 1.6351057  2.6384362  2.6384362
1  1.827159 -1.3005036  -1.0031895 0.49906749 1.6351057 1.6351057 0.38410675 0.38410675
5 1.8914798 -1.3086138 -0.97968617 0.50477667 1.6351057 1.6351057 0.51274835 0.51274835
3 2.1462864 -1.3146963  -0.9633984 0.50737985 1.6351057 1.6351057  1.0223615  1.0223615
3 2.0929578 -1.3037965 -0.99450748 0.50198685 1.6351057 1.6351057  0.9157042  0.9157042
4 1.9708089 -1.3071604  -0.9849424 0.50377266 1.6351057 1.6351057 0.67140644 0.67140644
3 1.8039705 -1.3003931  -1.0037213 0.49932376 1.6351057 1.6351057 0.33772969 0.33772969
7 2.9686818 -1.3056538  -0.9912851 0.50329066 1.6351057 1.6351057  2.6671523  2.6671523
3 3.7618102 -1.2947889   -1.022447 0.49699036 1.6351057 1.6351057  4.2534091  4.2534091
1 3.5692798 -1.3091388 -0.97904996 0.50285054 1.6351057 1.6351057  3.8683482  3.8683482
2 2.6675209  -1.285506  -1.0471756 0.49008032 1.6351057 1.6351057  2.0648306  2.0648306
6 4.2001876 -1.2773783  -1.0723762 0.48388904 1.6351057 1.6351057   5.130164   5.130164
4 3.9033047 -1.3471153 -0.87217366 0.52591032 1.6351057 1.6351057   4.536398   4.536398
2 4.8875886 -1.3132213 -0.96700049 0.50468986 1.6351057 1.6351057  6.5049658  6.5049658
1  3.781106 -1.2947497  -1.0123585 0.49683512 1.6351057 1.6351057  4.2920007  4.2920007
 3 2.5036764 -1.3030999 -0.99088984 0.50236097 1.6351057 1.6351057  1.7371416  1.7371416
 1  2.107514 -1.3095891 -0.97394844  0.5055479 1.6351057 1.6351057 0.94481674 0.94481674
 5 1.8156356 -1.3010156 -0.99930984 0.50044632 1.6351057 1.6351057 0.36105983 0.36105983
14 2.2221356 -1.2961021  -1.0111967 0.49772551 1.6351057 1.6351057    1.17406    1.17406
 2  2.513585 -1.3038877 -0.98814887 0.50216751 1.6351057 1.6351057  1.7569588  1.7569588
 3 4.3814982 -1.2919033  -1.0213378 0.49651072 1.6351057 1.6351057  5.4927851  5.4927851
 2 5.0119541 -1.2905856  -1.0249373 0.49597852 1.6351057 1.6351057  6.7536968  6.7536968
 3 2.7766296 -1.3037575 -0.98992302 0.50309884 1.6351057 1.6351057  2.2830478  2.2830478
 1 2.5295063 -1.3048268 -0.98732225 0.50362982 1.6351057 1.6351057  1.7888014  1.7888014
 1 2.9464698 -1.3110055 -0.96837985 0.50563317 1.6351057 1.6351057  2.6227282  2.6227282
 2 2.5728384 -1.3014072 -0.99584991 0.49973717 1.6351057 1.6351057  1.8754654  1.8754654
 6 4.0456578 -1.3071692 -0.97759735 0.50277794 1.6351057 1.6351057  4.8211042  4.8211042
 2 3.4157687 -1.2846564  -1.0496847 0.48792104 1.6351057 1.6351057   3.561326   3.561326
 3 3.3329771 -1.2847109  -1.0455733 0.48834488 1.6351057 1.6351057  3.3957429  3.3957429
 1 5.1487624 -1.3307186 -0.91267173 0.51599016 1.6351057 1.6351057  7.0273134  7.0273134
 1 5.5106953 -1.3306247  -0.9128579  0.5158042 1.6351057 1.6351057  7.7511792  7.7511792
 6 5.2271775 -1.3317126 -0.91013376 0.51636508 1.6351057 1.6351057  7.1841436  7.1841436
 3 5.2525101  -1.334206 -0.90316674 0.51789977 1.6351057 1.6351057  7.2348088  7.2348088
 1 2.2256532 -1.3099406 -0.97273069 0.50610794 1.6351057 1.6351057   1.181095   1.181095
 1 2.4753636 -1.2959165  -1.0169307 0.49554961 1.6351057 1.6351057  1.6805158  1.6805158
 1 2.5623903  -1.295864  -1.0165069 0.49533369 1.6351057 1.6351057  1.8545693  1.8545693
11 4.2149093 -1.2715297  -1.0838849 0.48157415 1.6351057 1.6351057  5.1596074  5.1596074
10 2.8518117 -1.3206017 -0.94601594 0.51027472 1.6351057 1.6351057   2.433412   2.433412
 5 3.1840154 -1.3136657 -0.96598822 0.50579332 1.6351057 1.6351057  3.0978196  3.0978196
 5 1.7705869 -1.3058529 -0.98644354 0.50244516 1.6351057 1.6351057 0.27096241 0.27096241
 2 1.9400533 -1.3105916 -0.97223225 0.50629578 1.6351057 1.6351057  0.6098953  0.6098953
 2 3.3686985  -1.285939  -1.0408962 0.49234821 1.6351057 1.6351057  3.4671857  3.4671857
 6 3.4735066 -1.3171659 -0.95824624  0.5078918 1.6351057 1.6351057   3.676802   3.676802
 1 4.8237358 -1.3114016 -0.97663945 0.50408116 1.6351057 1.6351057  6.3772604  6.3772604
 1 3.8160486 -1.3035219 -0.99909056 0.50142415 1.6351057 1.6351057  4.3618859  4.3618859
 1 2.9272326 -1.3022126  -1.0012648 0.49998831 1.6351057 1.6351057  2.5842538  2.5842538
 3 2.7499181 -1.2922401  -1.0293127 0.49419767 1.6351057 1.6351057  2.2296249  2.2296249
 6 2.8854344 -1.2901648  -1.0347283 0.49318594 1.6351057 1.6351057  2.5006574  2.5006574
 3 2.6484348 -1.2913786  -1.0314028 0.49395543 1.6351057 1.6351057  2.0266583  2.0266583
 2 2.4055748 -1.2862874  -1.0435511 0.49130542 1.6351057 1.6351057  1.5409383  1.5409383
 1 2.3567222  -1.287095  -1.0412136 0.49181338 1.6351057 1.6351057  1.4432332  1.4432332
 4 2.4124761 -1.2875199    -1.04028 0.49208652 1.6351057 1.6351057  1.5547408  1.5547408
 2  3.365467 -1.2756256  -1.0732442 0.48399017 1.6351057 1.6351057  3.4607227  3.4607227
 1 4.3938143 -1.3189289 -0.95274672 0.50837537 1.6351057 1.6351057  5.5174172  5.5174172
 2  3.493651 -1.3231985  -0.9374038 0.51146523 1.6351057 1.6351057  3.7170906  3.7170906
 1 3.4300183 -1.3218973 -0.94165428 0.51068327 1.6351057 1.6351057 3.5898252 3.5898252
17 2.8002005 -1.3310921 -0.91577543 0.51702623 1.6351057 1.6351057 2.3301897 2.3301897
 7 2.7058548 -1.3224505  -0.9380984 0.51207045 1.6351057 1.6351057 2.1414982 2.1414982
 1 2.3507624 -1.3106253 -0.97004771 0.50634946 1.6351057 1.6351057 1.4313135 1.4313135
 7  5.756401 -1.2907981  -1.0250064 0.49677513 1.6351057 1.6351057 8.2425908 8.2425908
 1 7.3855592 -1.2638185   -1.104278 0.47741221 1.6351057 1.6351057 11.500907 11.500907
 4  5.482073 -1.2747676   -1.070244 0.48325383 1.6351057 1.6351057 7.6939347 7.6939347
 1 4.9609204 -1.2771234  -1.0635915 0.48450731 1.6351057 1.6351057 6.6516294 6.6516294
 2 4.3683164 -1.2986301    -1.00047 0.49917484 1.6351057 1.6351057 5.4664215 5.4664215
 2 3.9979191 -1.3103332 -0.96776571 0.50635833 1.6351057 1.6351057 4.7256269 4.7256269
 9 2.8598366 -1.2991157  -1.0035056  0.5004427 1.6351057 1.6351057 2.4494619 2.4494619
 5  2.746601 -1.2990129  -1.0038193 0.50027171 1.6351057 1.6351057 2.2229906 2.2229906
 2 2.7004765 -1.2816202  -1.0570197 0.48778789 1.6351057 1.6351057 2.1307417 2.1307417
 2 3.0899966 -1.2950673  -1.0183524 0.49440836 1.6351057 1.6351057 2.9097818 2.9097818
 4 2.3946224 -1.3098581 -0.97435714 0.50424756 1.6351057 1.6351057 1.5190334 1.5190334
 2 2.4617235 -1.3144646 -0.95963617 0.50788359 1.6351057 1.6351057 1.6532356 1.6532356
 5 2.6614257 -1.3263629 -0.92897495 0.51531536 1.6351057 1.6351057 2.0526401 2.0526401
 2 2.7448156 -1.3278061 -0.92481858  0.5161249 1.6351057 1.6351057 2.2194199 2.2194199
 7 2.6156753 -1.3261574 -0.92958653 0.51513704 1.6351057 1.6351057 1.9611392 1.9611392
 2 2.5646122 -1.3229507 -0.93613467 0.51284874 1.6351057 1.6351057 1.8590131 1.8590131
 1 1.9634666 -1.3011319 -0.99808118 0.49969306 1.6351057 1.6351057 0.65672188 0.65672188
 4 2.5388625 -1.2960826  -1.0104289 0.49785402 1.6351057 1.6351057  1.8075138  1.8075138
 1 2.6701264 -1.2856062  -1.0470194 0.48957173 1.6351057 1.6351057  2.0700416  2.0700416
 5 2.9796983 -1.3106248  -0.9763469 0.50642015 1.6351057 1.6351057  2.6891852  2.6891852
 5  2.504199 -1.3163298 -0.95720763 0.51006216 1.6351057 1.6351057  1.7381867  1.7381867
 1 1.7753752 -1.3093047 -0.97721115 0.50523001 1.6351057 1.6351057 0.28053914 0.28053914
 1 1.9592314 -1.3048944 -0.98786226 0.50294742 1.6351057 1.6351057 0.64825155 0.64825155
 4 1.6888327 -1.3046986 -0.98886108 0.50237687 1.6351057 1.6351057 0.10745409 0.10745409
 3 3.5730344 -1.3333418 -0.90760943   0.519452 1.6351057 1.6351057  3.8758575  3.8758575
 1 3.0292947 -1.3329367 -0.90891546 0.51873082 1.6351057 1.6351057   2.788378   2.788378
 2 2.0270007 -1.3133888 -0.96419575 0.50732914 1.6351057 1.6351057 0.78379017 0.78379017
 1 2.5659701 -1.3236223  -0.9352129 0.51343486 1.6351057 1.6351057  1.8617289  1.8617289
 2 2.5072021 -1.3225081  -0.9377303  0.5131404 1.6351057 1.6351057  1.7441928  1.7441928
 1 2.3696288 -1.3125448  -0.9660297 0.50783591 1.6351057 1.6351057  1.4690462  1.4690462
17  2.655356  -1.306971 -0.97956694 0.50464149 1.6351057 1.6351057  2.0405008  2.0405008
 8 2.7038953 -1.2977008  -1.0069289 0.49944664 1.6351057 1.6351057  2.1375793  2.1375793
 2 2.9744241  -1.309194 -0.98017489 0.50582449 1.6351057 1.6351057   2.678637   2.678637
 2 3.1434337 -1.3103218  -0.9769461 0.50649561 1.6351057 1.6351057  3.0166562  3.0166562
 2 2.9104754 -1.3266967 -0.93125108 0.51517066 1.6351057 1.6351057  2.5507395  2.5507395
 3 2.5289347 -1.3162769 -0.95951977 0.50916652 1.6351057 1.6351057   1.787658   1.787658
 5 2.3816163 -1.3107996 -0.97445719 0.50648734 1.6351057 1.6351057  1.4930212  1.4930212
 4 1.9755965 -1.2916874  -1.0269315 0.49479455 1.6351057 1.6351057 0.68098168 0.68098168
 8 2.3522055 -1.2969025  -1.0143519 0.49788433 1.6351057 1.6351057  1.4341996  1.4341996
 2 2.3986918 -1.3247965 -0.93298352   0.513852 1.6351057 1.6351057  1.5271723  1.5271723
 7 3.5594344 -1.3331394 -0.91096689  0.5194754 1.6351057 1.6351057  3.8486575  3.8486575
 6 2.3830493 -1.3218459 -0.94215194 0.51262688 1.6351057 1.6351057  1.4958874  1.4958874
 5 2.2177325  -1.317713 -0.95474226 0.51009449 1.6351057 1.6351057  1.1652536  1.1652536
15 2.9073469 -1.3191556 -0.95213925  0.5109146 1.6351057 1.6351057  2.5444824  2.5444824
 6   2.36701 -1.2873725  -1.0415095 0.49143075 1.6351057 1.6351057  1.4638088  1.4638088
 7 2.2475614 -1.2994225  -1.0081096  0.4988633 1.6351057 1.6351057  1.2249114  1.2249114
 7 3.3131626 -1.3021953 -0.99777429 0.50257853 1.6351057 1.6351057  3.3561139  3.3561139
 7 1.7134368 -1.3058795  -0.9870397 0.50318404 1.6351057 1.6351057 0.15666223 0.15666223
 3 3.7690804 -1.2968907  -1.0068585 0.49901062 1.6351057 1.6351057  4.2679495  4.2679495
 2 3.0927668 -1.2809658  -1.0563166 0.48836749 1.6351057 1.6351057  2.9153222  2.9153222
 5 3.1836395 -1.2906958  -1.0330777 0.49436699 1.6351057 1.6351057  3.0970676  3.0970676
 7 3.8030347  -1.336899 -0.90258602 0.52059706 1.6351057 1.6351057  4.3358581  4.3358581
 3 1.9072248 -1.3063572 -0.98406291 0.50389471 1.6351057 1.6351057 0.54423821 0.54423821
 2 1.8837254 -1.3064655 -0.98349461 0.50384206 1.6351057 1.6351057 0.49723943 0.49723943
 1 3.4130424 -1.2863409  -1.0388372 0.49252436 1.6351057 1.6351057  3.5558734  3.5558734
 2  3.046926 -1.2936805  -1.0213977 0.49717974 1.6351057 1.6351057  2.8236406  2.8236406
 2 2.0773983 -1.2968163  -1.0141309 0.49768349 1.6351057 1.6351057  0.88458518  0.88458518
 1 2.0914985 -1.3035782 -0.99499709 0.50194115 1.6351057 1.6351057  0.91278568  0.91278568
 1  2.582742 -1.3176631  -0.9513527 0.50908409 1.6351057 1.6351057   1.8952726   1.8952726
 2 3.6177222 -1.3381036 -0.89462085 0.52184984 1.6351057 1.6351057   3.9652331   3.9652331
 6 3.7338668 -1.3284377 -0.92129707 0.51717888 1.6351057 1.6351057   4.1975223   4.1975223
 1 2.6695749 -1.3239029 -0.93422095 0.51395787 1.6351057 1.6351057   2.0689385   2.0689385
 3 2.0789934 -1.3116987 -0.97167073 0.50657506 1.6351057 1.6351057  0.88777539  0.88777539
 5 2.0660881 -1.3116161 -0.97189125 0.50652621 1.6351057 1.6351057  0.86196492  0.86196492
 1 2.7029195 -1.3057234 -0.99058356 0.50266711 1.6351057 1.6351057   2.1356277   2.1356277
13 1.8258259 -1.2964664  -1.0119412 0.49700154 1.6351057 1.6351057  0.38144039  0.38144039
 1 3.4548003 -1.3146616 -0.95661346 0.50844038 1.6351057 1.6351057   3.6393893   3.6393893
 3 3.2083259 -1.3263141  -0.9251429 0.51509174 1.6351057 1.6351057   3.1464404   3.1464404
 1 3.3022224 -1.3258979 -0.92618561  0.5148626 1.6351057 1.6351057   3.3342335   3.3342335
 4  3.303907 -1.3110444 -0.96954791 0.50459667 1.6351057 1.6351057   3.3376027   3.3376027
 5 2.4450102 -1.2927545  -1.0239361 0.49360338 1.6351057 1.6351057    1.619809    1.619809
 1 2.3810945  -1.287902  -1.0368751 0.49105171 1.6351057 1.6351057   1.4919776   1.4919776
 5 1.6453361 -1.3001129  -1.0029575 0.49953498 1.6351057 1.6351057 0.020460805 0.020460805
 5 3.5199337 -1.3077468  -0.9833372 0.50199204 1.6351057 1.6351057    3.769656    3.769656
 2 2.8418196 -1.3111768 -0.97481135 0.50502944 1.6351057 1.6351057   2.4134279   2.4134279
 1 2.6983243 -1.3135716  -0.9681212 0.50695525 1.6351057 1.6351057   2.1264373   2.1264373
 6 2.7639153 -1.3284035 -0.92588331 0.51544699 1.6351057 1.6351057 2.2576193 2.2576193
 2 4.3808854 -1.2848471  -1.0402961 0.49041382 1.6351057 1.6351057 5.4915595 5.4915595
 5 3.6771405 -1.3108265  -0.9785888 0.50537616 1.6351057 1.6351057 4.0840697 4.0840697
 4 5.8317335 -1.3156001 -0.95179792 0.51050465 1.6351057 1.6351057 8.3932557 8.3932557
 3  3.931958 -1.2862064  -1.0376346 0.49231617 1.6351057 1.6351057 4.5937048 4.5937048
 2 5.3535065 -1.3348292 -0.90608061 0.51731185 1.6351057 1.6351057 7.4368017 7.4368017
 1 4.0893179 -1.3450413 -0.87691681 0.52398377 1.6351057 1.6351057 4.9084246 4.9084246
 6 4.7479822 -1.3436777 -0.87826867 0.52330344 1.6351057 1.6351057  6.225753  6.225753
 4  3.557162 -1.3415204  -0.8888916 0.52310911 1.6351057 1.6351057 3.8441127 3.8441127
 1 3.0894783 -1.3292813  -0.9229065 0.51667378 1.6351057 1.6351057 2.9087453 2.9087453
 4 3.0529293 -1.3272906 -0.92980674 0.51545316 1.6351057 1.6351057 2.8356473 2.8356473
 7 3.0640765 -1.3358806 -0.90211683 0.51986082 1.6351057 1.6351057 2.8579416 2.8579416
 1  3.604043  -1.341148 -0.88694225 0.52274981 1.6351057 1.6351057 3.9378747 3.9378747
 4 2.5226374 -1.2951777  -1.0133745 0.49734746 1.6351057 1.6351057 1.7750634 1.7750634
 8 2.1556759 -1.3057151 -0.98950654 0.50321453 1.6351057 1.6351057 1.0411406 1.0411406
 2 2.8058236 -1.3029785  -0.9974107 0.50207308 1.6351057 1.6351057 2.3414358 2.3414358
11 2.6888283 -1.3065036 -0.98571836 0.50456072 1.6351057 1.6351057 2.1074453 2.1074453
 3 2.3748335 -1.3125023 -0.96960285 0.50760223 1.6351057 1.6351057 1.4794556 1.4794556
 9 2.7617076 -1.3087808 -0.98193898 0.50523688 1.6351057 1.6351057 2.2532038 2.2532038
 4 3.0735558 -1.2906391  -1.0255244 0.49430878 1.6351057 1.6351057 2.8769002 2.8769002
 1 3.4564748  -1.286244  -1.0380072 0.49137412 1.6351057 1.6351057  3.6427383  3.6427383
 1  4.433082 -1.3010042  -1.0072849 0.49857381 1.6351057 1.6351057  5.5959527  5.5959527
 2  5.566674  -1.330263 -0.92401895 0.51550939 1.6351057 1.6351057  7.8631366  7.8631366
 1 7.4898126  -1.372547 -0.80829064 0.53801957 1.6351057 1.6351057  11.709414  11.709414
 3 6.5746796 -1.3724926 -0.80642156  0.5377055 1.6351057 1.6351057  9.8791478  9.8791478
 1 3.8316773 -1.3173831 -0.96023425 0.50936587 1.6351057 1.6351057  4.3931432  4.3931432
 6 3.9711524 -1.3273574 -0.93047655 0.51591895 1.6351057 1.6351057  4.6720934  4.6720934
 1 4.4509044 -1.3045353 -0.99148852 0.49954612 1.6351057 1.6351057  5.6315975  5.6315975
 6 3.5717971 -1.2908671  -1.0298838 0.49153747 1.6351057 1.6351057  3.8733828  3.8733828
10 4.3223005 -1.2829064  -1.0526357 0.48618082 1.6351057 1.6351057  5.3743897  5.3743897
 3 4.2987233  -1.281216  -1.0573495 0.48513283 1.6351057 1.6351057  5.3272354  5.3272354
14 1.9422066 -1.3103569 -0.97328887 0.50501263 1.6351057 1.6351057  0.6142018  0.6142018
 2 1.8056981 -1.3003662  -1.0007239 0.49940726 1.6351057 1.6351057 0.34118489 0.34118489
 2 2.1741654 -1.2901598  -1.0331595 0.49279955 1.6351057 1.6351057  1.0781195  1.0781195
14 2.2204047 -1.2912858  -1.0261807 0.49488286 1.6351057 1.6351057   1.170598   1.170598
 4 3.1087295 -1.2770998  -1.0678303 0.48482123 1.6351057 1.6351057  2.9472476  2.9472476
 4 3.9779227 -1.2734209  -1.0780791 0.48292047 1.6351057 1.6351057  4.6856341  4.6856341
 5 2.1852446 -1.2989484  -1.0048656 0.49779955 1.6351057 1.6351057  1.1002779  1.1002779
 1 4.4367363 -1.2883314  -1.0359028 0.48963287 1.6351057 1.6351057  5.6032613  5.6032613
 8 4.5607412 -1.2892899  -1.0329956 0.49017713 1.6351057 1.6351057  5.8512712  5.8512712
 3 4.8519796 -1.3228168 -0.93766571 0.51494885 1.6351057 1.6351057   6.4337478   6.4337478
 1 3.7278847 -1.2912124  -1.0333814 0.49333736 1.6351057 1.6351057    4.185558    4.185558
 7 2.8317558 -1.2805205   -1.059118 0.48621313 1.6351057 1.6351057   2.3933003   2.3933003
 1 2.6993774 -1.2843814  -1.0486009 0.48836106 1.6351057 1.6351057   2.1285435   2.1285435
 2 2.0772442  -1.307971 -0.97794212 0.50477556 1.6351057 1.6351057  0.88427714  0.88427714
 3 2.2531367 -1.2974275   -1.007445  0.4976124 1.6351057 1.6351057    1.236062    1.236062
 6 1.6846676 -1.2984734   -1.007116 0.49814476 1.6351057 1.6351057 0.099123815 0.099123815
 2 4.8059033 -1.3064836 -0.98924357  0.5008898 1.6351057 1.6351057   6.3415952   6.3415952
 1 5.4850553 -1.2962043  -1.0214511 0.49593524 1.6351057 1.6351057   7.6998994   7.6998994
 3 2.8850107 -1.2996652  -1.0080456 0.49950047 1.6351057 1.6351057     2.49981     2.49981
 1 3.6017168 -1.3373087 -0.89665936 0.52089267 1.6351057 1.6351057   3.9332223   3.9332223
10 3.9873879 -1.3309928 -0.91203563 0.51829935 1.6351057 1.6351057   4.7045644   4.7045644
 2 2.2828875 -1.3022364  -0.9952147 0.50196664 1.6351057 1.6351057   1.2955637   1.2955637
 6 3.5791698 -1.2919001  -1.0219409 0.49590853 1.6351057 1.6351057   3.8881284   3.8881284
 1 3.6621919 -1.2954502  -1.0117805 0.49828781 1.6351057 1.6351057   4.0541724   4.0541724
 7 2.2063025 -1.3150753 -0.96205899 0.50864391 1.6351057 1.6351057   1.1423936   1.1423936
 2 3.4460671 -1.3182509 -0.95566083 0.50898294 1.6351057 1.6351057   3.6219229   3.6219229
10 2.9670161 -1.3132722 -0.96842216 0.50578697 1.6351057 1.6351057   2.6638208   2.6638208
12 2.9576522 -1.3121087 -0.97139407   0.505234 1.6351057 1.6351057    2.645093    2.645093
 3 2.0538706 -1.2880456  -1.0369438 0.49162137 1.6351057 1.6351057  0.83752994  0.83752994
 8 2.5481918 -1.2999012  -1.0035459 0.49783944 1.6351057 1.6351057 1.8261722 1.8261722
 4 2.3596732 -1.2956554  -1.0157407 0.49538801 1.6351057 1.6351057 1.4491352 1.4491352
10 2.2173909 -1.2890269  -1.0340287  0.4917591 1.6351057 1.6351057 1.1645705 1.1645705
15 2.8262742 -1.3140585 -0.96471996 0.50630144 1.6351057 1.6351057 2.3823372 2.3823372
 4 3.3007619 -1.2867707  -1.0401849  0.4894003 1.6351057 1.6351057 3.3313125 3.3313125
 5 3.9552223 -1.2921097  -1.0267541 0.49205304 1.6351057 1.6351057 4.6402333 4.6402333
 1 3.3647981 -1.2961539  -1.0114433 0.49550965 1.6351057 1.6351057 3.4593848 3.4593848
 6 2.4776255 -1.3019638 -0.99596557 0.49950137 1.6351057 1.6351057 1.6850397 1.6850397
 4 2.4002109 -1.2985936  -1.0048013 0.49770498 1.6351057 1.6351057 1.5302104 1.5302104
 4 2.2946288 -1.3160871 -0.95711865 0.50972238 1.6351057 1.6351057 1.3190462 1.3190462
10 2.1994082 -1.3098433 -0.97573491 0.50427653 1.6351057 1.6351057  1.128605  1.128605
12 4.2914192 -1.3031513 -0.99600859 0.49873959 1.6351057 1.6351057 5.3126271 5.3126271
 3 2.8216478 -1.3041099  -0.9924438  0.5001978 1.6351057 1.6351057 2.3730844 2.3730844
 1 2.4234732 -1.3157467 -0.95666624 0.50824545 1.6351057 1.6351057  1.576735  1.576735
 2 2.6413833 -1.3102714 -0.97178307 0.50460375 1.6351057 1.6351057 2.0125553 2.0125553
 5 2.1649659 -1.3027684 -0.99560828 0.49993562 1.6351057 1.6351057 1.0597204 1.0597204
 1  2.736247 -1.2859404  -1.0448075 0.49140996 1.6351057 1.6351057 2.2022826 2.2022826
 1 2.7467646   -1.28797  -1.0398036 0.49245912 1.6351057 1.6351057 2.2233179 2.2233179
 4 3.1279555 -1.2876207  -1.0375806 0.49004328 1.6351057 1.6351057 2.9856998 2.9856998
 8  2.454997 -1.3212348 -0.94383268 0.51115143 1.6351057 1.6351057 1.6397827 1.6397827
 5 3.1179674 -1.2927305  -1.0270576 0.49589818 1.6351057 1.6351057  2.9657235  2.9657235
 1  2.516484 -1.2889799  -1.0369055 0.49279724 1.6351057 1.6351057  1.7627566  1.7627566
 4  2.122895 -1.3009716  -1.0016526 0.49884936 1.6351057 1.6351057 0.97557863 0.97557863
 5  2.073709 -1.3013129 -0.99979885 0.49914184 1.6351057 1.6351057 0.87720661 0.87720661
 3 2.3680377 -1.3244399 -0.93420366  0.5137569 1.6351057 1.6351057  1.4658641  1.4658641
 2 2.1633116 -1.3198433 -0.94720418 0.51079171 1.6351057 1.6351057   1.056412   1.056412
 2 1.8926869 -1.3051195 -0.98915116 0.50314287 1.6351057 1.6351057 0.51516246 0.51516246
12 2.2009807 -1.3100423 -0.97475334  0.5044198 1.6351057 1.6351057  1.1317501  1.1317501
 2 1.7493353 -1.3017363 -0.99754982 0.50000503 1.6351057 1.6351057 0.22845923 0.22845923
 1 1.7763881 -1.3019883 -0.99675847 0.50011203 1.6351057 1.6351057 0.28256479 0.28256479
 6 2.5558928 -1.2933383  -1.0239697 0.49376925 1.6351057 1.6351057  1.8415744  1.8415744
 6  2.436564 -1.2894853  -1.0340657 0.49157949 1.6351057 1.6351057  1.6029168  1.6029168
15  3.563034 -1.2816165  -1.0596532 0.48792267 1.6351057 1.6351057  3.8558568  3.8558568
 1 3.4299283   -1.32099 -0.94794495 0.51051451 1.6351057 1.6351057  3.5896453  3.5896453
 1 2.6621314 -1.3239784 -0.93883829 0.51330486 1.6351057 1.6351057  2.0540515  2.0540515
 1  2.745454 -1.3247356 -0.93620672 0.51394692 1.6351057 1.6351057  2.2206967  2.2206967
 2 2.8999433 -1.3235606 -0.93932389  0.5132002 1.6351057 1.6351057  2.5296753  2.5296753
 6 4.8741226 -1.2865881  -1.0449458 0.49264513 1.6351057 1.6351057  6.4780339  6.4780339
 1 4.4361705 -1.3267696 -0.92366373 0.51663203 1.6351057 1.6351057  5.6021297  5.6021297
 2 4.5364876 -1.3497384 -0.86289638 0.52781997 1.6351057 1.6351057  5.8027638  5.8027638
 4 4.2470925 -1.3507816  -0.8599004 0.52756001 1.6351057 1.6351057  5.2239737  5.2239737
11 3.4250187 -1.3362725 -0.90096756 0.51945224 1.6351057 1.6351057  3.5798261  3.5798261
 1 2.8189445 -1.3148643 -0.96362413 0.50701696 1.6351057 1.6351057  2.3676778  2.3676778
 3  2.711009 -1.3167541 -0.95856832 0.50822929 1.6351057 1.6351057  2.1518066  2.1518066
 1  2.257861 -1.3105734 -0.97531931  0.5050478 1.6351057 1.6351057  1.2455107  1.2455107
 3 2.6620278 -1.3131282 -0.96936359 0.50688442 1.6351057 1.6351057  2.0538443  2.0538443
 4 4.7082627 -1.3208145 -0.95072994 0.51007575 1.6351057 1.6351057  6.1463141  6.1463141
 2 3.3749065  -1.290487  -1.0348078 0.49379837 1.6351057 1.6351057  3.4796016  3.4796016
 3 2.7843499 -1.2916118  -1.0303591  0.4945618 1.6351057 1.6351057  2.2984885  2.2984885
 3 2.5772355 -1.2929743  -1.0255398 0.49559974 1.6351057 1.6351057  1.8842597  1.8842597
 6 1.9839612 -1.2973365  -1.0123809 0.49827881 1.6351057 1.6351057 0.69771114 0.69771114
 1 2.4605468 -1.3008082 -0.99686932 0.50016997 1.6351057 1.6351057  1.6508822  1.6508822
 8 2.9049223 -1.3274016 -0.92813109  0.5151538 1.6351057 1.6351057  2.5396332  2.5396332
 2 4.4150868 -1.3460095 -0.87202434 0.52501233 1.6351057 1.6351057  5.5599623  5.5599623
 3  6.209127 -1.3598874 -0.83684233 0.53096856 1.6351057 1.6351057  9.1480427  9.1480427
 2 6.8349981 -1.3473938 -0.87203624 0.52808278 1.6351057 1.6351057  10.399785  10.399785
 1 6.9153248 -1.3474593 -0.87181503 0.52814569 1.6351057 1.6351057  10.560438  10.560438
 2 6.6832002 -1.3334752 -0.90122086 0.51857677 1.6351057 1.6351057  10.096189  10.096189
 1 7.3377762 -1.3346672 -0.89736051 0.52005495 1.6351057 1.6351057  11.405341  11.405341
 1 5.8181614 -1.3520323 -0.85634286 0.52993159 1.6351057 1.6351057  8.3661115  8.3661115
 1 3.3279195 -1.3361198  -0.9018741  0.5206863 1.6351057 1.6351057  3.3856276  3.3856276
 2 3.4386239 -1.3362535 -0.90125566 0.52087702 1.6351057 1.6351057  3.6070365  3.6070365
 3 3.0971387 -1.3334514 -0.90877068 0.51912816 1.6351057 1.6351057  2.9240661  2.9240661
 2 3.3542666 -1.3383487 -0.89849308  0.5209271 1.6351057 1.6351057  3.4383219  3.4383219
 1 3.9222763 -1.3295895 -0.92341336 0.51543465 1.6351057 1.6351057  4.5743413  4.5743413
12 4.8165248 -1.3303363 -0.92427805 0.51581296 1.6351057 1.6351057  6.3628383  6.3628383
 5 3.2146593 -1.3143571 -0.96393656 0.50620846 1.6351057 1.6351057  3.1591073  3.1591073
 1 2.8909167 -1.3300832 -0.91961346 0.51608604 1.6351057 1.6351057   2.511622   2.511622
 2 3.1346812 -1.3316017 -0.91543442 0.51681656 1.6351057 1.6351057  2.9991512  2.9991512
 3 2.9817234 -1.3230211 -0.93952688 0.51160873 1.6351057 1.6351057  2.6932354  2.6932354
 1 2.4364755 -1.3239426 -0.93530034 0.51378043 1.6351057 1.6351057  1.6027396  1.6027396
 3 1.7389783 -1.3057794 -0.98626989 0.50317013 1.6351057 1.6351057 0.20774532 0.20774532
13 1.7908841 -1.3053076 -0.98962157 0.50283456 1.6351057 1.6351057 0.31155687 0.31155687
 1 2.3518313   -1.32171 -0.94378115 0.51159668 1.6351057 1.6351057  1.4334513  1.4334513
 1  3.305788 -1.3037133 -0.99179923 0.49981061 1.6351057 1.6351057  3.3413647  3.3413647
 1 4.5451828 -1.2931829   -1.025716  0.4924292 1.6351057 1.6351057  5.8201542  5.8201542
 5 5.0273627 -1.3057267 -0.98874839 0.50001829 1.6351057 1.6351057   6.784514   6.784514
 5 3.3585651 -1.2913731  -1.0226975 0.49474416 1.6351057 1.6351057  3.4469189  3.4469189
 5  3.253684 -1.3021342  -0.9926444 0.50225022 1.6351057 1.6351057  3.2371567  3.2371567
 4 3.3972959 -1.3015221 -0.99426501 0.50190132 1.6351057 1.6351057  3.5243806  3.5243806
 1 3.1906959  -1.288111   -1.033983 0.49340592 1.6351057 1.6351057 3.1111805 3.1111805
 3  3.248337 -1.2951266  -1.0167446 0.49831466 1.6351057 1.6351057 3.2264626 3.2264626
 3 4.1797749 -1.2782218  -1.0670155 0.48690056 1.6351057 1.6351057 5.0893386 5.0893386
14 3.1810052 -1.2936353  -1.0173567 0.49698523 1.6351057 1.6351057 3.0917991 3.0917991
 1 3.0651361 -1.2997831  -1.0015029 0.50104501 1.6351057 1.6351057 2.8600609 2.8600609
 2 3.1050036 -1.2987817  -1.0044462 0.50043435 1.6351057 1.6351057 2.9397958 2.9397958
 4 2.8929875 -1.3048117 -0.98568167 0.50340119 1.6351057 1.6351057 2.5157636 2.5157636
 1 2.3619263 -1.3013974  -0.9966797 0.50132699 1.6351057 1.6351057 1.4536412 1.4536412
 4 5.0825587 -1.2903279  -1.0275393 0.49624195 1.6351057 1.6351057 6.8949061 6.8949061
 5 5.7296182 -1.2955566  -1.0114414 0.49979619 1.6351057 1.6351057 8.1890252 8.1890252
 2   5.72115 -1.3136748 -0.95931624  0.5100856 1.6351057 1.6351057 8.1720887 8.1720887
 5 2.9935593 -1.3000616 -0.99807095 0.49987276 1.6351057 1.6351057 2.7169072 2.7169072
 2 2.6830682  -1.319923 -0.94707966 0.51212561 1.6351057 1.6351057 2.0959251 2.0959251
 3 4.5008734 -1.2945182  -1.0150496 0.49850842 1.6351057 1.6351057 5.7315354 5.7315354
 3 2.8028504 -1.2987359  -1.0069221 0.50023444 1.6351057 1.6351057 2.3354895 2.3354895
 9 5.4159453 -1.3223173 -0.94215207 0.51461704 1.6351057 1.6351057 7.5616794 7.5616794
 2  6.395939 -1.2973601  -1.0136631 0.50059078 1.6351057 1.6351057 9.5216668 9.5216668
 1 6.3370541 -1.2978255  -1.0129051 0.50070273 1.6351057 1.6351057 9.4038969 9.4038969
 3 7.5458701 -1.3111342 -0.98167203 0.50559987 1.6351057 1.6351057 11.821529 11.821529
 1  7.477272 -1.3110263 -0.98196244 0.50553092 1.6351057 1.6351057 11.684333 11.684333
3 6.8443178 -1.3542505 -0.85810253 0.52931321 1.6351057 1.6351057  10.418424  10.418424
7 7.1557833   -1.34537 -0.88414992 0.52513222 1.6351057 1.6351057  11.041355  11.041355
1 7.8065439 -1.3521265 -0.86553181 0.52746861 1.6351057 1.6351057  12.342876  12.342876
6 9.7513092 -1.3732329  -0.8082432 0.53862412 1.6351057 1.6351057  16.232407  16.232407
1 11.106098 -1.3706728 -0.81642861 0.53886325 1.6351057 1.6351057  18.941986  18.941986
6 7.8367177 -1.3604613 -0.83699196 0.53459957 1.6351057 1.6351057  12.403224  12.403224
3 7.8722875  -1.346719  -0.8688479 0.52802586 1.6351057 1.6351057  12.474364  12.474364
1 3.9847754   -1.29962  -1.0085155 0.49690967 1.6351057 1.6351057  4.6993395  4.6993395
4 3.0989301 -1.2916272  -1.0308786 0.49279106 1.6351057 1.6351057   2.927649   2.927649
4  6.869556 -1.3476728 -0.87765536 0.52518714 1.6351057 1.6351057  10.468901  10.468901
2 6.5370551 -1.3550688 -0.85554646 0.52910838 1.6351057 1.6351057  9.8038988  9.8038988
3 4.9702418 -1.2754861  -1.0777447 0.48154518 1.6351057 1.6351057  6.6702723  6.6702723
3 4.4251299 -1.3145155 -0.95739776 0.50680596 1.6351057 1.6351057  5.5800484  5.5800484
3 4.6057198 -1.3084315 -0.97530592 0.50271574 1.6351057 1.6351057  5.9412282  5.9412282
1 3.1720849 -1.2936251  -1.0190997 0.49409112 1.6351057 1.6351057  3.0739585  3.0739585
4  2.432177 -1.3189563 -0.95120446 0.50965798 1.6351057 1.6351057  1.5941427  1.5941427
4 1.9009713 -1.3118118 -0.97038774 0.50663611 1.6351057 1.6351057 0.53173127 0.53173127
1 2.2577836 -1.3208921 -0.94477948 0.51201411 1.6351057 1.6351057  1.2453559  1.2453559
2 2.6921795 -1.3202544 -0.94650773 0.51226327 1.6351057 1.6351057  2.1141478  2.1141478
1 2.3009766 -1.3072342 -0.97974479 0.50467716 1.6351057 1.6351057  1.3317419  1.3317419
 1  2.572595 -1.3014268 -0.99639631 0.50157575 1.6351057 1.6351057  1.8749786  1.8749786
 3 2.5505588 -1.2819888  -1.0543296 0.48796128 1.6351057 1.6351057  1.8309062  1.8309062
 1 2.9687315 -1.2838756  -1.0461677 0.49022189 1.6351057 1.6351057  2.6672517  2.6672517
 3 3.0375143 -1.2840077  -1.0455809  0.4903755 1.6351057 1.6351057  2.8048173  2.8048173
 1 3.1293514 -1.2833643  -1.0476029 0.49003324 1.6351057 1.6351057  2.9884914  2.9884914
 1 2.6371106 -1.2889559   -1.032078 0.49341713 1.6351057 1.6351057    2.00401    2.00401
 3 1.9454213 -1.2911795  -1.0275597  0.4936877 1.6351057 1.6351057  0.6206312  0.6206312
 2 3.8472886  -1.274602  -1.0782219 0.48314852 1.6351057 1.6351057  4.4243658  4.4243658
 4 4.3657596 -1.2753552  -1.0702979 0.48336218 1.6351057 1.6351057   5.461308   5.461308
11 3.5545909 -1.3259902 -0.93240522 0.51318579 1.6351057 1.6351057  3.8389706  3.8389706
 3 3.6943538 -1.3252418 -0.93083762 0.51564169 1.6351057 1.6351057  4.1184963  4.1184963
 1 3.3075354 -1.3284918 -0.92219834  0.5169684 1.6351057 1.6351057  3.3448594  3.3448594
 1 3.1930305 -1.2792117  -1.0637011 0.48683276 1.6351057 1.6351057  3.1158496  3.1158496
 5 2.2800558 -1.2876381  -1.0385422 0.49237653 1.6351057 1.6351057  1.2899003  1.2899003
 2 2.0163573 -1.3079849 -0.98258847 0.50345899 1.6351057 1.6351057 0.76250318 0.76250318
 1 2.1448846 -1.2993087  -1.0071923 0.49810527 1.6351057 1.6351057  1.0195578  1.0195578
 4 2.7895808 -1.2996914  -1.0077921 0.49828618 1.6351057 1.6351057  2.3089503  2.3089503
 1 4.1009149  -1.330421 -0.91429478 0.51616425 1.6351057 1.6351057  4.9316186  4.9316186
 2 4.8242413 -1.3341281 -0.90484044 0.51766713 1.6351057 1.6351057  6.3782713  6.3782713
 2 2.3763221 -1.3229783 -0.93688445 0.51300992 1.6351057 1.6351057  1.4824329  1.4824329
4  2.560432 -1.3196076 -0.95040602 0.51019881 1.6351057 1.6351057  1.8506528  1.8506528
4 2.8151531 -1.3091617 -0.97361662 0.50595762 1.6351057 1.6351057  2.3600948  2.3600948
7 3.1230449 -1.3084664 -0.97496496 0.50543916 1.6351057 1.6351057  2.9758784  2.9758784
1 3.0421251 -1.3254725 -0.92810808 0.51465526 1.6351057 1.6351057  2.8140389  2.8140389
1 3.7384459 -1.3263281 -0.92708568 0.51622504 1.6351057 1.6351057  4.2066806  4.2066806
1 4.2729111 -1.2808675  -1.0557435  0.4894043 1.6351057 1.6351057  5.2756108  5.2756108
8 6.1935294 -1.2792138   -1.058143 0.48911995 1.6351057 1.6351057  9.1168474  9.1168474
5 1.8881436 -1.2938708  -1.0195651 0.49593139 1.6351057 1.6351057 0.50607582 0.50607582
1 1.8569399 -1.2920104  -1.0266144 0.49454222 1.6351057 1.6351057  0.4436684  0.4436684
1 1.9562133 -1.3045691 -0.99175045 0.50239289 1.6351057 1.6351057 0.64221527 0.64221527
1 2.7362004 -1.3184145 -0.95293202 0.50918568 1.6351057 1.6351057  2.2021895  2.2021895
1 2.1278208 -1.3153244 -0.96143501 0.50786068 1.6351057 1.6351057 0.98543025 0.98543025
2 3.5495217 -1.2871817   -1.044433 0.49030802 1.6351057 1.6351057  3.8288321  3.8288321
1   3.27878 -1.2954038  -1.0208612 0.49531655 1.6351057 1.6351057  3.2873488  3.2873488
2 2.8658743  -1.289065  -1.0375179   0.492808 1.6351057 1.6351057  2.4615373  2.4615373
1 2.8980312 -1.2881325  -1.0401521 0.49230651 1.6351057 1.6351057   2.525851   2.525851
2 2.3284646 -1.2903216  -1.0320884 0.49409662 1.6351057 1.6351057  1.3867179  1.3867179
9 3.4546503 -1.3031716 -0.99804557 0.50216613 1.6351057 1.6351057  3.6390894  3.6390894
5 3.5277249 -1.3289522 -0.92501041 0.51698023 1.6351057 1.6351057  3.7852385  3.7852385
2  2.366097 -1.3198189 -0.94798074 0.51031336 1.6351057 1.6351057  1.4619827  1.4619827
 1 2.8925844 -1.3296768  -0.9210655 0.51679953 1.6351057 1.6351057  2.5149575  2.5149575
 2 2.4168908  -1.309811 -0.97650993 0.50623507 1.6351057 1.6351057  1.5635703  1.5635703
 3 2.4781345 -1.3004842   -1.003247  0.4982737 1.6351057 1.6351057  1.6860576  1.6860576
 1 2.2609216 -1.3147697 -0.96142456 0.50733893 1.6351057 1.6351057  1.2516318  1.2516318
 1 3.0501013 -1.3265561 -0.93168458 0.51422493 1.6351057 1.6351057  2.8299912  2.8299912
10  2.918711 -1.3270234 -0.92873293  0.5141693 1.6351057 1.6351057  2.5672108  2.5672108
 1 2.0891734 -1.2931056   -1.025051  0.4946321 1.6351057 1.6351057 0.90813554 0.90813554
 2 4.8710621 -1.2875697  -1.0430455 0.48883162 1.6351057 1.6351057  6.4719128  6.4719128
14 5.2198922 -1.3002683  -1.0075485 0.49675262 1.6351057 1.6351057  7.1695731  7.1695731
 1 3.6722848 -1.2772026  -1.0712923 0.48472383 1.6351057 1.6351057  4.0743583  4.0743583
 2 3.1253489 -1.2773702  -1.0666344 0.48486043 1.6351057 1.6351057  2.9804865  2.9804865
 4 3.0206206 -1.2817323  -1.0539008 0.48695196 1.6351057 1.6351057  2.7710298  2.7710298
 6 4.1369042   -1.30232 -0.99085796 0.50013244 1.6351057 1.6351057  5.0035971  5.0035971
 3  4.311581 -1.3007969 -0.99524674 0.49924519 1.6351057 1.6351057  5.3529506  5.3529506
 8 5.4842427 -1.2883375  -1.0300605 0.49145027 1.6351057 1.6351057  7.6982741  7.6982741
 1 4.6629881 -1.2808988  -1.0526329 0.48690068 1.6351057 1.6351057  6.0557648  6.0557648
 1 5.0111062 -1.2794509  -1.0565111 0.48621399 1.6351057 1.6351057   6.752001   6.752001
 4 1.9696944 -1.2979735  -1.0064206 0.49805401 1.6351057 1.6351057 0.66917743 0.66917743
 3 4.1713694 -1.3068019 -0.98197765  0.5058716 1.6351057 1.6351057  5.0725274  5.0725274
 4 7.9220347 -1.3052284 -0.98753627 0.49896832 1.6351057 1.6351057  12.573858  12.573858
 1 5.6287458  -1.278424  -1.0633849 0.48313841 1.6351057 1.6351057  7.9872804  7.9872804
 5 5.3366124 -1.2836946  -1.0564321  0.4871763 1.6351057 1.6351057  7.4030134  7.4030134
 1  4.778861   -1.27673  -1.0719548 0.48203299 1.6351057 1.6351057  6.2875107  6.2875107
 2 5.4076329 -1.2759305  -1.0750036 0.48115391 1.6351057 1.6351057  7.5450544  7.5450544
 3 2.6663339 -1.2845483  -1.0495228 0.48975592 1.6351057 1.6351057  2.0624565  2.0624565
 3 3.4558248 -1.2841467  -1.0514719 0.49007707 1.6351057 1.6351057  3.6414382  3.6414382
 1 3.7724275 -1.3005377  -1.0070074 0.49983298 1.6351057 1.6351057  4.2746437  4.2746437
 3 2.4399729 -1.3096505 -0.97890909 0.50556095 1.6351057 1.6351057  1.6097344  1.6097344
 1 2.5639275 -1.3140824 -0.96659566 0.50796218 1.6351057 1.6351057  1.8576437  1.8576437
 1 2.3609802 -1.2838676  -1.0500045 0.48925038 1.6351057 1.6351057  1.4517491  1.4517491
 1  3.701933 -1.3041052 -0.99051477 0.49986016 1.6351057 1.6351057  4.1336548  4.1336548
 9 3.2127718 -1.3033589 -0.98928415 0.50063344 1.6351057 1.6351057  3.1553324  3.1553324
 2 3.2300056 -1.2961679  -1.0097881 0.49820035 1.6351057 1.6351057  3.1897999  3.1897999
 1 3.7395579 -1.2931676  -1.0174327  0.4964678 1.6351057 1.6351057  4.2089044  4.2089044
 1 3.1392117 -1.2892364  -1.0298215  0.4923574 1.6351057 1.6351057   3.008212   3.008212
 4 4.0360996 -1.2841705  -1.0448666 0.48808587 1.6351057 1.6351057  4.8019879  4.8019879
 6 4.0287419 -1.2766431  -1.0674298  0.4836867 1.6351057 1.6351057  4.7872724  4.7872724
 1 2.3879328 -1.3198729 -0.94730249 0.51033604 1.6351057 1.6351057  1.5056542  1.5056542
15 1.8568982 -1.3108467 -0.97228545 0.50626481 1.6351057 1.6351057 0.44358508 0.44358508
 6 1.9566376 -1.3072313 -0.98412001 0.50408375 1.6351057 1.6351057 0.64306395 0.64306395
5 2.0378575 -1.3056771 -0.98870374 0.50338225 1.6351057 1.6351057 0.80550361 0.80550361
3 1.6768283 -1.2992075  -1.0063611 0.49867097 1.6351057 1.6351057 0.08344536 0.08344536
5 1.7241107 -1.2984772  -1.0084467 0.49865818 1.6351057 1.6351057 0.17801012 0.17801012
2 1.7092386 -1.2964709  -1.0135798 0.49733848 1.6351057 1.6351057 0.14826587 0.14826587
3 1.8637159 -1.3053145 -0.98918205 0.50194926 1.6351057 1.6351057 0.45722047 0.45722047
2 2.9129683 -1.2801416  -1.0580631 0.48705624 1.6351057 1.6351057  2.5557253  2.5557253
3 2.7560027 -1.2808585  -1.0562021 0.48743699 1.6351057 1.6351057  2.2417942  2.2417942
7  3.743322 -1.2747485  -1.0736868 0.48365587 1.6351057 1.6351057  4.2164327  4.2164327
1 3.7118043 -1.2914771  -1.0315796  0.4948875 1.6351057 1.6351057  4.1533972  4.1533972
1 1.7690013 -1.3065849 -0.98592842 0.50335305 1.6351057 1.6351057 0.26779122 0.26779122
7 2.5043237 -1.3156517 -0.96210977 0.50814864 1.6351057 1.6351057  1.7384362  1.7384362
2 3.5635795 -1.3260205 -0.92931934 0.51597845 1.6351057 1.6351057  3.8569476  3.8569476
3 3.4919739 -1.3253118 -0.93133614 0.51555902 1.6351057 1.6351057  3.7137366  3.7137366
2 3.5924045 -1.3247187 -0.92962767 0.51377067 1.6351057 1.6351057  3.9145978  3.9145978
1 3.4365621 -1.3212792  -0.9391553  0.5118358 1.6351057 1.6351057  3.6029129  3.6029129
1 4.0390931 -1.3040435 -0.99392487 0.49942064 1.6351057 1.6351057  4.8079748  4.8079748
3 4.9370311  -1.302806 -0.99651285 0.49826844 1.6351057 1.6351057   6.603851   6.603851
2 3.5667866  -1.277521  -1.0692376 0.48359117 1.6351057 1.6351057  3.8633618  3.8633618
2 5.6406745 -1.3437841 -0.88294836 0.52228417 1.6351057 1.6351057  8.0111376  8.0111376
2 3.8527109 -1.3325201 -0.90744009 0.51871799 1.6351057 1.6351057  4.4352105  4.4352105
 1 3.8093093 -1.3063704   -0.986948 0.50513128 1.6351057 1.6351057  4.3484072  4.3484072
 6 2.5027155 -1.3093388 -0.97834877 0.50595068 1.6351057 1.6351057  1.7352198  1.7352198
 7 2.9956894 -1.3010985  -1.0029932 0.50114064 1.6351057 1.6351057  2.7211675  2.7211675
 5 3.6043782 -1.3020688  -1.0029148 0.50081824 1.6351057 1.6351057  3.9385451  3.9385451
 6 3.0148527  -1.279407  -1.0636307 0.48648686 1.6351057 1.6351057   2.759494   2.759494
 1  2.177259 -1.2888541  -1.0360703 0.49160396 1.6351057 1.6351057  1.0843067  1.0843067
 2 2.4093846 -1.2903088  -1.0328301 0.49221632 1.6351057 1.6351057  1.5485579  1.5485579
 8 2.2279924 -1.2896131  -1.0337353 0.49359612 1.6351057 1.6351057  1.1857734  1.1857734
 3 1.9878385 -1.2916357  -1.0279413 0.49455699 1.6351057 1.6351057 0.70546566 0.70546566
 3 3.1435881 -1.3073898 -0.98093635 0.50223724 1.6351057 1.6351057  3.0169648  3.0169648
 6 2.1104232 -1.2909607  -1.0289109 0.49289435 1.6351057 1.6351057 0.95063499 0.95063499
 7   8.10806 -1.2793099  -1.0673175 0.48865209 1.6351057 1.6351057  12.945909  12.945909
 4  7.741026 -1.2797105  -1.0644618 0.48934564 1.6351057 1.6351057  12.211841  12.211841
 1 5.9063395 -1.2792494  -1.0611929 0.48915268 1.6351057 1.6351057  8.5424677  8.5424677
 3 3.6694824 -1.2940273  -1.0195697 0.49788816 1.6351057 1.6351057  4.0687535  4.0687535
 3 3.1864869 -1.2851195  -1.0422898 0.49103588 1.6351057 1.6351057  3.1027625  3.1027625
10 3.6331166 -1.2826157  -1.0549463 0.48640354 1.6351057 1.6351057  3.9960218  3.9960218
 8  5.176726 -1.2670031   -1.098567   0.478123 1.6351057 1.6351057  7.0832406  7.0832406
 2 4.9805761  -1.298638  -1.0072174 0.49571995 1.6351057 1.6351057  6.6909408  6.6909408
 3 4.1308342 -1.2853611  -1.0434996 0.48808682 1.6351057 1.6351057  4.9914571  4.9914571
 4 2.2645085 -1.3009181 -0.99732227 0.49988133 1.6351057 1.6351057   1.2588057   1.2588057
 4 1.8004669  -1.305297  -0.9881344 0.50201842 1.6351057 1.6351057  0.33072248  0.33072248
 5 1.6469676 -1.2999394  -1.0030192 0.49930391 1.6351057 1.6351057 0.023723869 0.023723869
 7 1.9437356 -1.3031307 -0.99610548 0.50156665 1.6351057 1.6351057  0.61725992  0.61725992
 1 3.0079428 -1.3162002  -0.9596234 0.51002793 1.6351057 1.6351057   2.7456743   2.7456743
 3 3.2108029 -1.3107167 -0.97597665 0.50699291 1.6351057 1.6351057   3.1513946   3.1513946
11 3.5195096 -1.3060224 -0.98559658 0.50505189 1.6351057 1.6351057   3.7688079   3.7688079
14 2.5908091 -1.3132318 -0.96602816 0.50843207 1.6351057 1.6351057   1.9114069   1.9114069
 1 2.3411848 -1.2885192  -1.0368839 0.49114501 1.6351057 1.6351057   1.4121583   1.4121583
 1 3.1111532 -1.2833229  -1.0493404 0.48765403 1.6351057 1.6351057    2.952095    2.952095
 6  3.006191  -1.303621 -0.98985986 0.50043072 1.6351057 1.6351057   2.7421707   2.7421707
 2  3.612646 -1.2988892   -1.002287 0.49756961 1.6351057 1.6351057   3.9550806   3.9550806
 1  2.591374  -1.285217  -1.0469093 0.49071209 1.6351057 1.6351057   1.9125368   1.9125368
12 4.3728201 -1.3293347 -0.92687782 0.51545334 1.6351057 1.6351057   5.4754288   5.4754288
 2 5.0547097 -1.3545964 -0.85207496 0.52865238 1.6351057 1.6351057   6.8392081   6.8392081
 1 5.0993521  -1.346222 -0.87650471 0.52396973 1.6351057 1.6351057   6.9284928   6.9284928
 2   4.73066 -1.3535605 -0.85676021 0.52853257 1.6351057 1.6351057   6.1911087   6.1911087
 1 4.4950206 -1.2886844  -1.0411433 0.49253397 1.6351057 1.6351057   5.7198299   5.7198299
 4 4.1958178 -1.2997972  -1.0075532  0.5008523 1.6351057 1.6351057   5.1214243   5.1214243
 6 6.0314061 -1.2871989  -1.0406168 0.49436521 1.6351057 1.6351057   8.7926009   8.7926009
11 2.5437119 -1.3146916 -0.95996644 0.50743349 1.6351057 1.6351057 1.8172125 1.8172125
 2 3.7612513 -1.3121874 -0.96708081 0.50484837 1.6351057 1.6351057 4.2522914 4.2522914
 4 3.5098337 -1.3095923 -0.97475707 0.50342477 1.6351057 1.6351057  3.749456  3.749456
 9  3.908986 -1.3149652 -0.95827823 0.50668597 1.6351057 1.6351057 4.5477608 4.5477608
 3 3.4384115 -1.2994117 -0.99937621   0.499504 1.6351057 1.6351057 3.6066117 3.6066117
 4 3.9462886  -1.336285 -0.90009923 0.51903723 1.6351057 1.6351057 4.6223658 4.6223658
 7 3.9859378 -1.3363952 -0.89986705 0.51906379 1.6351057 1.6351057 4.7016642 4.7016642
 3 2.9036033 -1.3211488 -0.94553763 0.51066237 1.6351057 1.6351057 2.5369953 2.5369953
 1 2.8333578 -1.2998862  -1.0077865 0.49926583 1.6351057 1.6351057 2.3965044 2.3965044
 1 3.1823149 -1.2943876  -1.0236852 0.49552863 1.6351057 1.6351057 3.0944186 3.0944186
 6 2.7712425 -1.2826877  -1.0534029 0.48917966 1.6351057 1.6351057 2.2722736 2.2722736
 7 4.2074977 -1.3049844 -0.98949043 0.50473481 1.6351057 1.6351057 5.1447841 5.1447841
 1 7.7261636 -1.2801122  -1.0593489 0.49047232 1.6351057 1.6351057 12.182116 12.182116
 2 8.7093765 -1.2633786  -1.1026803 0.47638033 1.6351057 1.6351057 14.148542 14.148542
 2   9.27705 -1.2661623  -1.0933386 0.47926722 1.6351057 1.6351057 15.283889 15.283889
 3  13.06533 -1.2592854  -1.1119961  0.4752267 1.6351057 1.6351057  22.86045  22.86045
 5 4.0391135 -1.2817672  -1.0504288 0.48771889 1.6351057 1.6351057 4.8080157 4.8080157
 2 4.4095152 -1.2746759   -1.072088 0.48400506 1.6351057 1.6351057 5.5488191 5.5488191
 4 3.3839327  -1.300653  -1.0051844 0.49804201 1.6351057 1.6351057  3.497654  3.497654
 3 3.2070484 -1.3017596  -1.0017782 0.49859756 1.6351057 1.6351057 3.1438854 3.1438854
1 3.1543188 -1.3130491 -0.97034372 0.50772691 1.6351057 1.6351057  3.0384263  3.0384263
1 3.6311831 -1.3152658 -0.96417645 0.50898167 1.6351057 1.6351057   3.992155   3.992155
7 2.8576021 -1.3276152 -0.92877503 0.51527813 1.6351057 1.6351057  2.4449928  2.4449928
2 2.5114238  -1.309634 -0.97900547 0.50427695 1.6351057 1.6351057  1.7526363  1.7526363
6 3.3101022 -1.3316877  -0.9150238 0.51846801 1.6351057 1.6351057   3.349993   3.349993
3 4.5074665 -1.3123786 -0.96419617 0.50539682 1.6351057 1.6351057  5.7447216  5.7447216
4 4.8022306 -1.3130151 -0.96229687 0.50562499 1.6351057 1.6351057  6.3342498  6.3342498
3 2.8418838 -1.3098718 -0.97544325 0.50376472 1.6351057 1.6351057  2.4135562  2.4135562
1  2.595605 -1.3045084 -0.99197411 0.50067689 1.6351057 1.6351057  1.9209987  1.9209987
4 1.8376912 -1.2924683  -1.0236825 0.49469701 1.6351057 1.6351057 0.40517116 0.40517116
2 1.9051796 -1.3108102 -0.97172928 0.50561201 1.6351057 1.6351057 0.54014796 0.54014796
