#weight  minuslogpost  log10_alpha    log10_rs         vw  minuslogprior  minuslogprior__0        chi2  chi2__lisa_likelihood
      1     5.3695141   -1.2984626  -1.0032708 0.49652655      1.6351057         1.6351057   7.4688169              7.4688169
     11     4.6655602    -1.298043  -1.0025561 0.49749559      1.6351057         1.6351057   6.0609091              6.0609091
      8     4.1433782   -1.2999299  -1.0052606 0.49681196      1.6351057         1.6351057    5.016545               5.016545
     51     2.7200638   -1.3001091  -1.0037361 0.49779971      1.6351057         1.6351057   2.1699163              2.1699163
     41     3.1015203   -1.2997077  -1.0019059 0.49771911      1.6351057         1.6351057   2.9328293              2.9328293
     17     1.6715867   -1.3019213 -0.99803104 0.50080548      1.6351057         1.6351057 0.072962011            0.072962011
     25     2.4327213   -1.3034951 -0.99692467 0.50137255      1.6351057         1.6351057   1.5952313              1.5952313
     54      2.244246    -1.301192 -0.99710526 0.50062402      1.6351057         1.6351057   1.2182808              1.2182808
     16     1.9455653   -1.2996919  -1.0038165 0.49842201      1.6351057         1.6351057  0.62091925             0.62091925
     18     2.3836312   -1.2958224  -1.0141033 0.49809061      1.6351057         1.6351057   1.4970511              1.4970511
     16     3.0984664    -1.296222  -1.0141242 0.49517334      1.6351057         1.6351057   2.9267214              2.9267214
    105     3.9470732    -1.297932  -1.0145252 0.49618854      1.6351057         1.6351057   4.6239351              4.6239351
     23     4.2903314   -1.2981291   -1.014855 0.49656057      1.6351057         1.6351057   5.3104515              5.3104515
      4     3.2993841   -1.2950012  -1.0125637 0.49582797      1.6351057         1.6351057   3.3285568              3.3285568
     31     3.2053421   -1.2958648  -1.0108814 0.49812001      1.6351057         1.6351057   3.1404729              3.1404729
     40     3.2322856   -1.2956084  -1.0124852 0.49841305      1.6351057         1.6351057     3.19436                3.19436
      8     2.9462422   -1.2954949  -1.0129026 0.49802879      1.6351057         1.6351057   2.6222731              2.6222731
     28     2.0479176   -1.2976767  -1.0120754 0.49764256      1.6351057         1.6351057  0.82562391             0.82562391
     89     2.7254858   -1.3006315  -1.0043675 0.50031622      1.6351057         1.6351057   2.1807602              2.1807602
     86     2.6257328   -1.3000146  -1.0056894 0.50039861      1.6351057         1.6351057   1.9812543              1.9812543
 50 3.0660398 -1.3056597 -0.98362776 0.50442483 1.6351057 1.6351057  2.8618682  2.8618682
 26 2.5491144 -1.3096465  -0.9799177 0.50511612 1.6351057 1.6351057  1.8280175  1.8280175
110 4.1341398 -1.3105987 -0.97837755 0.50634921 1.6351057 1.6351057  4.9980682  4.9980682
 18 4.9306518 -1.3094373 -0.97858311 0.50235017 1.6351057 1.6351057  6.5910923  6.5910923
 13 3.8985296  -1.307538 -0.98173584 0.50175665 1.6351057 1.6351057  4.5268478  4.5268478
 16 3.9512434 -1.3078671 -0.97977559 0.50206123 1.6351057 1.6351057  4.6322755  4.6322755
 61  3.399738 -1.3092243  -0.9783852 0.50298881 1.6351057 1.6351057  3.5292647  3.5292647
 26 3.9443908 -1.3094865 -0.97858839 0.50288361 1.6351057 1.6351057  4.6185702  4.6185702
 57 2.2102357 -1.3074124  -0.9791511 0.50418809 1.6351057 1.6351057  1.1502601  1.1502601
 44 2.0609729 -1.3075299 -0.98412204 0.50397457 1.6351057 1.6351057 0.85173441 0.85173441
 13 2.0717446 -1.3073967  -0.9849566 0.50349417 1.6351057 1.6351057 0.87327782 0.87327782
210 2.6962362 -1.3094296  -0.9760021 0.50647002 1.6351057 1.6351057  2.1222611  2.1222611
 20 3.3234767 -1.3098972 -0.97241869 0.50405071 1.6351057 1.6351057   3.376742   3.376742
 22 2.0081191 -1.3102897 -0.97656894 0.50514359 1.6351057 1.6351057 0.74602687 0.74602687
 76 2.1836366 -1.3110012 -0.97494602 0.50558504 1.6351057 1.6351057  1.0970618  1.0970618
100 1.8447513  -1.310512 -0.97455608 0.50577702 1.6351057 1.6351057 0.41929125 0.41929125
  7 4.6384353 -1.3105772 -0.97525564  0.5078626 1.6351057 1.6351057  6.0066594  6.0066594
 11 4.6316291  -1.310572 -0.97525731 0.50785953 1.6351057 1.6351057  5.9930468  5.9930468
 21 2.3625152 -1.3095253 -0.97337808 0.50575992 1.6351057 1.6351057  1.4548191  1.4548191
 27 1.9640131   -1.31031 -0.97371199 0.50492111 1.6351057 1.6351057 0.65781483 0.65781483
  9 2.1727594  -1.310455 -0.97539777 0.50500045 1.6351057 1.6351057  1.0753075  1.0753075
 14 2.1358896 -1.3106685 -0.97584781  0.5052753 1.6351057 1.6351057  1.0015678  1.0015678
  2 2.3901583   -1.31067 -0.97594238 0.50596728 1.6351057 1.6351057  1.5101054  1.5101054
  8 5.0152012 -1.3122958 -0.96149889 0.50793771 1.6351057 1.6351057   6.760191   6.760191
 63  4.997404 -1.3123171 -0.96144509  0.5078899 1.6351057 1.6351057  6.7245966  6.7245966
 16 3.4495271  -1.314821 -0.95844907 0.50690904 1.6351057 1.6351057  3.6288429  3.6288429
 16 5.7773564 -1.3125055 -0.95997235 0.50804319 1.6351057 1.6351057  8.2845016  8.2845016
 36 5.6676624 -1.3126467 -0.95975816 0.50861699 1.6351057 1.6351057  8.0651134  8.0651134
 78  4.892696 -1.3129178 -0.95991701 0.50874341 1.6351057 1.6351057  6.5151806  6.5151806
  5 4.2889289 -1.3132956 -0.96150047  0.5060204 1.6351057 1.6351057  5.3076466  5.3076466
  5 4.2227604 -1.3131654 -0.95987956 0.50800054 1.6351057 1.6351057  5.1753094  5.1753094
  7 2.7602953 -1.3144232 -0.96040841 0.50908668 1.6351057 1.6351057  2.2503794  2.2503794
  7 2.4700113 -1.3152276 -0.96026641 0.50945584 1.6351057 1.6351057  1.6698113  1.6698113
112 2.0814892 -1.3154814 -0.95917961 0.50906773 1.6351057 1.6351057 0.89276714 0.89276714
 12 2.5462465 -1.2993768  -1.0049437 0.49752825 1.6351057 1.6351057  1.8222817  1.8222817
 20 2.4690728 -1.2993224  -1.0049613 0.49757241 1.6351057 1.6351057  1.6679343  1.6679343
 15 5.2794343 -1.3007788  -1.0033023 0.49682623 1.6351057 1.6351057  7.2886573  7.2886573
  1 5.1926849 -1.2993839  -1.0066496 0.49601154 1.6351057 1.6351057  7.1151584  7.1151584
 13 1.8329716 -1.2977415  -1.0107877 0.49804032 1.6351057 1.6351057 0.39573192 0.39573192
  2 1.7824952 -1.2970705  -1.0126333 0.49754924 1.6351057 1.6351057 0.29477909 0.29477909
 4 2.6924732 -1.3058257 -0.98279137 0.50362088 1.6351057 1.6351057    2.114735    2.114735
 1 2.1770174 -1.3043863 -0.98840442 0.50163725 1.6351057 1.6351057   1.0838235   1.0838235
 5  1.966983 -1.3046083 -0.98805478 0.50194835 1.6351057 1.6351057  0.66375463  0.66375463
 1 2.8690305 -1.3135883 -0.96573165 0.50870533 1.6351057 1.6351057   2.4678498   2.4678498
 1 3.3358439 -1.3170192 -0.95567387 0.51104655 1.6351057 1.6351057   3.4014766   3.4014766
 2  3.389094 -1.3170076 -0.95579132 0.51106587 1.6351057 1.6351057   3.5079767   3.5079767
 5 4.5874352 -1.3250784 -0.93302979 0.51597229 1.6351057 1.6351057   5.9046591   5.9046591
 3   4.08737 -1.3064564 -0.98575765 0.50545537 1.6351057 1.6351057   4.9045287   4.9045287
 2 7.6483852 -1.3081051 -0.97662471 0.50791337 1.6351057 1.6351057   12.026559   12.026559
 1 6.0804192 -1.3041594 -0.98582238 0.50464267 1.6351057 1.6351057    8.890627    8.890627
 2 5.2952962 -1.3074943 -0.97625079 0.50638259 1.6351057 1.6351057   7.3203811   7.3203811
 2 2.8724194 -1.3039195 -0.99281745 0.50330942 1.6351057 1.6351057   2.4746274   2.4746274
 3 3.7366682 -1.3042674 -0.99498979 0.50322314 1.6351057 1.6351057   4.2031251   4.2031251
 1  1.657764 -1.3019505 -0.99752463 0.50054477 1.6351057 1.6351057 0.045316729 0.045316729
 2 2.2954077 -1.3211012 -0.94265812 0.51203729 1.6351057 1.6351057   1.3206042   1.3206042
 2 2.6462882 -1.2953726  -1.0142644 0.49791164 1.6351057 1.6351057   2.0223651   2.0223651
 3 1.8037594 -1.2937965  -1.0205253 0.49582674 1.6351057 1.6351057  0.33730756  0.33730756
10 2.5056274 -1.2931848   -1.020252 0.49444391 1.6351057 1.6351057   1.7410436   1.7410436
 2 2.1092113 -1.2997339  -1.0025174 0.49857302 1.6351057 1.6351057  0.94821121  0.94821121
 9   1.95103 -1.2981533   -1.007181   0.499036 1.6351057 1.6351057  0.63184869  0.63184869
1 3.6398423 -1.2928409  -1.0281597 0.49531346 1.6351057 1.6351057  4.0094733  4.0094733
4 3.1531368 -1.2923436  -1.0291282 0.49484706 1.6351057 1.6351057  3.0360623  3.0360623
3 3.9866855  -1.294225  -1.0240949  0.4968103 1.6351057 1.6351057  4.7031598  4.7031598
1 4.1677967 -1.3044639 -0.99447152 0.50353897 1.6351057 1.6351057   5.065382   5.065382
2  2.978065 -1.3041335 -0.99381921 0.50316926 1.6351057 1.6351057  2.6859187  2.6859187
2 2.2996346 -1.3009283 -0.99771164 0.49956679 1.6351057 1.6351057  1.3290579  1.3290579
1 2.0209089 -1.3015947 -0.99598423 0.50023533 1.6351057 1.6351057 0.77160648 0.77160648
1 2.2441601 -1.3003707 -0.99891699 0.49967343 1.6351057 1.6351057  1.2181088  1.2181088
2 2.9471004 -1.3018105 -0.99391908  0.5006198 1.6351057 1.6351057  2.6239895  2.6239895
2 4.7468662 -1.3096375 -0.98284397 0.50363744 1.6351057 1.6351057   6.223521   6.223521
2 2.9615874 -1.3135693 -0.96940901 0.50745042 1.6351057 1.6351057  2.6529634  2.6529634
2 2.9238482 -1.3202743 -0.94937404 0.51050857 1.6351057 1.6351057   2.577485   2.577485
4 3.1294969 -1.3335696 -0.91102056 0.51908701 1.6351057 1.6351057  2.9887825  2.9887825
5 3.1140349 -1.3335271  -0.9111589 0.51904781 1.6351057 1.6351057  2.9578585  2.9578585
2 4.4481853 -1.3350729 -0.90936788 0.51879738 1.6351057 1.6351057  5.6261593  5.6261593
1  3.915442 -1.3419215 -0.88817171 0.52355255 1.6351057 1.6351057  4.5606727  4.5606727
3 3.4659611 -1.3385212 -0.89411073 0.52111521 1.6351057 1.6351057   3.661711   3.661711
1 5.5745556 -1.3494448 -0.86345131 0.52863659 1.6351057 1.6351057  7.8788999  7.8788999
1 5.8643147 -1.3487929 -0.86975435 0.52815688 1.6351057 1.6351057   8.458418   8.458418
2 4.9441821 -1.3478082 -0.87138015 0.52725458 1.6351057 1.6351057  6.6181529  6.6181529
9 2.9673013 -1.3129899  -0.9704889 0.50755374 1.6351057 1.6351057   2.6643914   2.6643914
3 2.1201155 -1.3007138  -1.0001903 0.49895936 1.6351057 1.6351057  0.97001958  0.97001958
3 2.1611679 -1.3004045  -1.0010909 0.49873799 1.6351057 1.6351057   1.0521246   1.0521246
5 2.3315291  -1.308731 -0.97584326 0.50520281 1.6351057 1.6351057   1.3928469   1.3928469
5 2.0399563 -1.3092836 -0.97519093 0.50545383 1.6351057 1.6351057   0.8097012   0.8097012
1 1.6991482 -1.3069992 -0.98390698 0.50358633 1.6351057 1.6351057  0.12808502  0.12808502
3  2.003448 -1.3122027 -0.96977847 0.50682701 1.6351057 1.6351057  0.73668463  0.73668463
1 2.0456584  -1.302538 -0.99649036 0.49992084 1.6351057 1.6351057  0.82110542  0.82110542
1 2.5046322 -1.3096381 -0.97517189 0.50398982 1.6351057 1.6351057   1.7390531   1.7390531
3 1.8655368 -1.3116609 -0.97117071 0.50609736 1.6351057 1.6351057   0.4608622   0.4608622
4 1.7228873 -1.3068938 -0.98307509 0.50372229 1.6351057 1.6351057  0.17556335  0.17556335
1 2.0647293 -1.3022463 -0.99514236 0.50168674 1.6351057 1.6351057  0.85924733  0.85924733
1 2.0226346 -1.3002128  -1.0019046 0.50042962 1.6351057 1.6351057  0.77505782  0.77505782
6 2.0989346 -1.3017535 -0.99711498 0.50148153 1.6351057 1.6351057  0.92765789  0.92765789
1 2.0902135 -1.2983137  -1.0062378 0.49930475 1.6351057 1.6351057  0.91021566  0.91021566
3 1.6557686 -1.3015045 -0.99903945 0.50010608 1.6351057 1.6351057 0.041325785 0.041325785
1 1.8143636 -1.2944991  -1.0186256   0.495475 1.6351057 1.6351057  0.35851585  0.35851585
1 1.8434856 -1.2949714  -1.0175708 0.49566602 1.6351057 1.6351057  0.41675987  0.41675987
2 1.8468255 -1.2950865  -1.0172813 0.49572675 1.6351057 1.6351057   0.4234396   0.4234396
4 2.6107848 -1.3093758 -0.97551628   0.506404 1.6351057 1.6351057   1.9513584   1.9513584
7 2.7057595  -1.304109 -0.98822482 0.50290557 1.6351057 1.6351057  2.1413076  2.1413076
7 3.5733091 -1.3375487 -0.89629094 0.52025638 1.6351057 1.6351057  3.8764068  3.8764068
9 2.6898619  -1.315368 -0.95822715 0.50968913 1.6351057 1.6351057  2.1095125  2.1095125
1 3.4579989 -1.3295997 -0.92106032 0.51761413 1.6351057 1.6351057  3.6457864  3.6457864
2 2.9829231 -1.3034455 -0.98850192 0.50221343 1.6351057 1.6351057  2.6956349  2.6956349
2 3.2619002 -1.2800759  -1.0596274  0.4878871 1.6351057 1.6351057  3.2535891  3.2535891
2 2.7052878 -1.2924361  -1.0236186 0.49329415 1.6351057 1.6351057  2.1403642  2.1403642
4 2.6848949 -1.2927745  -1.0227248 0.49348925 1.6351057 1.6351057  2.0995785  2.0995785
2 2.6936675 -1.2878847   -1.036421 0.49063495 1.6351057 1.6351057  2.1171236  2.1171236
2 2.7075233 -1.2835115  -1.0479577 0.48949299 1.6351057 1.6351057  2.1448352  2.1448352
1 2.8456744 -1.2840507  -1.0456707 0.48988869 1.6351057 1.6351057  2.4211375  2.4211375
7 2.1769032 -1.2885504  -1.0338772 0.49267892 1.6351057 1.6351057   1.083595   1.083595
2 1.8366526   -1.29507  -1.0165454 0.49580173 1.6351057 1.6351057 0.40309386 0.40309386
3 2.0000017 -1.2935531  -1.0212255 0.49463046 1.6351057 1.6351057 0.72979215 0.72979215
1 1.9650016 -1.2947397  -1.0177991 0.49535338 1.6351057 1.6351057 0.65979188 0.65979188
4 2.3268459 -1.2913894  -1.0259489 0.49514816 1.6351057 1.6351057  1.3834806  1.3834806
2 2.9236126 -1.2905158  -1.0273613  0.4950408 1.6351057 1.6351057  2.5770139  2.5770139
3 2.4580726 -1.2868562  -1.0385811 0.49063346 1.6351057 1.6351057  1.6459339  1.6459339
5 2.6844537 -1.2882728  -1.0342895 0.49146041 1.6351057 1.6351057  2.0986961  2.0986961
1 3.1832464 -1.2885102  -1.0400974 0.49216811 1.6351057 1.6351057  3.0962814  3.0962814
2 3.8380714  -1.312502  -0.9737224 0.50575943 1.6351057 1.6351057  4.4059315  4.4059315
2  3.602887 -1.3107119 -0.97788132 0.50496679 1.6351057 1.6351057  3.9355628  3.9355628
6 4.8598346 -1.3496548 -0.86362825 0.52830049 1.6351057 1.6351057  6.4494579  6.4494579
4 3.7063959 -1.3426931 -0.88323115  0.5241157 1.6351057 1.6351057  4.1425805  4.1425805
1 3.7755888 -1.3408913 -0.88703743  0.5231778 1.6351057 1.6351057  4.2809663  4.2809663
2 2.6752893 -1.3013577  -1.0013203 0.49858103 1.6351057 1.6351057  2.0803672  2.0803672
2 2.8840104 -1.3023884 -0.99784399 0.49906293 1.6351057 1.6351057  2.4978094  2.4978094
2 2.4263114 -1.3164613 -0.95783911 0.50812788 1.6351057 1.6351057  1.5824116  1.5824116
9  2.686202 -1.3138713  -0.9668231    0.50661 1.6351057 1.6351057  2.1021926  2.1021926
8 2.0209889 -1.3025243  -0.9956297 0.50000308 1.6351057 1.6351057 0.77176642 0.77176642
4 2.5431469 -1.2950565  -1.0177496 0.49484415 1.6351057 1.6351057  1.8160825  1.8160825
2 2.6187573 -1.2930345  -1.0233284 0.49354315 1.6351057 1.6351057  1.9673032  1.9673032
1 4.6805254  -1.308505 -0.98416007 0.50225955 1.6351057 1.6351057  6.0908395  6.0908395
1 3.8145943 -1.3057021 -0.99238523 0.50108264 1.6351057 1.6351057  4.3589772  4.3589772
6 3.3092624 -1.3102497 -0.97857161 0.50418592 1.6351057 1.6351057  3.3483135  3.3483135
2 3.1426394 -1.2782594  -1.0641069 0.48601284 1.6351057 1.6351057  3.0150674  3.0150674
2 2.9319573 -1.3011434 -0.99581612 0.50048539 1.6351057 1.6351057  2.5937032  2.5937032
1 3.3138155  -1.292882  -1.0194937 0.49656088 1.6351057 1.6351057  3.3574197  3.3574197
1 3.3044377 -1.3089482  -0.9758597 0.50664801 1.6351057 1.6351057  3.3386641  3.3386641
1  2.495285 -1.3055871 -0.99001685 0.50346352 1.6351057 1.6351057  1.7203587  1.7203587
1 2.3440768 -1.3020205  -1.0000552 0.50119669 1.6351057 1.6351057  1.4179423  1.4179423
3 1.7589657 -1.3063618 -0.98659765 0.50320336 1.6351057 1.6351057 0.24772008 0.24772008
4 2.8138945 -1.3176992 -0.95590977 0.50883037 1.6351057 1.6351057  2.3575777  2.3575777
2 2.9384612 -1.3120743 -0.97299602 0.50656468 1.6351057 1.6351057   2.606711   2.606711
3 1.9193498 -1.3099274 -0.97497376 0.50474539 1.6351057 1.6351057 0.56848828 0.56848828
3 2.8025301 -1.3296988 -0.92097038 0.51598674 1.6351057 1.6351057  2.3348488  2.3348488
2 4.6922362  -1.353352  -0.8552256 0.52822214 1.6351057 1.6351057  6.1142612  6.1142612
1 4.7064683   -1.35523 -0.84997957 0.52949798 1.6351057 1.6351057  6.1427254  6.1427254
8 3.3831464  -1.324977 -0.92955159 0.51371316 1.6351057 1.6351057  3.4960814  3.4960814
5 3.1551043 -1.3245179 -0.93080078 0.51396379 1.6351057 1.6351057  3.0399973  3.0399973
2  2.383177 -1.3109368 -0.96951693 0.50576194 1.6351057 1.6351057  1.4961427  1.4961427
7 3.2067824 -1.3092387 -0.97361516 0.50659616 1.6351057 1.6351057  3.1433536  3.1433536
1 4.3780478 -1.2911579  -1.0227837 0.49309349 1.6351057 1.6351057  5.4858843  5.4858843
1 2.0943365 -1.3189973 -0.94916243 0.51064621 1.6351057 1.6351057 0.91846176 0.91846176
3 3.1328325 -1.3198206 -0.94435623 0.51224936 1.6351057 1.6351057  2.9954538  2.9954538
5  3.038355 -1.3322305 -0.91184372 0.51754087 1.6351057 1.6351057  2.8064986  2.8064986
2 2.4610276 -1.3257958 -0.92982814 0.51449474 1.6351057 1.6351057  1.6518438  1.6518438
6 3.0411552 -1.3092667 -0.97227803 0.50474689 1.6351057 1.6351057  2.8120991  2.8120991
4 2.7920125 -1.2981832  -1.0044352 0.49844889 1.6351057 1.6351057  2.3138137  2.3138137
3  4.731083 -1.2803354  -1.0550652 0.48604059 1.6351057 1.6351057  6.1919547  6.1919547
2 4.8198294 -1.2953031   -1.011751 0.49497031 1.6351057 1.6351057   6.3694474   6.3694474
2 4.4033789 -1.3058244  -0.9851337 0.50062804 1.6351057 1.6351057   5.5365466   5.5365466
4 4.5977412 -1.3468158 -0.87657891 0.52499452 1.6351057 1.6351057    5.925271    5.925271
3 4.9057152 -1.3500973 -0.86772771 0.52681243 1.6351057 1.6351057    6.541219    6.541219
5 4.9016396 -1.3501707 -0.86744964 0.52687577 1.6351057 1.6351057   6.5330679   6.5330679
2 5.2661894 -1.3141385 -0.96528827 0.50509665 1.6351057 1.6351057   7.2621674   7.2621674
2 3.8294993 -1.3054712 -0.99337927 0.50112412 1.6351057 1.6351057   4.3887872   4.3887872
6 2.2939754 -1.2931317   -1.025602 0.49477869 1.6351057 1.6351057   1.3177396   1.3177396
1 2.4736732 -1.2910323  -1.0322272  0.4934878 1.6351057 1.6351057   1.6771351   1.6771351
5 2.3968591 -1.2907946  -1.0326847 0.49338145 1.6351057 1.6351057    1.523507    1.523507
1 2.2997243 -1.2871112  -1.0398238 0.49204849 1.6351057 1.6351057   1.3292372   1.3292372
3 2.8110436 -1.2807001  -1.0574955 0.48660092 1.6351057 1.6351057   2.3518759   2.3518759
3  2.471092 -1.2839758  -1.0488462 0.48862033 1.6351057 1.6351057   1.6719727   1.6719727
5 1.6820012 -1.3038417 -0.99159758  0.5019407 1.6351057 1.6351057 0.093791039 0.093791039
3 2.6511162 -1.3164606 -0.95486603 0.51024437 1.6351057 1.6351057    2.032021    2.032021
2  2.787342 -1.3122409 -0.96943904 0.50525995 1.6351057 1.6351057   2.3044726   2.3044726
3 2.7069294 -1.3114415 -0.97008052 0.50490086 1.6351057 1.6351057   2.1436475   2.1436475
1  4.388542 -1.3225208  -0.9395856 0.51057007 1.6351057 1.6351057   5.5068726   5.5068726
2 4.3078259 -1.3292993 -0.92451995 0.51480417 1.6351057 1.6351057   5.3454405   5.3454405
1 4.5947107  -1.346671 -0.87025581 0.52621013 1.6351057 1.6351057   5.9192101   5.9192101
 4 4.1356516 -1.3456567 -0.87298341 0.52558672 1.6351057 1.6351057   5.001092   5.001092
 2  4.086116 -1.3449509 -0.87558705 0.52541407 1.6351057 1.6351057  4.9020208  4.9020208
 1  5.303933 -1.3519668 -0.85629979 0.52942779 1.6351057 1.6351057  7.3376547  7.3376547
 8 2.7433808 -1.3175589  -0.9511049 0.51087768 1.6351057 1.6351057  2.2165503  2.2165503
 3  2.746447  -1.314908 -0.96167291 0.50947827 1.6351057 1.6351057  2.2226826  2.2226826
 2 2.1083586 -1.2958049  -1.0179333 0.49634464 1.6351057 1.6351057 0.94650586 0.94650586
 9 2.1906622  -1.291889  -1.0288704   0.494132 1.6351057 1.6351057   1.111113   1.111113
 1 3.8107892 -1.2926063  -1.0247746 0.49247678 1.6351057 1.6351057  4.3513671  4.3513671
 3 3.8875659 -1.2760627   -1.070832 0.48285627 1.6351057 1.6351057  4.5049204  4.5049204
 1 4.1226255 -1.2750741  -1.0734106 0.48202132 1.6351057 1.6351057  4.9750397  4.9750397
 5 3.5146767 -1.2923375  -1.0273319 0.49245543 1.6351057 1.6351057   3.759142   3.759142
 2 3.8895056 -1.2994973 -0.99963159 0.49853696 1.6351057 1.6351057  4.5087998  4.5087998
 3 4.1041466 -1.2901183  -1.0253559 0.49312241 1.6351057 1.6351057  4.9380819  4.9380819
 2 4.4338527 -1.2933236  -1.0165714 0.49457206 1.6351057 1.6351057  5.5974941  5.5974941
13 4.8911766 -1.2687214  -1.0909103 0.47903306 1.6351057 1.6351057  6.5121419  6.5121419
 2 3.9395637 -1.2748434  -1.0727049 0.48334019 1.6351057 1.6351057  4.6089161  4.6089161
 5  4.974839 -1.3145887  -0.9556745 0.50934055 1.6351057 1.6351057  6.6794667  6.6794667
 1  2.610099 -1.2849442  -1.0434983 0.49006783 1.6351057 1.6351057  1.9499867  1.9499867
 3  2.781541 -1.2835833  -1.0474987 0.48921969 1.6351057 1.6351057  2.2928708  2.2928708
 1  3.183243 -1.2884278  -1.0320272  0.4920588 1.6351057 1.6351057  3.0962746  3.0962746
 6 2.0833294 -1.3054099  -0.9849856  0.5025856 1.6351057 1.6351057 0.89644749 0.89644749
 5 1.9537955 -1.2955849  -1.0151852 0.49587847 1.6351057 1.6351057 0.63737962 0.63737962
 1 2.1843735 -1.2881511  -1.0362791  0.4914502 1.6351057 1.6351057  1.0985357  1.0985357
 1  2.736129 -1.2878252  -1.0376184 0.49309966 1.6351057 1.6351057  2.2020467  2.2020467
 2 2.8316604 -1.2921799  -1.0282665 0.49518581 1.6351057 1.6351057  2.3931096  2.3931096
 3 2.7134705 -1.2886065  -1.0377202  0.4929424 1.6351057 1.6351057  2.1567297  2.1567297
 1 3.1038938 -1.3015693   -1.000257 0.50185268 1.6351057 1.6351057  2.9375762  2.9375762
 1 3.4976015 -1.3189198 -0.95387807 0.51136303 1.6351057 1.6351057  3.7249917  3.7249917
 4 3.9491903 -1.3061605 -0.98903253 0.50476193 1.6351057 1.6351057  4.6281692  4.6281692
 1 4.1874849 -1.3406054 -0.88655376 0.52289711 1.6351057 1.6351057  5.1047586  5.1047586
 3 4.8597835   -1.34138 -0.88297238 0.52404313 1.6351057 1.6351057  6.4493557  6.4493557
 5 4.0281811 -1.3377774 -0.89406034 0.52169937 1.6351057 1.6351057  4.7861509  4.7861509
 4 2.2106918 -1.3171336 -0.95374266  0.5090056 1.6351057 1.6351057  1.1511723  1.1511723
 1 2.2695833 -1.2940515  -1.0183151 0.49494952 1.6351057 1.6351057  1.2689553  1.2689553
 1 2.2330411 -1.2987528  -1.0052001 0.49769624 1.6351057 1.6351057  1.1958709  1.1958709
 1 2.9552795 -1.2975376  -1.0099874 0.49609922 1.6351057 1.6351057  2.6403478  2.6403478
10 3.6232428 -1.2961821  -1.0198696 0.49646451 1.6351057 1.6351057  3.9762742  3.9762742
 2 3.5467183 -1.2967715   -1.017306  0.4975347 1.6351057 1.6351057  3.8232253  3.8232253
 1 2.0163439 -1.2946849   -1.020728 0.49603804 1.6351057 1.6351057 0.76247644 0.76247644
 1 3.2838638 -1.3088446 -0.98023167 0.50287559 1.6351057 1.6351057  3.2975164  3.2975164
5 3.2039404 -1.3088675  -0.9735246 0.50432824 1.6351057 1.6351057 3.1376695 3.1376695
2 3.3861599 -1.2908988  -1.0244223 0.49392063 1.6351057 1.6351057 3.5021086 3.5021086
1 3.0795014 -1.3013439 -0.99709252  0.5020598 1.6351057 1.6351057 2.8887915 2.8887915
1 2.7673771 -1.3152076 -0.95858161 0.50966052 1.6351057 1.6351057 2.2645429 2.2645429
2 2.7701363  -1.315715 -0.95771068 0.50999498 1.6351057 1.6351057 2.2700613 2.2700613
1 5.2247469 -1.2932594  -1.0216024 0.49817321 1.6351057 1.6351057 7.1792824 7.1792824
2 5.6248385 -1.2795263  -1.0662412 0.48783399 1.6351057 1.6351057 7.9794657 7.9794657
2 4.8951522 -1.2819214  -1.0604019 0.48840104 1.6351057 1.6351057 6.5200931 6.5200931
2 4.1360143 -1.3168593 -0.96192248 0.50938698 1.6351057 1.6351057 5.0018173 5.0018173
7 2.5722757  -1.320389 -0.94429454 0.51222971 1.6351057 1.6351057 1.8743401 1.8743401
2 2.4567107 -1.3185433 -0.94988276 0.50967488 1.6351057 1.6351057   1.64321   1.64321
1 2.9725647 -1.3045324 -0.99058939 0.50037908 1.6351057 1.6351057 2.6749181 2.6749181
1 2.8743386 -1.2879654  -1.0346679 0.49134925 1.6351057 1.6351057 2.4784658 2.4784658
4  3.800347 -1.2906835  -1.0351283  0.4922225 1.6351057 1.6351057 4.3304827 4.3304827
1 3.8856685 -1.3205378 -0.94606231 0.50960191 1.6351057 1.6351057 4.5011256 4.5011256
2 3.8116068 -1.3184286 -0.94836234 0.51203237 1.6351057 1.6351057 4.3530023 4.3530023
6 4.0992861 -1.3187329 -0.94824988 0.51245909 1.6351057 1.6351057 4.9283609 4.9283609
1 4.4703824 -1.3106403 -0.97226163 0.50817188 1.6351057 1.6351057 5.6705534 5.6705534
3 4.8864878 -1.3097096 -0.97429187 0.50784724 1.6351057 1.6351057 6.5027643 6.5027643
8 4.5254433 -1.3003452  -1.0015513 0.50219689 1.6351057 1.6351057 5.7806753 5.7806753
4 2.8320701 -1.3148531 -0.96508544 0.50817399 1.6351057 1.6351057  2.3939289  2.3939289
1 2.0844905 -1.3119809  -0.9713847  0.5060968 1.6351057 1.6351057 0.89876961 0.89876961
8 2.0837853 -1.3119762  -0.9713975 0.50609418 1.6351057 1.6351057 0.89735936 0.89735936
1 1.8123948 -1.3104504 -0.97484303 0.50541972 1.6351057 1.6351057  0.3545782  0.3545782
5 2.8473277 -1.3069715 -0.98723168 0.50287776 1.6351057 1.6351057  2.4244442  2.4244442
1 4.3249772 -1.3042267 -0.99498651 0.49949995 1.6351057 1.6351057  5.3797431  5.3797431
1 3.0620186 -1.2878805  -1.0410258 0.49038844 1.6351057 1.6351057  2.8538259  2.8538259
1 3.0451151 -1.2877403  -1.0413724 0.49029905 1.6351057 1.6351057   2.820019   2.820019
6 1.9474612 -1.3029154 -0.99405589 0.50200189 1.6351057 1.6351057 0.62471113 0.62471113
1  1.958229 -1.3075869 -0.97958323 0.50444907 1.6351057 1.6351057 0.64624673 0.64624673
3 2.0537743  -1.297549  -1.0118432 0.49692593 1.6351057 1.6351057 0.83733719 0.83733719
2 2.1467014 -1.3147284 -0.96340058 0.50741928 1.6351057 1.6351057  1.0231914  1.0231914
1 2.8609176 -1.3098621 -0.97142119 0.50540289 1.6351057 1.6351057  2.4516239  2.4516239
1 3.1063123 -1.3172366 -0.95085925 0.50955076 1.6351057 1.6351057  2.9424133  2.9424133
4 4.7260929 -1.3124224 -0.96224763 0.50605227 1.6351057 1.6351057  6.1819746  6.1819746
1 5.2795005 -1.3035445 -0.98928568 0.49947664 1.6351057 1.6351057  7.2887897  7.2887897
3 3.3485529 -1.3145973 -0.95868719 0.50695765 1.6351057 1.6351057  3.4268946  3.4268946
1  2.602195 -1.3093732 -0.97459409  0.5040648 1.6351057 1.6351057  1.9341787  1.9341787
3 2.5596083 -1.3188092    -0.94857 0.50987515 1.6351057 1.6351057  1.8490053  1.8490053
2 2.6224071 -1.3204611 -0.94384854 0.51073541 1.6351057 1.6351057   1.974603   1.974603
2 2.2196772 -1.3194504 -0.94791211 0.51120697 1.6351057 1.6351057  1.1691431  1.1691431
4 1.7028471 -1.3061961 -0.98669122 0.50287138 1.6351057 1.6351057 0.13548291 0.13548291
7 2.0921424 -1.3110842  -0.9743522 0.50557016 1.6351057 1.6351057  0.9140735  0.9140735
2 1.7291126 -1.3062597 -0.98566601 0.50346854 1.6351057 1.6351057 0.18801388 0.18801388
1 1.9392525  -1.312597 -0.96855842 0.50664664 1.6351057 1.6351057 0.60829373 0.60829373
2 2.3224591 -1.3134464 -0.96829851 0.50741312 1.6351057 1.6351057  1.3747069  1.3747069
2 3.6655531 -1.3219992 -0.94492469 0.51285844 1.6351057 1.6351057  4.0608949  4.0608949
4 3.2702806 -1.3179368 -0.95501559 0.51120847 1.6351057 1.6351057  3.2703498  3.2703498
5 3.0148053 -1.2798388  -1.0592068 0.48734702 1.6351057 1.6351057  2.7593993  2.7593993
1 6.6595117 -1.2699175  -1.0878227  0.4824244 1.6351057 1.6351057  10.048812  10.048812
7 10.900955 -1.2674652    -1.09415 0.48248027 1.6351057 1.6351057  18.531699  18.531699
6 10.455629 -1.2690527  -1.0885421 0.48358113 1.6351057 1.6351057  17.641047  17.641047
2 7.0041504 -1.2690463  -1.0905368 0.48189983 1.6351057 1.6351057   10.73809   10.73809
2  5.199509 -1.2739649  -1.0768929  0.4847255 1.6351057 1.6351057  7.1288067  7.1288067
2  4.551045 -1.2715677  -1.0823093 0.48195878 1.6351057 1.6351057  5.8318787  5.8318787
2 2.2240935 -1.3071896 -0.98273884 0.50473763 1.6351057 1.6351057  1.1779757  1.1779757
1 2.7953853 -1.3127173 -0.97048276 0.50707013 1.6351057 1.6351057  2.3205593  2.3205593
1 4.1340065 -1.3147842 -0.96219717 0.50597777 1.6351057 1.6351057  4.9978018  4.9978018
1 4.0073295 -1.2734889   -1.079514 0.48108159 1.6351057 1.6351057  4.7444476  4.7444476
6  3.962686 -1.2821908  -1.0569215 0.48592964 1.6351057 1.6351057  4.6551607  4.6551607
3 5.5445701 -1.2660199  -1.1031679 0.47622556 1.6351057 1.6351057   7.818929   7.818929
1 4.0092639 -1.2774156  -1.0711546 0.48328373 1.6351057 1.6351057  4.7483164  4.7483164
2 3.9632546 -1.2774441  -1.0709309 0.48331445 1.6351057 1.6351057  4.6562978  4.6562978
5 2.0170449 -1.2881135  -1.0374059 0.49203138 1.6351057 1.6351057 0.76387847 0.76387847
4 2.1276191 -1.2865998   -1.041845 0.49109315 1.6351057 1.6351057  0.9850269  0.9850269
1 2.4524167 -1.3042861 -0.99473344 0.50114363 1.6351057 1.6351057  1.6346221  1.6346221
1 2.2700116 -1.3065984 -0.98790838 0.50319575 1.6351057 1.6351057  1.2698118  1.2698118
4 2.2858508 -1.3225305 -0.94043164 0.51250472 1.6351057 1.6351057  1.3014904  1.3014904
3 2.0336317 -1.3170087 -0.95481414  0.5094879 1.6351057 1.6351057 0.79705199 0.79705199
1 2.1573946  -1.319443 -0.94741699 0.51111173 1.6351057 1.6351057  1.0445778  1.0445778
5 2.1558488 -1.3183922 -0.95003039 0.51034925 1.6351057 1.6351057  1.0414862  1.0414862
6 3.0121173 -1.3341672 -0.90745428 0.51861896 1.6351057 1.6351057  2.7540232  2.7540232
1 1.8124902 -1.3046948 -0.99010229 0.50160264 1.6351057 1.6351057 0.35476913 0.35476913
7 2.1147235 -1.3039944 -0.99394603 0.50077583 1.6351057 1.6351057 0.95923573 0.95923573
6 1.9523328 -1.3004646  -1.0033183 0.49878029 1.6351057 1.6351057 0.63445435 0.63445435
2 1.9749329  -1.313057 -0.96717181  0.5070723 1.6351057 1.6351057 0.67965452 0.67965452
1  2.202677 -1.3177314 -0.95539774 0.50943529 1.6351057 1.6351057  1.1351427  1.1351427
2 2.2993253 -1.3187582 -0.95240647 0.51003263 1.6351057 1.6351057  1.3284393  1.3284393
2 3.4400479 -1.3196522 -0.94722141 0.50937819 1.6351057 1.6351057  3.6098845  3.6098845
4 1.9292168 -1.3029995 -0.99648624 0.50147389 1.6351057 1.6351057 0.58822219 0.58822219
 8 2.0469265 -1.3030577 -0.99689892 0.50140778 1.6351057 1.6351057  0.82364161  0.82364161
 1 5.9954245 -1.2788166  -1.0619225 0.48890536 1.6351057 1.6351057   8.7206377   8.7206377
 4 6.2736966  -1.274591  -1.0715276 0.48561594 1.6351057 1.6351057   9.2771819   9.2771819
 1 5.8922964 -1.3008343 -0.99941931 0.49698237 1.6351057 1.6351057   8.5143815   8.5143815
 3 5.8390362 -1.3010678 -0.99880651 0.49713379 1.6351057 1.6351057   8.4078611   8.4078611
 2 5.5410343 -1.2757015  -1.0718478 0.48131848 1.6351057 1.6351057   7.8118573   7.8118573
 6 5.6201805   -1.26738  -1.0982706 0.47893725 1.6351057 1.6351057   7.9701497   7.9701497
11 5.7014356 -1.2670441   -1.099167 0.47873176 1.6351057 1.6351057   8.1326599   8.1326599
 7 2.9086362 -1.2794008  -1.0632846 0.48639321 1.6351057 1.6351057   2.5470612   2.5470612
 1 3.8399026 -1.2919125  -1.0320049 0.49406479 1.6351057 1.6351057   4.4095938   4.4095938
 4 1.7877218 -1.3074778 -0.98333625 0.50366538 1.6351057 1.6351057  0.30523233  0.30523233
 7 4.2204273  -1.326852 -0.93163067 0.51595009 1.6351057 1.6351057   5.1706433   5.1706433
 1 3.6832717 -1.3223147 -0.94267771 0.51376515 1.6351057 1.6351057    4.096332    4.096332
 3 6.3589708 -1.3022264  -1.0008282 0.50323933 1.6351057 1.6351057   9.4477304   9.4477304
 1 6.1975251 -1.3014225  -1.0041663   0.502174 1.6351057 1.6351057   9.1248389   9.1248389
 1 5.3232903  -1.310304 -0.97897061 0.50727943 1.6351057 1.6351057   7.3763693   7.3763693
 3 5.2407058 -1.3090885 -0.98198131 0.50646522 1.6351057 1.6351057   7.2112002   7.2112002
 1 1.8009127 -1.2927684  -1.0243122 0.49484496 1.6351057 1.6351057  0.33161406  0.33161406
 1 1.6794479 -1.2969757  -1.0120112 0.49737093 1.6351057 1.6351057 0.088684399 0.088684399
 2 2.4932964 -1.2930438  -1.0218801 0.49642567 1.6351057 1.6351057   1.7163814   1.7163814
4 2.1441053 -1.3000132  -1.0000936 0.49997572 1.6351057 1.6351057  1.0179992  1.0179992
1 3.1958398 -1.2851567  -1.0414306 0.49018952 1.6351057 1.6351057  3.1214683  3.1214683
2 3.8366381 -1.2935499  -1.0161849 0.49499905 1.6351057 1.6351057  4.4030649  4.4030649
1 3.3926716 -1.2809722   -1.055552 0.48866977 1.6351057 1.6351057  3.5151319  3.5151319
2 1.9612987 -1.2973444  -1.0100032 0.49857283 1.6351057 1.6351057 0.65238603 0.65238603
4 1.9075974 -1.3036653 -0.99201803  0.5023944 1.6351057 1.6351057 0.54498346 0.54498346
6 1.7027791 -1.3070837 -0.98344439 0.50373673 1.6351057 1.6351057 0.13534693 0.13534693
1  2.540022 -1.2840397  -1.0486855 0.49006005 1.6351057 1.6351057  1.8098327  1.8098327
1 4.6578088 -1.2786311   -1.064251 0.48790182 1.6351057 1.6351057  6.0454062  6.0454062
2 4.9117352 -1.2774966  -1.0686338 0.48697801 1.6351057 1.6351057   6.553259   6.553259
2 4.2625122  -1.286412  -1.0436722 0.49290032 1.6351057 1.6351057  5.2548131  5.2548131
5 3.5144335 -1.3243004  -0.9305433 0.51422153 1.6351057 1.6351057  3.7586557  3.7586557
3 2.4502035 -1.3227989 -0.93695885 0.51309483 1.6351057 1.6351057  1.6301957  1.6301957
1 5.0204427  -1.325051 -0.92896074 0.51247423 1.6351057 1.6351057  6.7706741  6.7706741
1 5.1913636  -1.349597 -0.86204021 0.52647527 1.6351057 1.6351057  7.1125159  7.1125159
1 4.6985065 -1.3477778 -0.86732961 0.52550554 1.6351057 1.6351057  6.1268017  6.1268017
3 5.3448401 -1.3410431 -0.88646133 0.52105542 1.6351057 1.6351057  7.4194688  7.4194688
1  5.860756 -1.3417952 -0.88527914 0.52116168 1.6351057 1.6351057  8.4513008  8.4513008
2  4.121553 -1.3306221 -0.91835552 0.51548039 1.6351057 1.6351057  4.9728947  4.9728947
3 3.3110059 -1.3354614 -0.90461011 0.51909178 1.6351057 1.6351057  3.3518005  3.3518005
 2 3.0506588 -1.3304344 -0.91993656 0.51640629 1.6351057 1.6351057 2.8311063 2.8311063
 2 3.4566728 -1.3306108 -0.91900515 0.51582527 1.6351057 1.6351057 3.6431342 3.6431342
 1 2.8886088 -1.3279308 -0.92394257 0.51486161 1.6351057 1.6351057 2.5070063 2.5070063
 2 3.6574886 -1.3152606 -0.96439937 0.50712696 1.6351057 1.6351057 4.0447658 4.0447658
 3 3.3393344 -1.3141585 -0.96739409 0.50656762 1.6351057 1.6351057 3.4084575 3.4084575
 1 3.5657703 -1.3096242 -0.97090243 0.50658174 1.6351057 1.6351057 3.8613292 3.8613292
 9 4.3785532 -1.3198497 -0.94226898 0.51284847 1.6351057 1.6351057 5.4868952 5.4868952
 1 5.1356391  -1.291432  -1.0200679 0.49511412 1.6351057 1.6351057 7.0010669 7.0010669
 8 5.9665546 -1.2932899  -1.0142647 0.49627971 1.6351057 1.6351057 8.6628979 8.6628979
 2 3.9090319 -1.3360795 -0.89827381 0.52010949 1.6351057 1.6351057 4.5478524 4.5478524
 1 3.2612806 -1.3056397 -0.99079201 0.50095056 1.6351057 1.6351057 3.2523499 3.2523499
 1 3.1104282 -1.2991291  -1.0092187 0.49714457 1.6351057 1.6351057 2.9506451 2.9506451
 1 3.0795917 -1.2945361  -1.0178539 0.49433344 1.6351057 1.6351057 2.8889722 2.8889722
 1 2.0561464 -1.2958168  -1.0129053 0.49670242 1.6351057 1.6351057 0.8420814 0.8420814
 1 3.9180277 -1.3056294 -0.98967737 0.50052163 1.6351057 1.6351057  4.565844  4.565844
 8 3.9313411 -1.3284643 -0.92828514 0.51582475 1.6351057 1.6351057 4.5924709 4.5924709
 2 5.1474477 -1.3211423 -0.95036342 0.51030495 1.6351057 1.6351057 7.0246841 7.0246841
 3 6.5707139 -1.3312892 -0.91385385 0.51497815 1.6351057 1.6351057 9.8712165 9.8712165
 7  2.640337 -1.2867946   -1.039206 0.49229753 1.6351057 1.6351057 2.0104627 2.0104627
10 3.3172716 -1.3206873 -0.94070718 0.51208285 1.6351057 1.6351057 3.3643319 3.3643319
18 2.7306896 -1.3065539  -0.9804764 0.50406894 1.6351057 1.6351057  2.1911679  2.1911679
 1 1.7021379 -1.2983012  -1.0068448 0.49818422 1.6351057 1.6351057  0.1340644  0.1340644
 1 1.9519417 -1.3145132 -0.96296586 0.50813711 1.6351057 1.6351057 0.63367216 0.63367216
 5 1.9724038 -1.3149344 -0.96183517 0.50831284 1.6351057 1.6351057 0.67459638 0.67459638
14  2.006589 -1.3166876   -0.957038 0.50940304 1.6351057 1.6351057 0.74296669 0.74296669
 1 3.0408565 -1.3324345 -0.91175078 0.51751842 1.6351057 1.6351057  2.8115016  2.8115016
 3 3.5833544 -1.3090335 -0.97574941 0.50303872 1.6351057 1.6351057  3.8964975  3.8964975
 4 4.3390368  -1.289045  -1.0327699 0.49031043 1.6351057 1.6351057  5.4078622  5.4078622
 1 3.7178503  -1.343467 -0.88087829 0.52356905 1.6351057 1.6351057  4.1654892  4.1654892
 6  3.178036  -1.333153 -0.91121018 0.51885164 1.6351057 1.6351057  3.0858606  3.0858606
 5 3.1033697 -1.3240084 -0.93906384 0.51377198 1.6351057 1.6351057  2.9365281  2.9365281
 8 2.5261867 -1.3173652 -0.95773649 0.50940259 1.6351057 1.6351057  1.7821621  1.7821621
 1 2.9451379 -1.3155075 -0.96366703 0.50773008 1.6351057 1.6351057  2.6200645  2.6200645
 9  3.344112 -1.2922334  -1.0246706 0.49654483 1.6351057 1.6351057  3.4180128  3.4180128
 9 2.3308465 -1.2964679  -1.0098336 0.49738199 1.6351057 1.6351057  1.3914817  1.3914817
 1 3.1224253  -1.316793 -0.95174985 0.50983334 1.6351057 1.6351057  2.9746392  2.9746392
 2 2.9045618 -1.3159994 -0.95475431 0.50976779 1.6351057 1.6351057  2.5389124  2.5389124
 2 2.1853579 -1.3074771 -0.97902501 0.50422943 1.6351057 1.6351057  1.1005045  1.1005045
 5 2.1651617 -1.3164394 -0.95819287 0.50878209 1.6351057 1.6351057  1.0601122  1.0601122
 3 3.3207134 -1.2843241  -1.0474865 0.49115351 1.6351057 1.6351057  3.3712155  3.3712155
 2 3.7704031 -1.3263436 -0.92548336 0.51586199 1.6351057 1.6351057  4.2705949  4.2705949
 3  3.266979 -1.3057165 -0.98187098 0.50259174 1.6351057 1.6351057  3.2637468  3.2637468
 5 5.0771985 -1.3135896 -0.95739556 0.50866441 1.6351057 1.6351057  6.8841856  6.8841856
 1 6.6234291 -1.3174251 -0.94622826 0.50944738 1.6351057 1.6351057  9.9766468  9.9766468
 4 6.3453431 -1.3177691  -0.9454323 0.50964021 1.6351057 1.6351057  9.4204748  9.4204748
 7 6.8253525 -1.3051524 -0.98272684 0.50038637 1.6351057 1.6351057  10.380494  10.380494
 1 6.6750156 -1.3025753 -0.99477536 0.49771594 1.6351057 1.6351057   10.07982   10.07982
 4 4.3505512 -1.2889633  -1.0294616 0.49181376 1.6351057 1.6351057  5.4308911  5.4308911
 6 2.3425826 -1.3183042 -0.95394198 0.50951709 1.6351057 1.6351057   1.414954   1.414954
 2 3.1640981 -1.3183591 -0.95355203 0.50876468 1.6351057 1.6351057   3.057985   3.057985
 3 2.8351108 -1.3052481 -0.98654335 0.50130763 1.6351057 1.6351057  2.4000104  2.4000104
 5 2.4047721 -1.3160402 -0.95774257 0.50795637 1.6351057 1.6351057  1.5393329  1.5393329
 3 3.9566298  -1.299122  -1.0019362 0.50102399 1.6351057 1.6351057  4.6430483  4.6430483
 3 2.7609593 -1.3175676 -0.95027284 0.51006395 1.6351057 1.6351057  2.2517073  2.2517073
 2 2.2925473  -1.310495  -0.9706144  0.5062523 1.6351057 1.6351057  1.3148833  1.3148833
 7 2.8625009  -1.306458  -0.9805975 0.50364233 1.6351057 1.6351057  2.4547904  2.4547904
11 2.5341222 -1.3081289 -0.97620975 0.50453291 1.6351057 1.6351057   1.798033   1.798033
 3 2.8989179 -1.3097254 -0.97167055 0.50543405 1.6351057 1.6351057  2.5276244  2.5276244
12 2.7873286  -1.307747  -0.9768194 0.50435316 1.6351057 1.6351057  2.3044459  2.3044459
 3 1.9406564 -1.2907476  -1.0297474 0.49400947 1.6351057 1.6351057 0.61110143 0.61110143
 4 2.2512974 -1.2858019  -1.0443773 0.49077767 1.6351057 1.6351057  1.2323836  1.2323836
 3 2.4659739 -1.3171144 -0.95295784 0.50928364 1.6351057 1.6351057  1.6617364  1.6617364
 7 2.2981013 -1.3052222 -0.99138387 0.50176796 1.6351057 1.6351057  1.3259913  1.3259913
 7  2.364876 -1.3078053  -0.9843718 0.50316452 1.6351057 1.6351057  1.4595406  1.4595406
 2 2.6273518  -1.310312 -0.97713122 0.50464559 1.6351057 1.6351057  1.9844923  1.9844923
 5 3.3640694  -1.288171  -1.0418889 0.49094123 1.6351057 1.6351057  3.4579275  3.4579275
 2 3.2763448 -1.3098652 -0.97600552 0.50344036 1.6351057 1.6351057  3.2824783  3.2824783
 2 5.0125961 -1.3056785 -0.98914492  0.4999921 1.6351057 1.6351057  6.7549809  6.7549809
 2 3.3008353 -1.3089411 -0.98238779 0.50473803 1.6351057 1.6351057  3.3314594  3.3314594
 1 3.3157605 -1.3089995 -0.98223003 0.50477045 1.6351057 1.6351057  3.3613097  3.3613097
 5  2.752881 -1.3003055  -1.0060011 0.49979059 1.6351057 1.6351057  2.2355508  2.2355508
 3 3.9035804 -1.3095898 -0.98122669 0.50575531 1.6351057 1.6351057  4.5369495  4.5369495
 3 3.3245113 -1.2858354  -1.0403479  0.4920283 1.6351057 1.6351057  3.3788113  3.3788113
 1 2.2976651 -1.3112426 -0.97430048   0.506017 1.6351057 1.6351057  1.3251189  1.3251189
10 2.1471026 -1.3070035 -0.98431223 0.50260715 1.6351057 1.6351057  1.0239939  1.0239939
 2 3.4185048  -1.280882  -1.0614343 0.48689955 1.6351057 1.6351057  3.5667982  3.5667982
 2 2.3523618 -1.2854688  -1.0442434 0.48958959 1.6351057 1.6351057  1.4345124  1.4345124
 3    2.3196 -1.2884055   -1.036126 0.49122525 1.6351057 1.6351057  1.3689887  1.3689887
 1 2.3652825  -1.288915  -1.0344435 0.49148294 1.6351057 1.6351057  1.4603537  1.4603537
 1 2.0907581 -1.2875354   -1.039276 0.49115494 1.6351057 1.6351057 0.91130486 0.91130486
3 1.9463149  -1.291548  -1.0280621 0.49352019 1.6351057 1.6351057 0.62241841 0.62241841
9 2.0118562 -1.3142015 -0.96236332 0.50755405 1.6351057 1.6351057 0.75350116 0.75350116
2 1.7151241 -1.3063157 -0.98497117 0.50308462 1.6351057 1.6351057 0.16003693 0.16003693
1 1.8050054 -1.2979961  -1.0071756 0.49797536 1.6351057 1.6351057 0.33979942 0.33979942
3 1.9794078 -1.3019864 -0.99580256 0.50005973 1.6351057 1.6351057 0.68860434 0.68860434
8 1.9838021 -1.2986317  -1.0080832 0.49920838 1.6351057 1.6351057 0.69739281 0.69739281
1 4.2029509 -1.3192919 -0.94555887  0.5092269 1.6351057 1.6351057  5.1356905  5.1356905
9 4.0460626  -1.334131 -0.90355436 0.51852669 1.6351057 1.6351057  4.8219139  4.8219139
1 3.1749402 -1.3002096   -1.006498  0.4979916 1.6351057 1.6351057   3.079669   3.079669
3 5.2647917 -1.2715812  -1.0834132 0.48283549 1.6351057 1.6351057  7.2593721  7.2593721
1 2.2645598 -1.2919135  -1.0279584 0.49486822 1.6351057 1.6351057  1.2589082  1.2589082
2 4.2127848 -1.3197201 -0.95030466 0.51248565 1.6351057 1.6351057  5.1553583  5.1553583
4 3.5152423 -1.3326147 -0.91352105 0.51906909 1.6351057 1.6351057  3.7602733  3.7602733
3 2.0840686 -1.3163569 -0.95718288 0.50953689 1.6351057 1.6351057 0.89792595 0.89792595
2 2.2409172 -1.3186328 -0.95092297 0.51084452 1.6351057 1.6351057  1.2116231  1.2116231
6 2.8701785 -1.3230642 -0.93605679 0.51232146 1.6351057 1.6351057  2.4701456  2.4701456
1 3.5475719 -1.3260085 -0.93176208 0.51310636 1.6351057 1.6351057  3.8249324  3.8249324
9 3.4705494 -1.3261401 -0.93207484 0.51341947 1.6351057 1.6351057  3.6708875  3.6708875
2 3.7353979 -1.3182857 -0.95617304 0.50901598 1.6351057 1.6351057  4.2005846  4.2005846
4 2.4119644 -1.3085439 -0.98226906 0.50370862 1.6351057 1.6351057  1.5537174  1.5537174
 1 2.5616425 -1.3129659 -0.96973977 0.50643393 1.6351057 1.6351057  1.8530736  1.8530736
 1 2.4524536 -1.3093165 -0.97974484 0.50484349 1.6351057 1.6351057  1.6346959  1.6346959
 6 1.9207084  -1.307496 -0.98005013 0.50397238 1.6351057 1.6351057 0.57120552 0.57120552
 7 3.1891238 -1.2915021  -1.0286231 0.49573943 1.6351057 1.6351057  3.1080362  3.1080362
 5  3.776847 -1.2865205  -1.0410552  0.4930144 1.6351057 1.6351057  4.2834827  4.2834827
 4   4.11268 -1.3045891 -0.99450468 0.50344225 1.6351057 1.6351057  4.9551487  4.9551487
 1 3.3489757 -1.2864687   -1.038858 0.49265393 1.6351057 1.6351057  3.4277401  3.4277401
 3 2.0570614 -1.2893952  -1.0319622 0.49259673 1.6351057 1.6351057 0.84391141 0.84391141
10 2.0787053 -1.2912595  -1.0303425 0.49353101 1.6351057 1.6351057 0.88719921 0.88719921
 1 2.1399641 -1.2967376  -1.0152394 0.49683411 1.6351057 1.6351057  1.0097169  1.0097169
 5 2.9708416 -1.3317453   -0.912608 0.51772813 1.6351057 1.6351057  2.6714719  2.6714719
 3 3.2246257 -1.3251684 -0.93159667 0.51527757 1.6351057 1.6351057  3.1790401  3.1790401
 1 3.2988221 -1.3260981 -0.92897491 0.51583322 1.6351057 1.6351057  3.3274329  3.3274329
14 2.2672733  -1.311679  -0.9711276 0.50724547 1.6351057 1.6351057  1.2643353  1.2643353
 1 2.0053911  -1.303941 -0.99216785  0.5025681 1.6351057 1.6351057 0.74057082 0.74057082
 1 2.9937713 -1.2832565  -1.0505777 0.49007838 1.6351057 1.6351057  2.7173313  2.7173313
 2 2.5220233 -1.2918112  -1.0265938 0.49291194 1.6351057 1.6351057  1.7738354  1.7738354
 4 2.6817992  -1.321318 -0.94557602 0.51222307 1.6351057 1.6351057   2.093387   2.093387
 1 2.6384858 -1.3206396  -0.9472449 0.51199788 1.6351057 1.6351057  2.0067603  2.0067603
 2 1.9944964  -1.312388 -0.96930203 0.50683808 1.6351057 1.6351057 0.71878155 0.71878155
19 1.8523474 -1.3107358 -0.97420727 0.50565166 1.6351057 1.6351057  0.4344835  0.4344835
 1 2.0005656  -1.313758  -0.9634807 0.50802087 1.6351057 1.6351057 0.73091992 0.73091992
 1 1.8778471 -1.2963882  -1.0114806 0.49750513 1.6351057 1.6351057 0.48548282 0.48548282
 4 2.2557682 -1.3009517  -1.0000922 0.49884068 1.6351057 1.6351057   1.241325   1.241325
19 1.8449106 -1.3065753 -0.98661087 0.50305765 1.6351057 1.6351057 0.41960995 0.41960995
 1 2.1149715 -1.3064463 -0.98616823 0.50231153 1.6351057 1.6351057 0.95973165 0.95973165
 7 4.2311066 -1.2857694  -1.0493672 0.48866865 1.6351057 1.6351057   5.192002   5.192002
 1 1.9109149 -1.2967039  -1.0132541 0.49654026 1.6351057 1.6351057  0.5516184  0.5516184
 9  1.848559 -1.2954951  -1.0166664 0.49594663 1.6351057 1.6351057 0.42690678 0.42690678
 6 1.7580689 -1.3017239 -0.99784343 0.49993104 1.6351057 1.6351057 0.24592646 0.24592646
 5 2.6512873 -1.3079211 -0.97899295 0.50314315 1.6351057 1.6351057  2.0323633  2.0323633
 2 2.7712271 -1.3069594 -0.98531271 0.50463745 1.6351057 1.6351057   2.272243   2.272243
 1 2.6727518 -1.3057299  -0.9882917 0.50405586 1.6351057 1.6351057  2.0752924  2.0752924
 1 1.9933889 -1.3056484 -0.98796761 0.50351264 1.6351057 1.6351057 0.71656642 0.71656642
 3 2.0616584 -1.2943864  -1.0211823 0.49544479 1.6351057 1.6351057 0.85310543 0.85310543
 2 2.8528806 -1.3199898  -0.9501268 0.51069904 1.6351057 1.6351057    2.43555    2.43555
 8 3.0642971 -1.3301711 -0.91581846 0.51670856 1.6351057 1.6351057   2.858383   2.858383
 2 2.9505012 -1.3281445 -0.92201215 0.51568326 1.6351057 1.6351057   2.630791   2.630791
 1 1.7858661 -1.3065258 -0.98480693 0.50286594 1.6351057 1.6351057 0.30152084 0.30152084
17 1.7915216 -1.3049102 -0.98863427 0.50279664 1.6351057 1.6351057 0.31283184 0.31283184
 8 1.7123519 -1.3041329  -0.9913064  0.5022361 1.6351057 1.6351057  0.15449248  0.15449248
12 1.9324396 -1.2916001  -1.0265653 0.49469053 1.6351057 1.6351057  0.59466793  0.59466793
 1 1.8305067 -1.3073121  -0.9810031 0.50412563 1.6351057 1.6351057  0.39080201  0.39080201
14 1.8793622 -1.2946307  -1.0196622 0.49572509 1.6351057 1.6351057  0.48851313  0.48851313
 1 3.0813788 -1.3019988   -1.001921 0.50034911 1.6351057 1.6351057   2.8925463   2.8925463
 3 3.6760505 -1.2817728  -1.0565087 0.48928037 1.6351057 1.6351057   4.0818896   4.0818896
 2 2.9557978 -1.2982083  -1.0105759 0.49947384 1.6351057 1.6351057   2.6413843   2.6413843
 4 2.4986398  -1.310093 -0.97760609 0.50501105 1.6351057 1.6351057   1.7270683   1.7270683
13 1.8270792 -1.2916638  -1.0268022 0.49414003 1.6351057 1.6351057    0.383947    0.383947
19 1.6580026 -1.3030005 -0.99543895  0.5010227 1.6351057 1.6351057 0.045793811 0.045793811
 1 1.7436159 -1.3024081 -0.99537474 0.50117858 1.6351057 1.6351057  0.21702056  0.21702056
 7 2.3387877 -1.3098609  -0.9740108 0.50642915 1.6351057 1.6351057   1.4073641   1.4073641
 9 2.2530077 -1.3206604 -0.94364364 0.51131407 1.6351057 1.6351057   1.2358042   1.2358042
 3 2.4471915 -1.3180615 -0.95059739 0.50964335 1.6351057 1.6351057   1.6241717   1.6241717
 1 2.8613881 -1.3055401 -0.98335464  0.5036156 1.6351057 1.6351057    2.452565    2.452565
 2 3.1521569 -1.2842019  -1.0444385 0.49031168 1.6351057 1.6351057   3.0341025   3.0341025
 2 5.0208088 -1.2817261  -1.0492919 0.48884211 1.6351057 1.6351057   6.7714063   6.7714063
 1 3.4922311 -1.3074941 -0.97842362 0.50263042 1.6351057 1.6351057   3.7142509   3.7142509
 6  3.072867 -1.3035595 -0.99101202 0.50008989 1.6351057 1.6351057   2.8755226   2.8755226
 6 2.8941006 -1.2959375  -1.0120756 0.49569524 1.6351057 1.6351057   2.5179899   2.5179899
3 3.8022402 -1.3042591 -0.98841855  0.5002293 1.6351057 1.6351057  4.3342692  4.3342692
1 5.0853906 -1.2971274  -1.0097457  0.4950079 1.6351057 1.6351057  6.9005698  6.9005698
1 6.1815922 -1.3005353 -0.99961096 0.49682886 1.6351057 1.6351057  9.0929731  9.0929731
2  6.555577  -1.301605 -0.99635431 0.49737414 1.6351057 1.6351057  9.8409426  9.8409426
3 5.0560695 -1.3473437 -0.86748651 0.52609447 1.6351057 1.6351057  6.8419277  6.8419277
4 4.1857498 -1.3357553 -0.90820206 0.51928933 1.6351057 1.6351057  5.1012884  5.1012884
5  4.288568  -1.331064 -0.92182583  0.5172373 1.6351057 1.6351057  5.3069246  5.3069246
7 2.7801406 -1.2908302  -1.0292243 0.49213735 1.6351057 1.6351057  2.2900699  2.2900699
3 3.1812757 -1.2975468  -1.0114999 0.49589802 1.6351057 1.6351057    3.09234    3.09234
4 2.7687888 -1.2813939  -1.0542531 0.48769058 1.6351057 1.6351057  2.2673663  2.2673663
1 3.5260998 -1.3332977 -0.90765002 0.51931773 1.6351057 1.6351057  3.7819882  3.7819882
2 3.2451663 -1.3370218 -0.89889677 0.52076621 1.6351057 1.6351057  3.2201212  3.2201212
5  3.150217 -1.3365872 -0.89977113 0.52059704 1.6351057 1.6351057  3.0302227  3.0302227
1 2.6555764 -1.3263351 -0.93036764 0.51405013 1.6351057 1.6351057  2.0409414  2.0409414
5 2.6751818 -1.3243784 -0.93545787 0.51283782 1.6351057 1.6351057  2.0801523  2.0801523
1 1.9767819 -1.2931602  -1.0230227 0.49436656 1.6351057 1.6351057 0.68335242 0.68335242
5 2.0733677 -1.2934782  -1.0202468 0.49480202 1.6351057 1.6351057 0.87652404 0.87652404
2 2.2182634 -1.2872134  -1.0383114 0.49137837 1.6351057 1.6351057  1.1663155  1.1663155
9 1.9155192 -1.2991472  -1.0041554 0.49962004 1.6351057 1.6351057 0.56082712 0.56082712
3 2.0647326 -1.3041594 -0.99199397 0.50280599 1.6351057 1.6351057 0.85925393 0.85925393
 5  1.969822 -1.3141856 -0.96461292 0.50772731 1.6351057 1.6351057 0.66943276 0.66943276
 1 2.3614811 -1.2932738  -1.0253825 0.49445033 1.6351057 1.6351057  1.4527508  1.4527508
10 2.1688122 -1.2907462  -1.0312418 0.49287879 1.6351057 1.6351057  1.0674131  1.0674131
 4 2.3799827 -1.3099562 -0.97197356 0.50582366 1.6351057 1.6351057  1.4897541  1.4897541
 3 2.5156233 -1.3216893 -0.94099837  0.5128749 1.6351057 1.6351057  1.7610352  1.7610352
 1 3.9282423 -1.3221655 -0.93644759 0.51345211 1.6351057 1.6351057  4.5862733  4.5862733
 1 4.5085287 -1.3298865 -0.91524066 0.51585228 1.6351057 1.6351057  5.7468461  5.7468461
 7 2.7382557 -1.2956039  -1.0201649 0.49595576 1.6351057 1.6351057  2.2063001  2.2063001
 4 2.9410471 -1.3017015  -1.0027962 0.49935347 1.6351057 1.6351057  2.6118829  2.6118829
 1  3.561392 -1.3004997  -1.0076206  0.4985843 1.6351057 1.6351057  3.8525726  3.8525726
 4 2.5150801 -1.2953377  -1.0168243 0.49504338 1.6351057 1.6351057  1.7599489  1.7599489
 2 2.2644859 -1.2917491  -1.0290282 0.49445941 1.6351057 1.6351057  1.2587605  1.2587605
 1  2.241154 -1.3037374 -0.99569061 0.50155477 1.6351057 1.6351057  1.2120967  1.2120967
 5 3.5844603  -1.310388 -0.97556117 0.50354708 1.6351057 1.6351057  3.8987092  3.8987092
 7 3.0886093 -1.2984403  -1.0037187 0.49763973 1.6351057 1.6351057  2.9070072  2.9070072
 6 3.4406699 -1.2947674  -1.0154386 0.49813468 1.6351057 1.6351057  3.6111284  3.6111284
 2 4.2992243 -1.3465475  -0.8759173 0.52560997 1.6351057 1.6351057  5.3282373  5.3282373
 1 3.4594115 -1.3244368 -0.93780732 0.51240221 1.6351057 1.6351057  3.6486117  3.6486117
 7 2.3364841 -1.3215682 -0.94250015  0.5124981 1.6351057 1.6351057  1.4027568  1.4027568
 1 3.3686077 -1.3363136 -0.89891672  0.5205543 1.6351057 1.6351057  3.4670041  3.4670041
 4 4.0270261 -1.3373244  -0.8956026 0.52084536 1.6351057 1.6351057   4.783841   4.783841
 1 3.8962809 -1.2881849  -1.0332901 0.49061779 1.6351057 1.6351057  4.5223505  4.5223505
 1 5.6756815 -1.2941625  -1.0209883 0.49254913 1.6351057 1.6351057  8.0811517  8.0811517
 2 5.4847348 -1.3003852  -1.0035172 0.49652562 1.6351057 1.6351057  7.6992583  7.6992583
 2  5.667208 -1.2999561  -1.0056218  0.4961866 1.6351057 1.6351057  8.0642046  8.0642046
 3 6.3941439 -1.3148733 -0.96320692 0.50511797 1.6351057 1.6351057  9.5180765  9.5180765
 6 2.5218208 -1.3167012 -0.95827114  0.5083449 1.6351057 1.6351057  1.7734304  1.7734304
 1 2.5734651 -1.3177436  -0.9548192 0.50891088 1.6351057 1.6351057   1.876719   1.876719
 1 2.1268785  -1.318783  -0.9511832 0.51020167 1.6351057 1.6351057 0.98354559 0.98354559
20 2.0564848 -1.3180703 -0.95305272 0.50996626 1.6351057 1.6351057 0.84275833 0.84275833
 2 2.8701745 -1.3308808 -0.91479809 0.51701133 1.6351057 1.6351057  2.4701376  2.4701376
11 4.1586713 -1.3434114 -0.87990576 0.52463445 1.6351057 1.6351057  5.0471312  5.0471312
 1 4.1013727   -1.35025 -0.86213291  0.5273608 1.6351057 1.6351057   4.932534   4.932534
 7 4.5156959 -1.3482104 -0.87248869 0.52651301 1.6351057 1.6351057  5.7611804  5.7611804
 1 4.9563622 -1.3493884 -0.86925233  0.5271741 1.6351057 1.6351057  6.6425131  6.6425131
 2 5.5442849 -1.3379278 -0.90322002 0.52031657 1.6351057 1.6351057  7.8183584  7.8183584
 3 4.6691198 -1.2859174  -1.0415456 0.48821142 1.6351057 1.6351057  6.0680284  6.0680284
 3 3.6378261 -1.2757379  -1.0740479 0.48262751 1.6351057 1.6351057  4.0054408  4.0054408
 1 4.5570533 -1.2841002  -1.0529253 0.49026129 1.6351057 1.6351057  5.8438954  5.8438954
 3 4.3969076  -1.289513  -1.0392264 0.49243396 1.6351057 1.6351057  5.5236038  5.5236038
 1 3.9572628 -1.3127134 -0.97338352 0.50714185 1.6351057 1.6351057 4.6443143 4.6443143
 1 3.4741913 -1.3252126 -0.92906512 0.51363756 1.6351057 1.6351057 3.6781713 3.6781713
 3 3.9837688 -1.3357818 -0.90075832 0.51886403 1.6351057 1.6351057 4.6973262 4.6973262
 1 5.8834439 -1.3537156 -0.85418737 0.52773272 1.6351057 1.6351057 8.4966765 8.4966765
 3 5.2577019  -1.365449 -0.82255919 0.53513637 1.6351057 1.6351057 7.2451925 7.2451925
 1 6.4947227 -1.3675944  -0.8155549 0.53741236 1.6351057 1.6351057 9.7192342 9.7192342
11 2.6145265 -1.3043571 -0.98929651 0.50090818 1.6351057 1.6351057 1.9588416 1.9588416
 3 3.6629805 -1.3287473 -0.91865976 0.51591394 1.6351057 1.6351057 4.0557497 4.0557497
 2 3.2224625 -1.3335618 -0.90644404 0.51864754 1.6351057 1.6351057 3.1747136 3.1747136
 4 5.8961147 -1.3558147 -0.84234765 0.53077963 1.6351057 1.6351057  8.522018  8.522018
 3 6.1234538 -1.3662137 -0.81674034 0.53595309 1.6351057 1.6351057 8.9766963 8.9766963
 1 4.7980046 -1.3195222 -0.94587562 0.50889203 1.6351057 1.6351057 6.3257979 6.3257979
 2 5.0113916 -1.3145277 -0.96277285 0.50545625 1.6351057 1.6351057  6.752572  6.752572
 4 5.6315292 -1.2679231  -1.0990051 0.47809379 1.6351057 1.6351057 7.9928472 7.9928472
 3 7.6559156 -1.2601517  -1.1210292 0.47273958 1.6351057 1.6351057  12.04162  12.04162
 4  4.005343 -1.2809184  -1.0577822  0.4851935 1.6351057 1.6351057 4.7404747 4.7404747
 1 8.1822012 -1.3216466  -0.9400149 0.50896302 1.6351057 1.6351057 13.094191 13.094191
 4 5.0909393 -1.3220257 -0.93698481 0.51074146 1.6351057 1.6351057 6.9116673 6.9116673
 2 3.4754424  -1.311074  -0.9662616 0.50685312 1.6351057 1.6351057 3.6806736 3.6806736
 5 3.1235496 -1.3329675 -0.91097027 0.51901699 1.6351057 1.6351057 2.9768879 2.9768879
 1 3.3738881 -1.3070039 -0.97931082 0.50497292 1.6351057 1.6351057  3.4775648  3.4775648
 3 4.0565349 -1.3162494 -0.95249397 0.51071892 1.6351057 1.6351057  4.8428586  4.8428586
 7 2.3619914 -1.2945859  -1.0161725 0.49535242 1.6351057 1.6351057  1.4537715  1.4537715
 4 3.4751739 -1.2927214  -1.0208409 0.49368532 1.6351057 1.6351057  3.6801364  3.6801364
 3 3.3826491 -1.2829907   -1.053364 0.48980058 1.6351057 1.6351057  3.4950869  3.4950869
 2 2.4199822 -1.3175453 -0.95383617 0.51058581 1.6351057 1.6351057   1.569753   1.569753
 4 1.8540984  -1.297839  -1.0106813 0.49802318 1.6351057 1.6351057 0.43798545 0.43798545
10 1.9896451 -1.3046382 -0.98785189 0.50198555 1.6351057 1.6351057 0.70907895 0.70907895
 3 3.3007695 -1.2956326  -1.0121754  0.4984224 1.6351057 1.6351057  3.3313276  3.3313276
 1 4.0621514  -1.339593 -0.88862431 0.52203732 1.6351057 1.6351057  4.8540914  4.8540914
 3 4.0388188 -1.3294708 -0.92022645  0.5148535 1.6351057 1.6351057  4.8074263  4.8074263
 2 3.4058041 -1.3271028 -0.92808963 0.51375666 1.6351057 1.6351057  3.5413969  3.5413969
 5 2.5698959  -1.315435 -0.96301396 0.50793499 1.6351057 1.6351057  1.8695805  1.8695805
 3 2.9152776 -1.3173947 -0.95743802  0.5088313 1.6351057 1.6351057  2.5603439  2.5603439
 5   3.00886 -1.3137313 -0.96825732 0.50659929 1.6351057 1.6351057  2.7475086  2.7475086
 4 2.2076737 -1.3071831 -0.98344967 0.50262892 1.6351057 1.6351057   1.145136   1.145136
11 2.5419637 -1.2820098  -1.0549086 0.48746964 1.6351057 1.6351057   1.813716   1.813716
 2 4.6497649 -1.2781187  -1.0710603 0.48396747 1.6351057 1.6351057  6.0293185  6.0293185
 1 3.0275007 -1.2812226  -1.0590449 0.48633719 1.6351057 1.6351057  2.7847902  2.7847902
13 5.0483592 -1.2670354  -1.0983931  0.4774382 1.6351057 1.6351057   6.826507   6.826507
 2 3.5137347 -1.2763891  -1.0723963 0.48456428 1.6351057 1.6351057    3.757258    3.757258
 1 3.5977149 -1.2773133  -1.0653016 0.48469298 1.6351057 1.6351057   3.9252185   3.9252185
 4 4.1480576 -1.2756001  -1.0694209 0.48427027 1.6351057 1.6351057   5.0259039   5.0259039
18 2.6465741 -1.2920519  -1.0274743  0.4954026 1.6351057 1.6351057   2.0229368   2.0229368
 5 4.6820426 -1.3020686  -1.0012787 0.50223924 1.6351057 1.6351057   6.0938738   6.0938738
 2 3.7237786 -1.3008716  -1.0035735 0.50147433 1.6351057 1.6351057   4.1773458   4.1773458
 1 4.5565053 -1.3112796 -0.96617693 0.50526353 1.6351057 1.6351057   5.8427992   5.8427992
 2   6.66212 -1.3119716 -0.96855976 0.50348004 1.6351057 1.6351057   10.054029   10.054029
 1 5.5406289 -1.2722313  -1.0881178 0.47965328 1.6351057 1.6351057   7.8110464   7.8110464
 3 7.3259401 -1.2903052  -1.0393569 0.49077995 1.6351057 1.6351057   11.381669   11.381669
 1 7.1855247 -1.2938284  -1.0291438 0.49287135 1.6351057 1.6351057   11.100838   11.100838
15 7.0266169 -1.2792975  -1.0705711 0.48387893 1.6351057 1.6351057   10.783023   10.783023
 1 6.6473553 -1.2828966  -1.0577847 0.48522424 1.6351057 1.6351057   10.024499   10.024499
 2 2.1820151 -1.2868389  -1.0400391 0.49095245 1.6351057 1.6351057   1.0938188   1.0938188
 4 1.9525226 -1.3021337 -0.99595081 0.50000854 1.6351057 1.6351057  0.63483379  0.63483379
10  1.967911 -1.3025079 -0.99587866 0.50003567 1.6351057 1.6351057  0.66561063  0.66561063
 5 1.8665003 -1.2909953  -1.0287392 0.49368876 1.6351057 1.6351057  0.46278923  0.46278923
 5  1.678167 -1.2968736  -1.0114819 0.49748083 1.6351057 1.6351057 0.086122771 0.086122771
 4 3.2753012 -1.3006915  -1.0064587 0.49851634 1.6351057 1.6351057   3.2803911   3.2803911
 1 3.5872771 -1.3213608  -0.9485502 0.51142039 1.6351057 1.6351057    3.904343    3.904343
 1 4.0466074 -1.3225603 -0.94552172 0.51194938 1.6351057 1.6351057   4.8230034   4.8230034
 1 4.4111742 -1.3208998   -0.950058 0.51105425 1.6351057 1.6351057    5.552137    5.552137
 6 3.6451928 -1.3214837 -0.94829157 0.51143293 1.6351057 1.6351057   4.0201742   4.0201742
 1 3.9121212 -1.3168925 -0.96103418 0.50857188 1.6351057 1.6351057    4.554031    4.554031
 1 4.0444807 -1.3396013 -0.88889597 0.52186227 1.6351057 1.6351057   4.8187501   4.8187501
 2 4.7731689 -1.3429534 -0.88313783 0.52508917 1.6351057 1.6351057   6.2761265   6.2761265
 4 3.0460911 -1.3163053 -0.95619692 0.51053615 1.6351057 1.6351057   2.8219709   2.8219709
 4   2.89644 -1.3107109  -0.9701317 0.50702433 1.6351057 1.6351057   2.5226686   2.5226686
 5 2.0062469  -1.292695  -1.0218204 0.49516036 1.6351057 1.6351057   0.7422825   0.7422825
 3 2.4319523 -1.3043896 -0.99378265 0.50083092 1.6351057 1.6351057   1.5936932   1.5936932
15 2.3134696 -1.2939935  -1.0210526 0.49440221 1.6351057 1.6351057   1.3567278   1.3567278
 6 2.3893222 -1.2949609  -1.0180414 0.49492074 1.6351057 1.6351057   1.5084331   1.5084331
 9 1.8439308  -1.300971   -0.998287 0.50008063 1.6351057 1.6351057  0.41765021  0.41765021
 6 2.2405444 -1.3110932 -0.97122152 0.50696071 1.6351057 1.6351057   1.2108774   1.2108774
 1 2.4727748 -1.3100097  -0.9744571 0.50660932 1.6351057 1.6351057   1.6753384   1.6753384
 2 2.3514633 -1.2954762  -1.0154685 0.49786357 1.6351057 1.6351057   1.4327153   1.4327153
 3 2.2034546 -1.2924036  -1.0241937  0.4956592 1.6351057 1.6351057   1.1366979   1.1366979
 5  2.381667 -1.2930762   -1.024184  0.4960764 1.6351057 1.6351057   1.4931227   1.4931227
 2 2.4404132 -1.3091955 -0.98026145 0.50458936 1.6351057 1.6351057   1.6106151   1.6106151
 8 1.6828208 -1.2972916  -1.0105067 0.49751274 1.6351057 1.6351057 0.095430286 0.095430286
 2 3.3824778 -1.3001957 -0.99985393  0.5014927 1.6351057 1.6351057  3.4947443  3.4947443
 1 4.4167529 -1.3256244 -0.92910014 0.51626227 1.6351057 1.6351057  5.5632945  5.5632945
 3 3.1003323 -1.3231052 -0.93879109 0.51406151 1.6351057 1.6351057  2.9304533  2.9304533
10 3.7258926 -1.3383649 -0.89780895 0.52178842 1.6351057 1.6351057   4.181574   4.181574
 6 2.9305799 -1.3343322 -0.90819647 0.51911908 1.6351057 1.6351057  2.5909485  2.5909485
 1 2.9780812 -1.3344654 -0.90774611 0.51931528 1.6351057 1.6351057  2.6859511  2.6859511
 1  3.066907 -1.3351681 -0.90573027 0.51972392 1.6351057 1.6351057  2.8636027  2.8636027
 7 3.2135088 -1.3083045 -0.98104653 0.50252164 1.6351057 1.6351057  3.1568063  3.1568063
 2 3.5367226  -1.310577 -0.97307311  0.5038152 1.6351057 1.6351057  3.8032339  3.8032339
 4 4.1258952 -1.3159939 -0.95777236 0.50679166 1.6351057 1.6351057  4.9815791  4.9815791
 2 3.5773984 -1.3165409  -0.9567463 0.50736738 1.6351057 1.6351057  3.8845856  3.8845856
 2 3.2737479 -1.3202988 -0.94594343 0.50984952 1.6351057 1.6351057  3.2772845  3.2772845
 2 1.7210701 -1.3033571 -0.99433914 0.50094714 1.6351057 1.6351057 0.17192881 0.17192881
 3 1.8894492 -1.3022579 -0.99805741 0.50009537 1.6351057 1.6351057 0.50868705 0.50868705
 1 3.0859374 -1.3244702 -0.93128708 0.51311895 1.6351057 1.6351057  2.9016635  2.9016635
 2 3.3665996 -1.3248681 -0.93047373 0.51300151 1.6351057 1.6351057  3.4629879  3.4629879
 4 2.5503477 -1.3046522 -0.99142635 0.50080134 1.6351057 1.6351057   1.830484   1.830484
 4 2.5610703 -1.3067557 -0.98572427 0.50204192 1.6351057 1.6351057  1.8519293  1.8519293
 4 2.2531803 -1.2931972  -1.0253359 0.49462391 1.6351057 1.6351057  1.2361492  1.2361492
 5 1.9665426 -1.2906919  -1.0309687 0.49370457 1.6351057 1.6351057 0.66287383 0.66287383
 7  1.946926 -1.2912721  -1.0296054 0.49372231 1.6351057 1.6351057 0.62364066 0.62364066
 7 2.6809992 -1.2897656  -1.0356354 0.49277017 1.6351057 1.6351057   2.091787   2.091787
 8  2.641769 -1.3060046 -0.98981021 0.50216308 1.6351057 1.6351057  2.0133267  2.0133267
 3 2.6189881  -1.306812 -0.98720671 0.50266628 1.6351057 1.6351057   1.967765   1.967765
 7 3.0792551 -1.2785056  -1.0659588 0.48486073 1.6351057 1.6351057  2.8882989  2.8882989
 4 3.3966456 -1.2811728  -1.0540569 0.48845639 1.6351057 1.6351057  3.5230799  3.5230799
 2 3.2591527 -1.2859873  -1.0392474 0.49152933 1.6351057 1.6351057  3.2480942  3.2480942
 2 3.4646338 -1.2868923  -1.0361298 0.49071516 1.6351057 1.6351057  3.6590563  3.6590563
 1 3.3296649 -1.3173463 -0.95057449 0.50883626 1.6351057 1.6351057  3.3891186  3.3891186
 3 4.0116972 -1.3163006  -0.9513091 0.50889712 1.6351057 1.6351057   4.753183   4.753183
 1 3.8811156 -1.3036379 -0.99745595 0.49960511 1.6351057 1.6351057  4.4920199  4.4920199
 5 3.9776145 -1.3022792  -0.9937394 0.50302427 1.6351057 1.6351057  4.6850178  4.6850178
 4  2.077078 -1.2974892  -1.0083103 0.49851842 1.6351057 1.6351057 0.88394471 0.88394471
 4 2.1130394 -1.2983316  -1.0062524 0.49936523 1.6351057 1.6351057 0.95586741 0.95586741
17 2.3814307 -1.2925943  -1.0238736 0.49600019 1.6351057 1.6351057    1.49265    1.49265
 2 2.5501512 -1.3098849 -0.97522741 0.50655887 1.6351057 1.6351057   1.830091   1.830091
 5 2.1901776 -1.3202954 -0.94549428 0.51106739 1.6351057 1.6351057   1.110144   1.110144
 3 2.1788957    -1.3082 -0.97924829 0.50344991 1.6351057 1.6351057  1.0875801  1.0875801
 6 2.2118764  -1.314835 -0.96279217 0.50734034 1.6351057 1.6351057  1.1535414  1.1535414
 3  2.618693 -1.3124133  -0.9697804  0.5054256 1.6351057 1.6351057  1.9671747  1.9671747
 5     2.489  -1.321297 -0.94260607  0.5111678 1.6351057 1.6351057  1.7077887  1.7077887
 2 2.0853165 -1.3081726 -0.98111485 0.50333736 1.6351057 1.6351057 0.90042174 0.90042174
 7 2.4020678 -1.3052428 -0.98884471  0.5012294 1.6351057 1.6351057  1.5339244  1.5339244
 2 3.6007184 -1.2828423  -1.0534598 0.48656216 1.6351057 1.6351057  3.9312256  3.9312256
 2 4.4061152 -1.2702088  -1.0898359  0.4800614 1.6351057 1.6351057  5.5420191  5.5420191
 1 5.1712314 -1.2677962  -1.0969688 0.47880058 1.6351057 1.6351057  7.0722514  7.0722514
 5 4.6976636 -1.2697457  -1.0919613 0.47984343 1.6351057 1.6351057  6.1251158  6.1251158
 2 6.0945989 -1.2727696  -1.0876657 0.48022617 1.6351057 1.6351057  8.9189865  8.9189865
 1 3.7695124 -1.2872193  -1.0437936 0.48941292 1.6351057 1.6351057  4.2688135  4.2688135
 4 3.7712491 -1.2872101  -1.0438164 0.48940417 1.6351057 1.6351057  4.2722868  4.2722868
 3 2.6609942 -1.2947986  -1.0196464 0.49457038 1.6351057 1.6351057  2.0517771  2.0517771
 1 2.7233259 -1.2977413  -1.0115693 0.49632157 1.6351057 1.6351057  2.1764405  2.1764405
 1 2.5914027 -1.2877318  -1.0391159 0.49037974 1.6351057 1.6351057  1.9125942  1.9125942
 1 3.2318078 -1.2958754  -1.0133295 0.49516096 1.6351057 1.6351057  3.1934042  3.1934042
 2 3.7801108 -1.2911726  -1.0238739 0.49546991 1.6351057 1.6351057  4.2900102  4.2900102
 5 1.9987448 -1.2971823  -1.0095616 0.49828865 1.6351057 1.6351057  0.7272783  0.7272783
10  5.835979 -1.2845251  -1.0410001 0.49214448 1.6351057 1.6351057  8.4017468  8.4017468
 8 2.7654006 -1.2992493  -1.0041217 0.50055352 1.6351057 1.6351057  2.2605898  2.2605898
 3 3.5609013 -1.2959545  -1.0112152 0.49888356 1.6351057 1.6351057  3.8515914  3.8515914
 4  3.640722 -1.2912064   -1.024981  0.4958917 1.6351057 1.6351057  4.0112327  4.0112327
 4 4.0251889 -1.2871399  -1.0371565 0.49355608 1.6351057 1.6351057  4.7801665  4.7801665
 1 3.9076915 -1.2853204  -1.0427527  0.4923303 1.6351057 1.6351057  4.5451716  4.5451716
 3 3.6981623 -1.2871965  -1.0372726 0.49338759 1.6351057 1.6351057  4.1261132  4.1261132
 2 2.5313585 -1.2875823  -1.0363872 0.49265598 1.6351057 1.6351057  1.7925056  1.7925056
 5 1.7360733 -1.2982388  -1.0083169 0.49872014 1.6351057 1.6351057 0.20193531 0.20193531
13  1.675429  -1.298493   -1.007897 0.49863687 1.6351057 1.6351057 0.08064677 0.08064677
 1  1.903445 -1.2991374   -1.007127 0.49921155 1.6351057 1.6351057 0.53667863 0.53667863
 6 2.0141763  -1.308392 -0.98147902 0.50385608 1.6351057 1.6351057 0.75814124 0.75814124
11 2.7962176 -1.3044507 -0.98885867 0.50369754 1.6351057 1.6351057  2.3222239  2.3222239
10 2.8206268 -1.2984427  -1.0070677 0.50009521 1.6351057 1.6351057  2.3710424  2.3710424
 4 2.1995124 -1.3071701 -0.98387982 0.50448825 1.6351057 1.6351057  1.1288134  1.1288134
 2 2.2870471 -1.3145369  -0.9630363 0.50718534 1.6351057 1.6351057  1.3038828  1.3038828
 1 2.0057023 -1.3161431 -0.95803574 0.50888478 1.6351057 1.6351057 0.74119334 0.74119334
 3 3.2666068 -1.3376957 -0.89750194 0.52131022 1.6351057 1.6351057  3.2630024  3.2630024
 1 3.2171643  -1.302964 -0.99657093 0.50280358 1.6351057 1.6351057  3.1641172  3.1641172
 1 3.0917218 -1.2985013  -1.0082341 0.50010462 1.6351057 1.6351057  2.9132322  2.9132322
 2 2.4889548 -1.2918548  -1.0281496 0.49509087 1.6351057 1.6351057  1.7076983  1.7076983
 2 1.9739306 -1.3136082 -0.96518545 0.50711633 1.6351057 1.6351057 0.67764984 0.67764984
 3 2.8006033  -1.321098  -0.9454433 0.51071213 1.6351057 1.6351057  2.3309952  2.3309952
 1 2.6085091 -1.3280529 -0.92616261 0.51535784 1.6351057 1.6351057  1.9468069  1.9468069
 3 2.7763421  -1.327489 -0.92742124 0.51511988 1.6351057 1.6351057  2.2824728  2.2824728
 2 2.0978172 -1.3073484 -0.98519432 0.50345741 1.6351057 1.6351057 0.92542299 0.92542299
 4  1.887244 -1.3072853 -0.98394752 0.50398574 1.6351057 1.6351057 0.50427666 0.50427666
 3 2.1472935 -1.3060357 -0.98843756 0.50245545 1.6351057 1.6351057  1.0243758  1.0243758
 8 1.9537088 -1.2931708  -1.0229427  0.4957799 1.6351057 1.6351057 0.63720624 0.63720624
 4  1.865026 -1.2925892  -1.0248268 0.49503668 1.6351057 1.6351057 0.45984074 0.45984074
11 1.8603044 -1.2966027  -1.0144932 0.49716519 1.6351057 1.6351057 0.45039747 0.45039747
 3 1.8894176 -1.2948149  -1.0190509 0.49566492 1.6351057 1.6351057 0.50862381 0.50862381
 2 2.6605154 -1.3037637 -0.99561715 0.50052651 1.6351057 1.6351057  2.0508194  2.0508194
 3  2.183626  -1.318707 -0.94939318 0.51085787 1.6351057 1.6351057  1.0970406  1.0970406
 2 2.8560934  -1.314011 -0.96620375 0.50639127 1.6351057 1.6351057  2.4419754  2.4419754
 1 2.1749217 -1.2901638  -1.0331406 0.49275687 1.6351057 1.6351057  1.0796321  1.0796321
 1 3.5179523 -1.2849183  -1.0470816 0.48788221 1.6351057 1.6351057  3.7656934  3.7656934
 1 4.4847607 -1.2939341  -1.0162515 0.49417214 1.6351057 1.6351057  5.6993101  5.6993101
 3 4.1329071  -1.292389  -1.0205354 0.49329573 1.6351057 1.6351057  4.9956029  4.9956029
 4  2.511901 -1.3175235 -0.95109487 0.50997726 1.6351057 1.6351057  1.7535906  1.7535906
 8 2.4138441 -1.3134131 -0.96298278 0.50722251 1.6351057 1.6351057  1.5574769  1.5574769
 1  2.751781 -1.3003696 -0.99766335 0.49988026 1.6351057 1.6351057  2.2333507  2.2333507
 2 3.3888881 -1.2842094  -1.0438785 0.49031651 1.6351057 1.6351057  3.5075649  3.5075649
10 3.5938666 -1.2973566   -1.013593 0.49921485 1.6351057 1.6351057  3.9175219  3.9175219
 1 4.9688271 -1.2900655  -1.0386259 0.49205961 1.6351057 1.6351057 6.6674429 6.6674429
 1 4.9814919 -1.3060105 -0.99174161 0.50084336 1.6351057 1.6351057 6.6927725 6.6927725
 3 3.0988903 -1.2828791  -1.0538175 0.48705223 1.6351057 1.6351057 2.9275693 2.9275693
 1 3.5527469 -1.2779531  -1.0685343 0.48391551 1.6351057 1.6351057 3.8352825 3.8352825
 5 4.1422283 -1.2745087  -1.0792914 0.48177457 1.6351057 1.6351057 5.0142453 5.0142453
 3 4.3586547 -1.2727006  -1.0845589 0.48069628 1.6351057 1.6351057 5.4470982 5.4470982
 1 4.3524803 -1.2800161   -1.062435 0.48430603 1.6351057 1.6351057 5.4347492 5.4347492
12 2.1670487 -1.2912555  -1.0292741 0.49301236 1.6351057 1.6351057 1.0638862 1.0638862
 7 2.9534557 -1.2850098  -1.0475301  0.4884106 1.6351057 1.6351057 2.6367001 2.6367001
12 2.1454368  -1.298732  -1.0091822 0.49796355 1.6351057 1.6351057 1.0206624 1.0206624
 4 2.7334913 -1.2944532  -1.0160357 0.49512302 1.6351057 1.6351057 2.1967713 2.1967713
 7  2.781643 -1.2820441  -1.0550796 0.48697575 1.6351057 1.6351057 2.2930746 2.2930746
 7 2.9911905 -1.3172583 -0.95805076 0.50914035 1.6351057 1.6351057 2.7121697 2.7121697
 2 3.0339536 -1.3260533 -0.93301908  0.5136128 1.6351057 1.6351057 2.7976958 2.7976958
10 2.8195562 -1.3080998 -0.97817912 0.50320572 1.6351057 1.6351057  2.368901  2.368901
 1 3.3387157 -1.3234024 -0.93365745  0.5136864 1.6351057 1.6351057 3.4072201 3.4072201
 8 3.1910583 -1.3237413 -0.93297095 0.51388057 1.6351057 1.6351057 3.1119054 3.1119054
 4  2.722628 -1.3288546 -0.92075391 0.51636391 1.6351057 1.6351057 2.1750447 2.1750447
 1 2.8087989 -1.3297632 -0.91825167 0.51638074 1.6351057 1.6351057 2.3473864 2.3473864
 1 4.1082313 -1.3308042 -0.92142437 0.51612554 1.6351057 1.6351057 4.9462513 4.9462513
 8 4.8338252 -1.2970596   -1.016407 0.49495307 1.6351057 1.6351057   6.397439   6.397439
 3 2.8996686 -1.2892942  -1.0375683  0.4915949 1.6351057 1.6351057  2.5291259  2.5291259
 2  3.137232 -1.2835796  -1.0538912  0.4885917 1.6351057 1.6351057  3.0042528  3.0042528
 1 3.6070615 -1.2759095  -1.0744347 0.48387929 1.6351057 1.6351057  3.9439117  3.9439117
 6 2.2089379 -1.3028675 -0.99786878  0.5013382 1.6351057 1.6351057  1.1476645  1.1476645
12 2.1724998   -1.30236 -0.99939005 0.50100184 1.6351057 1.6351057  1.0747884  1.0747884
 2 2.4827033 -1.3035844 -0.99138978 0.50287479 1.6351057 1.6351057  1.6951952  1.6951952
 5 6.0987929 -1.2752063  -1.0709825 0.48625204 1.6351057 1.6351057  8.9273744  8.9273744
 3 5.2107071 -1.2788664  -1.0598123 0.48829839 1.6351057 1.6351057   7.151203   7.151203
 1 6.0795361 -1.2735046  -1.0736101 0.48425484 1.6351057 1.6351057  8.8888609  8.8888609
 1 5.7263564 -1.3211816  -0.9357411 0.51249166 1.6351057 1.6351057  8.1825014  8.1825014
 1 2.9708459 -1.3263916 -0.92658798 0.51436589 1.6351057 1.6351057  2.6714804  2.6714804
 2 2.4588369 -1.2957459  -1.0133365 0.49597811 1.6351057 1.6351057  1.6474626  1.6474626
 2 2.4337168 -1.2963398  -1.0117164 0.49629088 1.6351057 1.6351057  1.5972223  1.5972223
 3 2.5431237 -1.2937692   -1.018966 0.49457289 1.6351057 1.6351057  1.8160362  1.8160362
 4 2.2985606 -1.2846306  -1.0468031 0.49005341 1.6351057 1.6351057  1.3269099  1.3269099
 9 2.1646347 -1.2907912  -1.0291048 0.49452045 1.6351057 1.6351057  1.0590581  1.0590581
 1 2.1273555 -1.3144208 -0.96479475 0.50763668 1.6351057 1.6351057 0.98449974 0.98449974
 1 2.7105359 -1.3240716 -0.93584252 0.51422609 1.6351057 1.6351057  2.1508604  2.1508604
 2 2.5751916 -1.3246552 -0.93366064 0.51438432 1.6351057 1.6351057   1.880172   1.880172
 4 2.8667249 -1.3086628 -0.97752501 0.50324595 1.6351057 1.6351057  2.4632386  2.4632386
 1 2.8673026 -1.3247037 -0.93188836 0.51308165 1.6351057 1.6351057  2.4643938  2.4643938
 1 2.9149156 -1.3146333 -0.95775498 0.50829555 1.6351057 1.6351057  2.5596198  2.5596198
 1 2.7814939 -1.3141567 -0.95942254 0.50810238 1.6351057 1.6351057  2.2927765  2.2927765
 1 2.4895632 -1.3121118  -0.9652569 0.50682713 1.6351057 1.6351057   1.708915   1.708915
 3 2.3998687 -1.3060799 -0.98308404 0.50298426 1.6351057 1.6351057   1.529526   1.529526
 4 2.0808465 -1.3044407 -0.98776895 0.50215697 1.6351057 1.6351057 0.89148159 0.89148159
 1 2.0943081 -1.2992264  -1.0072811 0.49938309 1.6351057 1.6351057  0.9184048  0.9184048
 1  2.087014 -1.3005576  -1.0041748 0.49959791 1.6351057 1.6351057 0.90381674 0.90381674
14 2.0122367 -1.2979526  -1.0115689 0.49823196 1.6351057 1.6351057 0.75426214 0.75426214
 3 2.1528552 -1.2922734  -1.0277028 0.49420502 1.6351057 1.6351057  1.0354992  1.0354992
 4 2.6856844 -1.3216103  -0.9399392  0.5128951 1.6351057 1.6351057  2.1011574  2.1011574
 5 1.8709757 -1.2986368  -1.0054401  0.4990165 1.6351057 1.6351057 0.47173999 0.47173999
 4 2.8562078  -1.295829  -1.0137322 0.49531831 1.6351057 1.6351057  2.4422043  2.4422043
 1 2.1137529 -1.2945255  -1.0176122 0.49519434 1.6351057 1.6351057 0.95729443 0.95729443
 1 2.1986383 -1.3008279  -1.0010469 0.49873383 1.6351057 1.6351057  1.1270652  1.1270652
 7 2.3780142 -1.2888248  -1.0364992 0.49128221 1.6351057 1.6351057  1.4858171  1.4858171
 1 3.0139663 -1.3255851 -0.93486436 0.51369287 1.6351057 1.6351057  2.7577213  2.7577213
 4 2.7512624 -1.3203117 -0.94772715  0.5120881 1.6351057 1.6351057  2.2323136  2.2323136
 2 3.7818322 -1.2747367  -1.0759368 0.48392242 1.6351057 1.6351057   4.293453   4.293453
 2  4.961767 -1.3007424  -1.0044767 0.50183226 1.6351057 1.6351057  6.6533228  6.6533228
 2 2.7628782 -1.3135105 -0.96155497 0.50840192 1.6351057 1.6351057  2.2555451  2.2555451
10  2.520743 -1.2885434  -1.0333283 0.49191821 1.6351057 1.6351057  1.7712747  1.7712747
 4 3.3686968 -1.3295582 -0.91885255 0.51757139 1.6351057 1.6351057  3.4671823  3.4671823
 3 2.8140341 -1.3285038 -0.92393772 0.51638776 1.6351057 1.6351057  2.3578569  2.3578569
15 3.0541405 -1.3223493 -0.94145938 0.51359122 1.6351057 1.6351057  2.8380697  2.8380697
 5 4.4747687 -1.2817553  -1.0554456 0.49001207 1.6351057 1.6351057   5.679326   5.679326
 2 2.5681849 -1.3112256 -0.96981062 0.50729534 1.6351057 1.6351057  1.8661584  1.8661584
 3 2.9141785 -1.3136685 -0.96337649 0.50894207 1.6351057 1.6351057  2.5581457  2.5581457
 2 2.9937935 -1.2869545  -1.0368758 0.49234521 1.6351057 1.6351057  2.7173757  2.7173757
 2 2.5296873 -1.2909147  -1.0260194 0.49465135 1.6351057 1.6351057  1.7891632  1.7891632
 1 2.6737671  -1.293838  -1.0171674  0.4964072 1.6351057 1.6351057  2.0773228  2.0773228
 2 2.0934844 -1.3166998 -0.95555738 0.50968627 1.6351057 1.6351057 0.91675749 0.91675749
 1 2.0167192 -1.3137704  -0.9636588 0.50810524 1.6351057 1.6351057 0.76322713 0.76322713
 3  3.456828  -1.282029  -1.0580615 0.48656933 1.6351057 1.6351057  3.6434447  3.6434447
 8 2.9685073 -1.2789466   -1.065032 0.48545965 1.6351057 1.6351057  2.6668033  2.6668033
 4 3.5782567 -1.2823054  -1.0566951 0.48637108 1.6351057 1.6351057   3.886302   3.886302
 1 3.0803779 -1.3201615 -0.94263501 0.51087214 1.6351057 1.6351057  2.8905445  2.8905445
 3 3.6379567  -1.312954 -0.96170421 0.50655794 1.6351057 1.6351057   4.005702   4.005702
 2 4.4160981 -1.3142772 -0.95763377 0.50731842 1.6351057 1.6351057  5.5619849  5.5619849
 2 5.0875266 -1.2939448  -1.0134818 0.49601315 1.6351057 1.6351057  6.9048418  6.9048418
 1 3.6544687 -1.3103412 -0.96931407 0.50520249 1.6351057 1.6351057  4.0387262  4.0387262
 2 2.3671726 -1.3055304  -0.9849205 0.50376781 1.6351057 1.6351057  1.4641338  1.4641338
 1 4.1578888 -1.3144632 -0.95728576 0.50701982 1.6351057 1.6351057  5.0455663  5.0455663
 6 5.6428849 -1.2664641  -1.0986673 0.47616727 1.6351057 1.6351057  8.0155584  8.0155584
 1 3.9326501 -1.3039699 -0.98950808 0.49993663 1.6351057 1.6351057  4.5950888  4.5950888
 1 1.7291365 -1.3001287  -1.0029028 0.49898253 1.6351057 1.6351057 0.18806168 0.18806168
 1 2.1082807 -1.2908606   -1.029945 0.49431971 1.6351057 1.6351057    0.94635    0.94635
 1 2.7721957 -1.2838789  -1.0481988 0.49034593 1.6351057 1.6351057  2.2741801  2.2741801
 2 3.5590752 -1.3021047 -0.99421319 0.50261961 1.6351057 1.6351057  3.8479392  3.8479392
 3 2.3935381 -1.2950925  -1.0144961 0.49751909 1.6351057 1.6351057  1.5168648  1.5168648
 1 2.4575046 -1.3182539 -0.95073302 0.50934255 1.6351057 1.6351057  1.6447978  1.6447978
16 3.3110775 -1.3005263  -1.0051373  0.4978892 1.6351057 1.6351057  3.3519437  3.3519437
 1 2.7025961 -1.2982963  -1.0109137 0.49682453 1.6351057 1.6351057  2.1349808  2.1349808
 4 2.7000123 -1.2982331  -1.0111066 0.49678865 1.6351057 1.6351057  2.1298133  2.1298133
 1  3.519983  -1.278733  -1.0649325 0.48688208 1.6351057 1.6351057  3.7697546  3.7697546
 3 4.2431879 -1.2756846  -1.0736726 0.48516495 1.6351057 1.6351057  5.2161646  5.2161646
 1 5.1860392 -1.2828528  -1.0537703 0.48557203 1.6351057 1.6351057  7.1018671  7.1018671
 7 5.5599184 -1.2818276  -1.0584025 0.48475156 1.6351057 1.6351057  7.8496255  7.8496255
 3 5.6016638   -1.28033  -1.0627031 0.48377355 1.6351057 1.6351057  7.9331162  7.9331162
 1  3.350014 -1.3024586  -1.0010143 0.50126997 1.6351057 1.6351057  3.4298166  3.4298166
 1 2.8060573 -1.3067784 -0.98871706 0.50305088 1.6351057 1.6351057  2.3419033  2.3419033
10 3.2289272 -1.2953346  -1.0218297  0.4959134 1.6351057 1.6351057  3.1876431  3.1876431
 6  3.102935 -1.2882127  -1.0409346  0.4918717 1.6351057 1.6351057  2.9356586  2.9356586
 1 6.3217793  -1.289785  -1.0366108 0.48950725 1.6351057 1.6351057  9.3733473  9.3733473
 1 6.7602908  -1.309214 -0.96805862 0.50672564 1.6351057 1.6351057   10.25037   10.25037
 2 6.5546883  -1.314671 -0.95453653 0.51057524 1.6351057 1.6351057  9.8391652  9.8391652
 1 6.0385597 -1.3219468 -0.93417538 0.51359511 1.6351057 1.6351057  8.8069082  8.8069082
 2 6.3429421 -1.3252923 -0.92483515 0.51563409 1.6351057 1.6351057  9.4156728  9.4156728
 5 6.3237399 -1.3189916 -0.94171448 0.51188857 1.6351057 1.6351057  9.3772685  9.3772685
 4  2.959845 -1.3347049 -0.90597348 0.51935653 1.6351057 1.6351057  2.6494788  2.6494788
 4 3.6980855 -1.3416107 -0.88637103  0.5236415 1.6351057 1.6351057  4.1259597  4.1259597
 2 3.3368336  -1.337851  -0.8969137 0.52149347 1.6351057 1.6351057  3.4034558  3.4034558
 3 3.8932111 -1.3447582 -0.87925484 0.52413146 1.6351057 1.6351057  4.5162109  4.5162109
 8 2.0536622 -1.3009853  -1.0009619 0.49894692 1.6351057 1.6351057 0.83711303 0.83711303
 1   1.71403 -1.2975279  -1.0102312 0.49747253 1.6351057 1.6351057 0.15784864 0.15784864
 1 2.5333173 -1.3118011 -0.96674339 0.50614955 1.6351057 1.6351057  1.7964233  1.7964233
 2 4.5926727 -1.3000796 -0.99772973 0.50174183 1.6351057 1.6351057   5.915134   5.915134
 2 5.0804965 -1.2991251 -0.99910591  0.5006106 1.6351057 1.6351057  6.8907817  6.8907817
 5  4.224497 -1.2709616  -1.0877796 0.48036955 1.6351057 1.6351057  5.1787827  5.1787827
 1 3.8382778 -1.2738748  -1.0792517 0.48295758 1.6351057 1.6351057  4.4063442  4.4063442
 1 3.7074367 -1.3292208 -0.92084164 0.51490853 1.6351057 1.6351057  4.1446621  4.1446621
 2 2.7906058 -1.3021604 -0.99999259 0.50154399 1.6351057 1.6351057  2.3110002  2.3110002
 1 3.1842993 -1.2997929  -1.0079891 0.49967412 1.6351057 1.6351057  3.0983874  3.0983874
 2  3.204787 -1.2988265   -1.011346 0.49883973 1.6351057 1.6351057  3.1393626  3.1393626
 5 3.6013061 -1.3310154 -0.91965761  0.5165968 1.6351057 1.6351057  3.9324009  3.9324009
 2 5.0233508 -1.3546415 -0.85525027  0.5297306 1.6351057 1.6351057  6.7764904  6.7764904
 7 5.0094472 -1.3546134 -0.85544517 0.52965948 1.6351057 1.6351057   6.748683   6.748683
 3 4.0234439 -1.3425739 -0.88522269 0.52263605 1.6351057 1.6351057  4.7766766  4.7766766
 3 3.6353421 -1.2821952  -1.0508402 0.48971563 1.6351057 1.6351057  4.0004729  4.0004729
 4 4.8976564  -1.279595  -1.0585238 0.48880015 1.6351057 1.6351057  6.5251015  6.5251015
 6 6.1947333 -1.2757117  -1.0668941 0.48584344 1.6351057 1.6351057  9.1192553  9.1192553
 1 2.0246194 -1.2911943  -1.0283608 0.49315835 1.6351057 1.6351057 0.77902752 0.77902752
14 2.2448141  -1.305911 -0.98461447 0.50217331 1.6351057 1.6351057  1.2194168  1.2194168
 1 4.1166827 -1.2910548  -1.0345196  0.4929792 1.6351057 1.6351057  4.9631541  4.9631541
 4 1.9729175 -1.2948809  -1.0190291 0.49668524 1.6351057 1.6351057 0.67562361 0.67562361
 4 1.7208935 -1.3004546  -1.0018129 0.49921864 1.6351057 1.6351057 0.17157563 0.17157563
 1 2.3515794 -1.3074428  -0.9845819 0.50426945 1.6351057 1.6351057  1.4329474  1.4329474
 6 3.0181172 -1.3297879 -0.91861442 0.51732819 1.6351057 1.6351057  2.7660231  2.7660231
 2 3.7851842 -1.3154635  -0.9624768 0.50993707 1.6351057 1.6351057  4.3001572  4.3001572
 1 4.8769329 -1.3126371  -0.9747172 0.50601614 1.6351057 1.6351057  6.4836546  6.4836546
 2  2.917926 -1.3040518 -0.99600421 0.50182646 1.6351057 1.6351057  2.5656406  2.5656406
 4 2.9823708 -1.2846556   -1.049615 0.48828319 1.6351057 1.6351057  2.6945303  2.6945303
 1 4.2809125 -1.2736514  -1.0819232 0.48239943 1.6351057 1.6351057  5.2916136  5.2916136
12 4.0998276 -1.2765494  -1.0741134 0.48413536 1.6351057 1.6351057   4.929444   4.929444
 1  3.893441 -1.3386411 -0.89240618 0.52121042 1.6351057 1.6351057  4.5166707  4.5166707
 2  6.354438 -1.3121893 -0.96079703 0.50616282 1.6351057 1.6351057  9.4386646  9.4386646
 1 4.0901956 -1.3033745 -0.98860652 0.50075264 1.6351057 1.6351057  4.9101799  4.9101799
 2 3.8178632 -1.3226899 -0.93592167 0.51148558 1.6351057 1.6351057  4.3655151  4.3655151
 2 3.7174562 -1.3313901 -0.91370321  0.5163617 1.6351057 1.6351057   4.164701   4.164701
 2 4.7956501 -1.3351968 -0.90949823 0.51898291 1.6351057 1.6351057  6.3210888  6.3210888
 3 3.1025339 -1.3112951 -0.97592231 0.50597589 1.6351057 1.6351057  2.9348566  2.9348566
 3 2.4067131 -1.3171686 -0.95801327 0.50929748 1.6351057 1.6351057   1.543215   1.543215
 8 1.8065186 -1.3079007 -0.98195449 0.50373852 1.6351057 1.6351057 0.34282595 0.34282595
 1  1.880457 -1.3099448 -0.97700012 0.50517253 1.6351057 1.6351057 0.49070264 0.49070264
 2 2.8297228 -1.3274561 -0.92782928 0.51500028 1.6351057 1.6351057  2.3892343  2.3892343
 7 3.0617433 -1.3086906 -0.97445585 0.50494111 1.6351057 1.6351057  2.8532752  2.8532752
 2 2.3741042 -1.3240431 -0.93546861  0.5137051 1.6351057 1.6351057   1.477997   1.477997
 3 3.3006717 -1.3306664 -0.91494809 0.51794312 1.6351057 1.6351057  3.3311322  3.3311322
 5  4.000408 -1.3319384 -0.90938016 0.51783519 1.6351057 1.6351057  4.7306047  4.7306047
2 3.7758475 -1.2737781  -1.0794388 0.48275385 1.6351057 1.6351057  4.2814837  4.2814837
4 3.6516664 -1.2815592  -1.0593683 0.48597698 1.6351057 1.6351057  4.0331214  4.0331214
5 3.4139454 -1.2884142   -1.039984 0.49266132 1.6351057 1.6351057  3.5576795  3.5576795
2 3.4460364 -1.2947873  -1.0235208 0.49597626 1.6351057 1.6351057  3.6218615  3.6218615
7 3.4337624 -1.3014104  -1.0042066 0.50007208 1.6351057 1.6351057  3.5973135  3.5973135
3 3.1843135 -1.3001251  -1.0078019  0.4992566 1.6351057 1.6351057  3.0984157  3.0984157
1 1.9946768 -1.2992074  -1.0079591 0.49882103 1.6351057 1.6351057 0.71914236 0.71914236
1 2.0982823 -1.3000729   -1.005308 0.49960317 1.6351057 1.6351057  0.9263533  0.9263533
3 1.8590428 -1.3118195 -0.97055233 0.50633152 1.6351057 1.6351057 0.44787435 0.44787435
8 6.5578103 -1.3373801 -0.90600484 0.52120368 1.6351057 1.6351057  9.8454093  9.8454093
3 5.7466759 -1.3362278 -0.90781111 0.52096375 1.6351057 1.6351057  8.2231405  8.2231405
8 3.4853031 -1.3087097  -0.9834418 0.50519695 1.6351057 1.6351057  3.7003949  3.7003949
1 4.1467875 -1.3149148 -0.96245327 0.51015904 1.6351057 1.6351057  5.0233636  5.0233636
4 3.7422593 -1.3285429 -0.92471094   0.517206 1.6351057 1.6351057  4.2143073  4.2143073
2  4.501986 -1.3244809 -0.93056744 0.51536593 1.6351057 1.6351057  5.7337607  5.7337607
5 2.8349784 -1.2896772  -1.0346785 0.49396269 1.6351057 1.6351057  2.3997454  2.3997454
1 2.1245014 -1.2959817  -1.0169071 0.49708874 1.6351057 1.6351057 0.97879142 0.97879142
2 3.5389968 -1.2867879  -1.0419535 0.49274652 1.6351057 1.6351057  3.8077823  3.8077823
1 3.6885474 -1.2930646  -1.0254519 0.49668348 1.6351057 1.6351057  4.1068836  4.1068836
3 4.3215649 -1.2897673  -1.0265651 0.49333825 1.6351057 1.6351057  5.3729185  5.3729185
 3 3.8768395  -1.321819 -0.93999363 0.51063115 1.6351057 1.6351057  4.4834676  4.4834676
 1 3.8456535 -1.3436027 -0.88230776 0.52327476 1.6351057 1.6351057  4.4210957  4.4210957
 3 3.3311113 -1.3294003 -0.92352974 0.51659233 1.6351057 1.6351057  3.3920114  3.3920114
 2 1.9240037 -1.2973182  -1.0104361 0.49850692 1.6351057 1.6351057 0.57779602 0.57779602
 7 2.0423152 -1.3048844 -0.98824737 0.50162173 1.6351057 1.6351057 0.81441911 0.81441911
 6 2.2940187  -1.291486  -1.0254061 0.49374624 1.6351057 1.6351057  1.3178261  1.3178261
 1    2.7202 -1.2964671  -1.0106335 0.49636846 1.6351057 1.6351057  2.1701886  2.1701886
 5 2.7776971 -1.3087561 -0.97867904 0.50312797 1.6351057 1.6351057  2.2851829  2.2851829
 5 2.7881796 -1.2997341  -1.0086187 0.49848246 1.6351057 1.6351057   2.306148   2.306148
 2 3.0557506 -1.3237083  -0.9396185 0.51298014 1.6351057 1.6351057  2.8412899  2.8412899
 3 2.3964344 -1.3087368 -0.97563995 0.50510176 1.6351057 1.6351057  1.5226576  1.5226576
12 2.6916163 -1.2924664  -1.0207845 0.49482276 1.6351057 1.6351057  2.1130213  2.1130213
 2 3.6525547 -1.2761643  -1.0702686 0.48500664 1.6351057 1.6351057  4.0348981  4.0348981
 1  2.706593   -1.28282  -1.0511414 0.48936843 1.6351057 1.6351057  2.1429747  2.1429747
 7 2.6613868 -1.2935049  -1.0253596 0.49502417 1.6351057 1.6351057  2.0525623  2.0525623
 8 2.0587024 -1.2927035  -1.0259048 0.49416285 1.6351057 1.6351057 0.84719351 0.84719351
 1 2.1319117 -1.2969673  -1.0101517 0.49687478 1.6351057 1.6351057 0.99361212 0.99361212
 1 2.2805006 -1.2966965  -1.0103764 0.49677017 1.6351057 1.6351057  1.2907899  1.2907899
 8 1.9914168 -1.2961057  -1.0118803 0.49729455 1.6351057 1.6351057 0.71262223 0.71262223
 8 2.2855346 -1.2846334  -1.0469845 0.48998157 1.6351057 1.6351057  1.3008579  1.3008579
 6 2.0779344 -1.3016038 -0.99791002 0.49945579 1.6351057 1.6351057 0.88565747 0.88565747
12 2.3398734 -1.3192185 -0.94838427 0.51133769 1.6351057 1.6351057  1.4095355  1.4095355
 6 2.2502621 -1.3188922 -0.95036538 0.51093106 1.6351057 1.6351057   1.230313   1.230313
 1  3.577995 -1.3251113 -0.92897154 0.51322151 1.6351057 1.6351057  3.8857786  3.8857786
 1 2.9919386 -1.3186345 -0.94698178 0.51025128 1.6351057 1.6351057  2.7136658  2.7136658
 3 2.6398468 -1.3111692 -0.96891544 0.50552346 1.6351057 1.6351057  2.0094823  2.0094823
 3 2.8796153 -1.3121511 -0.96561652 0.50602175 1.6351057 1.6351057  2.4890193  2.4890193
 4 3.1566796 -1.3056818 -0.98826186 0.50437641 1.6351057 1.6351057  3.0431479  3.0431479
 2 1.7609498 -1.3102568 -0.97452554 0.50553206 1.6351057 1.6351057  0.2516883  0.2516883
 3 1.9939506 -1.3154202 -0.95986765   0.508755 1.6351057 1.6351057 0.71768994 0.71768994
 6 2.1590002 -1.2881659  -1.0354369 0.49192468 1.6351057 1.6351057   1.047789   1.047789
19 2.2811446 -1.3120033 -0.96972219 0.50551527 1.6351057 1.6351057  1.2920779  1.2920779
 1 2.7157434 -1.3191117 -0.94883957 0.50962316 1.6351057 1.6351057  2.1612755  2.1612755
 1  2.672816 -1.3240683 -0.93488884 0.51268875 1.6351057 1.6351057  2.0754207  2.0754207
 1 2.4978994 -1.3224413 -0.93917083 0.51199851 1.6351057 1.6351057  1.7255874  1.7255874
 4 4.1300812  -1.326558  -0.9240166 0.51430352 1.6351057 1.6351057  4.9899511  4.9899511
 2 4.1935434 -1.3226888 -0.93426422 0.51225882 1.6351057 1.6351057  5.1168755  5.1168755
 3 3.9782747  -1.322799 -0.93817252 0.51455269 1.6351057 1.6351057   4.686338   4.686338
 2 2.6430969  -1.326599 -0.92950562 0.51427581 1.6351057 1.6351057  2.0159824  2.0159824
 1 2.3725987 -1.3194681 -0.94750282 0.51025173 1.6351057 1.6351057   1.474986   1.474986
1 2.3930155 -1.3154499 -0.95923166 0.50764724 1.6351057 1.6351057  1.5158197  1.5158197
6 1.9890155 -1.2938515   -1.019084   0.495164 1.6351057 1.6351057 0.70781965 0.70781965
