#weight  minuslogpost  log10_alpha   log10_rs         vw  minuslogprior  minuslogprior__0       chi2  chi2__lisa_likelihood
      1     1.7228907   -1.9450709 -2.1688809 0.80446656      1.5040774         1.5040774 0.43762659             0.43762659
      1     1.7238439   -1.9623154 -2.1593459 0.85374296      1.5040774         1.5040774 0.43953308             0.43953308
      2     1.7241868   -1.9879889 -2.1287827 0.86155335      1.5040774         1.5040774 0.44021879             0.44021879
      2     1.7243132   -1.9930181 -2.1340298  0.8655545      1.5040774         1.5040774 0.44047164             0.44047164
      1     1.7242425   -1.9856722 -2.1430167 0.86508215      1.5040774         1.5040774 0.44033017             0.44033017
      1     1.7237004   -1.9594308 -2.1213559 0.86106223      1.5040774         1.5040774 0.43924604             0.43924604
      1     1.7233482   -1.9469502 -2.1183846 0.85382859      1.5040774         1.5040774 0.43854158             0.43854158
      2     1.7233602   -1.9478512  -2.103755 0.85828337      1.5040774         1.5040774 0.43856554             0.43856554
      1     1.7236454   -1.9631501 -2.0916797 0.86133291      1.5040774         1.5040774 0.43913604             0.43913604
      4     1.7240807    -1.964117 -2.1007791 0.89251293      1.5040774         1.5040774  0.4400067              0.4400067
      1     1.7240179   -1.9621576 -2.0989024 0.89003697      1.5040774         1.5040774 0.43988102             0.43988102
      1     1.7237674    -1.974859 -2.0749459 0.85956698      1.5040774         1.5040774 0.43938009             0.43938009
      1     1.7242153   -1.9939251 -2.0676154 0.87327816      1.5040774         1.5040774 0.44027575             0.44027575
      1      1.724166   -1.9889148 -2.0607596 0.87657988      1.5040774         1.5040774 0.44017721             0.44017721
      1     1.7240363   -1.9916615 -2.0282541 0.86801562      1.5040774         1.5040774 0.43991783             0.43991783
      1     1.7235211   -1.9657338 -2.0272033 0.86368833      1.5040774         1.5040774 0.43888741             0.43888741
      2     1.7226475    -1.974807 -2.0433247 0.80540977      1.5040774         1.5040774 0.43714022             0.43714022
      1      1.722926   -1.9846906 -2.0309408 0.81008301      1.5040774         1.5040774 0.43769721             0.43769721
      2     1.7216389   -1.9933391 -2.0176651 0.75661188      1.5040774         1.5040774 0.43512311             0.43512311
      1     1.7216673   -1.9936298 -2.0194996 0.75661688      1.5040774         1.5040774 0.43517989             0.43517989
1 1.7218025 -1.9933753 -2.0195276 0.76112541 1.5040774 1.5040774 0.43545028 0.43545028
1 1.7223648 -1.9894524 -2.0438704  0.7775763 1.5040774 1.5040774 0.43657489 0.43657489
1 1.7204499 -1.9555504 -2.0590647 0.74700858 1.5040774 1.5040774 0.43274504 0.43274504
1 1.7201507 -1.9429488 -2.0504745 0.75671478 1.5040774 1.5040774 0.43214661 0.43214661
1 1.7199901 -1.9582712 -2.0380097 0.74113544 1.5040774 1.5040774 0.43182547 0.43182547
1 1.7191217 -1.9521439 -2.0657895  0.7128828 1.5040774 1.5040774  0.4300886  0.4300886
2  1.721164 -1.9810092 -2.0852189 0.72572687 1.5040774 1.5040774 0.43417322 0.43417322
3 1.7210735 -1.9866593 -2.0772699 0.72023893 1.5040774 1.5040774 0.43399226 0.43399226
1 1.7208047 -1.9623354 -2.1312481 0.70276546 1.5040774 1.5040774 0.43345462 0.43345462
1  1.722733 -1.9822496 -2.1556885 0.75054407 1.5040774 1.5040774 0.43731127 0.43731127
1 1.7230454 -1.9587135 -2.1903988 0.78084764 1.5040774 1.5040774 0.43793605 0.43793605
1 1.7221565 -1.9368137 -2.2126349 0.73836889 1.5040774 1.5040774 0.43615814 0.43615814
1 1.7204562 -1.8996337 -2.1838462  0.7424671 1.5040774 1.5040774 0.43275761 0.43275761
1 1.7215262 -1.9259347 -2.1966164 0.73652482 1.5040774 1.5040774 0.43489764 0.43489764
1 1.7207797 -1.9324049 -2.1717022 0.71162103 1.5040774 1.5040774 0.43340454 0.43340454
1 1.7203786 -1.9168897 -2.1922265 0.68705703 1.5040774 1.5040774 0.43260247 0.43260247
1  1.721248 -1.9156963  -2.225635 0.69577769 1.5040774 1.5040774 0.43434114 0.43434114
1 1.7211335 -1.9017064 -2.2132456 0.74132643 1.5040774 1.5040774 0.43411221 0.43411221
1 1.7234976 -1.9817414 -2.2099237 0.76500492 1.5040774 1.5040774 0.43884033 0.43884033
1 1.7231037 -1.9825323 -2.2187385 0.71872546 1.5040774 1.5040774 0.43805253 0.43805253
1 1.7228717  -1.984176  -2.201413 0.71545357 1.5040774 1.5040774 0.43758851 0.43758851
1 1.7214917 -1.9362241 -2.1971711 0.71382615 1.5040774 1.5040774 0.43482852 0.43482852
1  1.721439 -1.9270913 -2.2097855 0.71234528 1.5040774 1.5040774  0.4347233  0.4347233
1 1.7226583 -1.9543299 -2.2304459 0.72035067 1.5040774 1.5040774 0.43716175 0.43716175
1 1.7231385 -1.9708136 -2.2345518 0.65366763 1.5040774 1.5040774 0.43812225 0.43812225
2 1.7230123 -1.9727661 -2.2345356 0.65776428 1.5040774 1.5040774 0.43786979 0.43786979
1 1.7231017 -1.9619207 -2.2569905 0.66302208 1.5040774 1.5040774  0.4380487  0.4380487
1 1.7238387 -1.9423787  -2.266281 0.64632975 1.5040774 1.5040774 0.43952251 0.43952251
1 1.7237925 -1.9438434 -2.2747816 0.64934613 1.5040774 1.5040774 0.43943023 0.43943023
1 1.7246754 -1.9752633 -2.2811603 0.61611258 1.5040774 1.5040774 0.44119606 0.44119606
1 1.7246702 -1.9439094 -2.3257758 0.63971551 1.5040774 1.5040774 0.44118553 0.44118553
1 1.7248776 -1.9467628 -2.3363421   0.623533 1.5040774 1.5040774 0.44160034 0.44160034
1 1.7247179 -1.9345405 -2.3308054  0.6177628 1.5040774 1.5040774 0.44128099 0.44128099
1 1.7245103 -1.9183109 -2.3203036 0.62646718 1.5040774 1.5040774 0.44086577 0.44086577
1 1.7243994 -1.9234976 -2.3066829 0.61970463 1.5040774 1.5040774 0.44064407 0.44064407
1 1.7244404 -1.9351826 -2.3027008 0.63668715 1.5040774 1.5040774 0.44072606 0.44072606
1 1.7238763 -1.9178557 -2.3079537 0.65082947 1.5040774 1.5040774 0.43959784 0.43959784
1 1.7238169 -1.9010369 -2.2849738 0.63875879 1.5040774 1.5040774 0.43947891 0.43947891
1 1.7236853 -1.9029567 -2.2816932 0.64232939 1.5040774 1.5040774 0.43921571 0.43921571
1 1.7223332 -1.8781616 -2.2591069 0.65464917 1.5040774 1.5040774 0.43651165 0.43651165
1  1.721882 -1.8656736  -2.275612 0.65977486 1.5040774 1.5040774 0.43560924 0.43560924
1 1.7179096  -1.823388 -2.2720664 0.56816938 1.5040774 1.5040774 0.42766434 0.42766434
1 1.7109234 -1.8304584 -2.2408613 0.53162024 1.5040774 1.5040774 0.41369197 0.41369197
1 1.7131999 -1.8327333 -2.2110384 0.55752264 1.5040774 1.5040774 0.41824497 0.41824497
1 1.7097961 -1.8053482 -2.2071969 0.55550479 1.5040774 1.5040774 0.41143738 0.41143738
1 1.7145729 -1.8843494 -2.2387207 0.52317181 1.5040774 1.5040774 0.42099104 0.42099104
1  1.715585 -1.8944864 -2.2243248 0.53390445 1.5040774 1.5040774 0.42301512 0.42301512
1 1.7139207 -1.8935679 -2.2158306 0.52337856 1.5040774 1.5040774 0.41968657 0.41968657
1 1.7185831 -1.9271818 -2.2133033 0.54900879 1.5040774 1.5040774 0.42901136 0.42901136
1 1.7167369 -1.9319703  -2.186381 0.54007402 1.5040774 1.5040774 0.42531907 0.42531907
1 1.7166205 -1.9506833 -2.1974907 0.51662743 1.5040774 1.5040774 0.42508611 0.42508611
1 1.7140806  -1.949151 -2.1641713 0.50286741 1.5040774 1.5040774  0.4200065  0.4200065
1 1.7141823 -1.9481924 -2.1614356 0.50959868 1.5040774 1.5040774 0.42020974 0.42020974
1 1.7110631 -1.9147438 -2.1644372 0.50605526 1.5040774 1.5040774 0.41397148 0.41397148
1 1.7141872 -1.9289169 -2.1655045 0.52809898 1.5040774 1.5040774 0.42021954 0.42021954
1 1.7148179 -1.9799179 -2.1324713 0.49690714 1.5040774 1.5040774 0.42148103 0.42148103
1 1.7158822 -1.9865883  -2.147507 0.49189035 1.5040774 1.5040774 0.42360959 0.42360959
1 1.7115441 -1.9414042 -2.1344035 0.49995714 1.5040774 1.5040774 0.41493331 0.41493331
1 1.7131118 -1.9372899 -2.1562725 0.51243496 1.5040774 1.5040774 0.41806884 0.41806884
1  1.712859 -1.9358914 -2.1584555 0.50814785 1.5040774 1.5040774 0.41756311 0.41756311
1 1.7118665 -1.9228464 -2.1796276  0.4844598 1.5040774 1.5040774  0.4155782  0.4155782
1 1.7096924 -1.9065875 -2.1715254 0.48617191 1.5040774 1.5040774 0.41122998 0.41122998
1 1.7158004 -1.8873796 -2.2218014 0.54168582 1.5040774 1.5040774  0.4234461  0.4234461
1 1.7163917  -1.902563  -2.215937 0.54043985 1.5040774 1.5040774 0.42462865 0.42462865
1 1.7156486  -1.904818 -2.2246588 0.52686934 1.5040774 1.5040774 0.42314249 0.42314249
1  1.719669 -1.9179876 -2.2542502 0.54807606 1.5040774 1.5040774 0.43118316 0.43118316
1 1.7170882 -1.9189993 -2.2487336 0.51798928 1.5040774 1.5040774 0.42602163 0.42602163
1 1.7170573 -1.9185963 -2.2485777 0.51800431 1.5040774 1.5040774 0.42595978 0.42595978
1 1.7173659 -1.9047808 -2.2836265 0.51111345 1.5040774 1.5040774 0.42657709 0.42657709
1 1.7173209 -1.9028296 -2.2813192 0.51377891 1.5040774 1.5040774 0.42648708 0.42648708
1 1.7183756 -1.9264847  -2.267103 0.51878967 1.5040774 1.5040774 0.42859634 0.42859634
1 1.7195907 -1.9298792 -2.2764913 0.52940102 1.5040774 1.5040774 0.43102668 0.43102668
1 1.7193424 -1.9134428 -2.2987219 0.52471005 1.5040774 1.5040774 0.43053011 0.43053011
1 1.7217525 -1.9526065 -2.3278843 0.52568824 1.5040774 1.5040774 0.43535016 0.43535016
1  1.719708 -1.9597359 -2.3203461 0.46498444 1.5040774 1.5040774 0.43126114 0.43126114
1 1.7189368 -1.9497642  -2.336254 0.41972408 1.5040774 1.5040774 0.42971879 0.42971879
1 1.7171461 -1.9393544 -2.2932812 0.40691368 1.5040774 1.5040774 0.42613736 0.42613736
5 1.7154829 -1.9136839 -2.2973838 0.41401134 1.5040774 1.5040774 0.42281104 0.42281104
2 1.7259029 -1.6733615 -2.8150488 0.63734941 1.5040774 1.5040774  0.4436511  0.4436511
1 1.7259807 -1.9493412 -2.7071041 0.62253941 1.5040774 1.5040774 0.44380658 0.44380658
 4 1.7259888  -1.9413778 -2.8008304 0.81919983 1.5040774 1.5040774 0.44382277 0.44382277
 2 1.7258311  -1.8268086 -2.6740947 0.63055648 1.5040774 1.5040774 0.44350733 0.44350733
 1 1.7253274   -1.929044 -2.5321635 0.68345508 1.5040774 1.5040774 0.44250007 0.44250007
 3 1.7253721  -1.9255692 -2.5006648 0.65428038 1.5040774 1.5040774 0.44258942 0.44258942
 9 1.7234715  -1.9567317 -2.2478812 0.77040725 1.5040774 1.5040774 0.43878826 0.43878826
 4 1.7181371  -1.6799631 -2.3371188 0.89565467 1.5040774 1.5040774  0.4281194  0.4281194
 1 1.7210992  -1.6461931 -2.5073707 0.83582962 1.5040774 1.5040774 0.43404359 0.43404359
10 1.7257192  -1.9921047  -2.531258 0.89499712 1.5040774 1.5040774 0.44328363 0.44328363
 6  1.720318  -1.7416683 -2.3156881  0.8895958 1.5040774 1.5040774 0.43248126 0.43248126
 1 1.6832505   -1.349825 -2.4457573 0.87213375 1.5040774 1.5040774 0.35834616 0.35834616
 1 1.7240839   -1.193864 -3.0021739 0.51701186 1.5040774 1.5040774 0.44001294 0.44001294
 2 1.7250958  -1.4756066 -2.9686076 0.46784647 1.5040774 1.5040774 0.44203671 0.44203671
 1 1.7127902 -0.95666141 -2.9870507 0.47988348 1.5040774 1.5040774 0.41742558 0.41742558
 2  1.599682  -1.1219985 -2.1994377  0.8151741 1.5040774 1.5040774 0.19120916 0.19120916
 1 1.5784987  -1.2830256 -2.1400709 0.65355453 1.5040774 1.5040774 0.14884254 0.14884254
 1 1.7154558  -1.4809698 -2.5258109 0.70186677 1.5040774 1.5040774 0.42275688 0.42275688
 1 1.7206997  -1.8090155 -2.2365082 0.85701779 1.5040774 1.5040774 0.43324464 0.43324464
 2 1.7192126  -1.9378404 -1.9364885 0.77269191 1.5040774 1.5040774 0.43027041 0.43027041
 1 1.7221625  -1.9980988 -1.9331544 0.78558221 1.5040774 1.5040774 0.43617017 0.43617017
 3 1.7126559  -1.8920282 -1.8041014  0.7531558 1.5040774 1.5040774 0.41715702 0.41715702
1 1.6518591 -1.7973326 -1.7171539 0.64394736 1.5040774 1.5040774 0.29556335 0.29556335
1 1.6271738  -1.562905 -2.1489442 0.55394895 1.5040774 1.5040774 0.24619274 0.24619274
1 1.6792133 -1.7592727 -2.1498135 0.42964724 1.5040774 1.5040774 0.35027188 0.35027188
1 1.6406687 -1.6648718 -2.1482737 0.49187275 1.5040774 1.5040774 0.27318258 0.27318258
1 1.6602221  -1.672502 -2.1846967 0.50842557 1.5040774 1.5040774 0.31228944 0.31228944
1 1.5999508  -1.498497 -2.3657044 0.40979139 1.5040774 1.5040774  0.1917468  0.1917468
2 1.7255639 -1.8558164 -2.5566438 0.61993695 1.5040774 1.5040774 0.44297291 0.44297291
3  1.725506 -1.8667756 -2.5290167 0.62795609 1.5040774 1.5040774 0.44285729 0.44285729
1 1.7256283 -1.8432164 -2.5835149 0.62802611 1.5040774 1.5040774 0.44310182 0.44310182
1 1.7259065  -1.930922  -2.648254 0.63541173 1.5040774 1.5040774 0.44365819 0.44365819
1  1.725784 -1.8218642 -2.7453795 0.71259675 1.5040774 1.5040774 0.44341312 0.44341312
3 1.7255809 -1.9391041 -2.5428284 0.88121635 1.5040774 1.5040774 0.44300703 0.44300703
1 1.7255978 -1.9770925 -2.5121524 0.86495507 1.5040774 1.5040774 0.44304073 0.44304073
1 1.7213191 -1.6712049 -2.5081668 0.75869325 1.5040774 1.5040774 0.43448345 0.43448345
2  1.718099 -1.6289245 -2.4447625 0.83814011 1.5040774 1.5040774 0.42804316 0.42804316
1 1.7242922 -1.8381905  -2.461636 0.58093228 1.5040774 1.5040774 0.44042958 0.44042958
1 1.7234245 -1.5664924 -2.7596374 0.52349446 1.5040774 1.5040774 0.43869411 0.43869411
1 1.7239085 -1.5742332  -2.769359 0.52780135 1.5040774 1.5040774 0.43966224 0.43966224
1 1.7233468 -1.8713215 -2.3890156 0.70579456 1.5040774 1.5040774 0.43853874 0.43853874
2 1.7037024  -1.898755 -2.0776233 0.44943026 1.5040774 1.5040774  0.3992501  0.3992501
2 1.7069574  -1.7899814 -2.3603863 0.43688905 1.5040774 1.5040774 0.40575994 0.40575994
1  1.687697  -1.7003997 -2.3502323 0.41626475 1.5040774 1.5040774 0.36723912 0.36723912
3 1.6948312  -1.7446855 -2.2899065 0.47105683 1.5040774 1.5040774 0.38150769 0.38150769
2 1.7197127  -1.9646692 -2.2886189 0.49117833 1.5040774 1.5040774 0.43127053 0.43127053
2 1.7244582  -1.9024994 -2.3523272 0.60624443 1.5040774 1.5040774  0.4407616  0.4407616
2 1.7260016  -1.9245962 -2.8320919 0.82273711 1.5040774 1.5040774 0.44384844 0.44384844
2 1.7249056  -1.6643678 -2.6732927 0.58268498 1.5040774 1.5040774 0.44165633 0.44165633
1 1.7140116  -1.6702787 -2.3520755 0.74215091 1.5040774 1.5040774 0.41986844 0.41986844
1 1.7249276  -1.6089179 -2.7370005 0.81583448 1.5040774 1.5040774 0.44170047 0.44170047
1 1.7254734  -1.4467962 -2.8524035 0.60920487 1.5040774 1.5040774 0.44279198 0.44279198
1  1.724398  -1.2147092 -2.8589789 0.70569657 1.5040774 1.5040774 0.44064127 0.44064127
2 1.7204858 -0.80507973  -3.100454 0.46649304 1.5040774 1.5040774 0.43281687 0.43281687
2 1.7372737 -0.67930482 -2.9738635 0.53606953 1.5040774 1.5040774  0.4663927  0.4663927
3 1.7312969 -0.65072496 -3.0094758 0.54284022 1.5040774 1.5040774  0.4544391  0.4544391
1  2.600968  -1.2513573 -2.1526862 0.51871377 1.5040774 1.5040774  2.1937812  2.1937812
3 1.7216981  -1.4049521 -2.7299084 0.79098656 1.5040774 1.5040774 0.43524136 0.43524136
5 1.6960163  -1.6017731 -2.2063839 0.80781825 1.5040774 1.5040774 0.38387783 0.38387783
3 1.7000252  -1.6090097 -2.2416034 0.79823613 1.5040774 1.5040774 0.39189557 0.39189557
1 1.7002566  -1.6126205 -2.2385283 0.79745786 1.5040774 1.5040774 0.39235831 0.39235831
2 1.7260543  -1.5996619 -3.3535533 0.76344472 1.5040774 1.5040774 0.44395385 0.44395385
 1 1.7260545  -1.6165923 -3.5782962 0.73894355 1.5040774 1.5040774 0.44395423 0.44395423
 4 1.7260545  -1.5814039 -3.6673253 0.76265912 1.5040774 1.5040774 0.44395423 0.44395423
 4 1.7260545  -1.5360994 -3.5879483 0.87064563 1.5040774 1.5040774 0.44395423 0.44395423
 6 1.7260545   -1.612137 -3.7103313 0.83782897 1.5040774 1.5040774 0.44395424 0.44395424
14 1.7260545  -1.6807532   -3.79516  0.8541116 1.5040774 1.5040774 0.44395424 0.44395424
 5 1.7260545  -1.6920034 -3.8386875 0.86161893 1.5040774 1.5040774 0.44395424 0.44395424
 1 1.7260541  -1.0643662 -3.4433614 0.75163927 1.5040774 1.5040774 0.44395343 0.44395343
 3 1.7232511  -1.8044805 -2.4513055 0.75860902 1.5040774 1.5040774 0.43834736 0.43834736
 3 1.7260545  -1.2818414 -3.8837125 0.73514729 1.5040774 1.5040774 0.44395424 0.44395424
 5 1.7261012 -0.38385919 -3.3110325 0.61661338 1.5040774 1.5040774 0.44404756 0.44404756
 3  1.726044 -0.40967655 -3.4499195 0.59430679 1.5040774 1.5040774 0.44393314 0.44393314
 1 1.7232319  -1.8733133 -2.3637467 0.76136642 1.5040774 1.5040774 0.43830902 0.43830902
 1 1.7253161  -1.8792748 -2.5810243 0.74077331 1.5040774 1.5040774 0.44247731 0.44247731
 2 1.7257202  -1.7599232 -2.7653406 0.78101626 1.5040774 1.5040774 0.44328554 0.44328554
 1 1.7260544  -1.7416042 -3.3308537 0.71734629 1.5040774 1.5040774   0.443954   0.443954
 4 1.7260545  -1.9700172 -3.2959996 0.75960833 1.5040774 1.5040774 0.44395413 0.44395413
 1 1.7260524  -1.3103797 -3.3413851 0.55429677 1.5040774 1.5040774 0.44394994 0.44394994
 1 1.7257886  -1.5540854 -2.8378652 0.63057243 1.5040774 1.5040774 0.44342241 0.44342241
 1  1.705876  -1.4513128 -2.4297538 0.61509365 1.5040774 1.5040774 0.40359726 0.40359726
 2 1.6940799  -1.5229105 -2.3604349 0.57548788 1.5040774 1.5040774 0.38000509 0.38000509
1 1.5721627  -1.8292358   -1.6430082 0.57194521 1.5040774 1.5040774   0.1361706   0.1361706
3 1.5906416  -1.7482414   -1.4922128  0.6008059 1.5040774 1.5040774   0.1731284   0.1731284
2  1.510305  -1.6051953   -1.7814029 0.51959775 1.5040774 1.5040774 0.012455259 0.012455259
1 1.7260544   -1.846283   0.61829229 0.79457195 1.5040774 1.5040774  0.44395398  0.44395398
9 1.9838272 -0.72220246 -0.016919545 0.89640153 1.5040774 1.5040774  0.95949961  0.95949961
5  1.754246 -0.77586904    0.2187195 0.86432308 1.5040774 1.5040774  0.50033727  0.50033727
3 1.7260545  -1.9040823   -3.3254595 0.83735429 1.5040774 1.5040774  0.44395415  0.44395415
7 1.7260545  -1.9454512   -3.9509441 0.76108879 1.5040774 1.5040774  0.44395424  0.44395424
6 1.7260545  -1.7947282   -3.4728223 0.88166658 1.5040774 1.5040774  0.44395423  0.44395423
5 1.7260545  -1.9604976   -3.4516107 0.72134433 1.5040774 1.5040774  0.44395423  0.44395423
5 1.7260545  -1.9672126   -3.5324746 0.74401112 1.5040774 1.5040774  0.44395423  0.44395423
1 1.7260545  -1.7547241   -3.5829403 0.69446433 1.5040774 1.5040774  0.44395423  0.44395423
7 1.7248051  -1.9960856   -2.3500287 0.65213838 1.5040774 1.5040774  0.44145531  0.44145531
4  1.632115   -1.075662   -2.5330134 0.76697449 1.5040774 1.5040774  0.25607516  0.25607516
4 1.7260213  -1.6361534  -0.26545527 0.86444693 1.5040774 1.5040774  0.44388778  0.44388778
2 1.7260376  -1.6551519  -0.16931384 0.85314888 1.5040774 1.5040774  0.44392046  0.44392046
3 1.7139703  -1.7238271  -0.92291707 0.72350104 1.5040774 1.5040774  0.41978574  0.41978574
3 1.7260442  -1.6677865 -0.056180343  0.8397014 1.5040774 1.5040774  0.44393355  0.44393355
4 1.7260523  -1.8106658   0.15379337 0.78912476 1.5040774 1.5040774  0.44394984  0.44394984
3 1.5137004  -1.5385961   -1.6665715 0.71128171 1.5040774 1.5040774 0.019245999 0.019245999
2 1.6077655  -1.8387269  -1.6961377  0.5797015 1.5040774 1.5040774   0.2073763   0.2073763
3 1.5534939  -1.8142255  -1.5275138 0.61128034 1.5040774 1.5040774 0.098833024 0.098833024
2 1.7260545  -1.4182812  -3.8958662 0.46854359 1.5040774 1.5040774  0.44395424  0.44395424
4 1.7260545   -1.314166  -3.6457196 0.42456191 1.5040774 1.5040774  0.44395416  0.44395416
1 1.7143476  -1.7693575  -1.6765776 0.84530266 1.5040774 1.5040774  0.42054039  0.42054039
1 1.7724669  -1.0606706  0.26762785 0.82511115 1.5040774 1.5040774  0.53677903  0.53677903
3 1.7778191  -1.1925377  0.62966014 0.79431148 1.5040774 1.5040774  0.54748346  0.54748346
3 1.7255576  -1.0646862  0.35577361 0.83144056 1.5040774 1.5040774  0.44296038  0.44296038
3 2.0314663 -0.99390105  0.71628658 0.86729691 1.5040774 1.5040774   1.0547778   1.0547778
1 1.7259718  -1.1748234  0.81342396  0.8946379 1.5040774 1.5040774  0.44378884  0.44378884
1 1.7260535 -0.98398113  -3.3986705 0.70171595 1.5040774 1.5040774  0.44395228  0.44395228
1 1.7260489  -1.2244647   -3.242839 0.70831878 1.5040774 1.5040774  0.44394306  0.44394306
7 1.6864024  -1.3472586  -2.6400308 0.49687845 1.5040774 1.5040774  0.36465004  0.36465004
5 1.7260545 -0.54810129  -3.7105978 0.68619225 1.5040774 1.5040774  0.44395419  0.44395419
4 1.8136159 -0.36246683  -2.9207028 0.75682959 1.5040774 1.5040774  0.61907693  0.61907693
3 1.7260541 -0.82746847  -3.5074631 0.78906686 1.5040774 1.5040774  0.44395349  0.44395349
1 1.7260539 -0.82675106  -3.4809612 0.77842594 1.5040774 1.5040774  0.44395306  0.44395306
1 1.7257254  -1.3273452  -2.9927975 0.75962831 1.5040774 1.5040774  0.44329593  0.44329593
6 1.7244004    -1.38727 -0.61351415 0.87644676 1.5040774 1.5040774  0.44064604  0.44064604
4  1.674011  -1.8248995  -1.7201385 0.69134399 1.5040774 1.5040774  0.33986722  0.33986722
 4 2.7967707 -0.84733382  -2.3584354 0.68746834 1.5040774 1.5040774   2.5853866   2.5853866
 2 1.6007435  -1.2506841  -2.3379934 0.59185227 1.5040774 1.5040774  0.19333213  0.19333213
 2 1.7260503   -0.987223  -3.4540663 0.50400879 1.5040774 1.5040774  0.44394571  0.44394571
 3 1.7260545  -0.5518202  -3.9283316 0.67666191 1.5040774 1.5040774  0.44395424  0.44395424
 4 1.7857172 -0.40526404  -3.2090498 0.49194967 1.5040774 1.5040774  0.56327964  0.56327964
 6 1.7260545 -0.76242388  -3.7287144 0.63796417 1.5040774 1.5040774  0.44395422  0.44395422
21 1.7260544 -0.66011142   -3.635019 0.59523719 1.5040774 1.5040774  0.44395393  0.44395393
 7 1.7260544 -0.66261974  -3.6545717 0.58452461 1.5040774 1.5040774  0.44395401  0.44395401
 4 1.7223666  -1.6599235  -0.4749802 0.71056729 1.5040774 1.5040774   0.4365784   0.4365784
 5 1.7260534  -1.8612813  -3.1045859 0.60704025 1.5040774 1.5040774  0.44395193  0.44395193
 2 1.7254383  -1.8942714   -1.039927 0.81733928 1.5040774 1.5040774  0.44272184  0.44272184
 3 2.0200369  -1.7335674 -0.93920761  0.5704358 1.5040774 1.5040774   1.0319189   1.0319189
 2 1.6844195  -1.7848229  -1.8599498 0.40657582 1.5040774 1.5040774  0.36068423  0.36068423
 5 1.6695923  -1.6698215  -2.2895477 0.43292726 1.5040774 1.5040774  0.33102973  0.33102973
 3 1.5120922  -1.4987367  -2.0950564 0.44984008 1.5040774 1.5040774 0.016029525 0.016029525
 5 1.7260465  -1.7864485  -3.0600077 0.77610085 1.5040774 1.5040774  0.44393819  0.44393819
 1 1.7252355  -1.6620462  -2.7347438 0.81195158 1.5040774 1.5040774  0.44231628  0.44231628
 1 1.7260114  -1.4605939  -3.0795337 0.73805158 1.5040774 1.5040774  0.44386796  0.44386796
 4 1.7258164  -1.4904488   -2.940709 0.72619308 1.5040774 1.5040774  0.44347795  0.44347795
 6 1.7260545 -0.47951602   -3.695287 0.73035782 1.5040774 1.5040774  0.44395413  0.44395413
 1 1.7260545  -1.2454339   -3.9714462 0.43292858 1.5040774 1.5040774 0.44395424 0.44395424
 2 1.7260545   -1.206158   -3.8702641 0.41123149 1.5040774 1.5040774 0.44395423 0.44395423
 4 1.6792485  -1.8990775   -1.7198532 0.48330737 1.5040774 1.5040774 0.35034229 0.35034229
 2 1.7259796   -1.821881   -0.2823807 0.74574536 1.5040774 1.5040774 0.44380445 0.44380445
 3 1.7182991  -1.7394401   -2.3528844 0.73215705 1.5040774 1.5040774 0.42844349 0.42844349
 1 1.7101434   -1.646768   -2.3030116 0.79485166 1.5040774 1.5040774 0.41213206 0.41213206
 4 1.7260338  -1.7623599 -0.058824471 0.76326272 1.5040774 1.5040774 0.44391281 0.44391281
 4 1.6616715 -0.95574784   -2.6818419 0.84174543 1.5040774 1.5040774 0.31518827 0.31518827
 2 1.6662619  -0.8690434   -2.6691056 0.73070554 1.5040774 1.5040774 0.32436907 0.32436907
10 1.7260543  -1.3763393   -3.3723988 0.64503773 1.5040774 1.5040774 0.44395385 0.44395385
 3 1.7253577 -0.79591626   -3.2081588 0.53418457 1.5040774 1.5040774 0.44256069 0.44256069
 1 1.7240725  -1.6362217   0.93204888 0.73531026 1.5040774 1.5040774  0.4399902  0.4399902
 2 1.7139365  -1.6383141   0.92183122 0.73696857 1.5040774 1.5040774 0.41971826 0.41971826
 2 1.7122461  -1.1089247   -2.7121692 0.67220929 1.5040774 1.5040774 0.41633747 0.41633747
 5 1.7104694  -1.0575734   -2.7233644 0.70248851 1.5040774 1.5040774 0.41278394 0.41278394
 4 1.6186223 -0.97748667   -2.5020982 0.64650003 1.5040774 1.5040774 0.22908988 0.22908988
 5 1.7260113 -0.68315547   -3.4066953 0.51933164 1.5040774 1.5040774 0.44386789 0.44386789
 1 1.7260227 -0.67732954   -3.4234796 0.52026139 1.5040774 1.5040774 0.44389063 0.44389063
 1  1.726042 -0.81292511   -3.3788339 0.59216984 1.5040774 1.5040774 0.44392914 0.44392914
 7 1.7260545  -1.9158758   -3.7700002 0.73125634 1.5040774 1.5040774 0.44395424 0.44395424
 4 1.7260545 -0.57698189 -3.9530333 0.76941779 1.5040774 1.5040774 0.44395424 0.44395424
 1 1.7260545 -0.88086227 -3.9169073 0.69175621 1.5040774 1.5040774 0.44395424 0.44395424
 5 1.7260545  -1.9796002 -3.4864112 0.65563281 1.5040774 1.5040774 0.44395423 0.44395423
11 1.7260545 -0.73685745 -3.7992923 0.48032526 1.5040774 1.5040774  0.4439542  0.4439542
 3 1.7260543 -0.54144626 -3.7423526 0.44510719 1.5040774 1.5040774 0.44395387 0.44395387
11 1.7260682  -0.4995631  -3.514087 0.44747405 1.5040774 1.5040774 0.44398154 0.44398154
 6 1.7261117 -0.51644586 -3.4462265 0.44959917 1.5040774 1.5040774 0.44406857 0.44406857
10 1.6954294  -1.6392678 -1.8685781  0.8630767 1.5040774 1.5040774 0.38270396 0.38270396
 5 1.6951529  -1.0933546 -2.6982259 0.79706414 1.5040774 1.5040774 0.38215096 0.38215096
 1 1.6313755  -1.0134699 -2.5650371  0.7730334 1.5040774 1.5040774 0.25459626 0.25459626
18 1.6268137   -1.588662 -2.1383655 0.54463512 1.5040774 1.5040774  0.2454726  0.2454726
 6 1.7258032  -1.5409753 -2.9448705 0.55405023 1.5040774 1.5040774  0.4434517  0.4434517
 1 1.7234276  -1.9113574 -2.3053919 0.78814036 1.5040774 1.5040774  0.4387005  0.4387005
 2 1.7233667  -1.9261636 -2.2774709 0.78537337 1.5040774 1.5040774 0.43857866 0.43857866
15 1.6531637  -1.5132603 -2.1646483 0.74975915 1.5040774 1.5040774 0.29817267 0.29817267
 2 1.6506038  -1.5167974 -2.1501847 0.74940147 1.5040774 1.5040774 0.29305282 0.29305282
 2 1.7156413  -1.8026415 -1.1471337 0.73993226 1.5040774 1.5040774 0.42312777 0.42312777
 9 1.6841505  -1.9227131 -1.8374097 0.49875777 1.5040774 1.5040774 0.36014622 0.36014622
11  1.726045  -1.7013095  -3.038181 0.60562794 1.5040774 1.5040774 0.44393516 0.44393516
 5 1.7260005  -1.7974055 -2.8382691  0.6222271 1.5040774 1.5040774 0.44384616 0.44384616
10 1.7260545  -1.9541229  -3.6335309 0.63351369 1.5040774 1.5040774  0.44395424  0.44395424
 8 1.6673727 -0.85104866  -2.7068789 0.65185403 1.5040774 1.5040774   0.3265907   0.3265907
 4 1.6849406  -1.0718545  -2.6121468 0.73455623 1.5040774 1.5040774  0.36172631  0.36172631
 1 1.6590657  -1.0347492  -2.5553226 0.72339243 1.5040774 1.5040774  0.30997652  0.30997652
 2 1.7260191  -1.7702159  0.29561158 0.70136646 1.5040774 1.5040774  0.44388347  0.44388347
 3 1.5165018  -1.6255851  -1.5396186 0.65447925 1.5040774 1.5040774 0.024848741 0.024848741
 3 1.5739084  -1.4434284  -1.5579452 0.74854752 1.5040774 1.5040774  0.13966199  0.13966199
 4 1.7238819  -1.5631127 -0.78512641 0.82964788 1.5040774 1.5040774  0.43960902  0.43960902
 6 1.7260545    -1.44105  -3.6187139 0.84790312 1.5040774 1.5040774  0.44395423  0.44395423
 1 1.7250999  -1.1723494  -2.9739728 0.76481348 1.5040774 1.5040774  0.44204508  0.44204508
 2 1.7246832  -1.1792209  -2.9434766 0.76433411 1.5040774 1.5040774  0.44121153  0.44121153
 2 1.7260379  -1.1040904  -3.3129541 0.54159026 1.5040774 1.5040774  0.44392092  0.44392092
11 1.7260438  -1.0412199   -3.349458 0.55037775 1.5040774 1.5040774  0.44393276  0.44393276
10 1.7235606   -0.968064  -3.1574684 0.42467763 1.5040774 1.5040774  0.43896646  0.43896646
 6 1.7242111 -0.99050409  -3.1600486 0.43823815 1.5040774 1.5040774  0.44026746  0.44026746
 1 1.6980591  -1.8235167  -2.1891769 0.45807591 1.5040774 1.5040774  0.38796338  0.38796338
 5 1.6321161  -1.8022375  -1.0768696 0.56387449 1.5040774 1.5040774   0.2560775   0.2560775
 6 1.5636475  -1.0242227  -2.4293412 0.86897149 1.5040774 1.5040774  0.11914029  0.11914029
 1 1.7220356  -1.4574821  -2.6981966  0.8482313 1.5040774 1.5040774  0.43591647  0.43591647
 4 1.7169355  -1.4814388  -2.5668932 0.87319051 1.5040774 1.5040774   0.4257162   0.4257162
 2 1.6111963  -1.3633538  -1.6363784  0.8590231 1.5040774 1.5040774 0.21423785 0.21423785
 4  1.584717  -0.9892103  -2.4004527 0.89391598 1.5040774 1.5040774 0.16127916 0.16127916
 3 1.7260538 -0.91054219  -3.4845075 0.83692849 1.5040774 1.5040774  0.4439529  0.4439529
 2  2.067503 -0.80810805  -2.4963017  0.8889784 1.5040774 1.5040774  1.1268511  1.1268511
 1 1.7391045  -1.7423551  0.25770067 0.56621467 1.5040774 1.5040774 0.47005423 0.47005423
29 1.7260367  -1.9795572  0.38652309 0.43873414 1.5040774 1.5040774 0.44391864 0.44391864
 1 1.7260545  -1.6158945  -3.4593075 0.59357468 1.5040774 1.5040774 0.44395421 0.44395421
 2 1.7257622  -1.6591363  -2.8338668 0.85077925 1.5040774 1.5040774 0.44336965 0.44336965
 5 1.7327696   -1.305601  -0.7678623  0.8211668 1.5040774 1.5040774 0.45738437 0.45738437
 2 1.6836225  -1.7201076  -1.9841541 0.72248641 1.5040774 1.5040774 0.35909028 0.35909028
 2 1.7187655  -1.8270551  -1.2792133 0.77045658 1.5040774 1.5040774 0.42937615 0.42937615
12 1.7192911  -1.8210567  -2.0064412 0.88329106 1.5040774 1.5040774 0.43042738 0.43042738
 1 1.7206458  -1.8107098  -2.1707127 0.89180865 1.5040774 1.5040774 0.43313671 0.43313671
 1 1.6346864  -1.6524674  0.19060799  0.6743083 1.5040774 1.5040774 0.26121795 0.26121795
14 1.7234271  -1.8683087 -0.70011528 0.48816163 1.5040774 1.5040774 0.43869939 0.43869939
 3 1.7248241  -1.7944599  -0.6302181 0.45133696 1.5040774 1.5040774 0.44149345 0.44149345
 3 1.7242052  -1.7817523 -0.67609944 0.45409217 1.5040774 1.5040774 0.44025566 0.44025566
 3 1.7215299  -1.6280446  -2.5432831 0.82652879 1.5040774 1.5040774 0.43490509 0.43490509
 1 1.7204631  -1.3312887  -2.6823089 0.70210396 1.5040774 1.5040774 0.43277143 0.43277143
11 1.7234697  -1.9136852   0.4452612  0.6349781 1.5040774 1.5040774 0.43878453 0.43878453
 1 1.7203856 -0.44222151   -2.9842049  0.7356035 1.5040774 1.5040774  0.43261637  0.43261637
 3 1.7260545 -0.69001632   -3.8695463 0.89511031 1.5040774 1.5040774  0.44395423  0.44395423
 1 1.5172463  -1.2646342   -2.0583348 0.78080329 1.5040774 1.5040774 0.026337787 0.026337787
 5 1.7260545  -1.8435922   -3.6209277 0.77795666 1.5040774 1.5040774  0.44395424  0.44395424
 2 1.7260545  -1.9750725    -3.329052 0.77938729 1.5040774 1.5040774  0.44395418  0.44395418
 5 1.7260545  -1.9474246   -3.9499556 0.78808341 1.5040774 1.5040774  0.44395424  0.44395424
 1 1.7260511  -1.7621683   -3.0665857 0.63659375 1.5040774 1.5040774  0.44394748  0.44394748
 3 1.7260545  -1.7438331   -3.5723448 0.67662933 1.5040774 1.5040774  0.44395423  0.44395423
 4 1.7178823  -1.3522014   -1.0320262 0.88607824 1.5040774 1.5040774  0.42760989  0.42760989
 1 1.7118555  -1.4878752   -2.5139032 0.74906683 1.5040774 1.5040774  0.41555621  0.41555621
 1 1.7260544  -1.2865907    -3.489797 0.85138937 1.5040774 1.5040774  0.44395406  0.44395406
 2 1.7504422  -1.1264361  -0.60447626 0.87842335 1.5040774 1.5040774  0.49272953  0.49272953
 2 2.0478812  -1.4977386  -0.04798677 0.59699564 1.5040774 1.5040774   1.0876075   1.0876075
18 1.7157406 -0.74052912   -2.9927439 0.57524434 1.5040774 1.5040774   0.4233265   0.4233265
 6  1.739739  -0.4489545   -3.3078084 0.43500891 1.5040774 1.5040774  0.47132322  0.47132322
10 1.7255826  -1.1570201 -0.056391519 0.87884906 1.5040774 1.5040774  0.44301035  0.44301035
10 1.7232961  -1.5215177   -2.7017143 0.79346095 1.5040774 1.5040774  0.43843748  0.43843748
 4 1.6083883  -1.1042152   -2.4880045 0.88384979 1.5040774 1.5040774  0.20862187  0.20862187
 4  1.712406  -1.3888473   -2.5578215 0.60817593 1.5040774 1.5040774  0.41665727  0.41665727
 2 1.6990177  -1.4166422    -2.384288 0.64202432 1.5040774 1.5040774  0.38988053  0.38988053
 4 1.7260501  -1.1700775  -3.2669534 0.70108131 1.5040774 1.5040774 0.44394532 0.44394532
 4 1.7252929 -0.56169981  -3.1699946 0.72304746 1.5040774 1.5040774 0.44243096 0.44243096
 3 1.7260545 -0.86278234  -3.8195619  0.4771925 1.5040774 1.5040774 0.44395422 0.44395422
 2 1.7259138  -1.7799007  -2.9153796 0.51217768 1.5040774 1.5040774 0.44367275 0.44367275
 3 1.6921915  -1.7364158  -2.0222415 0.67125684 1.5040774 1.5040774 0.37622815 0.37622815
 2 1.6998219  -1.7453135  -2.0648211 0.66911014 1.5040774 1.5040774 0.39148898 0.39148898
15 1.7260541  -1.3717888  -3.5057447 0.43186602 1.5040774 1.5040774 0.44395341 0.44395341
 5  1.726054  -1.1698493  -3.4612461 0.55433086 1.5040774 1.5040774 0.44395321 0.44395321
 6 1.7258758  -1.3024754  -2.9995982 0.70428888 1.5040774 1.5040774 0.44359685 0.44359685
 1  1.725126   -1.169798   -2.929379 0.71457802 1.5040774 1.5040774 0.44209715 0.44209715
 3 1.7237368  -1.1830292  -2.8486643 0.71414066 1.5040774 1.5040774 0.43931875 0.43931875
 1 1.7233261   -1.059155  -2.9467995  0.8093949 1.5040774 1.5040774 0.43849745 0.43849745
 1 1.7255187 -0.99166677  -3.0844021 0.80060151 1.5040774 1.5040774 0.44288258 0.44288258
 2 1.7251868   -1.005749  -3.0446317 0.79079273 1.5040774 1.5040774 0.44221882 0.44221882
 6 1.7247613  -1.9289043  -2.3493713 0.89694453 1.5040774 1.5040774 0.44136788 0.44136788
 1 1.7143499  -1.7079068  -2.2664782  0.8104929 1.5040774 1.5040774   0.420545   0.420545
 2 1.7173833  -1.8010269  -1.9643985 0.87225434 1.5040774 1.5040774 0.42661175 0.42661175
 2 1.7260394  -1.5049413 0.041394911 0.86604107 1.5040774 1.5040774 0.44392403 0.44392403
 4 1.7260359  -1.4943476 0.028574581  0.8644281 1.5040774 1.5040774 0.44391702 0.44391702
 3 1.6714467  -1.1444542  -2.1465346 0.78518858 1.5040774 1.5040774 0.33473862 0.33473862
 9  1.717037  -1.6285469 -1.0338584  0.4022879 1.5040774 1.5040774 0.42591919 0.42591919
 4 1.7183551  -1.6489265  -1.027556 0.40008782 1.5040774 1.5040774 0.42855531 0.42855531
 3 1.7129969 -0.94707193 -3.0053603 0.46190569 1.5040774 1.5040774 0.41783891 0.41783891
 4 1.7135825 -0.99502507 -3.0078374 0.44518418 1.5040774 1.5040774 0.41901011 0.41901011
 7 1.7260381 -0.77149784 -3.4027003 0.56137375 1.5040774 1.5040774 0.44392144 0.44392144
 2 1.7260885 -0.49640405 -3.4325276 0.48174237 1.5040774 1.5040774 0.44402211 0.44402211
 2 1.7260543  -1.8998324 -3.3612531 0.41403167 1.5040774 1.5040774 0.44395376 0.44395376
 1 1.7260542  -1.9240294 -3.3276124 0.42342535 1.5040774 1.5040774 0.44395357 0.44395357
 2 1.7172928   -1.051955 -2.7891795 0.68212725 1.5040774 1.5040774 0.42643088 0.42643088
 7 1.7234114  -1.0533898 -2.8968506 0.67419819 1.5040774 1.5040774 0.43866799 0.43866799
 1 1.7257652   -1.641883 0.30629116 0.52766569 1.5040774 1.5040774  0.4433756  0.4433756
 4 1.7259495  -1.8741902  0.1378122 0.51971217 1.5040774 1.5040774 0.44374428 0.44374428
 2 1.7260459 -0.97040973 -3.2966184 0.67184069 1.5040774 1.5040774 0.44393705 0.44393705
 1 1.7260537 -0.86880334 -3.4896028 0.60429472 1.5040774 1.5040774 0.44395266 0.44395266
 5 1.7260545 -0.96354553 -3.8271742 0.59060328 1.5040774 1.5040774 0.44395423 0.44395423
12 1.7260545  -1.0409315 -3.7220471  0.5810731 1.5040774 1.5040774 0.44395423 0.44395423
 4 1.7246676  -1.6648688 -2.5824777 0.64694158 1.5040774 1.5040774  0.4411804  0.4411804
 8 1.7245291  -0.5225356 -3.1373122 0.83489406 1.5040774 1.5040774 0.44090343 0.44090343
 1 1.7260534  -1.2946201 -3.3557952   0.799351 1.5040774 1.5040774 0.44395199 0.44395199
 1 1.7259961  -1.0313065 -3.2164064 0.84306083 1.5040774 1.5040774 0.44383748 0.44383748
 4 1.7260545 -0.97975666    -3.63969 0.85978196 1.5040774 1.5040774  0.4439542  0.4439542
 1 1.7260536    -1.00812  -3.4438075 0.81035378 1.5040774 1.5040774 0.44395244 0.44395244
 9 1.7260505  -1.0577521  -3.3574043 0.83240779 1.5040774 1.5040774 0.44394627 0.44394627
 4 1.7260545  -1.1042983  -3.7110892 0.73059762 1.5040774 1.5040774 0.44395423 0.44395423
 6 1.7260545  -1.1877062  -3.8379834 0.75041779 1.5040774 1.5040774 0.44395424 0.44395424
 2  1.644852  -1.4993509  -2.0423615 0.82962422 1.5040774 1.5040774 0.28154914 0.28154914
 1 1.7216135  -1.8366839  -2.2904766 0.80582148 1.5040774 1.5040774 0.43507226 0.43507226
 2  1.718317  -1.8162791  -2.2616687 0.68937978 1.5040774 1.5040774 0.42847927 0.42847927
 2 1.7192595  -1.6520196  -2.4718755 0.73313349 1.5040774 1.5040774 0.43036416 0.43036416
 2 1.9324979 -0.92908595 0.049494644 0.47934585 1.5040774 1.5040774 0.85684096 0.85684096
 5 1.7607388 -0.97704651 0.095105643  0.4629191 1.5040774 1.5040774 0.51332285 0.51332285
10  1.709832  -1.5843852  -1.1669177 0.40240948 1.5040774 1.5040774 0.41150913 0.41150913
 4 1.7577256  -1.4791603  -1.4844097  0.4158903 1.5040774 1.5040774 0.50729631 0.50729631
 2 1.6861012  -1.7935498   -1.996486 0.40479202 1.5040774 1.5040774 0.36404765 0.36404765
 7 1.7229782  -1.8749072  -2.2588144 0.61921836 1.5040774 1.5040774 0.43780164 0.43780164
 1 1.7200961   -1.877591  -2.1990613 0.58978516 1.5040774 1.5040774 0.43203736 0.43203736
 1 1.7243074  -1.9872792   -2.280919 0.58618823 1.5040774 1.5040774 0.44046005 0.44046005
12 1.7234863  -1.9862854  -2.2576859 0.67755489 1.5040774 1.5040774 0.43881773 0.43881773
 5 1.7260147  -1.8911214 -0.61104188 0.83905274 1.5040774 1.5040774 0.44387467 0.44387467
 5 1.7258061  -1.9283176 -0.98725393 0.83813014 1.5040774 1.5040774 0.44345737 0.44345737
 5 1.6791649 -1.9518117  -1.7339649  0.5908382 1.5040774 1.5040774  0.3501751  0.3501751
 5 1.6500926 -1.3573579  -2.1544917   0.467928 1.5040774 1.5040774 0.29203034 0.29203034
15  1.615627 -1.4097351  -2.0455042 0.46320896 1.5040774 1.5040774 0.22309912 0.22309912
 4 1.5932303 -1.4831947  -2.2131533 0.53297815 1.5040774 1.5040774 0.17830588 0.17830588
 1 1.7259929 -1.9253156 -0.62721433 0.80281931 1.5040774 1.5040774 0.44383094 0.44383094
 3  1.725801 -1.9748549  -0.9756756 0.80830837 1.5040774 1.5040774 0.44344719 0.44344719
 1 1.7754968 -1.8433716  0.50102743 0.48265563 1.5040774 1.5040774 0.54283889 0.54283889
 3 1.7260007 -1.8251391  0.23284642 0.50451362 1.5040774 1.5040774 0.44384651 0.44384651
 1 1.7216528 -1.3650313 0.070608951   0.727339 1.5040774 1.5040774 0.43515073 0.43515073
11 1.7099831 -1.2816016  -2.6514833 0.74958896 1.5040774 1.5040774 0.41181131 0.41181131
 1 1.7162734 -1.6331851  -2.4308149 0.75084993 1.5040774 1.5040774 0.42439192 0.42439192
 1 1.7260419 -1.8784298  0.76300697 0.75047927 1.5040774 1.5040774 0.44392895 0.44392895
14 1.7260204 -1.9344057  0.59037971 0.47894611 1.5040774 1.5040774 0.44388603 0.44388603
 1 1.7259971 -1.8471852 -0.25027724 0.41597577 1.5040774 1.5040774 0.44383946 0.44383946
 3 1.7259517 -1.8225897 -0.30554318 0.42373691 1.5040774 1.5040774 0.44374862 0.44374862
 2 1.7259912  -1.833233 -0.23301219 0.42122592 1.5040774 1.5040774 0.44382765 0.44382765
 2 1.7259979 -1.9541557 -0.35616514 0.43129415 1.5040774 1.5040774 0.44384105 0.44384105
 5 1.7257023  -1.848525 -0.54293546 0.43353365 1.5040774 1.5040774 0.44324988 0.44324988
 2 1.7208837 -1.8395569 -0.42513273 0.55972569 1.5040774 1.5040774 0.43361262 0.43361262
 2 1.6683673 -1.2269813  -2.4873831  0.6143579 1.5040774 1.5040774 0.32857982 0.32857982
 5 1.7260534  -1.3346493  -3.3002403 0.62909574 1.5040774 1.5040774 0.44395201 0.44395201
 3 1.7015317  -1.2716019  -2.5190128 0.68465469 1.5040774 1.5040774 0.39490859 0.39490859
 2 1.6598621 -0.95436727  -2.6744324 0.82097372 1.5040774 1.5040774 0.31156942 0.31156942
 6 1.7247896 -0.81433029  -3.0923985 0.88327015 1.5040774 1.5040774 0.44142435 0.44142435
 6 1.6293407 -0.93298056  -2.5564385 0.68651628 1.5040774 1.5040774 0.25052661 0.25052661
 3 1.8966761  -1.5989115 0.040578012 0.61800883 1.5040774 1.5040774 0.78519738 0.78519738
 4 1.8825144   -1.597745 0.044025023 0.61823154 1.5040774 1.5040774 0.75687405 0.75687405
 2 1.6896504   -1.618751  -1.4779641 0.80780978 1.5040774 1.5040774 0.37114591 0.37114591
 2 1.7258503   -1.954244  -2.6275061 0.58648682 1.5040774 1.5040774 0.44354571 0.44354571
 5 1.7259791  -1.9922067  -2.7324561 0.57645785 1.5040774 1.5040774 0.44380349 0.44380349
 3 1.7017465  -1.7717012 -0.89872648 0.63845712 1.5040774 1.5040774 0.39533826 0.39533826
 5 1.6841046  -1.6897563  -1.2071905 0.72716954 1.5040774 1.5040774 0.36005443 0.36005443
 2  1.717711  -1.7635221  -1.2186238   0.778773 1.5040774 1.5040774 0.42726727 0.42726727
10 1.6968952  -1.6748511  -1.2567465 0.75626282 1.5040774 1.5040774 0.38563562 0.38563562
 3 1.7217263  -1.5452782  -2.6105842 0.69988915 1.5040774 1.5040774 0.43529784 0.43529784
 7 1.7101404  -1.5531952  -2.3912107 0.69227364 1.5040774 1.5040774 0.41212609 0.41212609
 6 1.7260543 -0.86643095  -3.6840117 0.45211939 1.5040774 1.5040774  0.4439539  0.4439539
21 1.7260545 -0.47870473  -3.8363044 0.78291848 1.5040774 1.5040774 0.44395423 0.44395423
 8 1.7260545  -0.5166163  -3.8713044 0.68350607 1.5040774 1.5040774 0.44395423 0.44395423
 2 1.7260536 -0.48389647   -3.556406 0.71429006 1.5040774 1.5040774 0.44395239 0.44395239
3 1.7259645 -0.59152523   -3.280046  0.7547931 1.5040774 1.5040774 0.44377422 0.44377422
2 1.7260545 -0.68203155  -3.7028826 0.76855064 1.5040774 1.5040774 0.44395421 0.44395421
4 1.7248881  -1.1870658  -3.0021997 0.55516881 1.5040774 1.5040774 0.44162151 0.44162151
7  1.650637  -1.5326071  -2.0656432 0.64212095 1.5040774 1.5040774  0.2931193  0.2931193
8 1.7260449 -0.95392458  -3.4069951 0.52283342 1.5040774 1.5040774 0.44393495 0.44393495
3 1.7251252  -1.3176976  -2.9210161 0.84022703 1.5040774 1.5040774 0.44209557 0.44209557
2 1.7260545  -1.1878386  -3.8276257 0.80747572 1.5040774 1.5040774 0.44395424 0.44395424
4 1.7260544  -1.2914394  -3.4413652 0.67057055 1.5040774 1.5040774 0.44395409 0.44395409
1 1.5799997  -1.5254967  -1.5954112 0.75621041 1.5040774 1.5040774 0.15184464 0.15184464
7 1.6994921  -1.7463612  -1.7421331 0.79028407 1.5040774 1.5040774 0.39082942 0.39082942
2 1.6845822  -1.7134569  -1.6662175 0.76938398 1.5040774 1.5040774 0.36100968 0.36100968
1 1.7125306  -1.8007298  -2.0976518 0.76578715 1.5040774 1.5040774 0.41690646 0.41690646
2 1.7201659  -1.8293942  -1.9418318 0.89909512 1.5040774 1.5040774 0.43217707 0.43217707
1 1.7260544  -1.9913425  0.68287697 0.83500324 1.5040774 1.5040774 0.44395395 0.44395395
6 3.2620047  -1.5781732 -0.17191079 0.65650521 1.5040774 1.5040774  3.5158547  3.5158547
2 1.7259365 -0.66689142  -3.2417374 0.72611029 1.5040774 1.5040774 0.44371819 0.44371819
6 1.7260402 -0.72320237  -3.3380837 0.73399404 1.5040774 1.5040774 0.44392552 0.44392552
8 1.7017613  -1.7939649  -2.2997795 0.41603492 1.5040774 1.5040774 0.39536785 0.39536785
2 1.7239178  -1.7163271  -2.8013282 0.40899154 1.5040774 1.5040774 0.43968088 0.43968088
6 1.6419541  -1.0751895  -2.6748691  0.5010171 1.5040774 1.5040774 0.27575334 0.27575334
 1 1.6413242  -1.2755834    -2.40093 0.59660284 1.5040774 1.5040774  0.27449356  0.27449356
 2 1.7279167  -0.3732096  -3.3571114 0.51513023 1.5040774 1.5040774  0.44767856  0.44767856
21 1.7260665 -0.37014507  -3.5669265 0.50976689 1.5040774 1.5040774  0.44397829  0.44397829
 7 1.7260545  -1.6375898  -3.8765463 0.45452382 1.5040774 1.5040774  0.44395424  0.44395424
 3 2.2659566   -1.155393  -1.8289011 0.84143915 1.5040774 1.5040774   1.5237584   1.5237584
 6 1.6204751   -1.458832  -2.4079378 0.46562229 1.5040774 1.5040774  0.23279537  0.23279537
11  1.553881  -1.4566591  -2.2654677 0.47173522 1.5040774 1.5040774 0.099607236 0.099607236
 7 1.6450636  -1.9209555  -1.5204868 0.52238265 1.5040774 1.5040774   0.2819724   0.2819724
 1 1.7243691  -1.3398581  -2.8958275 0.55527176 1.5040774 1.5040774  0.44058345  0.44058345
 2 1.7260524  -1.4093836  -3.3003635 0.56162116 1.5040774 1.5040774  0.44395004  0.44395004
 4 1.7260426  -1.3767327  -3.3183186 0.44325789 1.5040774 1.5040774   0.4439305   0.4439305
 3 1.7028274  -1.8979174  0.23027979 0.65366217 1.5040774 1.5040774  0.39749994  0.39749994
13 1.7260175  -1.9591323  0.46195644 0.66045144 1.5040774 1.5040774  0.44388027  0.44388027
 3 1.7153648  -1.6465139  -1.2347116 0.82279302 1.5040774 1.5040774  0.42257471  0.42257471
 1 1.7197338   -1.497932 -0.93103147 0.83516818 1.5040774 1.5040774  0.43131278  0.43131278
 2 1.7160248  -1.0490257  -2.7761741  0.7193266 1.5040774 1.5040774  0.42389471  0.42389471
 2 1.6823406 -0.94739617  -2.6700618 0.73243085 1.5040774 1.5040774  0.35652638  0.35652638
 7 1.7245692 -0.99050789  -2.9709889  0.7409763 1.5040774 1.5040774  0.44098354  0.44098354
 3 1.6320087  -1.8632593  -1.0506391 0.54843739 1.5040774 1.5040774  0.25586265  0.25586265
 7 1.5571929  -1.8718663  -1.1727657 0.56017258 1.5040774 1.5040774    0.106231    0.106231
 2 2.4630315  -1.6888657  -1.084227 0.63797821 1.5040774 1.5040774   1.9179082   1.9179082
 1 1.7198154  -1.7413354  -2.391219 0.71560995 1.5040774 1.5040774  0.43147607  0.43147607
 4 1.7260513  -1.0829925 -3.3627062 0.88315639 1.5040774 1.5040774   0.4439478   0.4439478
 6 1.7260545 -0.93839503  -3.684832 0.84304948 1.5040774 1.5040774  0.44395422  0.44395422
 5 1.7257264  -1.2549854 -3.0269471 0.79969978 1.5040774 1.5040774  0.44329806  0.44329806
 5 1.7260545   -1.585774 -3.5106144 0.74478257 1.5040774 1.5040774  0.44395422  0.44395422
 4 1.5103736  -1.2111579 -2.0345092 0.87817011 1.5040774 1.5040774 0.012592406 0.012592406
 8 1.6219672  -1.2226058 -2.4164701 0.82446943 1.5040774 1.5040774  0.23577953  0.23577953
 1 1.5330856  -1.2676725 -1.9180201 0.89189495 1.5040774 1.5040774 0.058016464 0.058016464
10  1.609643  -1.3666544 -1.7594371 0.89957311 1.5040774 1.5040774  0.21113125  0.21113125
14 1.6734282  -1.4668091 -1.6172412 0.89994019 1.5040774 1.5040774  0.33870168  0.33870168
 2 1.7253324  -1.2888805 -2.8852773 0.67188322 1.5040774 1.5040774  0.44251007  0.44251007
 5  1.631666  -1.2367911 -2.3393023 0.64829877 1.5040774 1.5040774  0.25517721  0.25517721
 3 1.5897635  -1.3252862 -2.3990186 0.51811713 1.5040774 1.5040774  0.17137224  0.17137224
10 1.5961525  -1.3698376 -2.1583032 0.53222221 1.5040774 1.5040774  0.18415022  0.18415022
 4 1.7099907  -1.2885748   -2.82443 0.46571014 1.5040774 1.5040774  0.41182668  0.41182668
 1 1.6989371 -0.65352452 -2.8646373  0.8303824 1.5040774 1.5040774   0.3897194   0.3897194
 4  1.723207 -0.91605085 -3.0027875 0.88364555 1.5040774 1.5040774  0.43825911  0.43825911
 3  1.725522 -0.95870473 -3.1410644 0.56521282 1.5040774 1.5040774  0.44288915  0.44288915
 4 1.7260541 -0.47464514 -3.6057594 0.66083724 1.5040774 1.5040774  0.44395337  0.44395337
 8 1.6918138 -0.91120171   -2.759277 0.64056233 1.5040774 1.5040774 0.37547282 0.37547282
 5 1.7187824  -1.5797921  -2.5160978 0.70114662 1.5040774 1.5040774 0.42941008 0.42941008
 7 1.7178441  -1.4614589  0.91838133   0.708276 1.5040774 1.5040774  0.4275334  0.4275334
 7 1.7249946  -1.3911966  0.50759576  0.7183183 1.5040774 1.5040774 0.44183433 0.44183433
 5 1.7262678 -0.95711935  0.65103986 0.87088766 1.5040774 1.5040774 0.44438077 0.44438077
 2  2.645959  -1.1572263 -0.95900012  0.8206564 1.5040774 1.5040774  2.2837632  2.2837632
 1 1.7265967  -1.2664732 -0.70029761 0.85709939 1.5040774 1.5040774 0.44503868 0.44503868
 6 1.7766588  -1.2508168  -1.1009455 0.87215379 1.5040774 1.5040774 0.54516281 0.54516281
 5 1.7225156  -1.4349871 -0.68863754 0.81957096 1.5040774 1.5040774 0.43687639 0.43687639
 1 1.7241811  -1.4607778 -0.49762496 0.79536846 1.5040774 1.5040774 0.44020736 0.44020736
 3  1.693462  -1.0759316  -2.6906768 0.61298882 1.5040774 1.5040774 0.37876922 0.37876922
 1 1.5678411  -1.3573852  -2.0097987 0.86308339 1.5040774 1.5040774 0.12752732 0.12752732
 6 1.7248725  -1.8103058  -2.5365017 0.89087837 1.5040774 1.5040774 0.44159014 0.44159014
17 1.7260545 -0.37408331  -3.7376127  0.7044262 1.5040774 1.5040774 0.44395413 0.44395413
 1 1.7260243 -0.45828929  -3.4092699 0.60487064 1.5040774 1.5040774 0.44389382 0.44389382
 2 3.2419007  -0.8648833  -2.6179507 0.51623736 1.5040774 1.5040774  3.4756466  3.4756466
 9 1.7260545 -0.84698168  -3.7891856 0.45086932 1.5040774 1.5040774  0.4439542  0.4439542
 7 1.9337433 -0.87814644  -2.3942068 0.78720272 1.5040774 1.5040774 0.85933186 0.85933186
 1  1.634136  -1.6093987  -1.9987403 0.60113202 1.5040774 1.5040774 0.26011721 0.26011721
48 1.7230037  -1.5904345  0.78662159 0.50520376 1.5040774 1.5040774  0.4378526  0.4378526
13  1.753397  -1.5813116   0.70211078 0.49729429 1.5040774 1.5040774  0.49863912  0.49863912
 2 1.7259435  -1.6905063 -0.083715918 0.45270684 1.5040774 1.5040774  0.44373212  0.44373212
 5 1.7260334   -1.744656   0.28911554  0.4432891 1.5040774 1.5040774   0.4439121   0.4439121
 6 1.7260245   -1.895337   0.74203205 0.72774735 1.5040774 1.5040774  0.44389414  0.44389414
 1 1.7260519  -1.8804291   0.11196768 0.76111878 1.5040774 1.5040774  0.44394905  0.44394905
 4   1.72421  -1.4169417  -0.37569585 0.77604462 1.5040774 1.5040774  0.44026516  0.44026516
 1 2.2538391  -1.4964418   -1.7065651 0.61897071 1.5040774 1.5040774   1.4995234   1.4995234
 2 1.7255345   -1.617725 -0.045434564 0.47906499 1.5040774 1.5040774  0.44291414  0.44291414
 1 1.8293767  -1.1826861  0.024056452  0.5366345 1.5040774 1.5040774  0.65059858  0.65059858
11 3.3278312 -0.77068467   -2.8335864 0.42928393 1.5040774 1.5040774   3.6475076   3.6475076
 4 1.7261898 -0.74794283   -3.1054684 0.43503103 1.5040774 1.5040774  0.44422475  0.44422475
 3 1.7255863 -0.88463318   -3.2262136 0.50815848 1.5040774 1.5040774  0.44301782  0.44301782
 1 1.7216851 -0.58218301   -3.0527087 0.69041471 1.5040774 1.5040774  0.43521534  0.43521534
 1 1.7260543 -0.65793212   -3.5762286 0.72207068 1.5040774 1.5040774  0.44395388  0.44395388
 1 1.7260545 -0.55800871   -3.8677099 0.71042807 1.5040774 1.5040774  0.44395423  0.44395423
 1 1.7260538  -1.0638672   -3.5044941 0.52132512 1.5040774 1.5040774  0.44395276  0.44395276
 5 1.7256837  -1.8337032  -0.39925291 0.71447969 1.5040774 1.5040774  0.44321258  0.44321258
 1 1.7083332  -1.9607623   -1.8769924 0.60336592 1.5040774 1.5040774  0.40851168  0.40851168
 5 1.7254344  -1.8707937   -2.6125033 0.72550366 1.5040774 1.5040774    0.442714    0.442714
 4  1.509281  -1.4406911   -1.8370533 0.70792143 1.5040774 1.5040774 0.010407247 0.010407247
4 1.7205277  -1.9065359  -1.0349965 0.71387822 1.5040774 1.5040774 0.43290063 0.43290063
7 1.7260543  -1.7657172   0.5510474  0.8561123 1.5040774 1.5040774 0.44395385 0.44395385
7 1.7260459  -1.7465169  0.22131612 0.74899397 1.5040774 1.5040774 0.44393704 0.44393704
3 1.7260472  -1.6063978  0.49301571 0.76319853 1.5040774 1.5040774 0.44393962 0.44393962
2 1.7268633  -1.6199707  0.51391802 0.76086138 1.5040774 1.5040774 0.44557186 0.44557186
1 1.7704131  -1.5905142  0.52330017 0.77469022 1.5040774 1.5040774 0.53267137 0.53267137
1 1.7260523  -1.6664935  0.33065218 0.80180887 1.5040774 1.5040774 0.44394976 0.44394976
1 1.8037047  -1.3694384 -0.96914979 0.76693785 1.5040774 1.5040774 0.59925463 0.59925463
4 1.7190284  -1.1269996  -2.9203221 0.52880506 1.5040774 1.5040774 0.42990206 0.42990206
4 1.7260545  -1.2857338  -3.7743989 0.52162283 1.5040774 1.5040774 0.44395423 0.44395423
1  1.728059  -1.7460042  0.24069314 0.61783512 1.5040774 1.5040774 0.44796329 0.44796329
3 1.9821201  -1.4456991 -0.68640419 0.69935617 1.5040774 1.5040774 0.95608539 0.95608539
3 3.2638155  -1.4835626  0.50270753 0.47869605 1.5040774 1.5040774  3.5194761  3.5194761
7 1.7121304   -0.651675  -2.9424467 0.64149647 1.5040774 1.5040774 0.41610608 0.41610608
2 1.7160315  -0.6180644  -2.9782811 0.64162187 1.5040774 1.5040774 0.42390824 0.42390824
1 1.7260545  -1.3209844  -3.8421402 0.77140145 1.5040774 1.5040774 0.44395424 0.44395424
2 1.7260544  -1.3672141  -3.4420623 0.79968897 1.5040774 1.5040774 0.44395395 0.44395395
5  1.726051  -1.3265449  -3.2839131 0.84096913 1.5040774 1.5040774 0.44394722 0.44394722
1 1.7258307  -1.2688066   -3.042896 0.76120149 1.5040774 1.5040774 0.44350657 0.44350657
1 1.7260545 -0.92384962  -3.7416686 0.66423748 1.5040774 1.5040774 0.44395423 0.44395423
 3 1.7166813   -1.485597   -2.7707906 0.44767121 1.5040774 1.5040774  0.42520776  0.42520776
 7 1.6376314  -1.3824611    -2.593643 0.40507957 1.5040774 1.5040774   0.2671081   0.2671081
 3 1.7244578  -1.1824634   -2.9303702 0.59731778 1.5040774 1.5040774  0.44076079  0.44076079
 1    1.7341   -1.648336  -0.86438695 0.51179213 1.5040774 1.5040774  0.46004515  0.46004515
 5 1.8090162  -1.5660851   -1.0143249 0.49551162 1.5040774 1.5040774  0.60987765  0.60987765
 2 1.7258213  -1.8120452    0.1652741 0.53167161 1.5040774 1.5040774  0.44348787  0.44348787
11 1.7247169  -1.9315351   -0.1705488 0.55365641 1.5040774 1.5040774  0.44127898  0.44127898
 3 1.7234364  -1.9120156 -0.068175841 0.58195822 1.5040774 1.5040774  0.43871794  0.43871794
 1 1.7643404   -1.774932  -0.41072602 0.63885255 1.5040774 1.5040774  0.52052592  0.52052592
 4 1.7260544  -1.3143804   -3.6145392 0.40582016 1.5040774 1.5040774  0.44395405  0.44395405
 2 1.7260545  -1.1317523   -3.6117736 0.67148799 1.5040774 1.5040774  0.44395422  0.44395422
 3 1.6540097   -1.626861   -1.1531055 0.71331066 1.5040774 1.5040774  0.29986464  0.29986464
 6 1.7139929  -1.9866993     -1.75186 0.70749041 1.5040774 1.5040774  0.41983098  0.41983098
 5  1.514991  -1.5075824   -1.5980275 0.68528359 1.5040774 1.5040774 0.021827247 0.021827247
14 1.7354818 -0.88990724   -2.4683241 0.66531603 1.5040774 1.5040774  0.46280884  0.46280884
 2 1.7260545  -1.4227902   -3.7255735 0.46509353 1.5040774 1.5040774  0.44395423  0.44395423
 1 1.7258338  -1.6411409   -2.8176596 0.61026857 1.5040774 1.5040774  0.44351281  0.44351281
 8 1.7253355  -1.8018162   -2.6157201 0.58187397 1.5040774 1.5040774  0.44251613  0.44251613
 9 1.7258461  -1.8854659   -2.6894907 0.58308544 1.5040774 1.5040774   0.4435374   0.4435374
 4 1.7257978  -1.8364539    -2.702437 0.58446842 1.5040774 1.5040774  0.44344086  0.44344086
 3 1.6711126  -1.6074794   -2.0322093 0.66538686 1.5040774 1.5040774 0.33407047 0.33407047
 6  1.719083  -1.8165093  -0.92217137 0.71598267 1.5040774 1.5040774 0.43001121 0.43001121
 4 1.7177795  -1.8016204   -1.0208513 0.72913013 1.5040774 1.5040774 0.42740415 0.42740415
17 1.7164315  -1.8072359    -1.040646 0.72507672 1.5040774 1.5040774 0.42470815 0.42470815
10 1.7244904  -1.8811259  -0.61218133 0.69880362 1.5040774 1.5040774 0.44082602 0.44082602
 1   2.02832 -0.39284956    -2.807677 0.83830248 1.5040774 1.5040774  1.0484853  1.0484853
 5 1.7259744 -0.31013825   -3.3656449 0.70846462 1.5040774 1.5040774 0.44379405 0.44379405
11 1.7259042 -0.32274583   -3.3206316 0.70723545 1.5040774 1.5040774 0.44365371 0.44365371
 4 1.7244434  -1.0825485   -2.9814324 0.84400584 1.5040774 1.5040774 0.44073192 0.44073192
 3 1.6879869  -1.2629029   -2.5441541 0.74344747 1.5040774 1.5040774 0.36781896 0.36781896
 3 1.7260545  -1.4479969   -3.4865717 0.82845102 1.5040774 1.5040774 0.44395416 0.44395416
 2  1.554683   -1.260232   -2.1922616  0.8829468 1.5040774 1.5040774 0.10121122 0.10121122
 1 1.7244049 -0.78893238    -3.034273 0.74505944 1.5040774 1.5040774 0.44065492 0.44065492
 7 1.6685586 -0.89288273   -2.4468998 0.78078916 1.5040774 1.5040774 0.32896232 0.32896232
12 1.9301134 -0.89557778   -2.3646904 0.77910025 1.5040774 1.5040774 0.85207197 0.85207197
 3 1.7259975  -1.5958556 -0.066428861 0.79167488 1.5040774 1.5040774 0.44384013 0.44384013
 1 1.7260326  -1.5852937 -0.077158909 0.84280337 1.5040774 1.5040774 0.44391031 0.44391031
 1 1.7260495  -1.6114796   0.13690096 0.84473768 1.5040774 1.5040774 0.44394421 0.44394421
 2 1.7260845  -1.8996331   0.84639659  0.8510822 1.5040774 1.5040774 0.44401418 0.44401418
 9 1.7260544  -1.9273777   0.65102284 0.86408603 1.5040774 1.5040774  0.4439541  0.4439541
 6 1.7260544  -1.8426172   0.37352173 0.88445094 1.5040774 1.5040774  0.44395407  0.44395407
 8 1.7260533  -1.8081673 -0.052688164 0.88836491 1.5040774 1.5040774  0.44395191  0.44395191
 4 1.5690346  -1.3341457   -1.9123615 0.73100323 1.5040774 1.5040774  0.12991436  0.12991436
18 1.5227279   -1.574206   -1.6172898 0.70540425 1.5040774 1.5040774 0.037301019 0.037301019
 2 1.7203601 -0.71175705   -3.0631271  0.5440547 1.5040774 1.5040774  0.43256545  0.43256545
17 1.7253995 -0.65886282   -3.2194521 0.57312999 1.5040774 1.5040774  0.44264416  0.44264416
 2 1.5968176  -1.2312196   -2.2623994 0.60104123 1.5040774 1.5040774  0.18548051  0.18548051
 1 1.7260442  -1.1189268   -3.2892251 0.83964457 1.5040774 1.5040774  0.44393369  0.44393369
 2 1.7260101  -1.1678249   -3.1895686 0.84292686 1.5040774 1.5040774  0.44386533  0.44386533
 7  1.544858  -1.0613574   -2.3823738 0.88643207 1.5040774 1.5040774 0.081561188 0.081561188
17 1.6240576  -1.2419404   -1.7562644 0.87752476 1.5040774 1.5040774   0.2399605   0.2399605
 7 1.5364449  -1.8615945   -1.2096903 0.63501638 1.5040774 1.5040774  0.06473497  0.06473497
 1 1.6817019  -1.6944365   -2.0617627 0.59288295 1.5040774 1.5040774  0.35524892  0.35524892
 1 1.5989206  -1.4754046   -2.0170188 0.63229758 1.5040774 1.5040774  0.18968638  0.18968638
 1 1.7258073  -1.5385498   -2.9211305 0.79583605 1.5040774 1.5040774  0.44345979  0.44345979
 3 1.7258131  -1.5383813   -2.9231135 0.79640271 1.5040774 1.5040774  0.44347132  0.44347132
 2 1.7073166  -1.4175492   -2.5221561 0.85959001 1.5040774 1.5040774  0.40647831  0.40647831
 4 1.6156858   -1.516459   -1.6423265 0.79267934 1.5040774 1.5040774  0.22321685  0.22321685
 3 1.7004859  -1.3552772   -2.5325595 0.73740666 1.5040774 1.5040774  0.39281707  0.39281707
 1 1.7185758  -1.3110132   -2.7260093 0.76162241 1.5040774 1.5040774   0.4289969   0.4289969
 4 1.7251171 -0.63609454 -3.1418182 0.68557132 1.5040774 1.5040774  0.44207935  0.44207935
 8 1.7260255 -0.68681798 -3.3142714 0.71420491 1.5040774 1.5040774  0.44389616  0.44389616
 1 1.7205909 -0.65553836  -3.028567 0.65165427 1.5040774 1.5040774  0.43302705  0.43302705
16 1.6936952 -0.70085851 -2.7739685 0.66262201 1.5040774 1.5040774  0.37923561  0.37923561
 3 1.5296282  -1.5474139 -2.0233279    0.44445 1.5040774 1.5040774 0.051101527 0.051101527
 6 1.5852285   -1.843795 -1.5122489 0.62528814 1.5040774 1.5040774  0.16230225  0.16230225
 6  1.555849  -1.1009157  -2.391316 0.89568342 1.5040774 1.5040774  0.10354322  0.10354322
 2 1.6844835  -1.3757902 -2.4444937 0.79415731 1.5040774 1.5040774  0.36081212  0.36081212
 1 1.7254544   -1.200928 -2.9955753 0.75760873 1.5040774 1.5040774   0.4427541   0.4427541
 3 1.7260545  -1.2839758 -3.5860421 0.70073543 1.5040774 1.5040774  0.44395423  0.44395423
 1  1.726048  -1.5594096 0.23828459 0.82841709 1.5040774 1.5040774  0.44394123  0.44394123
 2 1.7260545  -1.9871309 0.39394553 0.87021956 1.5040774 1.5040774  0.44395418  0.44395418
 3 1.7260081  -1.8723797 0.70746018 0.75716975 1.5040774 1.5040774  0.44386136  0.44386136
20 1.7260541  -1.6248977 0.37625829 0.88670491 1.5040774 1.5040774  0.44395334  0.44395334
 2 1.6203358 -0.99798416  -2.402547 0.80209876 1.5040774 1.5040774  0.23251684  0.23251684
 3 1.6240974 -0.95573463 -2.5329088 0.73460127 1.5040774 1.5040774  0.24003999  0.24003999
 7 1.7260545  -1.4283295 -3.9754939 0.68617529 1.5040774 1.5040774  0.44395424  0.44395424
 2 1.5816344  -1.4213985  -1.595085 0.74877804 1.5040774 1.5040774  0.15511403  0.15511403
 6  1.672047  -1.5906239 -1.2512756 0.75091343 1.5040774 1.5040774  0.33593916  0.33593916
 9 1.5105406  -1.6516317 -1.6694012 0.51469669 1.5040774 1.5040774 0.012926379 0.012926379
 2 1.7063924  -1.7234993  -1.9853816 0.83186208 1.5040774 1.5040774 0.40463005 0.40463005
14  1.865791  -1.1825078 -0.65026575 0.80976599 1.5040774 1.5040774 0.72342721 0.72342721
 1 2.0067135   -1.211197 -0.51462246 0.76516335 1.5040774 1.5040774  1.0052723  1.0052723
 4 1.7259969  -1.5668161 -0.21264155  0.8495275 1.5040774 1.5040774 0.44383894 0.44383894
 5 1.7259133  -1.5607914 -0.37128119 0.85471631 1.5040774 1.5040774 0.44367182 0.44367182
21 1.7260363  -1.9515978 -0.70825243 0.89645276 1.5040774 1.5040774 0.44391784 0.44391784
 4 1.7260473  -1.9250576  -2.9933216 0.85290804 1.5040774 1.5040774 0.44393989 0.44393989
 4 1.7260544 -0.80569977  -3.5856117 0.66024015 1.5040774 1.5040774 0.44395408 0.44395408
 9 1.7260544 -0.80650274  -3.5824488 0.66137816 1.5040774 1.5040774 0.44395407 0.44395407
 3 1.6892343 -0.96002786  -2.6832611 0.72699718 1.5040774 1.5040774 0.37031373 0.37031373
 3 1.7260501  -1.6980198 0.057102349 0.82635593 1.5040774 1.5040774 0.44394532 0.44394532
 1 1.5842735  -1.4045433  -2.0259575 0.83058691 1.5040774 1.5040774 0.16039222 0.16039222
 5 1.6989471  -1.3239001  -2.4721199 0.64651904 1.5040774 1.5040774 0.38973942 0.38973942
 3 2.0032226  -1.6126732 0.091537816 0.65835477 1.5040774 1.5040774 0.99829049 0.99829049
 2 2.8323415  -1.6595553 -0.31593116 0.61924955 1.5040774 1.5040774  2.6565282  2.6565282
 3 1.7406872  -1.4801811  0.32489567 0.60794442 1.5040774 1.5040774 0.47321964 0.47321964
 1 1.7260197  -1.9088922 -0.32011307  0.7526375 1.5040774 1.5040774 0.44388456 0.44388456
 2  1.704645  -1.8406455  -1.9747433 0.61303646 1.5040774 1.5040774 0.40113523 0.40113523
 3 1.7260532   -1.196906  -3.3457512 0.62194369 1.5040774 1.5040774 0.44395169 0.44395169
 2 1.7257749 -0.52075532  -3.2514989 0.68799281 1.5040774 1.5040774 0.44339493 0.44339493
 2  1.725861 -0.63666841   -3.2609884  0.6322817 1.5040774 1.5040774 0.44356714 0.44356714
 3  1.725892  -1.7779607  -0.69435658 0.84679912 1.5040774 1.5040774 0.44362921 0.44362921
11 3.5365186   -1.053323   -2.0426566 0.80683802 1.5040774 1.5040774  4.0648823  4.0648823
 3 3.2697455   -1.057341   -2.0553244 0.80464597 1.5040774 1.5040774  3.5313362  3.5313362
 2 3.2859772  -1.0568818   -2.0550695 0.80466445 1.5040774 1.5040774  3.5637995  3.5637995
 1 2.5499088  -1.0240174    -2.167909 0.81204526 1.5040774 1.5040774  2.0916629  2.0916629
 2 1.7260544  -1.5952257   -3.3919053 0.81302346 1.5040774 1.5040774 0.44395405 0.44395405
 6 1.7237188  -1.5146083   -2.7243807  0.8030721 1.5040774 1.5040774 0.43928272 0.43928272
 5 1.6990476  -1.9078115   -1.5159745 0.70017771 1.5040774 1.5040774 0.38994033 0.38994033
 8 1.7289961   -1.741258   0.30859398 0.60449669 1.5040774 1.5040774 0.44983734 0.44983734
10 1.7254471  -1.0694116 -0.088841469 0.88141658 1.5040774 1.5040774 0.44273935 0.44273935
 1 1.8513162 -0.94069304   -0.2691542 0.85921333 1.5040774 1.5040774 0.69447752 0.69447752
 2 1.7280347  -1.4676906   0.56095625 0.77955866 1.5040774 1.5040774 0.44791452 0.44791452
 1 2.1160689  -1.1949573   0.51696122 0.58073687 1.5040774 1.5040774  1.2239831  1.2239831
 4 1.7247962  -1.4930242   -2.7363905 0.68293673 1.5040774 1.5040774 0.44143758 0.44143758
 4 1.7251113  -1.7225897  -0.70425954 0.78047181 1.5040774 1.5040774 0.44206777 0.44206777
 8 1.7260373  -1.8616069  -0.36410617 0.81288888 1.5040774 1.5040774 0.44391988 0.44391988
 3 1.7260501  -1.9808646   -0.1652064 0.77012756 1.5040774 1.5040774 0.44394549 0.44394549
 7 1.7260516  -1.9976499   -0.1056265 0.76357974 1.5040774 1.5040774 0.44394841 0.44394841
 4  1.725984  -1.5809293    -2.997174 0.74753912 1.5040774 1.5040774 0.44381322 0.44381322
 8 1.7149631  -1.4646012  -2.5710642 0.76436389 1.5040774 1.5040774  0.4217715  0.4217715
 2  1.701536 -0.97599996  -2.7206181  0.7121555 1.5040774 1.5040774 0.39491721 0.39491721
 4 1.7190015  -1.9541685  -1.2803751 0.45202328 1.5040774 1.5040774 0.42984811 0.42984811
 3 1.7213174  -1.4458509  -1.8449188 0.45368304 1.5040774 1.5040774 0.43447993 0.43447993
 6 1.7260541 -0.92540702  -3.5234752  0.5793894 1.5040774 1.5040774  0.4439534  0.4439534
 1 1.7153183  -1.0655103  -2.8250542 0.80203246 1.5040774 1.5040774 0.42248175 0.42248175
16 1.7271369  -1.2032828  -2.0027327 0.78504233 1.5040774 1.5040774 0.44611904 0.44611904
 1 1.7055601  -1.2149902  -1.9832544 0.78573758 1.5040774 1.5040774  0.4029654  0.4029654
 2 1.8080824  -1.4083732 -0.69999191 0.47150565 1.5040774 1.5040774 0.60801002 0.60801002
 1 1.5974363  -1.8143895  -1.6855517  0.5892541 1.5040774 1.5040774  0.1867179  0.1867179
 1 1.6656572  -1.7525527  -1.9575353 0.58158231 1.5040774 1.5040774 0.32315968 0.32315968
 3 1.7260539 -0.28048586  -3.6514979 0.72538073 1.5040774 1.5040774 0.44395301 0.44395301
 1 1.7256378 -0.27049762  -3.2964548 0.79350957 1.5040774 1.5040774 0.44312072 0.44312072
 3 1.7260545 -0.70071412  -3.8323441 0.85946642 1.5040774 1.5040774 0.44395423 0.44395423
 8 1.6430036 -0.90113242  -2.6545788 0.82061871 1.5040774 1.5040774 0.27785243 0.27785243
 6 1.6598163 -0.78616047  -2.6864952 0.82587224 1.5040774 1.5040774 0.31147783 0.31147783
 8 1.7260543  -0.3175058  -3.7177478 0.80159386 1.5040774 1.5040774 0.44395387 0.44395387
 4 1.7260542 -0.43322358  -3.6342531 0.81281136 1.5040774 1.5040774 0.44395366 0.44395366
 3 1.7260545  -1.3773857  -3.8874068 0.86075375 1.5040774 1.5040774 0.44395424 0.44395424
 1 1.7260545  -1.5569811  -3.4818395 0.81813827 1.5040774 1.5040774 0.44395419 0.44395419
25 1.7183815  -1.3497703 -1.0208411 0.89623984 1.5040774 1.5040774 0.42860816 0.42860816
 2 1.7255308  -1.3785913 -0.3151028  0.8544544 1.5040774 1.5040774 0.44290689 0.44290689
 9 1.9427368  -1.2185159 -1.3120798 0.86935074 1.5040774 1.5040774  0.8773189  0.8773189
 1 2.3646253  -1.1216537 -2.2070514 0.60303432 1.5040774 1.5040774  1.7210959  1.7210959
 3 1.7260122 -0.92475797 -3.2447048 0.63479323 1.5040774 1.5040774 0.44386969 0.44386969
 2 1.7260545 -0.67612849 -3.7423875 0.66364697 1.5040774 1.5040774 0.44395422 0.44395422
 1 1.7260539 -0.77169072 -3.4983013 0.65644985 1.5040774 1.5040774 0.44395295 0.44395295
 4 1.7260541 -0.75833589 -3.5408001 0.63034042 1.5040774 1.5040774 0.44395347 0.44395347
