#weight  minuslogpost  log10_alpha   log10_rs         vw  minuslogprior  minuslogprior__0         chi2  chi2__lisa_likelihood
      1     1.5294929   -1.3273359 -1.8303322 0.79955999      1.5040774         1.5040774  0.050830981            0.050830981
      1     1.5061979   -1.3556158 -1.8938134 0.77759877      1.5040774         1.5040774 0.0042410488           0.0042410488
      1     1.5253097   -1.3722679 -1.8965431 0.80693244      1.5040774         1.5040774  0.042464638            0.042464638
      1     1.5271381   -1.3521985 -1.9189181 0.82365315      1.5040774         1.5040774   0.04612132             0.04612132
      1     1.5492649   -1.3796141 -1.9408788  0.8271724      1.5040774         1.5040774  0.090374924            0.090374924
      1     1.5346703   -1.3751558 -1.9490555 0.81087954      1.5040774         1.5040774  0.061185843            0.061185843
      1     1.5661805   -1.3813863  -1.963091 0.84435623      1.5040774         1.5040774   0.12420612             0.12420612
      1     1.5773996   -1.3998527 -1.9616421 0.84152686      1.5040774         1.5040774   0.14664444             0.14664444
      1     1.5727349   -1.4011927 -2.0585291 0.80065628      1.5040774         1.5040774   0.13731492             0.13731492
      1     1.5853465   -1.4133246 -2.0641909 0.80486703      1.5040774         1.5040774   0.16253819             0.16253819
      1     1.5833975   -1.4259932 -2.0436136 0.79603467      1.5040774         1.5040774   0.15864027             0.15864027
      1     1.5739112   -1.4304668   -2.06321 0.75679616      1.5040774         1.5040774   0.13966765             0.13966765
      2     1.5426415   -1.4184978 -2.0216726 0.73295492      1.5040774         1.5040774  0.077128276            0.077128276
      1     1.5439136   -1.4216279 -2.0184674 0.73696781      1.5040774         1.5040774  0.079672479            0.079672479
      1     1.5406206   -1.4071389 -2.0235135 0.71477332      1.5040774         1.5040774  0.073086388            0.073086388
      1     1.5989024   -1.4480725 -2.0349102 0.69064208      1.5040774         1.5040774   0.18965002             0.18965002
      1     1.5846637      -1.4529 -1.9886083 0.67696339      1.5040774         1.5040774   0.16117267             0.16117267
      1     1.5880013   -1.4563475 -1.9921646  0.6825516      1.5040774         1.5040774   0.16784771             0.16784771
      1     1.5909289    -1.469043 -1.9819555 0.68121655      1.5040774         1.5040774   0.17370299             0.17370299
      2     1.5892871   -1.4691326 -1.9820848 0.68107897      1.5040774         1.5040774   0.17041951             0.17041951
1 1.5852872 -1.4587903 -1.9939091   0.689899 1.5040774 1.5040774  0.16241966  0.16241966
1 1.5623359 -1.4765204 -1.9776316 0.73251132 1.5040774 1.5040774  0.11651704  0.11651704
1 1.5502465  -1.410015 -1.9995286 0.70343567 1.5040774 1.5040774 0.092338133 0.092338133
1 1.5704366 -1.4179473 -1.9956345 0.68235932 1.5040774 1.5040774  0.13271836  0.13271836
1  1.548738  -1.405207 -1.9594498 0.68424983 1.5040774 1.5040774 0.089321187 0.089321187
1 1.5484219 -1.4051699 -1.9595206 0.68421039 1.5040774 1.5040774 0.088689088 0.088689088
1  1.518764 -1.3771114 -1.9641939 0.71895686 1.5040774 1.5040774 0.029373219 0.029373219
1 1.5251199 -1.4058398 -1.9901829 0.73866032 1.5040774 1.5040774 0.042085074 0.042085074
1 1.5561236 -1.4320743 -2.0105888  0.7584461 1.5040774 1.5040774  0.10409231  0.10409231
1 1.5549777 -1.4039163 -2.0185334   0.787588 1.5040774 1.5040774  0.10180061  0.10180061
1 1.5634113 -1.4117162 -1.9949695 0.80154844 1.5040774 1.5040774  0.11866786  0.11866786
1 1.5739487 -1.4360563 -2.0021742 0.78774697 1.5040774 1.5040774  0.13974256  0.13974256
1 1.6160475  -1.459165 -2.0035467 0.82921765 1.5040774 1.5040774  0.22394015  0.22394015
1  1.615495  -1.461153 -1.9952354 0.82838494 1.5040774 1.5040774  0.22283525  0.22283525
1  1.622316 -1.4664448  -1.991984   0.835463 1.5040774 1.5040774  0.23647723  0.23647723
1 1.6224099   -1.46633 -1.9922759 0.83568293 1.5040774 1.5040774  0.23666491  0.23666491
1 1.6219596 -1.4653556 -1.9915834 0.83609327 1.5040774 1.5040774  0.23576433  0.23576433
2 1.6417481 -1.4975717 -2.0083443 0.83535026 1.5040774 1.5040774  0.27534132  0.27534132
1 1.6470957   -1.50808 -1.9883732 0.84046846 1.5040774 1.5040774  0.28603653  0.28603653
1  1.641969 -1.4946421  -2.011663 0.83818829 1.5040774 1.5040774  0.27578316  0.27578316
1 1.6272955 -1.4863431 -2.0050452 0.81950163 1.5040774 1.5040774  0.24643628  0.24643628
1 1.6250129 -1.4794096   -2.00147 0.82384702 1.5040774 1.5040774  0.24187095  0.24187095
1 1.6067911 -1.4451093 -1.9417807 0.84155344 1.5040774 1.5040774  0.20542745  0.20542745
1  1.580287   -1.41358 -1.9572571 0.83264794 1.5040774 1.5040774  0.15241921  0.15241921
1 1.5481809 -1.4181003 -1.9420967  0.7902978 1.5040774 1.5040774 0.088207067 0.088207067
1 1.5410463 -1.3976229 -1.8805307 0.80798618 1.5040774 1.5040774 0.073937858 0.073937858
1 1.5998145 -1.4605975 -1.8644776 0.82501615 1.5040774 1.5040774  0.19147416  0.19147416
1 1.6216207 -1.4543513 -1.8764277 0.85937839 1.5040774 1.5040774  0.23508653  0.23508653
1 1.6273061 -1.4614367 -1.8489338 0.86138312 1.5040774 1.5040774  0.24645748  0.24645748
1 1.6282444 -1.4615938 -1.8490691 0.86268246 1.5040774 1.5040774  0.24833394  0.24833394
1 1.5874969 -1.3776496 -1.8283337 0.87499238 1.5040774 1.5040774  0.16683899  0.16683899
1 1.5548794 -1.3683399 -1.8297508 0.84230676 1.5040774 1.5040774  0.10160408  0.10160408
1 1.5513694 -1.3580325 -1.8351107 0.84547495 1.5040774 1.5040774 0.094583976 0.094583976
1 1.5588294 -1.3814964 -1.8829576  0.8408663 1.5040774 1.5040774  0.10950403  0.10950403
1 1.5247541 -1.3311702 -1.8386117 0.81382995 1.5040774 1.5040774 0.041353399 0.041353399
1 1.5351415 -1.3223619 -1.8336718 0.83832855 1.5040774 1.5040774 0.062128241 0.062128241
1 1.5317602 -1.2762724 -1.8892475 0.83296372 1.5040774 1.5040774 0.055365551 0.055365551
1 1.5314326 -1.2748552 -1.8908977 0.83489064 1.5040774 1.5040774 0.054710456 0.054710456
1 1.5165356 -1.2955772 -1.9110738 0.83285212 1.5040774 1.5040774 0.024916347 0.024916347
1 1.5163322 -1.2906159 -1.9154242 0.82547755 1.5040774 1.5040774 0.024509675 0.024509675
1 1.5138788 -1.2959652 -1.9198697 0.82619544 1.5040774 1.5040774  0.019602762  0.019602762
1 1.5177171 -1.2767266 -1.9445956 0.81643453 1.5040774 1.5040774  0.027279479  0.027279479
1 1.5150794 -1.2658747 -1.9514115 0.85508907 1.5040774 1.5040774  0.022004076  0.022004076
1 1.5146457 -1.2659972 -1.9530804 0.85435379 1.5040774 1.5040774  0.021136543  0.021136543
1 1.5212951 -1.2624556 -1.9665812 0.88440719 1.5040774 1.5040774  0.034435422  0.034435422
1 1.5315187  -1.284097 -1.9661929 0.88713195 1.5040774 1.5040774  0.054882631  0.054882631
2 1.5282194 -1.2800184 -1.9728495 0.88528065 1.5040774 1.5040774  0.048283915  0.048283915
1 1.5352679 -1.2937906 -1.9810802 0.88453404 1.5040774 1.5040774  0.062380987  0.062380987
1 1.5433751 -1.2978063 -1.9824526 0.89345176 1.5040774 1.5040774  0.078595461  0.078595461
2 1.5366266 -1.2818443 -2.0006371   0.897841 1.5040774 1.5040774  0.065098365  0.065098365
2 1.5184589 -1.2686442  -2.013443  0.8767088 1.5040774 1.5040774  0.028762976  0.028762976
1 1.5192585  -1.272897 -2.0136857 0.87419935 1.5040774 1.5040774    0.0303622    0.0303622
1 1.5322728 -1.2445594 -1.9848699 0.81829882 1.5040774 1.5040774  0.056390815  0.056390815
1 1.5096326 -1.2864605 -1.9790544 0.80005568 1.5040774 1.5040774  0.011110475  0.011110475
1 1.5110937    -1.2889 -1.9442838 0.81674271 1.5040774 1.5040774  0.014032574  0.014032574
1 1.5143562 -1.2607416 -1.9799171 0.82367543 1.5040774 1.5040774  0.020557619  0.020557619
1  1.506422 -1.2744842 -1.9894576 0.83045609 1.5040774 1.5040774 0.0046892888 0.0046892888
1 1.5058955 -1.2770534 -1.9936481 0.81935282 1.5040774 1.5040774 0.0036361923 0.0036361923
2 1.5144167 -1.3028181 -1.9803988 0.83924056 1.5040774 1.5040774  0.020678628  0.020678628
1 1.5157469 -1.2847792 -1.9258817 0.82629047 1.5040774 1.5040774   0.02333907   0.02333907
1 1.5363425 -1.2570658 -1.9312233 0.82619809 1.5040774 1.5040774 0.064530164 0.064530164
1 1.5315891 -1.2600947 -1.9468045 0.81846601 1.5040774 1.5040774 0.055023352 0.055023352
1 1.5665642  -1.258448 -1.9379412 0.79996018 1.5040774 1.5040774  0.12497361  0.12497361
1 1.5263767 -1.2847473 -1.9192119 0.80684916 1.5040774 1.5040774 0.044598554 0.044598554
1 1.5117913 -1.2913024 -1.9347008 0.82393434 1.5040774 1.5040774 0.015427725 0.015427725
1 1.5203864 -1.2742286 -1.9185282 0.84514655 1.5040774 1.5040774 0.032617981 0.032617981
1 1.5272716  -1.288733 -1.9235748 0.86985558 1.5040774 1.5040774 0.046388362 0.046388362
1 1.5221479 -1.2765192 -1.9464845 0.87234606 1.5040774 1.5040774 0.036141054 0.036141054
1 1.5276674 -1.2513476 -1.9311174 0.89026061 1.5040774 1.5040774 0.047180031 0.047180031
3 1.5282786 -1.2483811 -1.9309747 0.89240956 1.5040774 1.5040774 0.048402449 0.048402449
1  1.534238 -1.2501998 -1.9155861 0.89949791 1.5040774 1.5040774   0.0603212   0.0603212
1 1.5694358 -1.2429743 -1.8878816   0.841206 1.5040774 1.5040774  0.13071689  0.13071689
1 1.5207794 -1.3276275 -1.8921241 0.82869654 1.5040774 1.5040774 0.033404032 0.033404032
1  1.524127 -1.3130269 -1.8813876 0.83854041 1.5040774 1.5040774 0.040099162 0.040099162
1 1.5248677 -1.3103231 -1.8622989 0.81371054 1.5040774 1.5040774 0.041580597 0.041580597
1 1.5327256 -1.3400349  -1.836859 0.83003282 1.5040774 1.5040774  0.05729637  0.05729637
1 1.5296743 -1.3391929 -1.8437035 0.82728007 1.5040774 1.5040774 0.051193826 0.051193826
1 1.5637086 -1.3223469 -1.8217126 0.77775496 1.5040774 1.5040774  0.11926235  0.11926235
1 1.6206058 -1.2904321 -1.8220856 0.78844517 1.5040774 1.5040774  0.23305686  0.23305686
1 1.7207472 -1.2850623  -1.811712  0.7746768 1.5040774 1.5040774   0.4333396   0.4333396
1 1.6228723 -1.3010052 -1.7836558 0.78959755 1.5040774 1.5040774  0.23758977  0.23758977
1 1.6925114 -1.2653827  -1.774479 0.81040463 1.5040774 1.5040774  0.37686793  0.37686793
2 1.7410617 -1.2597918 -1.7611203 0.80967837 1.5040774 1.5040774  0.47396866  0.47396866
1 1.6504672 -1.2873921 -1.7497587 0.80619136 1.5040774 1.5040774  0.29277962  0.29277962
1  1.621288  -1.294737 -1.8115455 0.78735332 1.5040774 1.5040774  0.23442117  0.23442117
1 1.8189175 -1.2560465 -1.8157894  0.7861876 1.5040774 1.5040774  0.62968011  0.62968011
2 1.7308953 -1.2560866 -1.8195257 0.79845801 1.5040774 1.5040774  0.45363582  0.45363582
1 1.8841232 -1.2784479  -1.851888 0.74641427 1.5040774 1.5040774  0.76009151  0.76009151
1  1.993349 -1.2616313  -1.812633 0.71477902 1.5040774 1.5040774  0.97854313  0.97854313
1 1.9818212 -1.2598669 -1.8305324  0.7098563 1.5040774 1.5040774  0.95548763  0.95548763
1 1.9596873 -1.2583591 -1.8301428 0.70898002 1.5040774 1.5040774  0.91121978  0.91121978
1 2.1723651 -1.2459341 -1.8342906 0.72851511 1.5040774 1.5040774   1.3365754   1.3365754
1 2.6521748 -1.2297562 -1.7984047 0.75817027 1.5040774 1.5040774   2.2961949   2.2961949
1 1.9548669 -1.2778801 -1.7800836 0.76225296 1.5040774 1.5040774  0.90157905  0.90157905
1 1.6580654 -1.2836349 -1.8017388 0.79159749 1.5040774 1.5040774  0.30797601  0.30797601
1 1.5241948 -1.3275842 -1.8419777  0.8044024 1.5040774 1.5040774   0.0402349   0.0402349
1 1.5243394 -1.3263683 -1.8431763  0.8048092 1.5040774 1.5040774 0.040524023 0.040524023
1 1.5244059 -1.3263935 -1.8423502  0.8073184 1.5040774 1.5040774 0.040656913 0.040656913
1 1.6318799 -1.3080114 -1.8324737 0.76503316 1.5040774 1.5040774  0.25560509  0.25560509
1 1.6245307 -1.2998269 -1.8891279 0.75535849 1.5040774 1.5040774  0.24090652  0.24090652
1 1.5536832 -1.3477027  -1.8923612 0.73379081 1.5040774 1.5040774 0.099211566 0.099211566
1 1.5158457 -1.3564925   -1.839906 0.79121489 1.5040774 1.5040774 0.023536682 0.023536682
1 1.5161499 -1.3544783  -1.8412869 0.79278462 1.5040774 1.5040774 0.024144979 0.024144979
2 1.5415364 -1.3324973  -1.8236813 0.78006706 1.5040774 1.5040774 0.074917917 0.074917917
1 1.5943308 -1.2228025   -1.954866 0.82210342 1.5040774 1.5040774  0.18050687  0.18050687
2 1.7543983  -1.303463  -2.2152199 0.48816928 1.5040774 1.5040774  0.50064187  0.50064187
2  1.517245 -1.6013417  -1.8664722  0.4834337 1.5040774 1.5040774 0.026335238 0.026335238
2 1.6800677 -1.2071468  -1.8996236 0.83603691 1.5040774 1.5040774  0.35198069  0.35198069
1 1.6430924 -1.2209633  -1.8737773 0.84064269 1.5040774 1.5040774   0.2780301   0.2780301
1 1.6240945 -1.2226945  -1.8744775 0.84534321 1.5040774 1.5040774  0.24003425  0.24003425
3 1.7260265 -1.8917404 -0.59592274 0.85557483 1.5040774 1.5040774  0.44389821  0.44389821
5  1.748328 -1.5516053 -0.28069397 0.54372093 1.5040774 1.5040774  0.48850122  0.48850122
6 1.7165354 -1.5953595 -0.99028973 0.40853711 1.5040774 1.5040774   0.4249161   0.4249161
6 1.6278336 -1.5507128 -0.65954278 0.68804878 1.5040774 1.5040774  0.24751232  0.24751232
3 1.7225445 -1.6169637 -0.55122162 0.73382848 1.5040774 1.5040774  0.43693424  0.43693424
2  1.725789 -1.7400182 -0.65249885 0.82216707 1.5040774 1.5040774  0.44342322  0.44342322
1 1.7260268  -1.913594 -0.47601878 0.80241944 1.5040774 1.5040774  0.44389886  0.44389886
1 1.7259619 -1.7749705 -0.44000323 0.79424204 1.5040774 1.5040774  0.44376909  0.44376909
1 1.7259611  -1.775894 -0.43934777 0.79236614 1.5040774 1.5040774  0.44376737  0.44376737
2  1.726023 -1.8104172 -0.36592014 0.80712276 1.5040774 1.5040774  0.44389118  0.44389118
2 1.7230012 -1.6171187  -1.1058948 0.89047164 1.5040774 1.5040774 0.43784767 0.43784767
2 1.7229585 -1.6163292  -1.1067149 0.89014249 1.5040774 1.5040774 0.43776214 0.43776214
2 1.6958894 -1.8188307  -1.0695958 0.69051955 1.5040774 1.5040774 0.38362404 0.38362404
1 1.6871415 -1.9130291   -0.851466 0.65542215 1.5040774 1.5040774  0.3661283  0.3661283
2 1.7258804 -1.7261226 -0.75602236 0.89939731 1.5040774 1.5040774  0.4436061  0.4436061
2 1.6936671 -1.6068391 -0.98671798  0.7251779 1.5040774 1.5040774 0.37917949 0.37917949
1 1.6954235 -1.5991526 -0.98740871 0.72906469 1.5040774 1.5040774 0.38269226 0.38269226
1 1.6663533  -1.596144 -0.84394827 0.68990095 1.5040774 1.5040774 0.32455175 0.32455175
2  1.723793 -1.6823059  -0.7659948 0.77146538 1.5040774 1.5040774 0.43943128 0.43943128
3 1.7440167 -1.8839094 -0.48741724 0.59422759 1.5040774 1.5040774 0.47987869 0.47987869
3 1.7238576 -1.9715471 -0.51182771 0.52982032 1.5040774 1.5040774 0.43956041 0.43956041
1 1.7255235  -1.941405 -0.58085749 0.47284291 1.5040774 1.5040774  0.4428923  0.4428923
3 1.9478757 -1.8106443 -0.75802646 0.59128351 1.5040774 1.5040774  0.8875967  0.8875967
1 1.6032359   -1.98849 -0.52939572 0.63045018 1.5040774 1.5040774 0.19831708 0.19831708
2 1.7250043 -1.6787802 -0.88709805  0.8507683 1.5040774 1.5040774 0.44185384 0.44185384
4 2.2470954 -1.4978231  -1.2626624 0.49082746 1.5040774 1.5040774  1.4860359  1.4860359
3 1.5887282 -1.5653849  -1.8424741 0.40657916 1.5040774 1.5040774 0.16930155 0.16930155
3 1.6545549 -1.8597309  -1.7466554  0.5996374 1.5040774 1.5040774 0.30095499 0.30095499
1 1.6057846 -1.7394932  -1.6354628 0.67273056 1.5040774 1.5040774 0.20341439 0.20341439
1 1.6931424 -1.6437145  -1.8528466 0.84948499 1.5040774 1.5040774 0.37812992 0.37812992
1 1.5325122  -1.3950784 -2.0217791 0.74993719 1.5040774 1.5040774 0.056869626 0.056869626
1 1.5206935   -1.444261 -1.9009524 0.74086302 1.5040774 1.5040774 0.033232148 0.033232148
1 1.5885693  -1.5143018 -1.9186077 0.66142018 1.5040774 1.5040774  0.16898385  0.16898385
2  1.598821  -1.5302767 -1.9189636 0.66867533 1.5040774 1.5040774  0.18948729  0.18948729
4 1.6595279  -1.5861286 -1.2820508 0.74590708 1.5040774 1.5040774  0.31090105  0.31090105
9  1.725401  -1.2060484 -2.0180113  0.7733301 1.5040774 1.5040774  0.44264712  0.44264712
3 1.7260545  -1.1539701 -3.6468819 0.67484155 1.5040774 1.5040774  0.44395423  0.44395423
1 1.7260545  -0.9418273 -3.9045652 0.70978408 1.5040774 1.5040774  0.44395424  0.44395424
3 1.7260545 -0.95065987 -3.9064945 0.70012107 1.5040774 1.5040774  0.44395424  0.44395424
1 1.6736789 -0.99815771 -2.6129022 0.71226258 1.5040774 1.5040774  0.33920298  0.33920298
1 1.6727497  -1.0232451  -2.599644 0.68484291 1.5040774 1.5040774  0.33734453  0.33734453
4 1.7023787  -1.7019619 -2.1258231 0.77143613 1.5040774 1.5040774  0.39660257  0.39660257
5  1.716219  -1.9086441 -1.4254772 0.74272021 1.5040774 1.5040774  0.42428322  0.42428322
2 1.7183296  -1.9156982 -1.4060705 0.74977097 1.5040774 1.5040774  0.42850436  0.42850436
2 1.5094733  -1.4579255  -2.116838 0.41181327 1.5040774 1.5040774 0.010791715 0.010791715
1 1.7208063  -1.5619315 -2.6990463 0.51497658 1.5040774 1.5040774  0.43345778  0.43345778
3 1.7252697  -1.6739632 -2.9180963 0.41871001 1.5040774 1.5040774  0.44238457  0.44238457
2 1.7260545  -1.6803572 -3.8712573 0.44333677 1.5040774 1.5040774  0.44395424  0.44395424
1 1.7260544  -1.8106762 -3.3151352  0.7605527 1.5040774 1.5040774  0.44395403  0.44395403
1  1.726052  -1.4815298 -3.2510931 0.77619916 1.5040774 1.5040774  0.44394919  0.44394919
 1 1.6830557  -1.7569855  -1.9350091 0.70584412 1.5040774 1.5040774   0.3579567   0.3579567
 2 1.5179182  -1.3561858  -1.9836016 0.72853726 1.5040774 1.5040774 0.027681533 0.027681533
 8 1.7065326  -1.5233008 -0.90013416 0.73555609 1.5040774 1.5040774  0.40491038  0.40491038
 5 1.7564038  -1.4673421  -0.9697215 0.72818813 1.5040774 1.5040774  0.50465284  0.50465284
 3 1.6728151  -1.4579241  -2.3084846 0.72698858 1.5040774 1.5040774  0.33747538  0.33747538
 2 1.7260545 -0.93461755  -3.7070827 0.74569265 1.5040774 1.5040774  0.44395423  0.44395423
 3 1.7260545 -0.93781959  -3.6813176 0.79880193 1.5040774 1.5040774  0.44395422  0.44395422
 2 1.7260464  -1.0667707   -3.310662 0.79080477 1.5040774 1.5040774  0.44393791  0.44393791
 1 1.7183006   -1.560117  -1.2074824 0.88705683 1.5040774 1.5040774  0.42844634  0.42844634
 7 1.7230235  -1.7261956  -1.2595458  0.8776483 1.5040774 1.5040774   0.4378922   0.4378922
 3  1.722088  -1.7179482   -1.289489 0.87169661 1.5040774 1.5040774  0.43602122  0.43602122
 6 1.7197828   -1.592083  -2.7018373 0.47946011 1.5040774 1.5040774   0.4314109   0.4314109
 1 1.6582049   -1.780812  -1.9157741 0.45677004 1.5040774 1.5040774  0.30825497  0.30825497
 2 1.6148909  -1.7012447  -1.8922133 0.45515273 1.5040774 1.5040774  0.22162691  0.22162691
 2 1.7258466  -1.3899414  -2.9821251 0.59481798 1.5040774 1.5040774  0.44353834  0.44353834
 1 1.7260542  -1.9836193  -3.1366239  0.6255954 1.5040774 1.5040774  0.44395368  0.44395368
11 1.7260543   -1.908974  -3.1736389 0.63157168 1.5040774 1.5040774  0.44395373  0.44395373
 1  1.725956  -1.2377462  -3.0642172 0.64422597 1.5040774 1.5040774  0.44375726  0.44375726
 5 1.7031337  -1.2227837   -2.754029 0.52735611 1.5040774 1.5040774  0.39811251  0.39811251
 2 1.6577691  -1.3687556  -2.4586033 0.54420183 1.5040774 1.5040774  0.30738333  0.30738333
 2 1.7260544  -1.6028682 -3.4042437 0.53674959 1.5040774 1.5040774 0.44395396 0.44395396
 7 1.7260545  -1.3969707  -3.870483   0.466288 1.5040774 1.5040774 0.44395424 0.44395424
 5  1.726054  -1.9369305 -3.2754217 0.45143569 1.5040774 1.5040774 0.44395315 0.44395315
 4 1.7256697  -1.6680142 -2.7651739 0.59562685 1.5040774 1.5040774 0.44318467 0.44318467
 5 1.7260336 -0.64793931 -3.3564179 0.67626089 1.5040774 1.5040774 0.44391236 0.44391236
14 1.7260529 -0.36649576 -3.5556348 0.60539982 1.5040774 1.5040774 0.44395102 0.44395102
 1 1.7260545 -0.99967895 -3.7345298 0.46523824 1.5040774 1.5040774 0.44395419 0.44395419
10 1.7259254  -1.5362697 -2.9714472 0.74369844 1.5040774 1.5040774 0.44369609 0.44369609
13 1.7260545  -1.9162992 -3.9722289 0.70251507 1.5040774 1.5040774 0.44395424 0.44395424
 4 1.7260538  -1.2610597  -3.480712 0.47326614 1.5040774 1.5040774 0.44395271 0.44395271
 2 1.7033078 -0.66761556 -2.8694288 0.73815682 1.5040774 1.5040774 0.39846075 0.39846075
20 1.6108518  -1.3353169  -1.691058  0.8952205 1.5040774 1.5040774 0.21354876 0.21354876
 2 1.6797574  -1.3401929  -1.450606 0.83832801 1.5040774 1.5040774 0.35136006 0.35136006
 1 2.1422243  -1.2674155 -1.0251243 0.78952037 1.5040774 1.5040774  1.2762938  1.2762938
 4 1.6185656  -1.0162262 -2.5026369 0.64308777 1.5040774 1.5040774 0.22897646 0.22897646
 6 1.7134439  -1.0458671 -2.9824598 0.45198076 1.5040774 1.5040774 0.41873294 0.41873294
 4 1.7019622  -1.6297867 -1.2124482 0.43052247 1.5040774 1.5040774 0.39576956 0.39576956
 1 1.7219943  -1.6833408 -1.0486345 0.81401853 1.5040774 1.5040774  0.4358339  0.4358339
 1 1.7055709  -1.7412143 -1.9912457 0.80617543 1.5040774 1.5040774 0.40298703 0.40298703
 4 1.6994922  -1.6633546 -2.1125371 0.80899733 1.5040774 1.5040774 0.39082956 0.39082956
4 1.5917624  -1.9551777  -0.65098846 0.61504612 1.5040774 1.5040774   0.1753701   0.1753701
3 1.5302187  -1.6270886   -1.2798449 0.67509369 1.5040774 1.5040774 0.052282537 0.052282537
3 1.6678817  -1.5602454   -1.0010751  0.6903455 1.5040774 1.5040774   0.3276086   0.3276086
2 1.7256159  -1.4791332  -0.46822913 0.86633427 1.5040774 1.5040774  0.44307707  0.44307707
5 1.7259031  -1.6014889  0.054121376 0.73493984 1.5040774 1.5040774  0.44365144  0.44365144
2 1.7258921  -1.6021343  0.075362046 0.73265507 1.5040774 1.5040774  0.44362944  0.44362944
5 1.7250442  -1.5866319 -0.050874861  0.7106224 1.5040774 1.5040774  0.44193362  0.44193362
9 1.7260365  -1.7409635   0.59168555  0.6898454 1.5040774 1.5040774   0.4439182   0.4439182
1 1.9193783   -1.669238   0.74085449 0.67780052 1.5040774 1.5040774  0.83060172  0.83060172
2 1.7252264  -1.5042881  -0.70871876 0.45800742 1.5040774 1.5040774  0.44229803  0.44229803
1 1.7081504  -1.6492903    -1.044694  0.4891593 1.5040774 1.5040774  0.40814601  0.40814601
1 1.7254755  -1.8473379  -0.49705826  0.4658677 1.5040774 1.5040774   0.4427963   0.4427963
3 1.7254593  -1.8477187  -0.51699275 0.46119359 1.5040774 1.5040774  0.44276379  0.44276379
9 1.7260545 -0.55544363   -3.9994834 0.59085805 1.5040774 1.5040774  0.44395424  0.44395424
3 1.7260545 -0.33857997   -3.9018647 0.84727738 1.5040774 1.5040774  0.44395423  0.44395423
1 1.7260545 -0.34150501   -3.8992929  0.8470294 1.5040774 1.5040774  0.44395423  0.44395423
4 1.9967658 -0.87625418   -2.4258603 0.87419236 1.5040774 1.5040774  0.98537673  0.98537673
2 1.7106037 -0.77760668    -2.911725 0.87404776 1.5040774 1.5040774  0.41305264  0.41305264
7 1.7242887  -1.4675757   -2.7728343 0.89205781 1.5040774 1.5040774  0.44042256  0.44042256
1 1.7258465  -1.6890859   -2.8446957  0.8645505 1.5040774 1.5040774  0.44353814  0.44353814
5 1.7260322   -1.655727  -3.0401808 0.86001228 1.5040774 1.5040774  0.44390957  0.44390957
2 1.7173882  -1.4314729  -2.6296072 0.80739884 1.5040774 1.5040774  0.42662169  0.42662169
4 1.7260545 -0.80494777  -3.9451967 0.77412005 1.5040774 1.5040774  0.44395424  0.44395424
6 1.7241423 -0.87357897  -3.1501442 0.49597833 1.5040774 1.5040774  0.44012976  0.44012976
1 1.7124466  -1.6635646  -2.5553882 0.46194975 1.5040774 1.5040774  0.41673832  0.41673832
2 1.7260545  -1.6139593   -3.910254 0.57002615 1.5040774 1.5040774  0.44395424  0.44395424
1 1.7260545  -1.5144303  -3.8697068  0.7238831 1.5040774 1.5040774  0.44395424  0.44395424
3 1.7067432  -1.6963978  -2.2236323 0.73257882 1.5040774 1.5040774  0.40533154  0.40533154
7 1.7081646  -1.6857152  -2.2486934 0.74674904 1.5040774 1.5040774  0.40817446  0.40817446
2 1.6836638  -1.5867559  -1.2581094 0.76728158 1.5040774 1.5040774  0.35917272  0.35917272
1 1.7255959  -1.9791374 -0.43331185 0.68297568 1.5040774 1.5040774  0.44303695  0.44303695
9 1.7034961  -1.5441263  -2.4342249 0.55947037 1.5040774 1.5040774   0.3988375   0.3988375
2 2.3912113  -1.2365023  -2.2050767 0.50766828 1.5040774 1.5040774   1.7742677   1.7742677
1  4.054978  -1.2965734  -1.9858315 0.49415675 1.5040774 1.5040774   5.1018013   5.1018013
2 1.7259315  -1.3188035  -3.0150974 0.69580848 1.5040774 1.5040774  0.44370828  0.44370828
2 1.7260469 -0.84030859  -3.3360208 0.72904315 1.5040774 1.5040774  0.44393903  0.44393903
1 1.5309349  -1.1942804  -2.1918888 0.78765634 1.5040774 1.5040774 0.053715013 0.053715013
1 1.7205094  -1.9041615  -2.4540543 0.43730045 1.5040774 1.5040774  0.43286396  0.43286396
1  1.725872  -1.2994644  -2.9920979  0.6475603 1.5040774 1.5040774  0.44358917  0.44358917
2 1.6743993  -1.6301246  -1.3270799 0.75346259 1.5040774 1.5040774  0.34064376  0.34064376
 1 1.7244065  -1.3825953  -2.7606301 0.65965685 1.5040774 1.5040774 0.44065813 0.44065813
 1   1.72602  -1.8166394  -2.8696892 0.61593297 1.5040774 1.5040774 0.44388526 0.44388526
11 1.6957575  -1.8712207  -1.8142353 0.43479047 1.5040774 1.5040774 0.38336027 0.38336027
 2 1.7260545  -1.7549085  -3.6080321 0.69739969 1.5040774 1.5040774 0.44395423 0.44395423
 4 1.7146976  -1.9763035 -0.39555864 0.57570587 1.5040774 1.5040774 0.42124041 0.42124041
 1 1.7205066  -1.7704611  -2.5372355 0.49659856 1.5040774 1.5040774  0.4328585  0.4328585
 3 1.7261441 -0.21666213  -3.3941739 0.68392344 1.5040774 1.5040774 0.44413344 0.44413344
 5 1.7260537 -0.61202253    -3.52483 0.82300941 1.5040774 1.5040774 0.44395263 0.44395263
 3 1.7297587 -0.54917811  -2.8342118 0.71217864 1.5040774 1.5040774 0.45136267 0.45136267
 1  1.724638 -0.58442627  -3.1598235 0.61423507 1.5040774 1.5040774 0.44112119 0.44112119
 1 1.7250912  -1.1759401    -2.92555 0.65224898 1.5040774 1.5040774 0.44202768 0.44202768
 3 1.6657273  -1.4102542  -2.4104611 0.55823936 1.5040774 1.5040774 0.32329978 0.32329978
 1  1.660591  -1.2801737  -2.3521088 0.68609032 1.5040774 1.5040774 0.31302717 0.31302717
 6 1.7260545   -0.940476  -3.8130207 0.66134526 1.5040774 1.5040774 0.44395424 0.44395424
 1 1.7260545  -1.2361369  -3.8844224 0.59931674 1.5040774 1.5040774 0.44395424 0.44395424
15 1.7260545  -1.2199044   -3.821931 0.58119425 1.5040774 1.5040774 0.44395424 0.44395424
 8  1.724554  -1.9753277   0.8045631 0.45405073 1.5040774 1.5040774 0.44095316 0.44095316
 5 1.7259314  -1.6025955  0.41204054 0.50815793 1.5040774 1.5040774  0.4437081  0.4437081
 1 1.7681408  -1.5817605  0.45920984 0.51805813 1.5040774 1.5040774 0.52812673 0.52812673
 3   1.72605  -1.1381244  -3.2778786 0.71390374 1.5040774 1.5040774 0.44394512 0.44394512
 6 1.7234855 -0.89728253  -3.0959381 0.52710452 1.5040774 1.5040774 0.43881628 0.43881628
22  1.706832 -0.84837506  -2.9329027 0.53807389 1.5040774 1.5040774 0.40550916 0.40550916
11 1.7229069 -0.69847789  -3.1172287 0.50701363 1.5040774 1.5040774 0.43765892 0.43765892
 2 1.7159847 -0.72057392  -2.9744082 0.55372178 1.5040774 1.5040774 0.42381455 0.42381455
 5 1.7260545 -0.69439417  -3.7111532 0.53951554 1.5040774 1.5040774 0.44395412 0.44395412
 8 1.7260545  -1.0744614  -3.5491977 0.62165193 1.5040774 1.5040774 0.44395414 0.44395414
 5 1.7260545  -1.0747139   -3.556982 0.61524387 1.5040774 1.5040774 0.44395415 0.44395415
 4 1.7260514   -1.619367  -3.1897014 0.76248915 1.5040774 1.5040774 0.44394805 0.44394805
 2 1.7260545  -1.8767292  -3.3963765 0.51993149 1.5040774 1.5040774 0.44395416 0.44395416
 1 1.7260545  -1.8458183  -3.8878464  0.5561207 1.5040774 1.5040774 0.44395424 0.44395424
10 1.7236588 -0.54440444  -2.8705025 0.89232135 1.5040774 1.5040774 0.43916283 0.43916283
 5   1.71356 -0.56394828  -2.8746829 0.88420693 1.5040774 1.5040774 0.41896529 0.41896529
 1 1.7193988 -0.63594846  -3.0111579 0.84555903 1.5040774 1.5040774 0.43064286 0.43064286
 1  1.725175  -1.2362982 -0.13037241 0.81290276 1.5040774 1.5040774 0.44219514 0.44219514
 8 1.8585098   -1.270381 -0.59712552 0.76412331 1.5040774 1.5040774 0.70886485 0.70886485
 7 1.8618185  -1.2933546 -0.53251627 0.74827637 1.5040774 1.5040774  0.7154822  0.7154822
 1 1.6178018  -1.3736206  -2.2318682 0.80393771 1.5040774 1.5040774 0.22744872 0.22744872
 4 1.7260545 -0.97759052  -3.6595005 0.57668033 1.5040774 1.5040774  0.4439542  0.4439542
 1 1.7156907  -1.4268364  -2.7579215 0.48632298 1.5040774 1.5040774 0.42322652 0.42322652
 2  1.653417      -1.442  -2.2206133 0.61328317 1.5040774 1.5040774 0.29867926 0.29867926
 5 1.5862207  -1.4611393   -1.99388 0.60397087 1.5040774 1.5040774 0.16428665 0.16428665
 5 1.6812202  -1.4156999 -2.0254561 0.54670139 1.5040774 1.5040774 0.35428551 0.35428551
 2 1.6397672  -1.5335084  -1.824821 0.82040296 1.5040774 1.5040774  0.2713797  0.2713797
18 1.8285854 -0.82761991 -0.1356854 0.89233731 1.5040774 1.5040774   0.649016   0.649016
 8 1.6863281  -1.9352965 -1.7499437 0.60714864 1.5040774 1.5040774 0.36450137 0.36450137
 5 1.6874067  -1.9785352 -1.7120528  0.6006703 1.5040774 1.5040774 0.36665869 0.36665869
 2 1.6831886  -1.9719154 -1.5672237 0.50694817 1.5040774 1.5040774 0.35822232 0.35822232
 8 1.6619199  -1.8297116 -1.9296832 0.50523604 1.5040774 1.5040774 0.31568491 0.31568491
 7 1.7210801  -1.9769398 -2.3724808 0.43027344 1.5040774 1.5040774 0.43400534 0.43400534
 4 1.7233957  -1.9350539 -2.5156307 0.46592347 1.5040774 1.5040774 0.43863654 0.43863654
 3  1.717911  -1.9886621 -1.6358858 0.73457306 1.5040774 1.5040774 0.42766719 0.42766719
 6 1.8199526 -0.88630447 -2.4562923 0.84831215 1.5040774 1.5040774  0.6317504  0.6317504
 4  3.384033 -0.92525417 -2.2445644 0.84692779 1.5040774 1.5040774  3.7599111  3.7599111
 9 1.6624306 -0.95059107 -2.6819253 0.82113752 1.5040774 1.5040774 0.31670645 0.31670645
 6 1.7377452 -0.85420853 -2.5216451 0.83284565 1.5040774 1.5040774 0.46733553 0.46733553
 4 2.4881911 -0.86975815  -2.381928 0.85176703 1.5040774 1.5040774  1.9682274  1.9682274
 2 1.7260504  -1.2617577 -3.4078923 0.45398272 1.5040774 1.5040774   0.443946   0.443946
 1 1.7260459  -1.2281176 -3.3574761  0.4827582 1.5040774 1.5040774 0.44393691 0.44393691
 1 1.7260445  -1.2297705 -3.3489323 0.48273449 1.5040774 1.5040774 0.44393415 0.44393415
 2 1.7260513  -1.2257694 -3.4116009 0.48205668 1.5040774 1.5040774 0.44394783 0.44394783
 1 1.7260545 -0.90457792  -3.6618603 0.66229336 1.5040774 1.5040774 0.44395422 0.44395422
 1 1.7260545 -0.92523743   -3.602739 0.67220035 1.5040774 1.5040774 0.44395419 0.44395419
 4 1.7058177  -1.3371033  -2.1342907 0.54424823 1.5040774 1.5040774 0.40348069 0.40348069
 9 1.7260545  -1.0528713  -3.9405563 0.45380675 1.5040774 1.5040774 0.44395424 0.44395424
 4 1.7260545 -0.55436301  -3.9517148 0.50060704 1.5040774 1.5040774 0.44395423 0.44395423
 6 1.7202429 -0.84071942  -2.9303504 0.77027511 1.5040774 1.5040774 0.43233106 0.43233106
13 3.3170716  -1.3103163  -1.6702563 0.68415135 1.5040774 1.5040774  3.6259883  3.6259883
 6 1.6942825  -1.7530337  -1.7887105 0.76889024 1.5040774 1.5040774 0.38041026 0.38041026
 7 1.7177593  -1.7856699  -2.2614852 0.76280401 1.5040774 1.5040774 0.42736381 0.42736381
 4 1.7253421  -1.9134831 -0.54021162 0.70025701 1.5040774 1.5040774 0.44252935 0.44252935
 1 1.6174676  -1.6695753  -1.2950834 0.70235683 1.5040774 1.5040774 0.22678033 0.22678033
 1 1.6909538  -1.8181741  -1.7851158 0.71849564 1.5040774 1.5040774 0.37375285 0.37375285
 3 1.7081898  -1.8564913  -1.9963369 0.60991604 1.5040774 1.5040774 0.40822472 0.40822472
 7 1.6027139  -1.1254078  -2.1856134 0.81886585 1.5040774 1.5040774 0.19727291 0.19727291
 2  1.727029  -1.8759913  0.40841096 0.59005227 1.5040774 1.5040774 0.44590325 0.44590325
 4  1.725193  -1.9017195  0.23718472 0.57837476 1.5040774 1.5040774 0.44223117 0.44223117
 6 1.6535783  -1.5774553  -1.1460892 0.71817541 1.5040774 1.5040774  0.2990019  0.2990019
60 1.7257183 -0.22035067  -3.3343206 0.82117313 1.5040774 1.5040774 0.44328181 0.44328181
 5 1.7260544 -0.40115936  -3.7023983 0.60595771 1.5040774 1.5040774 0.44395401 0.44395401
 2 1.7260294 -0.61969837  -3.4865388 0.41789102 1.5040774 1.5040774 0.44390392 0.44390392
 3 1.7255407 -1.1395895 0.060393128 0.86123166 1.5040774 1.5040774 0.44292664 0.44292664
 1 1.7280578 -1.1876049  -0.4480345 0.84752602 1.5040774 1.5040774 0.44796085 0.44796085
 1  1.725689 -1.5499772  0.51637551 0.56085339 1.5040774 1.5040774  0.4432233  0.4432233
 1  1.725052 -1.5247649  0.44369466 0.56094776 1.5040774 1.5040774 0.44194923 0.44194923
 1 2.0907917 -1.4931498  0.57341477 0.56589768 1.5040774 1.5040774  1.1734286  1.1734286
 1 1.7260521 -1.5539081  0.45404887 0.82921193 1.5040774 1.5040774 0.44394947 0.44394947
12 1.7257833 -1.5928671 -0.48929507 0.84086067 1.5040774 1.5040774 0.44341173 0.44341173
 4 1.7259911 -0.6378603  -3.3097972 0.86020135 1.5040774 1.5040774 0.44382746 0.44382746
 2 1.7260545 -1.9094041  -3.9393706 0.78180367 1.5040774 1.5040774 0.44395424 0.44395424
11 1.7260545 -1.8428615  -3.8651103 0.82084166 1.5040774 1.5040774 0.44395424 0.44395424
14  1.726054 -1.9613998  -3.1660528 0.73666981 1.5040774 1.5040774 0.44395321 0.44395321
 3 1.7260543 -1.9587962  -3.2120388 0.73700112 1.5040774 1.5040774 0.44395374 0.44395374
 3 1.7086847 -1.8319749  -1.9693533  0.7461238 1.5040774 1.5040774 0.40921457 0.40921457
 9 1.7239483 -1.7908771 -0.73034153 0.73088952 1.5040774 1.5040774 0.43974186 0.43974186
 2 1.7215845 -1.9081999  -1.7613559 0.84537085 1.5040774 1.5040774 0.43501415 0.43501415
 6 1.5661118 -1.2963556   -1.790533  0.8805665 1.5040774 1.5040774 0.12406871 0.12406871
 2 1.7360319  -1.474655 -0.58536402  0.7128292 1.5040774 1.5040774 0.46390905 0.46390905
 2 1.5773635 -1.6209075  -1.8173083 0.61129913 1.5040774 1.5040774 0.14657226 0.14657226
 4 1.7260443 -1.8336832  -3.0782035 0.52025669 1.5040774 1.5040774 0.44393376 0.44393376
10 1.7260514 -1.9862999  -3.1192135  0.4863878 1.5040774 1.5040774 0.44394792 0.44394792
 4 1.7260303 -1.7653566  -3.1340966 0.42053976 1.5040774 1.5040774 0.44390584 0.44390584
 1 1.7260441 -1.7592873  -3.1930935 0.41848292 1.5040774 1.5040774 0.44393344 0.44393344
 2 1.7260545 -1.6425932  -3.5624249 0.56007368 1.5040774 1.5040774 0.44395423 0.44395423
 4 1.7260533 -1.9469396  -3.1741953 0.51340459 1.5040774 1.5040774 0.44395178 0.44395178
 5 1.7260526 -1.9493545  -3.1428281 0.51509689 1.5040774 1.5040774 0.44395038 0.44395038
 2 1.5685213 -1.8590921  -1.5751459 0.55121594 1.5040774 1.5040774 0.12888776 0.12888776
 5 1.5590415 -1.8979395  -1.2618463 0.55662415 1.5040774 1.5040774 0.10992822 0.10992822
 1 2.6580352 -1.6480274  -1.4062981 0.61453259 1.5040774 1.5040774  2.3079155  2.3079155
 9 1.7024202 -1.6755885  -2.1348296 0.66386429 1.5040774 1.5040774 0.39668566 0.39668566
 2 1.5965588 -1.5406656  -1.9339918 0.73934155 1.5040774 1.5040774 0.18496274 0.18496274
 7 1.7260545 -1.5222181   -3.676119 0.83411885 1.5040774 1.5040774 0.44395423 0.44395423
 2 1.7260544 -1.7611264  -3.3313068 0.83166894 1.5040774 1.5040774 0.44395404 0.44395404
 3 1.5245413 -1.7494188  -1.4708504 0.56183874 1.5040774 1.5040774 0.04092774 0.04092774
 5  1.676338 -1.9497561  -1.5563331 0.65702862 1.5040774 1.5040774 0.34452116 0.34452116
10 1.7259903 -1.5124092  -3.0330186 0.83706004 1.5040774 1.5040774 0.44382588 0.44382588
 1 1.7256338 -1.5446053  -3.0351214 0.42369225 1.5040774 1.5040774 0.44311287 0.44311287
 4 1.7257026 -1.7441121  -2.6973647 0.65566264 1.5040774 1.5040774 0.44325046 0.44325046
 3 1.7092767  -1.767606  -2.1686258 0.69292241 1.5040774 1.5040774 0.41039857 0.41039857
 3 1.7191071 -1.4933263 -0.74262892 0.77213117 1.5040774 1.5040774 0.43005933 0.43005933
 7 1.7249978  -1.232328  -2.9505964 0.83345635 1.5040774 1.5040774 0.44184072 0.44184072
 3 1.7253857 -1.2148864   -2.9928581 0.83374431 1.5040774 1.5040774 0.44261655 0.44261655
 2 1.7177751 -1.7276144   -2.3198272 0.80715313 1.5040774 1.5040774 0.42739535 0.42739535
 9 1.7258298 -1.7559366  -0.40164165 0.75472004 1.5040774 1.5040774 0.44350473 0.44350473
 2 1.7142412 -1.8886138   -1.9378971 0.75130454 1.5040774 1.5040774 0.42032768 0.42032768
 7 1.7260545 -1.7703384   -3.4580912 0.77282577 1.5040774 1.5040774 0.44395422 0.44395422
 1 1.7260545 -1.6271324   -3.5648995 0.53431194 1.5040774 1.5040774 0.44395423 0.44395423
 5 1.6514163 -1.2896924    -2.434682 0.58478941 1.5040774 1.5040774 0.29467788 0.29467788
 3 1.7260545 -1.3022152   -3.8974435 0.42267008 1.5040774 1.5040774 0.44395424 0.44395424
10 1.6784319 -1.5535532    -2.146345 0.67876462 1.5040774 1.5040774 0.34870905 0.34870905
 1 1.7231714 -1.9212512   -2.3111908  0.7238196 1.5040774 1.5040774 0.43818803 0.43818803
 2 1.7229857 -1.9191816   -2.2164409  0.6128568 1.5040774 1.5040774 0.43781663 0.43781663
 4 1.7260432  -1.219042   -3.2164833 0.62511401 1.5040774 1.5040774 0.44393168 0.44393168
 9  1.726054 -1.2273566   -3.5569526 0.41165757 1.5040774 1.5040774 0.44395326 0.44395326
 2  1.677534  -1.500583   -1.7497455 0.48028369 1.5040774 1.5040774 0.34691327 0.34691327
 2 1.6615659 -1.7139324   -1.6535271 0.42781524 1.5040774 1.5040774 0.31497691 0.31497691
 7 1.6011543 -1.5079234   -2.1313821 0.56339996 1.5040774 1.5040774 0.19415382 0.19415382
 3 1.5766915 -1.5160397   -2.0439282 0.56946404 1.5040774 1.5040774 0.14522822 0.14522822
 3  1.722576 -1.8598762 -0.011918595 0.66365378 1.5040774 1.5040774 0.43699718 0.43699718
 3 1.7260545 -1.7336998   -3.5579079 0.48512246 1.5040774 1.5040774 0.44395422 0.44395422
 2 1.7258817 -1.9022676   -2.7180873 0.66264026 1.5040774 1.5040774 0.44360864 0.44360864
 9  1.725177 -1.8765008   -2.4728093 0.60439281 1.5040774 1.5040774 0.44219914 0.44219914
 2 1.5845545 -1.6025639   -1.8412807  0.6254896 1.5040774 1.5040774 0.16095415 0.16095415
10 1.9414296 -1.5465856   -0.9043915 0.51140362 1.5040774 1.5040774 0.87470431 0.87470431
 3 2.0450256 -1.5274434  -0.79892762 0.52113988 1.5040774 1.5040774  1.0818965  1.0818965
 2 2.2549865  -1.436613   -0.7886562 0.50512096 1.5040774 1.5040774  1.5018182  1.5018182
 1 1.7328066 -1.9671478   0.60204373 0.67969806 1.5040774 1.5040774 0.45745835 0.45745835
15 1.7256452 -1.4469268  -0.40316777 0.86091887 1.5040774 1.5040774  0.4431357  0.4431357
 2 1.7260187 -1.4847634 -0.056901058 0.86743864 1.5040774 1.5040774 0.44388271 0.44388271
 6 1.7260516 -1.5470123   0.39867886 0.83570125 1.5040774 1.5040774 0.44394841 0.44394841
 7 1.7207997 -1.3877181   -2.8679217 0.47116726 1.5040774 1.5040774 0.43344454 0.43344454
 6 1.7258048 -1.3758164    -2.928834 0.66456974 1.5040774 1.5040774 0.44345488 0.44345488
 2 1.7215616 -1.7770622   -2.3965197 0.67981299 1.5040774 1.5040774 0.43496846 0.43496846
 3 1.7228479 -1.7561221   -2.4516067 0.67238742 1.5040774 1.5040774   0.437541   0.437541
 4 1.7118667 -1.8176019   -2.1236295  0.7114854 1.5040774 1.5040774 0.41557859 0.41557859
 2 1.7252668 -1.5608972    -2.729317 0.66517217 1.5040774 1.5040774 0.44237877 0.44237877
 1 1.7208317 -1.2900574   -2.7007962 0.66132154 1.5040774 1.5040774 0.43350851 0.43350851
19 1.7260545 -1.1288627   -3.8854402 0.63772193 1.5040774 1.5040774 0.44395424 0.44395424
 2 1.7260545  -1.239797   -3.7186664 0.53985211 1.5040774 1.5040774 0.44395423 0.44395423
 9 1.7260545 -1.4274688   -3.8458808 0.59086899 1.5040774 1.5040774 0.44395424 0.44395424
 3 1.7260545 -1.4154438   -3.6095036 0.59090015 1.5040774 1.5040774 0.44395423 0.44395423
 4  1.757835  -1.3749153 -1.8964579 0.64200662 1.5040774 1.5040774  0.5075152  0.5075152
 1 1.7257469  -1.4414923 -2.9904902 0.54573844 1.5040774 1.5040774  0.4433391  0.4433391
 3 1.7259389  -1.4031671 -3.0539057 0.56571008 1.5040774 1.5040774  0.4437231  0.4437231
 5 1.7260545  -1.4701235 -3.4680357 0.59805267 1.5040774 1.5040774 0.44395418 0.44395418
 2 1.7260545  -1.5056321 -3.7645173 0.53713919 1.5040774 1.5040774 0.44395424 0.44395424
 4 1.7260314  -1.3932527 -3.1280416  0.5961668 1.5040774 1.5040774 0.44390805 0.44390805
 9 1.7259861  -1.4005698  -3.066136 0.58529595 1.5040774 1.5040774 0.44381738 0.44381738
 2 1.7260545  -1.2343553 -3.6223261 0.65364783 1.5040774 1.5040774 0.44395423 0.44395423
 2 1.7260545 -0.96359229   -3.90465  0.7758593 1.5040774 1.5040774 0.44395424 0.44395424
 7 1.7260545 -0.87956726 -3.9343503 0.50393283 1.5040774 1.5040774 0.44395424 0.44395424
 1 1.7260515  -1.0345929 -3.4272123 0.53917452 1.5040774 1.5040774 0.44394815 0.44394815
 2 1.7260433 -0.99897369 -3.3655588 0.54549729 1.5040774 1.5040774 0.44393189 0.44393189
 3 1.7253572   -1.073006 -3.1074043 0.53632938 1.5040774 1.5040774 0.44255962 0.44255962
 3 1.7179931  -1.3649894 -2.7422179 0.54855879 1.5040774 1.5040774 0.42783141 0.42783141
 2 1.7260545  -1.9180362 -3.8124512 0.78238634 1.5040774 1.5040774 0.44395424 0.44395424
35 1.7260545  -1.9718147 -3.6203541 0.79036548 1.5040774 1.5040774 0.44395424 0.44395424
 9 1.7260468  -1.9914051 -2.9519427 0.86027317 1.5040774 1.5040774 0.44393886 0.44393886
 2 1.7181496  -1.6622681 -2.4154638 0.81471374 1.5040774 1.5040774 0.42814447 0.42814447
 2 1.6500069  -1.8953529 -1.7198643 0.58453216 1.5040774 1.5040774 0.29185906 0.29185906
 3 1.7260537  -1.6503751 -3.2580472 0.80563787 1.5040774 1.5040774 0.44395268 0.44395268
 4 1.7260461   -1.385049   -3.169138 0.69574463 1.5040774 1.5040774 0.44393742 0.44393742
 1 1.5846753  -1.4640383  -1.5272365 0.72858698 1.5040774 1.5040774 0.16119583 0.16119583
 1 1.8960353  -1.4120095  -1.5418339 0.69337878 1.5040774 1.5040774 0.78391587 0.78391587
 2 2.7693338 -0.40924534  -2.7257193 0.81796669 1.5040774 1.5040774  2.5305128  2.5305128
16  1.770793  -0.4575413  -2.8672873 0.86457229 1.5040774 1.5040774 0.53343118 0.53343118
13 1.7260516 -0.26396749  -3.5619401 0.69527095 1.5040774 1.5040774 0.44394831 0.44394831
 2 1.7260452 -0.26529373  -3.4596845 0.68116086 1.5040774 1.5040774  0.4439357  0.4439357
 9 1.7205955  -1.1725787  0.95274369 0.89639053 1.5040774 1.5040774 0.43303624 0.43303624
 5 1.7242578  -1.4390972 -0.59186145 0.83534843 1.5040774 1.5040774 0.44036072 0.44036072
 3 1.7059215 -0.55650899  -2.9114137 0.81703231 1.5040774 1.5040774 0.40368817 0.40368817
12 1.7198922 -0.65208087  -2.6551301 0.76705541 1.5040774 1.5040774 0.43162956 0.43162956
 1 1.7260263  -1.6960685 -0.39972078  0.8955987 1.5040774 1.5040774 0.44389775 0.44389775
 2 1.7194768  -1.6678277 -0.58086911  0.7088377 1.5040774 1.5040774 0.43079877 0.43079877
 6  1.718265  -1.6638756 -0.60890852  0.7089268 1.5040774 1.5040774 0.42837522 0.42837522
 3 3.2401686  -1.6041341 -0.96849313  0.6578787 1.5040774 1.5040774  3.4721823  3.4721823
11 1.7247316   -1.660144  -2.6021468 0.61983089 1.5040774 1.5040774 0.44130836 0.44130836
 5  1.726051  -1.9707464  -3.0704851 0.53758882 1.5040774 1.5040774  0.4439473  0.4439473
 4 1.6918395  -1.8766026  -2.0038409 0.53954285 1.5040774 1.5040774 0.37552429 0.37552429
 7  1.684118  -1.8268391  -2.0185084 0.54622705 1.5040774 1.5040774 0.36008114 0.36008114
 2 1.7108276  -1.7483652  -2.1203656 0.65006858 1.5040774 1.5040774 0.41350036 0.41350036
 2 1.7258773 -1.7110332   -2.8068054 0.59859418 1.5040774 1.5040774  0.44359977  0.44359977
 8 1.7259582 -1.2823004   -3.0494281 0.70491108 1.5040774 1.5040774  0.44376156  0.44376156
 1 1.6570413 -1.3869439    -2.475195 0.52500712 1.5040774 1.5040774  0.30592773  0.30592773
 3   1.62115 -1.4611655    -1.574691 0.81326605 1.5040774 1.5040774  0.23414521  0.23414521
 1 1.8555943 -1.1868898   -2.0357987 0.75552117 1.5040774 1.5040774  0.70303374  0.70303374
 5 1.7259728 -1.8435158  -0.23769483 0.43727038 1.5040774 1.5040774  0.44379085  0.44379085
11 1.5432799 -1.7082952   -1.7111806 0.57518119 1.5040774 1.5040774 0.078404996 0.078404996
 1 1.6783868 -1.3316109   -2.4888566 0.57593166 1.5040774 1.5040774  0.34861886  0.34861886
 1 1.7222805 -1.5536812 -0.038670939 0.70019053 1.5040774 1.5040774  0.43640615  0.43640615
 1 1.7260378 -1.9279331  -0.61491613 0.87779247 1.5040774 1.5040774  0.44392083  0.44392083
 2 1.7260304 -1.9006353  -0.64895682 0.88378836 1.5040774 1.5040774   0.4439061   0.4439061
 5 1.7260526 -1.8204463   -3.1392952   0.786827 1.5040774 1.5040774   0.4439504   0.4439504
 5 1.7260223  -1.954326   -2.8469473 0.88572652 1.5040774 1.5040774  0.44388987  0.44388987
 1 1.7221365 -1.5181945   -2.6542394 0.85276052 1.5040774 1.5040774  0.43611811  0.43611811
 2 1.7229617  -1.466825   -2.7217196 0.73941089 1.5040774 1.5040774   0.4377687   0.4377687
 2 1.7244018 -1.6183106   -2.6889112  0.7275738 1.5040774 1.5040774  0.44064888  0.44064888
 1 1.7256774 -1.5929004   -2.8529942  0.7276943 1.5040774 1.5040774  0.44319999  0.44319999
 4 1.7080587 -1.0665772   -2.8643604 0.53024997 1.5040774 1.5040774  0.40796268  0.40796268
 2 1.7241005 -1.3906891  -0.97438954 0.79811921 1.5040774 1.5040774   0.4400463   0.4400463
 2 1.7256781 -1.5464343     0.443287 0.70333933 1.5040774 1.5040774  0.44320143  0.44320143
10 1.7258138 -1.6957175 -0.23595789 0.73845694 1.5040774 1.5040774  0.4434729  0.4434729
 2 1.7259605 -1.5096679 0.097210594 0.77432975 1.5040774 1.5040774 0.44376613 0.44376613
 5 1.7256622 -1.3717213 0.072434327 0.77889156 1.5040774 1.5040774 0.44316964 0.44316964
 2 1.7253062 -1.5144682  -0.1835683 0.74977608 1.5040774 1.5040774 0.44245757 0.44245757
 2 1.7244355 -1.4851378 -0.34841577 0.76166607 1.5040774 1.5040774 0.44071612 0.44071612
 3 1.7257854  -1.657683 -0.35108458 0.77114872 1.5040774 1.5040774 0.44341608 0.44341608
 4 1.6129565 -1.3924028  -1.6383533 0.85199474 1.5040774 1.5040774 0.21775814 0.21775814
 1 1.6187842  -1.124733  -2.4907404 0.88179892 1.5040774 1.5040774 0.22941366 0.22941366
 4 1.6819822 -1.5962852 -0.92994472 0.70508705 1.5040774 1.5040774 0.35580963 0.35580963
 3 1.7161189 -1.6678243  -2.3997506 0.57340162 1.5040774 1.5040774   0.424083   0.424083
 2 1.7151926 -1.6583884  -2.4342549 0.55816194 1.5040774 1.5040774 0.42223043 0.42223043
 1 1.7171926 -1.7251022  -2.3964331 0.55785897 1.5040774 1.5040774 0.42623047 0.42623047
 1 1.7259014 -1.9174005 -0.31948006 0.47216915 1.5040774 1.5040774 0.44364798 0.44364798
 1 1.7258782 -1.9064173  -0.6041218 0.40773884 1.5040774 1.5040774 0.44360165 0.44360165
 5 1.7260544  -1.426121  -3.4541951 0.75151846 1.5040774 1.5040774 0.44395409 0.44395409
 3 1.7260544 -1.4602757   -3.437796 0.75352191 1.5040774 1.5040774 0.44395406 0.44395406
 3 1.7260542 -1.5185373  -3.3500724 0.76251179 1.5040774 1.5040774 0.44395357 0.44395357
 3 1.7260545 -1.3665488  -3.7318239 0.73401977 1.5040774 1.5040774 0.44395424 0.44395424
 3 1.7258599 -1.7943326    -2.79662 0.71333347 1.5040774 1.5040774 0.44356504 0.44356504
 8 1.7257652 -1.7066954  -2.7641603 0.66983169 1.5040774 1.5040774 0.44337551 0.44337551
 5 1.7252428 -1.9161994   -2.532401 0.73716313 1.5040774 1.5040774 0.44233081 0.44233081
 7 1.7259678 -1.9521216  -2.7761033 0.72339393 1.5040774 1.5040774 0.44378085 0.44378085
 3 1.7259596 -1.9704554  -2.7376496 0.83937833 1.5040774 1.5040774 0.44376436 0.44376436
 4 1.7249803 -1.4361597  -2.9361026 0.51105944 1.5040774 1.5040774 0.44180577 0.44180577
 1 1.7259303 -1.4042002  -3.1018124 0.51838072 1.5040774 1.5040774 0.44370588 0.44370588
 2 1.7259748 -1.7530353  -2.8595684 0.66658154 1.5040774 1.5040774 0.44379481 0.44379481
 4 1.7259192   -1.40353  -3.0268345 0.76156671 1.5040774 1.5040774 0.44368358 0.44368358
 1 1.7260545 -1.8427953  -3.4020909  0.7057925 1.5040774 1.5040774  0.4439542  0.4439542
 5 1.7260511 -1.7664115  -3.1834895 0.51528952 1.5040774 1.5040774 0.44394738 0.44394738
 1 1.7260422 -1.6560745  -3.0859525 0.72980586 1.5040774 1.5040774 0.44392962 0.44392962
 4 1.7110383 -1.9102041  -1.6520011 0.73552273 1.5040774 1.5040774 0.41392174 0.41392174
10 1.6479015 -1.5150318  -2.1574627 0.59479578 1.5040774 1.5040774 0.28764829 0.28764829
 8 1.6217483 -1.5043734  -2.0819672 0.60573001 1.5040774 1.5040774 0.23534177 0.23534177
 5 1.6908097 -1.7121255  -1.0667644 0.52407522 1.5040774 1.5040774 0.37346466 0.37346466
 2 1.8181947 -1.6779121 -0.87281269 0.54112452 1.5040774 1.5040774 0.62823455 0.62823455
 4 1.7167081 -1.9361891  -1.3036601 0.45462797 1.5040774 1.5040774 0.42526143 0.42526143
 7 1.7259988 -1.9117983  -2.9892096 0.43568022 1.5040774 1.5040774 0.44384276 0.44384276
 8 1.7167427 -1.9930443  -1.9859717 0.40325225 1.5040774 1.5040774 0.42533059 0.42533059
 8 1.7258833 -1.8947936  -2.8971318 0.44431706 1.5040774 1.5040774 0.44361171 0.44361171
 4  1.725548 -1.6104368  -2.8173097 0.81092845 1.5040774 1.5040774 0.44294119 0.44294119
 6 1.6142838 -1.5809079  -1.6365976  0.7582855 1.5040774 1.5040774 0.22041282 0.22041282
 5 1.7260545 -1.9981113  0.44850712 0.81004985 1.5040774 1.5040774 0.44395415 0.44395415
 7 1.7242485 -1.9380144 -0.93718058 0.45069618 1.5040774 1.5040774 0.44034212 0.44034212
 2 1.7258205 -1.5604745  0.52500627 0.55494831 1.5040774 1.5040774 0.44348627 0.44348627
 2 1.7308712 -1.7605855  0.37897752 0.58452038 1.5040774 1.5040774 0.45358752 0.45358752
 1 1.7232595 -1.6464315 -0.75877755 0.50427031 1.5040774 1.5040774 0.43836415 0.43836415
 3 1.6370434 -1.6414761  -1.5422735 0.74207623 1.5040774 1.5040774 0.26593208 0.26593208
 4 1.7258632 -1.9726434  -2.5865002 0.60462515 1.5040774 1.5040774 0.44357162 0.44357162
 1 1.7112257 -1.7465594   -1.131219 0.44760762 1.5040774 1.5040774 0.41429663 0.41429663
 2 1.7248067 -1.9093802 -0.98289284 0.41493028 1.5040774 1.5040774 0.44145855 0.44145855
 1 1.7247812 -1.9074084 -0.98019741 0.41566359 1.5040774 1.5040774 0.44140765 0.44140765
 2 1.7260545 -1.8808559  -3.4660802 0.63389432 1.5040774 1.5040774 0.44395423 0.44395423
 1 1.7260532  -1.991411  -3.0457672 0.64003003 1.5040774 1.5040774 0.44395169 0.44395169
 3 1.7092184 -1.6633214  -2.2812942 0.58767706 1.5040774 1.5040774 0.41028196 0.41028196
 4    1.6078 -1.1628886  -2.3375214 0.69607135 1.5040774 1.5040774 0.20744526 0.20744526
 2   1.72398 -1.6285812  -2.6507328 0.82126808 1.5040774 1.5040774 0.43980515 0.43980515
17 1.7228159 -1.9585986  -1.4088407 0.77891873 1.5040774 1.5040774 0.43747705 0.43747705
 3 1.7228781 -1.3958715 -0.63153424 0.78042716 1.5040774 1.5040774 0.43760132 0.43760132
 1  1.714092 -1.3746828  -1.2255142 0.81487107 1.5040774 1.5040774 0.42002916 0.42002916
 1 1.7260545 -1.0643676  -3.7255902 0.41348469 1.5040774 1.5040774 0.44395416 0.44395416
9 1.7100028  -1.7112434 -2.2193944 0.59420948 1.5040774 1.5040774  0.41185081  0.41185081
8 1.6867663  -1.9207515 -1.4866921 0.67881812 1.5040774 1.5040774  0.36537776  0.36537776
1 1.5486889  -1.9060538 -1.1794777 0.56526854 1.5040774 1.5040774 0.089222908 0.089222908
5  1.726014  -1.2385336 -3.1436183 0.61103338 1.5040774 1.5040774  0.44387328  0.44387328
1 1.7150635 -0.99538813 -2.9155205  0.5559906 1.5040774 1.5040774  0.42197222  0.42197222
2  1.726034 -0.95483964 -3.3019863 0.59662294 1.5040774 1.5040774  0.44391331  0.44391331
8 1.7238369 -0.72678035 -3.0791106 0.63454828 1.5040774 1.5040774  0.43951891  0.43951891
2 1.6979466 -0.78162973  -2.839665 0.64179812 1.5040774 1.5040774  0.38773837  0.38773837
1 1.7186186 -0.80230469 -2.9398125 0.79869991 1.5040774 1.5040774  0.42908233  0.42908233
5 1.7259155  -1.6037632 -2.9346558 0.75083795 1.5040774 1.5040774   0.4436763   0.4436763
5  1.623866  -1.4354196 -2.0673446 0.85095489 1.5040774 1.5040774   0.2395772   0.2395772
2 1.6580477 -0.75991762 -2.7010585 0.78276314 1.5040774 1.5040774  0.30794061  0.30794061
6 1.7260523 -0.91898212 -3.5524163 0.44282811 1.5040774 1.5040774  0.44394975  0.44394975
2 1.7260545 -0.47077882 -3.9001583 0.44973282 1.5040774 1.5040774  0.44395422  0.44395422
3  1.726051 -0.52556995 -3.5623802 0.47492045 1.5040774 1.5040774  0.44394721  0.44394721
7 2.8082456 -0.65483324 -2.9513364 0.43299011 1.5040774 1.5040774   2.6083363   2.6083363
5 1.7260555 -0.33306007 -3.7352405 0.47240799 1.5040774 1.5040774  0.44395628  0.44395628
1 1.7199332  -1.6223626 -2.4750102 0.59262703 1.5040774 1.5040774  0.43171164  0.43171164
1 1.7191684  -1.5039839 -2.5829297  0.7045113 1.5040774 1.5040774  0.43018206  0.43018206
2 1.5163036  -1.5385668 -1.6689276  0.7135148 1.5040774 1.5040774 0.024452487 0.024452487
 2 1.5239463  -1.4680229   -1.7562548 0.75029085 1.5040774 1.5040774 0.039737857 0.039737857
 1 1.7258933  -1.3716064   0.06710784 0.80919892 1.5040774 1.5040774  0.44363178  0.44363178
 9 1.7259391  -1.3419638 -0.090007002  0.8834157 1.5040774 1.5040774  0.44372345  0.44372345
 1 1.7260533  -1.6053094   0.44905072 0.83575718 1.5040774 1.5040774  0.44395171  0.44395171
 5 1.7251531  -1.6981773  -0.74553085 0.80471633 1.5040774 1.5040774  0.44215144  0.44215144
 2 1.6304911   -1.607955   -1.4477932 0.74169632 1.5040774 1.5040774  0.25282742  0.25282742
 2 1.7260541  -1.1558723   -3.4703047 0.55760194 1.5040774 1.5040774  0.44395336  0.44395336
10 1.7260523  -1.1231862   -3.3987654 0.55678931 1.5040774 1.5040774  0.44394975  0.44394975
 6 1.6730472 -0.76768676   -2.7351001 0.67345301 1.5040774 1.5040774  0.33793966  0.33793966
 5  1.669263 -0.82672438   -2.7127912 0.63023422 1.5040774 1.5040774  0.33037112  0.33037112
 1 1.7260545 -0.47294382   -3.6963544 0.73204051 1.5040774 1.5040774  0.44395412  0.44395412
 8 1.7260545 -0.43992588   -3.9276326 0.71867368 1.5040774 1.5040774  0.44395423  0.44395423
 1  1.725652 -0.40408317   -3.2530356 0.70091387 1.5040774 1.5040774  0.44314924  0.44314924
 4 1.7260427 -0.23144212   -3.4287324 0.70049573 1.5040774 1.5040774  0.44393054  0.44393054
12 1.7259512 -0.26427074   -3.3196043 0.71801781 1.5040774 1.5040774  0.44374769  0.44374769
 1 1.7267479 -0.21407811   -3.3159806 0.69133596 1.5040774 1.5040774  0.44534102  0.44534102
 1 1.7260534 -0.79903916   -3.5522424  0.5308735 1.5040774 1.5040774  0.44395199  0.44395199
 5 1.7260545  -1.7365176   -3.5367921   0.496191 1.5040774 1.5040774  0.44395422  0.44395422
 6 1.7260545   -1.361439   -3.7819708 0.53129062 1.5040774 1.5040774  0.44395424  0.44395424
 4 1.7260525  -1.4786718   -3.2854339 0.55562146 1.5040774 1.5040774   0.4439503   0.4439503
10 1.7260545  -1.5438136 -3.5831841 0.53837107 1.5040774 1.5040774  0.44395422  0.44395422
 8  1.726051 -0.54832431 -3.4433171 0.45480912 1.5040774 1.5040774  0.44394726  0.44394726
 4 1.7260545  -1.3570177 -3.7495899 0.56674421 1.5040774 1.5040774  0.44395424  0.44395424
 5 1.7260545 -0.99308395   -3.64081 0.71664126 1.5040774 1.5040774  0.44395422  0.44395422
 1 1.7260545  -1.0148225 -3.8156938 0.70801688 1.5040774 1.5040774  0.44395424  0.44395424
 2 1.7260545  -1.0267763 -3.9992941 0.79676035 1.5040774 1.5040774  0.44395424  0.44395424
 1 1.7133576  -1.4812479 -2.4381059 0.67156582 1.5040774 1.5040774  0.41856039  0.41856039
 5  1.725166  -1.9517957   -2.47194 0.76919252 1.5040774 1.5040774  0.44217728  0.44217728
 2 1.7260543  -1.8627197 -3.2536829 0.66580495 1.5040774 1.5040774  0.44395388  0.44395388
 3  1.726053  -1.9865052 -3.0525918 0.64862813 1.5040774 1.5040774   0.4439512   0.4439512
 4 1.6301876  -1.4437552 -1.8276355 0.87987856 1.5040774 1.5040774  0.25222049  0.25222049
 3 1.5165256  -1.5868888 -1.6125523 0.67403704 1.5040774 1.5040774 0.024896413 0.024896413
 3 1.7209376  -1.6168593  -2.766317 0.42316337 1.5040774 1.5040774  0.43372037  0.43372037
 1 1.6816352  -1.8013676 -1.3623987 0.47430027 1.5040774 1.5040774  0.35511552  0.35511552
 8 1.9231707   -1.493552 -1.2953772 0.46432432 1.5040774 1.5040774  0.83818669  0.83818669
 1 1.6662271  -1.5281125 -1.2505625 0.69370126 1.5040774 1.5040774  0.32429933  0.32429933
 2  1.825973   -1.391274 -1.5990522 0.69662303 1.5040774 1.5040774  0.64379113  0.64379113
 1 1.9176779  -1.3915753  -1.592521 0.69492106 1.5040774 1.5040774  0.82720101  0.82720101
 5  1.685505  -1.6548738 -2.0407172  0.6511273 1.5040774 1.5040774  0.36285521  0.36285521
 1 1.7260545  -1.9849501  0.6629376  0.8181868 1.5040774 1.5040774  0.44395419  0.44395419
 2 1.7258934  -1.7818902  0.96471593 0.76686835 1.5040774 1.5040774 0.44363206 0.44363206
 5 1.7260461  -1.4506909  0.53402158 0.78964675 1.5040774 1.5040774 0.44393744 0.44393744
 8 1.7260383  -1.4026793  0.53555496  0.7904833 1.5040774 1.5040774 0.44392185 0.44392185
 1 1.6214709  -1.6884299  -2.0017806 0.54343811 1.5040774 1.5040774 0.23478709 0.23478709
 1 1.7260507  -1.0820735  -3.3770568 0.56416494 1.5040774 1.5040774 0.44394651 0.44394651
 3 1.7209638  -1.9305861  -1.3899596  0.4096152 1.5040774 1.5040774 0.43377286 0.43377286
 1 1.7251666  -1.6703597 -0.87658757 0.86357612 1.5040774 1.5040774 0.44217836 0.44217836
 6 1.7258341   -1.689258  -0.6512077 0.86174174 1.5040774 1.5040774  0.4435135  0.4435135
 3 1.7256845  -1.6695618 -0.71390425 0.86264185 1.5040774 1.5040774 0.44321425 0.44321425
 7 1.7240488  -1.6579427 -0.94493987  0.8391119 1.5040774 1.5040774 0.43994277 0.43994277
 3 1.7260545 -0.60491297  -3.9695281 0.72256346 1.5040774 1.5040774 0.44395424 0.44395424
 2 1.7260534 -0.50924187  -3.5395271 0.71674086 1.5040774 1.5040774 0.44395209 0.44395209
 1 1.7260545 -0.44490092  -3.8030431 0.78841274 1.5040774 1.5040774 0.44395422 0.44395422
 4 1.6809348  -1.2208584  -2.5642634 0.85492283 1.5040774 1.5040774 0.35371476 0.35371476
13 1.7219762 -0.90234257  -2.9691373 0.80718552 1.5040774 1.5040774  0.4357976  0.4357976
 2 1.7260545 -0.54433769  -3.8020141  0.7808904 1.5040774 1.5040774 0.44395423 0.44395423
 5 1.7260544  -1.2433782  -3.4198781 0.68778033 1.5040774 1.5040774 0.44395392 0.44395392
11 1.7260545  -0.9131435  -3.9708098 0.65663874 1.5040774 1.5040774 0.44395424 0.44395424
22 1.7573879 -0.51848061  -3.1040857   0.530074 1.5040774 1.5040774 0.50662098 0.50662098
 1 1.7267914  -0.5276432  -3.4016523 0.40741697 1.5040774 1.5040774 0.44542803 0.44542803
 2  1.726051 -0.55027862   -3.4469443 0.45179685 1.5040774 1.5040774 0.44394718 0.44394718
 3 1.7265375 -0.43702385   -3.4226486 0.46533368 1.5040774 1.5040774 0.44492025 0.44492025
 6 1.7260544 -0.55113079   -3.7249005 0.50423389 1.5040774 1.5040774 0.44395396 0.44395396
 5 1.7260544  -0.5548124   -3.7151692 0.50510324 1.5040774 1.5040774 0.44395391 0.44395391
 6 1.7260465 -0.61786274   -3.5143932  0.5067197 1.5040774 1.5040774 0.44393815 0.44393815
 2 1.7253399 -0.81160635   -3.2300604 0.49818321 1.5040774 1.5040774 0.44252505 0.44252505
 6 1.7260528  -0.7078393   -3.5607691 0.52325709 1.5040774 1.5040774 0.44395078 0.44395078
 5 1.7260543 -0.76500065   -3.6568143  0.5024271 1.5040774 1.5040774 0.44395377 0.44395377
 9 1.7260466 -0.66208024   -3.5254251 0.47929239 1.5040774 1.5040774 0.44393834 0.44393834
 2 1.7231702 -0.70328544   -3.0871562 0.49867334 1.5040774 1.5040774 0.43818557 0.43818557
 3 1.7260545  -1.2654588   -3.9655361 0.54238089 1.5040774 1.5040774 0.44395424 0.44395424
 6 1.7260545  -1.5285071   -3.5691324 0.89026691 1.5040774 1.5040774 0.44395423 0.44395423
 2 1.7260532  -1.0309668   -3.3769713  0.6705985 1.5040774 1.5040774 0.44395169 0.44395169
 1 1.6998448  -1.4353343   -2.5737835 0.53002753 1.5040774 1.5040774 0.39153473 0.39153473
 1 1.7133389  -1.4870295   -2.6075076 0.54150572 1.5040774 1.5040774 0.41852304 0.41852304
 5 1.7260492  -1.7832734   0.84917412 0.73800604 1.5040774 1.5040774 0.44394352 0.44394352
 2  1.725366  -1.3356132 -0.019378084 0.78676936 1.5040774 1.5040774 0.44257714 0.44257714
30 1.7936309  -1.1117499 -0.058093318 0.76863982 1.5040774 1.5040774 0.57910692 0.57910692
 2 1.7114967  -1.9470578    -2.029705 0.56456121 1.5040774 1.5040774 0.41483869 0.41483869
 4 1.7260545  -1.9919088   -3.2732123 0.89617506 1.5040774 1.5040774 0.44395413 0.44395413
5 1.7241555  -1.8761672  -2.6742253 0.41939038 1.5040774 1.5040774  0.44015621  0.44015621
1 1.7055077  -1.6046202  -1.4040907 0.50624223 1.5040774 1.5040774  0.40286067  0.40286067
6 1.5514883  -1.5409544  -1.7661555 0.47440046 1.5040774 1.5040774 0.094821712 0.094821712
1 1.7260446  -1.5086153  0.55695085 0.75667845 1.5040774 1.5040774  0.44393434  0.44393434
3 1.7258198  -1.4340449 -0.16523791 0.82267476 1.5040774 1.5040774  0.44348488  0.44348488
5 1.7143876  -1.4174147  -1.0753784 0.86590578 1.5040774 1.5040774  0.42062042  0.42062042
1 1.5861365   -1.000687  -2.3931833  0.8753265 1.5040774 1.5040774  0.16411815  0.16411815
2 1.9999435 -0.96766389    -2.27344 0.89224664 1.5040774 1.5040774  0.99173221  0.99173221
1 1.7248295  -1.8940452  -1.1477726 0.80782638 1.5040774 1.5040774  0.44150423  0.44150423
2 1.7260544  -1.9334633  0.22310837 0.85712396 1.5040774 1.5040774    0.443954    0.443954
1 1.6108792  -1.4391373  -1.5848105 0.81399732 1.5040774 1.5040774  0.21360354  0.21360354
1 1.7154923  -1.8315808  -2.1795201 0.69212041 1.5040774 1.5040774  0.42282986  0.42282986
5  1.642809  -1.6866298  -1.2877319 0.50206713 1.5040774 1.5040774  0.27746329  0.27746329
2 1.6810944  -1.7594124  -1.3312284 0.71699873 1.5040774 1.5040774  0.35403394  0.35403394
2 1.6975922  -1.7323718  -1.1855168 0.72746348 1.5040774 1.5040774  0.38702959  0.38702959
1 1.8961166  -1.6784892  -0.6935342 0.55668298 1.5040774 1.5040774  0.78407843  0.78407843
1 2.4470678  -1.2189202  -2.2514458 0.48080966 1.5040774 1.5040774   1.8859808   1.8859808
5  2.621958  -1.2182548  -2.2376574 0.47905003 1.5040774 1.5040774   2.2357613   2.2357613
6 1.6701528  -1.9524623  -1.2488252 0.65222623 1.5040774 1.5040774  0.33215081  0.33215081
1 1.6703841  -1.9524818  -1.2487178  0.6522412 1.5040774 1.5040774  0.33261335  0.33261335
 1 1.7260545  -1.4656574  -3.6644205 0.83735159 1.5040774 1.5040774 0.44395423 0.44395423
 2 1.7259601 -0.94172067  -3.2148445 0.85239972 1.5040774 1.5040774 0.44376546 0.44376546
 1 1.8362559  -1.0940585 -0.53605114 0.83959682 1.5040774 1.5040774 0.66435691 0.66435691
 1  1.725246  -1.3923404 -0.31129238 0.82101694 1.5040774 1.5040774 0.44233724 0.44233724
 2  1.726015  -1.6085445 -0.14252556 0.82298869 1.5040774 1.5040774 0.44387521 0.44387521
 8 1.7378884  -1.6918971  0.36208626 0.64552164 1.5040774 1.5040774 0.46762194 0.46762194
12 1.7276752  -1.8660202  0.95199081 0.60125883 1.5040774 1.5040774 0.44719561 0.44719561
 5 1.7249972  -1.9239356  0.74415009 0.57129809 1.5040774 1.5040774 0.44183954 0.44183954
 2 1.9005954  -1.9184593  0.79244515 0.55138306 1.5040774 1.5040774 0.79303602 0.79303602
 4 1.7487568  -1.5268138 -0.22197941 0.54756023 1.5040774 1.5040774 0.48935878 0.48935878
 3 1.7274654  -1.4894174  0.74669114 0.86401152 1.5040774 1.5040774 0.44677607 0.44677607
 7 1.7260522  -1.5289128  0.85183491 0.82303118 1.5040774 1.5040774 0.44394967 0.44394967
 7 1.7260545  -1.9861022   0.7984856 0.88689594 1.5040774 1.5040774 0.44395418 0.44395418
 1  1.726054  -1.7670788  0.51661575 0.79253605 1.5040774 1.5040774 0.44395327 0.44395327
16 1.7238458   -1.948937  -2.1681912 0.86920627 1.5040774 1.5040774 0.43953682 0.43953682
11 1.7218426  -1.7914057  -2.3893904 0.77261253 1.5040774 1.5040774 0.43553044 0.43553044
 7 1.6329788  -1.3547349  -2.3047976 0.74490832 1.5040774 1.5040774 0.25780287 0.25780287
 2 1.7243432  -1.6728017  -0.3827734 0.71506891 1.5040774 1.5040774 0.44053163 0.44053163
 3 1.7260512  -1.9431096  0.75662049 0.72951183 1.5040774 1.5040774  0.4439477  0.4439477
31 1.7024594  -1.6932498  0.99308952 0.40079536 1.5040774 1.5040774 0.39676407 0.39676407
 1 1.7218872  -1.3267617  -2.9517728  0.4404974 1.5040774 1.5040774   0.43561952   0.43561952
 3 1.7209429  -1.3784771  -2.8733053 0.47365831 1.5040774 1.5040774   0.43373098   0.43373098
 1 1.7173701  -1.4790392  -2.7303809 0.49463637 1.5040774 1.5040774   0.42658533   0.42658533
 1 1.5058249  -1.7001754  -1.6629712 0.53540714 1.5040774 1.5040774 0.0034949879 0.0034949879
12 1.5052217  -1.6977765  -1.6611254 0.53570364 1.5040774 1.5040774  0.002288521  0.002288521
 6 1.7260534  -1.9011335  0.96890798 0.89875821 1.5040774 1.5040774   0.44395206   0.44395206
 5 1.7260541  -1.8925304 0.013887423 0.86039199 1.5040774 1.5040774   0.44395332   0.44395332
 7 1.7260328  -1.8217576 0.054019701  0.7219172 1.5040774 1.5040774   0.44391072   0.44391072
 2 1.7247317    -1.71393  0.04207097 0.68139723 1.5040774 1.5040774   0.44130852   0.44130852
 1 1.5407698  -1.7192515  -0.9505184 0.66154453 1.5040774 1.5040774   0.07338478   0.07338478
 2 1.9661146  -1.4853043  -1.1374429 0.47237908 1.5040774 1.5040774   0.92407439   0.92407439
 5 1.7995148  -1.4984836  -1.2846167 0.44591667 1.5040774 1.5040774   0.59087474   0.59087474
 6 1.7258526  -1.4845892  -3.0079679 0.53986253 1.5040774 1.5040774   0.44355045   0.44355045
 9  2.393003 -0.37509248  -2.7873996 0.79606866 1.5040774 1.5040774    1.7778513    1.7778513
 3 1.7008556 -0.92855835  -2.7966418 0.80032181 1.5040774 1.5040774   0.39355639   0.39355639
 1 1.7421744  -1.3171859   -1.184014 0.84397181 1.5040774 1.5040774     0.476194     0.476194
 8 1.5819329 -0.99273445   -2.403911 0.75800938 1.5040774 1.5040774   0.15571106   0.15571106
 2 1.7151437 -0.90120403   -2.853318 0.76466317 1.5040774 1.5040774   0.42213264   0.42213264
 4 1.7390572 -0.48551379  -2.9944309 0.64840861 1.5040774 1.5040774   0.46995966   0.46995966
 6 1.8731898 -0.33495659  -2.9890884 0.69276113 1.5040774 1.5040774   0.73822478   0.73822478
14 1.8475139 -0.36060254  -2.9847351 0.68422026 1.5040774 1.5040774  0.68687309  0.68687309
 2 1.7208049  -1.6620685  -1.3241593 0.89797849 1.5040774 1.5040774  0.43345497  0.43345497
 1 1.7245481  -1.7994116  -1.2318233 0.87526522 1.5040774 1.5040774   0.4409414   0.4409414
 3  1.723547  -1.3120454 -0.24885926 0.43235789 1.5040774 1.5040774  0.43893929  0.43893929
21 1.7235199  -1.2960923 -0.21853043 0.40578427 1.5040774 1.5040774  0.43888504  0.43888504
 6 1.9554513  -1.3602181 -0.38177734  0.5237441 1.5040774 1.5040774  0.90274775  0.90274775
 2  1.724383  -1.4145228  -2.7398684 0.66809623 1.5040774 1.5040774  0.44061112  0.44061112
 4 1.7260543 -0.92762824  -3.5340216 0.83013711 1.5040774 1.5040774  0.44395379  0.44395379
 7 1.7238025  -1.9712336 -0.55427723  0.6687501 1.5040774 1.5040774  0.43945016  0.43945016
 2 1.6800265  -1.9862047   -1.342667 0.52159573 1.5040774 1.5040774   0.3518983   0.3518983
 2 1.5553318  -1.5058426  -2.1348814 0.51700198 1.5040774 1.5040774   0.1025089   0.1025089
 6 1.5314129    -1.51779  -2.0403435 0.52033529 1.5040774 1.5040774 0.054670999 0.054670999
11 1.5145348  -1.5493857  -1.9332594 0.51348837 1.5040774 1.5040774 0.020914837 0.020914837
