\relax 
\providecommand\hyper@newdestlabel[2]{}
\providecommand\HyperFirstAtBeginDocument{\AtBeginDocument}
\HyperFirstAtBeginDocument{\ifx\hyper@anchor\@undefined
\global\let\oldcontentsline\contentsline
\gdef\contentsline#1#2#3#4{\oldcontentsline{#1}{#2}{#3}}
\global\let\oldnewlabel\newlabel
\gdef\newlabel#1#2{\newlabelxx{#1}#2}
\gdef\newlabelxx#1#2#3#4#5#6{\oldnewlabel{#1}{{#2}{#3}}}
\AtEndDocument{\ifx\hyper@anchor\@undefined
\let\contentsline\oldcontentsline
\let\newlabel\oldnewlabel
\fi}
\fi}
\global\let\hyper@last\relax 
\gdef\HyperFirstAtBeginDocument#1{#1}
\providecommand\HyField@AuxAddToFields[1]{}
\providecommand\HyField@AuxAddToCoFields[2]{}
\@writefile{toc}{\contentsline {section}{\numberline {1}Fixed tempertature runs}{1}{section.1}}
\@writefile{toc}{\contentsline {subsection}{\numberline {1.1}$T = 100$ GeV}{1}{subsection.1.1}}
\@writefile{lof}{\contentsline {figure}{\numberline {1}{\ignorespaces Triangle plots from $v_w= 0.5,0.6,0.7,0.8,0.9$,$\alpha = 0.1$, $r_* = 0.1$ and $T_* = 100 GeV$ }}{1}{figure.1}}
\@writefile{lof}{\contentsline {figure}{\numberline {2}{\ignorespaces Triangle plots from $v_w= 0.5,0.6,0.7,0.8,0.9$,$\alpha = 0.1$, $r_* = 0.01$ and $T_* = 100 GeV$ }}{3}{figure.2}}
\@writefile{lof}{\contentsline {figure}{\numberline {3}{\ignorespaces Triangle plots from $v_w= 0.5,0.6,0.7,0.8,0.9$,$\alpha = 0.05$, $r_* = 0.1$ and $T_* = 100 GeV$ }}{5}{figure.3}}
\@writefile{lof}{\contentsline {figure}{\numberline {4}{\ignorespaces Triangle plots from $v_w= 0.5,0.6,0.7,0.8,0.9$,$\alpha = 0.05$, $r_* = 0.01$ and $T_* = 100 GeV$ }}{6}{figure.4}}
\@writefile{toc}{\contentsline {subsection}{\numberline {1.2}$T= 1000$GeV}{7}{subsection.1.2}}
\@writefile{lof}{\contentsline {figure}{\numberline {5}{\ignorespaces Triangle plots from $v_w= 0.5,0.6,0.7,0.8,0.9$,$\alpha = 0.1$, $r_* = 0.1 $and $T_* = 1000 GeV$ }}{8}{figure.5}}
\@writefile{lof}{\contentsline {figure}{\numberline {6}{\ignorespaces Triangle plots from $v_w= 0.5,0.6,0.7,0.8,0.9$,$\alpha = 0.1$, $r_* = 0.01$ and $T_* = 1000 GeV$ }}{9}{figure.6}}
\@writefile{lof}{\contentsline {figure}{\numberline {7}{\ignorespaces Triangle plots from $v_w= 0.5,0.6,0.7,0.8,0.9$,$\alpha = 0.05$, $r_* = 0.1$ and $T_* = 1000 GeV$ }}{10}{figure.7}}
\@writefile{lof}{\contentsline {figure}{\numberline {8}{\ignorespaces Triangle plots from $v_w= 0.5,0.6,0.7,0.8,0.9$,$\alpha = 0.05$, $r_* = 0.01$ and $T_* = 1000 GeV$ }}{11}{figure.8}}
\@writefile{toc}{\contentsline {section}{\numberline {2}Compact binary foreground}{12}{section.2}}
\@writefile{lof}{\contentsline {figure}{\numberline {9}{\ignorespaces Triangle plots from $v_w= 0.5,0.6,0.7$,$\alpha = 0.1$, $r_* = 0.1 $and $T_* = 1000 GeV$ }}{13}{figure.9}}
\@writefile{lof}{\contentsline {figure}{\numberline {10}{\ignorespaces Triangle plots from $v_w= 0.8,0.9$,$\alpha = 0.1$, $r_* = 0.1 $and $T_* = 1000 GeV$ }}{14}{figure.10}}
