sed: can't read emacs: No such file or directory
I am doing vw0_9alpha0_1rs0_1_T100_0/ssmtools_vw0_9_al0_1_rs0_1_T100_0.yaml
I am doing vw0_9alpha0_1rs0_1_T100_0/ssmtools_vw0_9_al0_1_rs0_1_T100_0.yaml
I am doing vw0_9alpha0_1rs0_1_T100_0/ssmtools_vw0_9_al0_1_rs0_1_T100_0.yaml
I am doing vw0_9alpha0_1rs0_1_T100_0/ssmtools_vw0_9_al0_1_rs0_1_T100_0.yaml
I am doing vw0_9alpha0_1rs0_1_T100_0/ssmtools_vw0_9_al0_1_rs0_1_T100_0.yaml
I am doing vw0_9alpha0_1rs0_1_T100_0/ssmtools_vw0_9_al0_1_rs0_1_T100_0.yaml
I am doing vw0_9alpha0_1rs0_1_T100_0/ssmtools_vw0_9_al0_1_rs0_1_T100_0.yaml
I am doing vw0_9alpha0_1rs0_1_T100_0/ssmtools_vw0_9_al0_1_rs0_1_T100_0.yaml
I am doing vw0_9alpha0_1rs0_1_T100_0/ssmtools_vw0_9_al0_1_rs0_1_T100_0.yaml
I am doing vw0_9alpha0_1rs0_1_T100_0/ssmtools_vw0_9_al0_1_rs0_1_T100_0.yaml
I am doing vw0_9alpha0_1rs0_1_T100_0/ssmtools_vw0_9_al0_1_rs0_1_T100_0.yaml
I am doing vw0_9alpha0_1rs0_1_T100_0/ssmtools_vw0_9_al0_1_rs0_1_T100_0.yaml
I am doing vw0_9alpha0_1rs0_1_T100_0/ssmtools_vw0_9_al0_1_rs0_1_T100_0.yaml
I am doing vw0_9alpha0_1rs0_1_T100_0/ssmtools_vw0_9_al0_1_rs0_1_T100_0.yaml
I am doing vw0_9alpha0_1rs0_1_T100_0/ssmtools_vw0_9_al0_1_rs0_1_T100_0.yaml
I am doing vw0_9alpha0_1rs0_1_T100_0/ssmtools_vw0_9_al0_1_rs0_1_T100_0.yaml
I am doing vw0_9alpha0_1rs0_1_T100_0/ssmtools_vw0_9_al0_1_rs0_1_T100_0.yaml
I am doing vw0_9alpha0_1rs0_1_T100_0/ssmtools_vw0_9_al0_1_rs0_1_T100_0.yaml
I am doing vw0_9alpha0_1rs0_1_T100_0/ssmtools_vw0_9_al0_1_rs0_1_T100_0.yaml
I am doing vw0_9alpha0_1rs0_1_T100_0/ssmtools_vw0_9_al0_1_rs0_1_T100_0.yaml
I am doing vw0_9alpha0_1rs0_1_T100_0/ssmtools_vw0_9_al0_1_rs0_1_T100_0.yaml
I am doing vw0_9alpha0_1rs0_1_T100_0/ssmtools_vw0_9_al0_1_rs0_1_T100_0.yaml
I am doing vw0_9alpha0_1rs0_1_T100_0/ssmtools_vw0_9_al0_1_rs0_1_T100_0.yaml
I am doing vw0_9alpha0_1rs0_1_T100_0/ssmtools_vw0_9_al0_1_rs0_1_T100_0.yaml
I am doing vw0_9alpha0_1rs0_1_T100_0/ssmtools_vw0_9_al0_1_rs0_1_T100_0.yaml
I am doing vw0_9alpha0_1rs0_1_T100_0/ssmtools_vw0_9_al0_1_rs0_1_T100_0.yaml
I am doing vw0_9alpha0_1rs0_1_T100_0/ssmtools_vw0_9_al0_1_rs0_1_T100_0.yaml
I am doing vw0_9alpha0_1rs0_1_T100_0/ssmtools_vw0_9_al0_1_rs0_1_T100_0.yaml
I am doing vw0_9alpha0_1rs0_1_T100_0/ssmtools_vw0_9_al0_1_rs0_1_T100_0.yaml
I am doing vw0_9alpha0_1rs0_1_T100_0/ssmtools_vw0_9_al0_1_rs0_1_T100_0.yaml
I am doing vw0_9alpha0_1rs0_1_T100_0/ssmtools_vw0_9_al0_1_rs0_1_T100_0.yaml
I am doing vw0_9alpha0_1rs0_1_T100_0/ssmtools_vw0_9_al0_1_rs0_1_T100_0.yaml
I am doing vw0_9alpha0_1rs0_1_T100_0/ssmtools_vw0_9_al0_1_rs0_1_T100_0.yaml
I am doing vw0_9alpha0_1rs0_1_T100_0/ssmtools_vw0_9_al0_1_rs0_1_T100_0.yaml
I am doing vw0_9alpha0_1rs0_1_T100_0/ssmtools_vw0_9_al0_1_rs0_1_T100_0.yaml
I am doing vw0_9alpha0_1rs0_1_T100_0/ssmtools_vw0_9_al0_1_rs0_1_T100_0.yaml
I am doing vw0_9alpha0_1rs0_1_T100_0/ssmtools_vw0_9_al0_1_rs0_1_T100_0.yaml
I am doing vw0_9alpha0_1rs0_1_T100_0/ssmtools_vw0_9_al0_1_rs0_1_T100_0.yaml
I am doing vw0_9alpha0_1rs0_1_T100_0/ssmtools_vw0_9_al0_1_rs0_1_T100_0.yaml
I am doing vw0_9alpha0_1rs0_1_T100_0/ssmtools_vw0_9_al0_1_rs0_1_T100_0.yaml
 2020-05-26 19:37:25,476 [0 : output] Output to be read-from/written-into folder 'vw0_9alpha0_1rs0_1_T100_0/chains', with prefix 'chain'
 2020-05-26 19:37:25,670 [0 : run] Input info updated with defaults (dumped to YAML):
likelihood:
  lisa_likelihood:
    external: import_module('vw0_9alpha0_1rs0_1_T100_0.lisa_like_vw0_9_al0_1_rs0_1_T100_0').lisa
    params: []
    speed: -1
    stop_at_error: false
sampler:
  mcmc:
    Rminus1_cl_level: 0.95
    Rminus1_cl_stop: 0.2
    Rminus1_last: .inf
    Rminus1_single_split: 4
    Rminus1_stop: 0.01
    blocking: null
    blocks: null
    burn_in: 20d
    callback_every: null
    callback_function: null
    check_every: 40
    converged: null
    covmat: null
    covmat_params: null
    drag: false
    drag_limits:
    - 1
    - 10
    i_last_slow_block: null
    learn_proposal: true
    learn_proposal_Rminus1_max: 2.0
    learn_proposal_Rminus1_max_early: 30.0
    learn_proposal_Rminus1_min: 0.0
    max_samples: .inf
    max_tries: .inf
    mpi_size: null
    output_every: 20
    oversample: false
    oversampling_factors: null
    proposal_scale: 2.4
    seed: null
params:
  log10_T:
    latex: \log_{10}T
    prior:
      max: 3
      min: 1
    proposal: 0.012
    ref: 2.002216452347636
  log10_alpha:
    latex: \log_{10}\alpha
    prior:
      max: -0.2
      min: -2
    proposal: 0.012
    ref: -1.0015622130824156
  log10_rs:
    latex: \log_{10} r_s
    prior:
      max: 1
      min: -4
    proposal: 0.012
    ref: -0.9968919471959484
  vw:
    latex: v_w
    prior:
      max: 0.9
      min: 0.4
    proposal: 0.012
    ref: 0.900456580309538
debug: true
debug_file: lisa.log
fiducial:
  T: 100.0
  alpha: 0.1
  rs: 0.1
  vw: 0.9
output: chain
modules: null
resume: false
force: true

 2020-05-26 19:37:32,739 [17 : lisa_likelihood] Initialised external likelihood.
 2020-05-26 19:37:32,740 [15 : lisa_likelihood] Initialised external likelihood.
 2020-05-26 19:37:32,739 [23 : lisa_likelihood] Initialised external likelihood.
 2020-05-26 19:37:32,742 [22 : lisa_likelihood] Initialised external likelihood.
 2020-05-26 19:37:32,742 [25 : lisa_likelihood] Initialised external likelihood.
 2020-05-26 19:37:32,742 [0 : lisa_likelihood] Initialised external likelihood.
 2020-05-26 19:37:32,742 [38 : lisa_likelihood] Initialised external likelihood.
 2020-05-26 19:37:32,742 [32 : lisa_likelihood] Initialised external likelihood.
 2020-05-26 19:37:32,747 [2 : lisa_likelihood] Initialised external likelihood.
 2020-05-26 19:37:32,743 [30 : lisa_likelihood] Initialised external likelihood.
 2020-05-26 19:37:32,743 [8 : lisa_likelihood] Initialised external likelihood.
 2020-05-26 19:37:32,743 [10 : lisa_likelihood] Initialised external likelihood.
 2020-05-26 19:37:32,743 [4 : lisa_likelihood] Initialised external likelihood.
 2020-05-26 19:37:32,743 [9 : lisa_likelihood] Initialised external likelihood.
 2020-05-26 19:37:32,744 [34 : lisa_likelihood] Initialised external likelihood.
 2020-05-26 19:37:32,744 [37 : lisa_likelihood] Initialised external likelihood.
 2020-05-26 19:37:32,744 [35 : lisa_likelihood] Initialised external likelihood.
 2020-05-26 19:37:32,744 [12 : lisa_likelihood] Initialised external likelihood.
 2020-05-26 19:37:32,745 [21 : lisa_likelihood] Initialised external likelihood.
 2020-05-26 19:37:32,744 [13 : lisa_likelihood] Initialised external likelihood.
 2020-05-26 19:37:32,745 [16 : lisa_likelihood] Initialised external likelihood.
 2020-05-26 19:37:32,745 [31 : lisa_likelihood] Initialised external likelihood.
 2020-05-26 19:37:32,745 [19 : lisa_likelihood] Initialised external likelihood.
 2020-05-26 19:37:32,746 [14 : lisa_likelihood] Initialised external likelihood.
 2020-05-26 19:37:32,746 [27 : lisa_likelihood] Initialised external likelihood.
 2020-05-26 19:37:32,746 [7 : lisa_likelihood] Initialised external likelihood.
 2020-05-26 19:37:32,746 [29 : lisa_likelihood] Initialised external likelihood.
 2020-05-26 19:37:32,746 [3 : lisa_likelihood] Initialised external likelihood.
 2020-05-26 19:37:32,747 [33 : lisa_likelihood] Initialised external likelihood.
 2020-05-26 19:37:32,747 [28 : lisa_likelihood] Initialised external likelihood.
 2020-05-26 19:37:32,747 [39 : lisa_likelihood] Initialised external likelihood.
 2020-05-26 19:37:32,748 [11 : lisa_likelihood] Initialised external likelihood.
 2020-05-26 19:37:32,749 [6 : lisa_likelihood] Initialised external likelihood.
 2020-05-26 19:37:32,751 [36 : lisa_likelihood] Initialised external likelihood.
 2020-05-26 19:37:32,743 [26 : lisa_likelihood] Initialised external likelihood.
 2020-05-26 19:37:32,745 [18 : lisa_likelihood] Initialised external likelihood.
 2020-05-26 19:37:32,747 [24 : lisa_likelihood] Initialised external likelihood.
 2020-05-26 19:37:32,748 [5 : lisa_likelihood] Initialised external likelihood.
 2020-05-26 19:37:32,748 [1 : lisa_likelihood] Initialised external likelihood.
 2020-05-26 19:37:32,809 [20 : lisa_likelihood] Initialised external likelihood.
 2020-05-26 19:37:32,983 [19 : mcmc] Covariance matrix not present. We will start learning the covariance of the proposal earlier: R-1 = 30 (was 2).
 2020-05-26 19:37:32,985 [8 : mcmc] Covariance matrix not present. We will start learning the covariance of the proposal earlier: R-1 = 30 (was 2).
 2020-05-26 19:37:32,986 [7 : mcmc] Covariance matrix not present. We will start learning the covariance of the proposal earlier: R-1 = 30 (was 2).
 2020-05-26 19:37:32,990 [14 : mcmc] Covariance matrix not present. We will start learning the covariance of the proposal earlier: R-1 = 30 (was 2).
 2020-05-26 19:37:32,997 [11 : mcmc] Covariance matrix not present. We will start learning the covariance of the proposal earlier: R-1 = 30 (was 2).
 2020-05-26 19:37:33,001 [4 : mcmc] Covariance matrix not present. We will start learning the covariance of the proposal earlier: R-1 = 30 (was 2).
 2020-05-26 19:37:33,004 [38 : mcmc] Covariance matrix not present. We will start learning the covariance of the proposal earlier: R-1 = 30 (was 2).
 2020-05-26 19:37:33,012 [37 : mcmc] Covariance matrix not present. We will start learning the covariance of the proposal earlier: R-1 = 30 (was 2).
 2020-05-26 19:37:32,996 [17 : mcmc] Covariance matrix not present. We will start learning the covariance of the proposal earlier: R-1 = 30 (was 2).
 2020-05-26 19:37:33,063 [19 : mcmc] Initial point:
 2020-05-26 19:37:33,031 [34 : mcmc] Covariance matrix not present. We will start learning the covariance of the proposal earlier: R-1 = 30 (was 2).
 2020-05-26 19:37:33,084 [35 : mcmc] Covariance matrix not present. We will start learning the covariance of the proposal earlier: R-1 = 30 (was 2).
 2020-05-26 19:37:33,111 [24 : mcmc] Covariance matrix not present. We will start learning the covariance of the proposal earlier: R-1 = 30 (was 2).
 2020-05-26 19:37:33,116 [4 : mcmc] Initial point:
 2020-05-26 19:37:33,123 [2 : mcmc] Covariance matrix not present. We will start learning the covariance of the proposal earlier: R-1 = 30 (was 2).
 2020-05-26 19:37:33,090 [8 : mcmc] Initial point:
 2020-05-26 19:37:33,125 [38 : mcmc] Initial point:
 2020-05-26 19:37:33,133 [39 : mcmc] Covariance matrix not present. We will start learning the covariance of the proposal earlier: R-1 = 30 (was 2).
 2020-05-26 19:37:33,104 [7 : mcmc] Initial point:
 2020-05-26 19:37:33,109 [16 : mcmc] Covariance matrix not present. We will start learning the covariance of the proposal earlier: R-1 = 30 (was 2).
 2020-05-26 19:37:33,110 [11 : mcmc] Initial point:
 2020-05-26 19:37:33,110 [15 : mcmc] Covariance matrix not present. We will start learning the covariance of the proposal earlier: R-1 = 30 (was 2).
 2020-05-26 19:37:33,114 [20 : mcmc] Covariance matrix not present. We will start learning the covariance of the proposal earlier: R-1 = 30 (was 2).
 2020-05-26 19:37:33,117 [31 : mcmc] Covariance matrix not present. We will start learning the covariance of the proposal earlier: R-1 = 30 (was 2).
 2020-05-26 19:37:33,118 [5 : mcmc] Covariance matrix not present. We will start learning the covariance of the proposal earlier: R-1 = 30 (was 2).
 2020-05-26 19:37:33,118 [14 : mcmc] Initial point:
 2020-05-26 19:37:33,120 [33 : mcmc] Covariance matrix not present. We will start learning the covariance of the proposal earlier: R-1 = 30 (was 2).
 2020-05-26 19:37:33,121 [21 : mcmc] Covariance matrix not present. We will start learning the covariance of the proposal earlier: R-1 = 30 (was 2).
 2020-05-26 19:37:33,159 [35 : mcmc] Initial point:
 2020-05-26 19:37:33,125 [23 : mcmc] Covariance matrix not present. We will start learning the covariance of the proposal earlier: R-1 = 30 (was 2).
 2020-05-26 19:37:33,129 [27 : mcmc] Covariance matrix not present. We will start learning the covariance of the proposal earlier: R-1 = 30 (was 2).
 2020-05-26 19:37:33,166 [31 : mcmc] Initial point:
 2020-05-26 19:37:33,130 [13 : mcmc] Covariance matrix not present. We will start learning the covariance of the proposal earlier: R-1 = 30 (was 2).
 2020-05-26 19:37:33,131 [9 : mcmc] Covariance matrix not present. We will start learning the covariance of the proposal earlier: R-1 = 30 (was 2).
 2020-05-26 19:37:33,132 [25 : mcmc] Covariance matrix not present. We will start learning the covariance of the proposal earlier: R-1 = 30 (was 2).
 2020-05-26 19:37:33,136 [0 : mcmc] Covariance matrix not present. We will start learning the covariance of the proposal earlier: R-1 = 30 (was 2).
 2020-05-26 19:37:33,135 [18 : mcmc] Covariance matrix not present. We will start learning the covariance of the proposal earlier: R-1 = 30 (was 2).
 2020-05-26 19:37:33,136 [36 : mcmc] Covariance matrix not present. We will start learning the covariance of the proposal earlier: R-1 = 30 (was 2).
 2020-05-26 19:37:33,139 [22 : mcmc] Covariance matrix not present. We will start learning the covariance of the proposal earlier: R-1 = 30 (was 2).
 2020-05-26 19:37:33,141 [3 : mcmc] Covariance matrix not present. We will start learning the covariance of the proposal earlier: R-1 = 30 (was 2).
 2020-05-26 19:37:33,136 [28 : mcmc] Covariance matrix not present. We will start learning the covariance of the proposal earlier: R-1 = 30 (was 2).
 2020-05-26 19:37:33,142 [26 : mcmc] Covariance matrix not present. We will start learning the covariance of the proposal earlier: R-1 = 30 (was 2).
 2020-05-26 19:37:33,109 [6 : mcmc] Covariance matrix not present. We will start learning the covariance of the proposal earlier: R-1 = 30 (was 2).
 2020-05-26 19:37:33,152 [17 : mcmc] Initial point:
 2020-05-26 19:37:33,153 [34 : mcmc] Initial point:
 2020-05-26 19:37:33,145 [37 : mcmc] Initial point:
 2020-05-26 19:37:33,159 [12 : mcmc] Covariance matrix not present. We will start learning the covariance of the proposal earlier: R-1 = 30 (was 2).
 2020-05-26 19:37:33,161 [24 : mcmc] Initial point:
 2020-05-26 19:37:33,164 [10 : mcmc] Covariance matrix not present. We will start learning the covariance of the proposal earlier: R-1 = 30 (was 2).
 2020-05-26 19:37:33,172 [30 : mcmc] Covariance matrix not present. We will start learning the covariance of the proposal earlier: R-1 = 30 (was 2).
 2020-05-26 19:37:33,174 [2 : mcmc] Initial point:
 2020-05-26 19:37:33,175 [32 : mcmc] Covariance matrix not present. We will start learning the covariance of the proposal earlier: R-1 = 30 (was 2).
 2020-05-26 19:37:33,205 [23 : mcmc] Initial point:
 2020-05-26 19:37:33,143 [1 : mcmc] Covariance matrix not present. We will start learning the covariance of the proposal earlier: R-1 = 30 (was 2).
 2020-05-26 19:37:33,180 [29 : mcmc] Covariance matrix not present. We will start learning the covariance of the proposal earlier: R-1 = 30 (was 2).
 2020-05-26 19:37:33,188 [16 : mcmc] Initial point:
 2020-05-26 19:37:33,192 [28 : mcmc] Initial point:
 2020-05-26 19:37:33,193 [20 : mcmc] Initial point:
 2020-05-26 19:37:33,194 [6 : mcmc] Initial point:
 2020-05-26 19:37:33,196 [5 : mcmc] Initial point:
 2020-05-26 19:37:33,208 [27 : mcmc] Initial point:
 2020-05-26 19:37:33,209 [13 : mcmc] Initial point:
 2020-05-26 19:37:33,212 [25 : mcmc] Initial point:
 2020-05-26 19:37:33,246 [9 : mcmc] Initial point:
 2020-05-26 19:37:33,215 [39 : mcmc] Initial point:
 2020-05-26 19:37:33,219 [22 : mcmc] Initial point:
 2020-05-26 19:37:33,191 [15 : mcmc] Initial point:
 2020-05-26 19:37:33,227 [3 : mcmc] Initial point:
 2020-05-26 19:37:33,225 [29 : mcmc] Initial point:
 2020-05-26 19:37:33,229 [26 : mcmc] Initial point:
 2020-05-26 19:37:33,238 [33 : mcmc] Initial point:
 2020-05-26 19:37:33,240 [21 : mcmc] Initial point:
 2020-05-26 19:37:33,241 [12 : mcmc] Initial point:
 2020-05-26 19:37:33,244 [10 : mcmc] Initial point:
 2020-05-26 19:37:33,248 [30 : mcmc] Initial point:
 2020-05-26 19:37:33,216 [0 : mcmc] Initial point:
 2020-05-26 19:37:33,250 [18 : mcmc] Initial point:
 2020-05-26 19:37:33,250 [32 : mcmc] Initial point:
 2020-05-26 19:37:33,251 [36 : mcmc] Initial point:
 2020-05-26 19:37:33,256 [1 : mcmc] Initial point:
 2020-05-26 19:37:36,022 [11 : prior] *WARNING* If stuck here, maybe it is not possible to sample from the reference pdf a point with non-null prior. Check that they are consistent.
 2020-05-26 19:37:36,044 [35 : prior] *WARNING* If stuck here, maybe it is not possible to sample from the reference pdf a point with non-null prior. Check that they are consistent.
 2020-05-26 19:37:36,076 [12 : prior] *WARNING* If stuck here, maybe it is not possible to sample from the reference pdf a point with non-null prior. Check that they are consistent.
 2020-05-26 19:37:36,073 [38 : prior] *WARNING* If stuck here, maybe it is not possible to sample from the reference pdf a point with non-null prior. Check that they are consistent.
 2020-05-26 19:37:36,086 [31 : prior] *WARNING* If stuck here, maybe it is not possible to sample from the reference pdf a point with non-null prior. Check that they are consistent.
 2020-05-26 19:37:36,152 [7 : prior] *WARNING* If stuck here, maybe it is not possible to sample from the reference pdf a point with non-null prior. Check that they are consistent.
 2020-05-26 19:37:36,155 [32 : prior] *WARNING* If stuck here, maybe it is not possible to sample from the reference pdf a point with non-null prior. Check that they are consistent.
 2020-05-26 19:37:36,196 [37 : prior] *WARNING* If stuck here, maybe it is not possible to sample from the reference pdf a point with non-null prior. Check that they are consistent.
 2020-05-26 19:37:36,197 [23 : prior] *WARNING* If stuck here, maybe it is not possible to sample from the reference pdf a point with non-null prior. Check that they are consistent.
 2020-05-26 19:37:36,209 [22 : prior] *WARNING* If stuck here, maybe it is not possible to sample from the reference pdf a point with non-null prior. Check that they are consistent.
 2020-05-26 19:37:36,213 [24 : prior] *WARNING* If stuck here, maybe it is not possible to sample from the reference pdf a point with non-null prior. Check that they are consistent.
 2020-05-26 19:37:36,242 [27 : prior] *WARNING* If stuck here, maybe it is not possible to sample from the reference pdf a point with non-null prior. Check that they are consistent.
 2020-05-26 19:37:36,254 [18 : prior] *WARNING* If stuck here, maybe it is not possible to sample from the reference pdf a point with non-null prior. Check that they are consistent.
 2020-05-26 19:37:36,227 [14 : prior] *WARNING* If stuck here, maybe it is not possible to sample from the reference pdf a point with non-null prior. Check that they are consistent.
 2020-05-26 19:37:36,283 [33 : prior] *WARNING* If stuck here, maybe it is not possible to sample from the reference pdf a point with non-null prior. Check that they are consistent.
 2020-05-26 19:37:36,291 [4 : prior] *WARNING* If stuck here, maybe it is not possible to sample from the reference pdf a point with non-null prior. Check that they are consistent.
 2020-05-26 19:37:36,264 [26 : prior] *WARNING* If stuck here, maybe it is not possible to sample from the reference pdf a point with non-null prior. Check that they are consistent.
 2020-05-26 19:37:36,311 [20 : prior] *WARNING* If stuck here, maybe it is not possible to sample from the reference pdf a point with non-null prior. Check that they are consistent.
 2020-05-26 19:37:36,321 [13 : prior] *WARNING* If stuck here, maybe it is not possible to sample from the reference pdf a point with non-null prior. Check that they are consistent.
 2020-05-26 19:37:36,339 [39 : prior] *WARNING* If stuck here, maybe it is not possible to sample from the reference pdf a point with non-null prior. Check that they are consistent.
 2020-05-26 19:37:36,346 [8 : prior] *WARNING* If stuck here, maybe it is not possible to sample from the reference pdf a point with non-null prior. Check that they are consistent.
 2020-05-26 19:37:36,310 [21 : prior] *WARNING* If stuck here, maybe it is not possible to sample from the reference pdf a point with non-null prior. Check that they are consistent.
 2020-05-26 19:37:36,314 [34 : prior] *WARNING* If stuck here, maybe it is not possible to sample from the reference pdf a point with non-null prior. Check that they are consistent.
 2020-05-26 19:37:36,391 [17 : prior] *WARNING* If stuck here, maybe it is not possible to sample from the reference pdf a point with non-null prior. Check that they are consistent.
 2020-05-26 19:37:36,403 [16 : prior] *WARNING* If stuck here, maybe it is not possible to sample from the reference pdf a point with non-null prior. Check that they are consistent.
 2020-05-26 19:37:36,420 [10 : prior] *WARNING* If stuck here, maybe it is not possible to sample from the reference pdf a point with non-null prior. Check that they are consistent.
 2020-05-26 19:37:36,436 [2 : prior] *WARNING* If stuck here, maybe it is not possible to sample from the reference pdf a point with non-null prior. Check that they are consistent.
 2020-05-26 19:37:36,449 [19 : prior] *WARNING* If stuck here, maybe it is not possible to sample from the reference pdf a point with non-null prior. Check that they are consistent.
 2020-05-26 19:37:36,469 [30 : prior] *WARNING* If stuck here, maybe it is not possible to sample from the reference pdf a point with non-null prior. Check that they are consistent.
 2020-05-26 19:37:36,493 [25 : prior] *WARNING* If stuck here, maybe it is not possible to sample from the reference pdf a point with non-null prior. Check that they are consistent.
 2020-05-26 19:37:36,497 [36 : prior] *WARNING* If stuck here, maybe it is not possible to sample from the reference pdf a point with non-null prior. Check that they are consistent.
 2020-05-26 19:37:36,519 [6 : prior] *WARNING* If stuck here, maybe it is not possible to sample from the reference pdf a point with non-null prior. Check that they are consistent.
 2020-05-26 19:37:36,530 [29 : prior] *WARNING* If stuck here, maybe it is not possible to sample from the reference pdf a point with non-null prior. Check that they are consistent.
 2020-05-26 19:37:36,562 [0 : prior] *WARNING* If stuck here, maybe it is not possible to sample from the reference pdf a point with non-null prior. Check that they are consistent.
 2020-05-26 19:37:36,534 [9 : prior] *WARNING* If stuck here, maybe it is not possible to sample from the reference pdf a point with non-null prior. Check that they are consistent.
 2020-05-26 19:37:36,600 [3 : prior] *WARNING* If stuck here, maybe it is not possible to sample from the reference pdf a point with non-null prior. Check that they are consistent.
 2020-05-26 19:37:36,612 [28 : prior] *WARNING* If stuck here, maybe it is not possible to sample from the reference pdf a point with non-null prior. Check that they are consistent.
 2020-05-26 19:37:36,659 [15 : prior] *WARNING* If stuck here, maybe it is not possible to sample from the reference pdf a point with non-null prior. Check that they are consistent.
 2020-05-26 19:37:36,714 [5 : prior] *WARNING* If stuck here, maybe it is not possible to sample from the reference pdf a point with non-null prior. Check that they are consistent.
 2020-05-26 19:37:36,930 [1 : prior] *WARNING* If stuck here, maybe it is not possible to sample from the reference pdf a point with non-null prior. Check that they are consistent.
