I am doing vw0_6alpha0_1rs0_1/ssmtools_vw0_6al0_1_rs0_1.yaml
I am doing vw0_6alpha0_1rs0_1/ssmtools_vw0_6al0_1_rs0_1.yaml
I am doing vw0_6alpha0_1rs0_1/ssmtools_vw0_6al0_1_rs0_1.yaml
I am doing vw0_6alpha0_1rs0_1/ssmtools_vw0_6al0_1_rs0_1.yaml
I am doing vw0_6alpha0_1rs0_1/ssmtools_vw0_6al0_1_rs0_1.yaml
I am doing vw0_6alpha0_1rs0_1/ssmtools_vw0_6al0_1_rs0_1.yaml
I am doing vw0_6alpha0_1rs0_1/ssmtools_vw0_6al0_1_rs0_1.yaml
I am doing vw0_6alpha0_1rs0_1/ssmtools_vw0_6al0_1_rs0_1.yaml
I am doing vw0_6alpha0_1rs0_1/ssmtools_vw0_6al0_1_rs0_1.yaml
I am doing vw0_6alpha0_1rs0_1/ssmtools_vw0_6al0_1_rs0_1.yaml
I am doing vw0_6alpha0_1rs0_1/ssmtools_vw0_6al0_1_rs0_1.yaml
I am doing vw0_6alpha0_1rs0_1/ssmtools_vw0_6al0_1_rs0_1.yaml
I am doing vw0_6alpha0_1rs0_1/ssmtools_vw0_6al0_1_rs0_1.yaml
I am doing vw0_6alpha0_1rs0_1/ssmtools_vw0_6al0_1_rs0_1.yaml
I am doing vw0_6alpha0_1rs0_1/ssmtools_vw0_6al0_1_rs0_1.yaml
I am doing vw0_6alpha0_1rs0_1/ssmtools_vw0_6al0_1_rs0_1.yaml
I am doing vw0_6alpha0_1rs0_1/ssmtools_vw0_6al0_1_rs0_1.yaml
I am doing vw0_6alpha0_1rs0_1/ssmtools_vw0_6al0_1_rs0_1.yaml
I am doing vw0_6alpha0_1rs0_1/ssmtools_vw0_6al0_1_rs0_1.yaml
I am doing vw0_6alpha0_1rs0_1/ssmtools_vw0_6al0_1_rs0_1.yaml
I am doing vw0_6alpha0_1rs0_1/ssmtools_vw0_6al0_1_rs0_1.yaml
I am doing vw0_6alpha0_1rs0_1/ssmtools_vw0_6al0_1_rs0_1.yaml
I am doing vw0_6alpha0_1rs0_1/ssmtools_vw0_6al0_1_rs0_1.yaml
I am doing vw0_6alpha0_1rs0_1/ssmtools_vw0_6al0_1_rs0_1.yaml
I am doing vw0_6alpha0_1rs0_1/ssmtools_vw0_6al0_1_rs0_1.yaml
I am doing vw0_6alpha0_1rs0_1/ssmtools_vw0_6al0_1_rs0_1.yaml
I am doing vw0_6alpha0_1rs0_1/ssmtools_vw0_6al0_1_rs0_1.yaml
I am doing vw0_6alpha0_1rs0_1/ssmtools_vw0_6al0_1_rs0_1.yaml
I am doing vw0_6alpha0_1rs0_1/ssmtools_vw0_6al0_1_rs0_1.yaml
I am doing vw0_6alpha0_1rs0_1/ssmtools_vw0_6al0_1_rs0_1.yaml
I am doing vw0_6alpha0_1rs0_1/ssmtools_vw0_6al0_1_rs0_1.yaml
I am doing vw0_6alpha0_1rs0_1/ssmtools_vw0_6al0_1_rs0_1.yaml
I am doing vw0_6alpha0_1rs0_1/ssmtools_vw0_6al0_1_rs0_1.yaml
I am doing vw0_6alpha0_1rs0_1/ssmtools_vw0_6al0_1_rs0_1.yaml
I am doing vw0_6alpha0_1rs0_1/ssmtools_vw0_6al0_1_rs0_1.yaml
I am doing vw0_6alpha0_1rs0_1/ssmtools_vw0_6al0_1_rs0_1.yaml
I am doing vw0_6alpha0_1rs0_1/ssmtools_vw0_6al0_1_rs0_1.yaml
I am doing vw0_6alpha0_1rs0_1/ssmtools_vw0_6al0_1_rs0_1.yaml
I am doing vw0_6alpha0_1rs0_1/ssmtools_vw0_6al0_1_rs0_1.yaml
I am doing vw0_6alpha0_1rs0_1/ssmtools_vw0_6al0_1_rs0_1.yaml
Traceback (most recent call last):
  File "/proj/gowling/myVirtualEnv/bin/cobaya-run", line 8, in <module>
    sys.exit(run_script())
  File "/proj/gowling/myVirtualEnv/lib/python3.7/site-packages/cobaya/run.py", line 126, in run_script
    info = load_input(given_input)
  File "/proj/gowling/myVirtualEnv/lib/python3.7/site-packages/cobaya/input.py", line 69, in load_input_MPI
    info = load_input(input_file)
  File "/proj/gowling/myVirtualEnv/lib/python3.7/site-packages/cobaya/input.py", line 50, in load_input
    info = yaml_load_file(input_file) or {}
  File "/proj/gowling/myVirtualEnv/lib/python3.7/site-packages/cobaya/yaml.py", line 145, in yaml_load_file
    with open(file_name, "r") as file:
FileNotFoundError: [Errno 2] No such file or directory: 'vw0_6alpha0_1rs0_1/ssmtools_vw0_6al0_1_rs0_1.yaml'
slurmstepd: error: *** JOB 4699808 ON ka28 CANCELLED AT 2020-04-09T17:43:27 ***
slurmstepd: error: *** STEP 4699808.1 ON ka28 CANCELLED AT 2020-04-09T17:43:27 ***
