 2020-04-29 21:54:36,068 [0 : output] Output to be read-from/written-into folder 'vw0_7alpha0_1rs0_1_T100_0/chains', with prefix 'chain'
 2020-04-29 21:54:36,071 [0 : output] Found existing products with the requested ouput prefix: 'vw0_7alpha0_1rs0_1_T100_0/chains/chain'
 2020-04-29 21:54:36,073 [0 : output] Deleting previous chain ('force' was requested).
 2020-04-29 21:54:36,150 [0 : run] Input info updated with defaults (dumped to YAML):
likelihood:
  lisa_likelihood:
    external: import_module('vw0_7alpha0_1rs0_1_T100_0.lisa_like_vw0_7_al0_1_rs0_1_T100_0').lisa
    params: []
    speed: -1
    stop_at_error: false
sampler:
  mcmc:
    Rminus1_cl_level: 0.95
    Rminus1_cl_stop: 0.2
    Rminus1_last: .inf
    Rminus1_single_split: 4
    Rminus1_stop: 0.01
    blocking: null
    blocks: null
    burn_in: 20d
    callback_every: null
    callback_function: null
    check_every: 40
    converged: null
    covmat: null
    covmat_params: null
    drag: false
    drag_limits:
    - 1
    - 10
    i_last_slow_block: null
    learn_proposal: true
    learn_proposal_Rminus1_max: 2.0
    learn_proposal_Rminus1_max_early: 30.0
    learn_proposal_Rminus1_min: 0.0
    max_samples: .inf
    max_tries: .inf
    mpi_size: null
    output_every: 20
    oversample: false
    oversampling_factors: null
    proposal_scale: 2.4
    seed: null
params:
  T:
    latex: T_*
    prior:
      max: 200
      min: 50
    proposal: 0.012
    ref: null
  log10_alpha:
    latex: \log_{10}\alpha
    prior:
      max: -0.2
      min: -2
    proposal: 0.012
    ref: -1.0024600044867216
  log10_rs:
    latex: \log_{10} r_s
    prior:
      max: 1
      min: -4
    proposal: 0.012
    ref: 2.0095569554701487
  vw:
    latex: v_w
    prior:
      max: 0.9
      min: 0.4
    proposal: 0.012
    ref: 0.7028709716495577
debug: true
debug_file: lisa.log
fiducial:
  T: 100.0
  alpha: 0.1
  rs: 0.1
  vw: 0.7
output: chain
modules: null
resume: false
force: true

 2020-04-29 21:54:39,556 [10 : lisa_likelihood] Initialised external likelihood.
 2020-04-29 21:54:39,558 [10 : likelihood] *ERROR* Could not find whom to assign input parameters ['T'].
application called MPI_Abort(MPI_COMM_WORLD, 1) - process 10
