#weight  minuslogpost  log10_alpha   log10_rs         vw  minuslogprior  minuslogprior__0      chi2  chi2__lisa_likelihood
      3     4.2699313  -0.97727385 -1.0275951  0.9241892      1.6351057         1.6351057 5.2696512              5.2696512
     21     3.5551191   -0.9773579 -1.0242754 0.92599345      1.6351057         1.6351057 3.8400269              3.8400269
      8     3.6041458  -0.97799049 -1.0240899 0.92570755      1.6351057         1.6351057 3.9380803              3.9380803
     20     3.6965642  -0.97715483 -1.0249632 0.92661644      1.6351057         1.6351057  4.122917               4.122917
      2     3.5545497  -0.97828243 -1.0257789 0.92513324      1.6351057         1.6351057 3.8388881              3.8388881
     15     3.4346604  -0.97753246 -1.0260485 0.92551645      1.6351057         1.6351057 3.5991094              3.5991094
     15     3.7938819  -0.97798515 -1.0219647 0.92512214      1.6351057         1.6351057 4.3175524              4.3175524
     19     3.6778703  -0.97963454 -1.0216427 0.92185997      1.6351057         1.6351057 4.0855293              4.0855293
     84     4.2484339  -0.97570871 -1.0248148 0.92844389      1.6351057         1.6351057 5.2266565              5.2266565
     19     3.1096883  -0.97987574 -1.0223055 0.92228787      1.6351057         1.6351057 2.9491654              2.9491654
      1     3.0856856  -0.98130836 -1.0231809 0.92048216      1.6351057         1.6351057 2.9011599              2.9011599
      5     3.2673639  -0.98180717 -1.0198502 0.91935496      1.6351057         1.6351057 3.2645165              3.2645165
     32     7.0808908  -0.97916302 -1.0219625 0.92037833      1.6351057         1.6351057  10.89157               10.89157
     55     4.5626382  -0.97881446 -1.0225287  0.9221208      1.6351057         1.6351057 5.8550651              5.8550651
     11     3.8087726  -0.98107585 -1.0186459 0.92029798      1.6351057         1.6351057  4.347334               4.347334
     12     4.1531833  -0.98238787 -1.0154574 0.91916374      1.6351057         1.6351057 5.0361554              5.0361554
     33     4.1465951  -0.98716937 -1.0144107 0.91653397      1.6351057         1.6351057 5.0229788              5.0229788
     30     2.2449463  -0.98811905 -1.0138969 0.91259235      1.6351057         1.6351057 1.2196812              1.2196812
     11     3.9712912  -0.99113158 -1.0155903  0.9106587      1.6351057         1.6351057 4.6723712              4.6723712
      1     4.3175881    -0.991184  -1.015425 0.91098357      1.6351057         1.6351057 5.3649649              5.3649649
  5 3.1633726 -0.99102389  -1.0145602 0.91056944 1.6351057 1.6351057   3.056534   3.056534
  4 3.1484067 -0.99403351  -1.0119622  0.9066726 1.6351057 1.6351057   3.026602   3.026602
  8  2.064447  -0.9917551  -1.0112253 0.90860399 1.6351057 1.6351057 0.85868262 0.85868262
 60 2.1346236 -0.99191355  -1.0116168 0.90855559 1.6351057 1.6351057 0.99903591 0.99903591
  5 3.9057865 -0.99460098  -1.0114276 0.90701358 1.6351057 1.6351057  4.5413616  4.5413616
 55 4.6715947 -0.99093354  -1.0099814 0.91269668 1.6351057 1.6351057   6.072978   6.072978
 23 4.2903876  -1.0005554 -0.99574735 0.90178098 1.6351057 1.6351057  5.3105639  5.3105639
  1 3.2484106  -1.0008869 -0.99461806 0.90051496 1.6351057 1.6351057  3.2266098  3.2266098
 14 4.7940604   -1.004388  -0.9964942 0.89258045 1.6351057 1.6351057  6.3179095  6.3179095
  9 9.3377779  -1.0049986  -1.0020633 0.89100199 1.6351057 1.6351057  15.405344  15.405344
 37 10.566186  -1.0073973 -0.99910759   0.888093 1.6351057 1.6351057   17.86216   17.86216
  9 7.4211982  -1.0077727 -0.99729222 0.88855199 1.6351057 1.6351057  11.572185  11.572185
  5 3.4452897  -1.0116067 -0.98903214 0.88889656 1.6351057 1.6351057  3.6203681  3.6203681
  3 3.9456236  -1.0118496 -0.98964546 0.88871583 1.6351057 1.6351057  4.6210359  4.6210359
 43 2.5713136  -1.0111376 -0.98730923 0.88914515 1.6351057 1.6351057  1.8724158  1.8724158
 15 2.6743251   -1.011246  -0.9873255 0.88910826 1.6351057 1.6351057  2.0784388  2.0784388
191   2.09113   -1.011039 -0.98750882 0.88839393 1.6351057 1.6351057 0.91204866 0.91204866
 60 2.4352526  -1.0120767 -0.98599057 0.88631092 1.6351057 1.6351057  1.6002938  1.6002938
 58 2.2613661  -1.0111815 -0.98536784 0.88757519 1.6351057 1.6351057  1.2525209  1.2525209
 14 3.6342876  -1.0127121  -0.9827068 0.88492837 1.6351057 1.6351057   3.998364   3.998364
 34 2.8765649  -1.0134195 -0.98220844 0.88476385 1.6351057 1.6351057  2.4829184  2.4829184
 13 2.9888805  -1.0133426 -0.98225786  0.8847395 1.6351057 1.6351057  2.7075496  2.7075496
 11 3.4333948 -0.99900528  -1.0015282 0.89900064 1.6351057 1.6351057  3.5965784  3.5965784
 51 2.5052404 -0.99040119    -1.01217 0.91166046 1.6351057 1.6351057  1.7402694  1.7402694
 19 2.6149161  -0.9900132  -1.0108235 0.90983886 1.6351057 1.6351057  1.9596208  1.9596208
110 2.1825698 -0.99001691   -1.011473  0.9103108 1.6351057 1.6351057  1.0949282  1.0949282
 35 2.0207997  -0.9902744  -1.0111471 0.91114112 1.6351057 1.6351057 0.77138808 0.77138808
 13 2.0098594 -0.99598052  -1.0044267   0.903535 1.6351057 1.6351057 0.74950756 0.74950756
 68 1.9625511  -1.0092348 -0.98878749 0.88981925 1.6351057 1.6351057 0.65489094 0.65489094
 35 2.0606267  -1.0092126 -0.98948727 0.88958723 1.6351057 1.6351057 0.85104209 0.85104209
 21 2.0683985  -1.0111723  -0.9861145 0.88828601 1.6351057 1.6351057 0.86658571 0.86658571
 49 2.5542343  -1.0035997  -0.9917248 0.89669206 1.6351057 1.6351057  1.8382573  1.8382573
 13 3.5308044 -0.99923927 -0.99488345 0.90098246 1.6351057 1.6351057  3.7913974  3.7913974
 88 2.4235031   -1.001158  -0.9949694 0.89849271 1.6351057 1.6351057  1.5767949  1.5767949
 20 1.7857204  -1.0033067 -0.99583077 0.89593435 1.6351057 1.6351057 0.30122948 0.30122948
 18 1.9276441  -1.0036659 -0.99561868 0.89680441 1.6351057 1.6351057 0.58507681 0.58507681
 21 2.0104128  -1.0041601 -0.99721497 0.89497229 1.6351057 1.6351057 0.75061426 0.75061426
  8 2.2896767  -1.0081395 -0.99241668 0.89050835 1.6351057 1.6351057  1.3091421  1.3091421
  8 2.0097088  -1.0082943 -0.99156117 0.89078261 1.6351057 1.6351057 0.74920625 0.74920625
  6 2.0322064  -1.0075955 -0.99087376 0.89117856 1.6351057 1.6351057 0.79420149 0.79420149
24 1.9151434  -1.0040401 -0.99380629 0.89517842 1.6351057 1.6351057 0.5600754 0.5600754
24 2.3237598  -1.0038726 -0.99219966 0.89548607 1.6351057 1.6351057 1.3773083 1.3773083
93 2.3240809  -1.0038713 -0.99219925 0.89548841 1.6351057 1.6351057 1.3779505 1.3779505
27 2.8385706  -1.0012831  -0.9963265 0.90024078 1.6351057 1.6351057 2.4069298 2.4069298
19 4.9691772  -1.0000677 -0.99519491 0.90248037 1.6351057 1.6351057  6.668143  6.668143
 2 2.7193554  -1.0014579 -0.99563852 0.89987423 1.6351057 1.6351057 2.1684996 2.1684996
17 2.3095754  -1.0013047 -0.99615702 0.89968448 1.6351057 1.6351057 1.3489395 1.3489395
 4 3.3111815  -1.0008588  -0.9961153 0.90095729 1.6351057 1.6351057 3.3521516 3.3521516
 1  2.708542  -1.0030826  -0.9935321 0.89804614 1.6351057 1.6351057 2.1468726 2.1468726
 2 4.0646297  -1.0088707 -0.98470201 0.89230181 1.6351057 1.6351057  4.859048  4.859048
 2  5.745405 -0.97042099  -1.0365335 0.93252264 1.6351057 1.6351057 8.2205988 8.2205988
 1 4.3656289 -0.97415152  -1.0287049 0.92831789 1.6351057 1.6351057 5.4610465 5.4610465
 1 4.3562719 -0.97302612  -1.0293571 0.93012955 1.6351057 1.6351057 5.4423326 5.4423326
 2 4.3957502  -0.9728682  -1.0295298 0.93029477 1.6351057 1.6351057  5.521289  5.521289
 3 4.3798238   -0.972933   -1.028509 0.93092334 1.6351057 1.6351057 5.4894363 5.4894363
 1 4.0506955 -0.99036762  -1.0128894 0.90830549 1.6351057 1.6351057 4.8311797 4.8311797
 4  3.154132   -1.010305 -0.99232169 0.88850783 1.6351057 1.6351057 3.0380526 3.0380526
 1 4.8700791  -1.0083449  -0.9971377 0.88972457 1.6351057 1.6351057 6.4699468 6.4699468
 3 5.2595748 -0.98074667  -1.0277953 0.92005886 1.6351057 1.6351057 7.2489383 7.2489383
 1 4.2407927 -0.98542628  -1.0220594  0.9148881 1.6351057 1.6351057  5.211374  5.211374
3 5.5902362 -0.97938911  -1.0212684 0.92088303 1.6351057 1.6351057  7.9102612  7.9102612
8 4.4780836 -0.98696381  -1.0122872 0.91247527 1.6351057 1.6351057  5.6859559  5.6859559
2 3.7150028  -1.0108477 -0.99033303 0.88669861 1.6351057 1.6351057  4.1597943  4.1597943
1 2.6444975  -1.0130331 -0.98719558 0.88596875 1.6351057 1.6351057  2.0187836  2.0187836
1  2.398254   -1.014528 -0.98341919 0.88438695 1.6351057 1.6351057  1.5262968  1.5262968
2 3.7260832  -1.0218318 -0.97551424 0.87631546 1.6351057 1.6351057   4.181955   4.181955
3 5.0678575   -1.028609 -0.96783726 0.86961229 1.6351057 1.6351057  6.8655037  6.8655037
6  4.255996  -1.0202617 -0.97422802 0.87719037 1.6351057 1.6351057  5.2417807  5.2417807
1 4.3784311   -1.021228  -0.9729518 0.87622564 1.6351057 1.6351057  5.4866508  5.4866508
4 4.2999991  -1.0144352 -0.97673589 0.88414265 1.6351057 1.6351057  5.3297869  5.3297869
8 3.6724842   -1.013448 -0.97867918 0.88535818 1.6351057 1.6351057   4.074757   4.074757
5  3.169264  -1.0108316 -0.98297192 0.88953434 1.6351057 1.6351057  3.0683166  3.0683166
5 1.9890581  -1.0023034 -0.99680033 0.89840986 1.6351057 1.6351057  0.7079048  0.7079048
1  2.021436  -1.0077708 -0.99089069 0.89230508 1.6351057 1.6351057 0.77266061 0.77266061
1 1.8799106  -1.0057728 -0.99462122  0.8938969 1.6351057 1.6351057 0.48960985 0.48960985
2 2.3109908  -1.0056827 -0.99595551 0.89438494 1.6351057 1.6351057  1.3517703  1.3517703
2 2.1871362   -1.007859 -0.98808258 0.89145011 1.6351057 1.6351057  1.1040611  1.1040611
4 2.2539436  -0.9878212  -1.0126204 0.91363463 1.6351057 1.6351057  1.2376759  1.2376759
1 3.2971249  -1.0033589 -0.99082003 0.89591957 1.6351057 1.6351057  3.3240384  3.3240384
2  3.252676  -1.0039028 -0.99014447 0.89545179 1.6351057 1.6351057  3.2351407  3.2351407
2 3.2230043  -1.0144395 -0.97831506 0.88520346 1.6351057 1.6351057  3.1757973  3.1757973
4  3.120011  -1.0140172 -0.97898038 0.88560407 1.6351057 1.6351057  2.9698107  2.9698107
3 2.2828458 -0.99798009 -0.99982177 0.90151492 1.6351057 1.6351057  1.2954803  1.2954803
1 2.6148825  -1.0041318 -0.99085676 0.89589382 1.6351057 1.6351057  1.9595537  1.9595537
6 3.6196009 -0.99694734 -0.99756786 0.90408076 1.6351057 1.6351057  3.9689906  3.9689906
5 4.3504878  -1.0187561 -0.97998476 0.88168557 1.6351057 1.6351057  5.4307642  5.4307642
3 4.1293601  -1.0192192 -0.98012501 0.88077016 1.6351057 1.6351057  4.9885089  4.9885089
1 4.6829948   -1.009333 -0.99288473 0.89188945 1.6351057 1.6351057  6.0957783  6.0957783
3 2.7959011 -0.99645579   -1.000474 0.90509292 1.6351057 1.6351057  2.3215908  2.3215908
7 3.9561917  -0.9902261  -1.0056455 0.91200747 1.6351057 1.6351057  4.6421721  4.6421721
5 2.2544547 -0.99637369  -1.0010554 0.90446864 1.6351057 1.6351057  1.2386981  1.2386981
3 2.1171662  -0.9965074  -1.0012905 0.90424914 1.6351057 1.6351057 0.96412116 0.96412116
1 2.1174503  -0.9956142  -1.0024382 0.90525849 1.6351057 1.6351057 0.96468937 0.96468937
1 1.9614973  -1.0039253 -0.99731423   0.896062 1.6351057 1.6351057 0.65278329 0.65278329
2 2.4330217  -1.0145847 -0.98286436 0.88409946 1.6351057 1.6351057   1.595832   1.595832
6 3.0178777   -1.019993 -0.97449744 0.87936049 1.6351057 1.6351057  2.7655442  2.7655442
5  3.016578  -1.0134286 -0.98318061  0.8844866 1.6351057 1.6351057  2.7629446  2.7629446
3 2.6553124  -1.0065442 -0.99219593 0.89156343 1.6351057 1.6351057  2.0404134  2.0404134
2 3.0199079  -1.0089917 -0.98888711 0.88883117 1.6351057 1.6351057  2.7696045  2.7696045
3 3.0223508  -1.0039074 -0.99392576 0.89418568 1.6351057 1.6351057  2.7744903  2.7744903
 3 3.4015783  -1.0022462 -0.99661463 0.89561433 1.6351057 1.6351057  3.5329453  3.5329453
 4 2.9228666  -1.0036528 -0.99467837 0.89445745 1.6351057 1.6351057  2.5755219  2.5755219
 1 2.6477942  -1.0036895 -0.99436752 0.89466014 1.6351057 1.6351057  2.0253771  2.0253771
 2  2.627255  -1.0030949 -0.99511162 0.89529634 1.6351057 1.6351057  1.9842986  1.9842986
 3 2.8566422 -0.99960167 -0.99562017 0.90072574 1.6351057 1.6351057   2.443073   2.443073
 2 3.3999651   -1.018255 -0.98119239  0.8809647 1.6351057 1.6351057  3.5297189  3.5297189
 2 3.4934647  -1.0184463 -0.98102529 0.88088206 1.6351057 1.6351057  3.7167181  3.7167181
 4  6.583637 -0.98572848  -1.0147993 0.91931222 1.6351057 1.6351057  9.8970627  9.8970627
 1 6.1580256 -0.98227167    -1.01634  0.9227881 1.6351057 1.6351057  9.0458398  9.0458398
 1 3.5185382 -0.98560012  -1.0140166 0.91768089 1.6351057 1.6351057  3.7668651  3.7668651
 2 3.4536477  -1.0018957 -0.99207516  0.8988412 1.6351057 1.6351057  3.6370842  3.6370842
 7 1.8470241  -1.0075492 -0.99038743 0.89181825 1.6351057 1.6351057 0.42383683 0.42383683
 4 2.6625425  -1.0155879 -0.98061689 0.88422901 1.6351057 1.6351057  2.0548737  2.0548737
 2 2.0929059  -1.0052358 -0.99586403 0.89368302 1.6351057 1.6351057 0.91560044 0.91560044
 3 2.4784084 -0.99593438  -1.0031398 0.90328991 1.6351057 1.6351057  1.6866055  1.6866055
12 3.4992861 -0.98957337  -1.0067659 0.91193443 1.6351057 1.6351057  3.7283609  3.7283609
 3 2.1495235 -0.99624843  -1.0019511 0.90363884 1.6351057 1.6351057  1.0288356  1.0288356
11  1.793923 -0.99912003  -0.9994361 0.90081719 1.6351057 1.6351057 0.31763472 0.31763472
 6 1.7804493  -1.0010264 -0.99714477 0.89890488 1.6351057 1.6351057 0.29068726 0.29068726
 3 3.2531735 -0.99612021  -1.0062232  0.9060211 1.6351057 1.6351057  3.2361358  3.2361358
2 3.1318909  -1.0036953 -0.99250897 0.89767723 1.6351057 1.6351057  2.9935704  2.9935704
4 2.2108991 -0.99476942  -1.0091413 0.90560939 1.6351057 1.6351057   1.151587   1.151587
3 2.3693632 -0.99782795  -1.0057614 0.90284003 1.6351057 1.6351057  1.4685151  1.4685151
1 4.4601369  -1.0045314  -1.0006542 0.89620756 1.6351057 1.6351057  5.6500625  5.6500625
1 3.0201225  -1.0101213 -0.98433858 0.88839938 1.6351057 1.6351057  2.7700338  2.7700338
3  3.536369  -1.0115846 -0.98063418 0.88799856 1.6351057 1.6351057  3.8025268  3.8025268
2 4.4389595  -1.0132173  -0.9778103 0.88708833 1.6351057 1.6351057  5.6077076  5.6077076
1 3.7369554  -1.0182473 -0.97317021 0.88084019 1.6351057 1.6351057  4.2036995  4.2036995
1 2.6705568  -1.0158717 -0.98038514 0.88390487 1.6351057 1.6351057  2.0709023  2.0709023
1 3.5472123  -1.0223319 -0.97231447  0.8774519 1.6351057 1.6351057  3.8242134  3.8242134
3 3.8367851  -1.0230692 -0.97111927 0.87692433 1.6351057 1.6351057  4.4033588  4.4033588
3 2.4731045  -1.0061331 -0.99140167 0.89467992 1.6351057 1.6351057  1.6759977  1.6759977
1 2.0950936  -1.0005712 -0.99649193 0.89986248 1.6351057 1.6351057 0.91997581 0.91997581
8 2.1966371  -1.0087177 -0.98826927 0.89002564 1.6351057 1.6351057  1.1230629  1.1230629
1 2.9796078  -1.0063859   -0.995118 0.89162063 1.6351057 1.6351057  2.6890044  2.6890044
3  2.626791  -1.0009684  -1.0030336 0.89915033 1.6351057 1.6351057  1.9833706  1.9833706
8 2.7755745  -1.0016829  -1.0026527 0.89808574 1.6351057 1.6351057  2.2809378  2.2809378
8 2.9014955  -1.0033441 -0.99841625 0.89773921 1.6351057 1.6351057  2.5327797  2.5327797
1 2.9933024 -0.98817638  -1.0175066   0.913309 1.6351057 1.6351057  2.7163935  2.7163935
3 3.8059659  -1.0142981 -0.98784397   0.885124 1.6351057 1.6351057  4.3417205  4.3417205
1 4.2218935  -1.0009536  -1.0049641 0.89734431 1.6351057 1.6351057  5.1735756  5.1735756
5 3.6678168 -0.99300174  -1.0137838 0.90662349 1.6351057 1.6351057  4.0654223  4.0654223
2 3.7060773 -0.98698735  -1.0198474 0.91334677 1.6351057 1.6351057  4.1419433  4.1419433
1 2.5621305  -1.0018615 -0.99472741 0.89916352 1.6351057 1.6351057  1.8540497  1.8540497
2 2.9147216  -1.0003945 -0.99531043  0.9007303 1.6351057 1.6351057  2.5592318  2.5592318
2 2.7113138  -1.0026301 -0.99268096  0.8979722 1.6351057 1.6351057  2.1524162  2.1524162
7 2.2924806   -1.005374 -0.99052539 0.89395508 1.6351057 1.6351057  1.3147499  1.3147499
4  3.904805  -1.0153432  -0.9779485 0.88253899 1.6351057 1.6351057  4.5393987  4.5393987
2 3.8611247  -1.0163812 -0.97751084 0.88135443 1.6351057 1.6351057  4.4520381  4.4520381
5 2.3443199 -0.98671802  -1.0147063 0.91526274 1.6351057 1.6351057  1.4184285  1.4184285
1   2.67015   -0.995636   -1.007727 0.90338437 1.6351057 1.6351057  2.0700888  2.0700888
1 2.9851055  -1.0120415 -0.98909133 0.88633954 1.6351057 1.6351057  2.6999996  2.6999996
3 3.5555239  -1.0158658 -0.98417372 0.88204294 1.6351057 1.6351057  3.8408364  3.8408364
3 3.0162477  -1.0132446 -0.98660608 0.88481613 1.6351057 1.6351057  2.7622841  2.7622841
1 3.0064831  -1.0112044 -0.98954738 0.88687443 1.6351057 1.6351057  2.7427548  2.7427548
8 2.4409565 -0.98613173  -1.0150345 0.91599488 1.6351057 1.6351057  1.6117017  1.6117017
5 3.1943186  -1.0083703 -0.99329466 0.88955299 1.6351057 1.6351057  3.1184259  3.1184259
6 3.0585517  -1.0100572   -0.992364  0.8886286 1.6351057 1.6351057  2.8468921  2.8468921
2  3.072814  -1.0100794 -0.99238107 0.88862463 1.6351057 1.6351057  2.8754168  2.8754168
2 2.0834405  -1.0020063 -0.99978867 0.89702976 1.6351057 1.6351057 0.89666972 0.89666972
 1 2.2269348  -1.0018843  -1.0003299 0.89705751 1.6351057 1.6351057   1.1836583   1.1836583
20 2.5757327   -1.004011 -0.99930185 0.89571174 1.6351057 1.6351057   1.8812542   1.8812542
 2 1.6635162  -1.0018556 -0.99815532 0.89781368 1.6351057 1.6351057 0.056821069 0.056821069
 6 1.8180262  -1.0040642 -0.99581627 0.89508484 1.6351057 1.6351057  0.36584113  0.36584113
 1 1.9908341 -0.99923235 -0.99855747 0.90057229 1.6351057 1.6351057  0.71145697  0.71145697
 1 2.9314293  -1.0071419 -0.99394652 0.89356458 1.6351057 1.6351057   2.5926473   2.5926473
 8 2.9274182   -1.007218 -0.99387536 0.89347174 1.6351057 1.6351057   2.5846252   2.5846252
 1 3.5513111   -1.008667 -0.99265435 0.89220885 1.6351057 1.6351057   3.8324109   3.8324109
 1 4.1825743  -1.0069071 -0.99202245 0.89491773 1.6351057 1.6351057   5.0949372   5.0949372
 1 4.0561875   -1.011214 -0.98663711 0.89016002 1.6351057 1.6351057   4.8421636   4.8421636
 1 6.0352223  -1.0084507   -0.992151 0.89382796 1.6351057 1.6351057   8.8002333   8.8002333
10 6.9105887  -1.0047497 -0.99519169  0.8983323 1.6351057 1.6351057   10.550966   10.550966
 4 6.7579172  -1.0056229 -0.99416959 0.89732466 1.6351057 1.6351057   10.245623   10.245623
 1 7.1901609  -1.0012327 -0.99905241 0.90230129 1.6351057 1.6351057   11.110111   11.110111
 1 2.9320144 -0.98376715  -1.0181818 0.91715209 1.6351057 1.6351057   2.5938175   2.5938175
 5 3.1926458 -0.98667777  -1.0116671 0.91427477 1.6351057 1.6351057   3.1150803   3.1150803
 2  2.877633 -0.99098771  -1.0068362 0.90934723 1.6351057 1.6351057   2.4850547   2.4850547
 2 2.6447651 -0.99421578  -1.0030692 0.90590325 1.6351057 1.6351057    2.019319    2.019319
 1 3.1501528  -0.9904996  -1.0157016 0.91050258 1.6351057 1.6351057   3.0300943   3.0300943
 1 2.5997489  -1.0014354  -1.0025026 0.89852005 1.6351057 1.6351057   1.9292865   1.9292865
7 3.3986198  -1.0026331  -1.0020884 0.89774523 1.6351057 1.6351057  3.5270283  3.5270283
1 3.4834383  -1.0061852 -0.99701867 0.89440515 1.6351057 1.6351057  3.6966653  3.6966653
1  3.446717  -1.0143168 -0.98662445  0.8854731 1.6351057 1.6351057  3.6232226  3.6232226
1 4.4132556 -0.99836374  -1.0003859 0.89937188 1.6351057 1.6351057  5.5562999  5.5562999
3 4.9974932 -0.99980302 -0.99995852 0.89742396 1.6351057 1.6351057  6.7247752  6.7247752
1 2.6908769 -0.98471285  -1.0193117   0.917369 1.6351057 1.6351057  2.1115424  2.1115424
1 2.7091978 -0.99474313   -1.002439 0.90678687 1.6351057 1.6351057  2.1481843  2.1481843
3 2.3490648  -1.0069186  -0.9899958 0.89171501 1.6351057 1.6351057  1.4279182  1.4279182
3 2.7192369 -0.98480798  -1.0151821  0.9168598 1.6351057 1.6351057  2.1682625  2.1682625
1 2.5591286 -0.98384107  -1.0178737 0.91805224 1.6351057 1.6351057  1.8480458  1.8480458
6 2.4022839  -1.0112525 -0.98791246 0.88721449 1.6351057 1.6351057  1.5343566  1.5343566
1  2.408036  -1.0046707 -0.99726478   0.893992 1.6351057 1.6351057  1.5458607  1.5458607
3  2.975599 -0.99538264   -1.009895 0.90404739 1.6351057 1.6351057  2.6809868  2.6809868
5 2.0441502  -1.0102196 -0.98765054 0.88872023 1.6351057 1.6351057 0.81808899 0.81808899
1 2.5593804  -1.0158652 -0.98187209 0.88292369 1.6351057 1.6351057  1.8485494  1.8485494
2 3.2597044  -1.0175085 -0.97558354 0.88109216 1.6351057 1.6351057  3.2491975  3.2491975
1 2.8950211  -1.0134204  -0.9802807 0.88553978 1.6351057 1.6351057  2.5198308  2.5198308
1  2.892499 -0.99932535  -1.0053944 0.89983952 1.6351057 1.6351057  2.5147867  2.5147867
1 2.8120648  -0.9974082  -1.0074348 0.90195302 1.6351057 1.6351057  2.3539183  2.3539183
4  3.615244 -0.99754333  -1.0077965 0.90369677 1.6351057 1.6351057  3.9602767  3.9602767
 4 6.3418318 -0.99417368  -1.0156997 0.90476992 1.6351057 1.6351057  9.4134523  9.4134523
17 6.9183035 -0.98959385  -1.0209287 0.90953071 1.6351057 1.6351057  10.566396  10.566396
 7 6.9429113 -0.99026751  -1.0196277 0.90835955 1.6351057 1.6351057  10.615611  10.615611
 2 5.9157271  -1.0055103  -1.0024082 0.89383642 1.6351057 1.6351057  8.5612429  8.5612429
 1 5.7578749  -1.0025148  -1.0059243 0.89670154 1.6351057 1.6351057  8.2455384  8.2455384
 2 3.7690369 -0.99866469   -1.007916 0.90134777 1.6351057 1.6351057  4.2678624  4.2678624
 7 2.7106008  -0.9858374   -1.018437 0.91501888 1.6351057 1.6351057  2.1509903  2.1509903
 5 2.7949838 -0.99061788  -1.0112673   0.911809 1.6351057 1.6351057  2.3197562  2.3197562
 2 2.6006774  -1.0002299 -0.99580272 0.90060413 1.6351057 1.6351057  1.9311434  1.9311434
 1 1.9225511  -1.0073036 -0.99002581 0.89195738 1.6351057 1.6351057 0.57489097 0.57489097
 3 2.5437427   -1.008755 -0.98592493 0.89066069 1.6351057 1.6351057  1.8172741  1.8172741
 1 1.7088244  -1.0037589 -0.99544198 0.89619379 1.6351057 1.6351057 0.14743755 0.14743755
 6  2.448187 -0.98587823  -1.0146943 0.91583008 1.6351057 1.6351057  1.6261628  1.6261628
 1 3.0448329  -1.0015641 -0.99882083 0.90008292 1.6351057 1.6351057  2.8194546  2.8194546
 3 2.5390298  -1.0041435 -0.99729186 0.89658449 1.6351057 1.6351057  1.8078482  1.8078482
 3 2.9678047 -0.98366556  -1.0161858 0.91886067 1.6351057 1.6351057   2.665398   2.665398
 1 2.2854139 -0.99338928  -1.0049154 0.90791101 1.6351057 1.6351057  1.3006165  1.3006165
 3  2.358639 -0.99070428  -1.0081606  0.9108284 1.6351057 1.6351057  1.4470667  1.4470667
 7 2.4710813 -0.99197252  -1.0059182 0.90906543 1.6351057 1.6351057  1.6719512  1.6719512
 1 2.2546223  -1.0034849 -0.99543002 0.89741674 1.6351057 1.6351057  1.2390332  1.2390332
 2  2.195031  -1.0001378  -1.0001766  0.9009848 1.6351057 1.6351057   1.1198507   1.1198507
 1 2.0552566  -1.0108341 -0.98620048 0.88837844 1.6351057 1.6351057  0.84030191  0.84030191
 1 2.3973841  -1.0150564 -0.98113206 0.88418907 1.6351057 1.6351057   1.5245569   1.5245569
 3 2.9532173  -1.0172421 -0.98113718 0.88219072 1.6351057 1.6351057   2.6362233   2.6362233
 1 3.1838196 -0.99398759   -1.011009 0.90512965 1.6351057 1.6351057   3.0974279   3.0974279
 2 2.8000552 -0.98941549  -1.0134857 0.91028547 1.6351057 1.6351057   2.3298992   2.3298992
 2 3.0152137  -1.0120595 -0.98345575 0.88851559 1.6351057 1.6351057    2.760216    2.760216
 1 5.3675079 -0.99299449  -1.0045137 0.91061893 1.6351057 1.6351057   7.4648044   7.4648044
 1 2.4833628 -0.99638665  -1.0017734 0.90301394 1.6351057 1.6351057   1.6965142   1.6965142
 4 2.4466326  -1.0003261 -0.99696798 0.89877287 1.6351057 1.6351057    1.623054    1.623054
 5 4.2319545 -0.97923546  -1.0231014  0.9216777 1.6351057 1.6351057   5.1936977   5.1936977
 1 3.3683571 -0.98347312  -1.0175585 0.91720294 1.6351057 1.6351057    3.466503    3.466503
 1 4.0287769 -0.97689788  -1.0250893 0.92733536 1.6351057 1.6351057   4.7873424   4.7873424
 1 2.2037311  -1.0039717 -0.99306574 0.89662242 1.6351057 1.6351057   1.1372508   1.1372508
18 1.6919059  -1.0020619 -0.99808076 0.89799618 1.6351057 1.6351057  0.11360039  0.11360039
 2 1.7117646 -0.99950519  -1.0016479 0.90067632 1.6351057 1.6351057   0.1533179   0.1533179
10 1.6723535  -0.9983796  -1.0012767 0.90166639 1.6351057 1.6351057 0.074495631 0.074495631
 2 2.5452039 -0.98592282  -1.0161887 0.91488914 1.6351057 1.6351057   1.8201966   1.8201966
 1  3.710397  -1.0068292 -0.98594354 0.89356796 1.6351057 1.6351057   4.1505827   4.1505827
 3 3.4387081  -1.0170213 -0.97776241 0.88337797 1.6351057 1.6351057   3.6072048   3.6072048
 3 3.5961923   -1.018226 -0.97603364 0.88214134 1.6351057 1.6351057 3.9221733 3.9221733
13 3.4830824  -1.0179517 -0.97644114 0.88235777 1.6351057 1.6351057 3.6959534 3.6959534
 7 3.9300417  -1.0217228 -0.97169442 0.87849781 1.6351057 1.6351057 4.5898721 4.5898721
 2 3.8001086  -1.0011106 -0.99226031 0.89891313 1.6351057 1.6351057 4.3300059 4.3300059
 6 3.9780364  -1.0035862 -0.98915051 0.89608911 1.6351057 1.6351057 4.6858616 4.6858616
11 2.2498454  -1.0037884 -0.99508431  0.8948005 1.6351057 1.6351057 1.2294796 1.2294796
 1 3.2123209  -1.0000887 -0.99549604  0.8989991 1.6351057 1.6351057 3.1544304 3.1544304
 9 3.1006403 -0.99245462   -1.004296 0.90930683 1.6351057 1.6351057 2.9310693 2.9310693
 7 3.2068357  -0.9918384  -1.0057085 0.91044799 1.6351057 1.6351057   3.14346   3.14346
 4 3.7528454   -1.007515   -0.996024 0.89287833 1.6351057 1.6351057 4.2354796 4.2354796
 5  2.780548  -1.0092914 -0.99292377 0.88974855 1.6351057 1.6351057 2.2908847 2.2908847
 8 2.7966027  -1.0070866 -0.99592209 0.89212322 1.6351057 1.6351057  2.322994  2.322994
 1 4.1681341  -1.0046815   -1.001335  0.8946137 1.6351057 1.6351057 5.0660569 5.0660569
 1 2.5404006  -1.0111965 -0.98454894 0.88898613 1.6351057 1.6351057 1.8105898 1.8105898
 1  3.034517  -1.0111376 -0.98488858 0.88958894 1.6351057 1.6351057 2.7988228 2.7988228
 1 3.0982487 -0.99528803   -1.002706 0.90688305 1.6351057 1.6351057 2.9262861 2.9262861
 8 2.9663411  -1.0011259 -0.99548247 0.90033987 1.6351057 1.6351057 2.6624708 2.6624708
 4 4.5670885 -0.98423679   -1.023725 0.91815066 1.6351057 1.6351057 5.8639657 5.8639657
 2 5.1748421 -0.98311564  -1.0261263 0.91806403 1.6351057 1.6351057  7.079473  7.079473
 1 5.0893688 -0.99016972  -1.0190607 0.91039035 1.6351057 1.6351057 6.9085264 6.9085264
1 4.5362896 -0.99289479  -1.0154361 0.90759816 1.6351057 1.6351057 5.8023678 5.8023678
1 5.9794816 -0.98588079  -1.0236444 0.91657094 1.6351057 1.6351057 8.6887519 8.6887519
1 4.4365207  -0.9790014  -1.0282509 0.92403654 1.6351057 1.6351057   5.60283   5.60283
1 4.5123888  -1.0069405  -0.9989561  0.8919519 1.6351057 1.6351057 5.7545663 5.7545663
4 3.1388214  -1.0103759 -0.99195864 0.88814085 1.6351057 1.6351057 3.0074315 3.0074315
4 3.2045929  -1.0101953 -0.99244248   0.888415 1.6351057 1.6351057 3.1389745 3.1389745
4 3.3970752 -0.98100813  -1.0185382 0.92156743 1.6351057 1.6351057  3.523939  3.523939
2 3.0752486 -0.98161056  -1.0187814  0.9209557 1.6351057 1.6351057 2.8802859 2.8802859
2 4.7545392 -0.97901388  -1.0184082 0.92377366 1.6351057 1.6351057 6.2388671 6.2388671
3 5.2267932 -0.97946694  -1.0188307 0.92173596 1.6351057 1.6351057  7.183375  7.183375
2 5.7495015 -0.97716528  -1.0196805 0.92709565 1.6351057 1.6351057 8.2287917 8.2287917
4 5.8678618 -0.97821637   -1.022235 0.92725206 1.6351057 1.6351057 8.4655123 8.4655123
2 6.6617794 -0.99086944  -1.0042172 0.91304443 1.6351057 1.6351057 10.053347 10.053347
2 6.5925284 -0.98578259  -1.0092638 0.91833412 1.6351057 1.6351057 9.9148454 9.9148454
2 7.8900169 -0.97867628  -1.0150439 0.92535689 1.6351057 1.6351057 12.509822 12.509822
5 8.2766911 -0.96143769  -1.0383349 0.94378282 1.6351057 1.6351057 13.283171 13.283171
1  4.703208 -0.97696658  -1.0283858 0.92744697 1.6351057 1.6351057 6.1362047 6.1362047
2  3.797803 -0.99573225  -1.0044507 0.90698345 1.6351057 1.6351057 4.3253948 4.3253948
3 5.3166188 -0.96925543  -1.0364497 0.93546013 1.6351057 1.6351057 7.3630263 7.3630263
1 6.1652576 -0.97303032  -1.0360889 0.93067956 1.6351057 1.6351057 9.0603039 9.0603039
 3 6.1127549 -0.97304055  -1.0360336 0.93059765 1.6351057 1.6351057  8.9552985  8.9552985
 2 5.5844649 -0.98023892  -1.0284351 0.92310862 1.6351057 1.6351057  7.8987185  7.8987185
 3 6.2075828 -0.97907458  -1.0302231  0.9245251 1.6351057 1.6351057  9.1449543  9.1449543
 6 5.5876118  -1.0239526 -0.97450922 0.87645759 1.6351057 1.6351057  7.9050123  7.9050123
11 5.4302037  -1.0341491 -0.95866966 0.86500452 1.6351057 1.6351057  7.5901961  7.5901961
 1 4.9570095  -1.0226339  -0.9766603 0.87728397 1.6351057 1.6351057  6.6438078  6.6438078
 1 3.0488101  -1.0128058 -0.98672625 0.88745169 1.6351057 1.6351057  2.8274089  2.8274089
 1 4.4052601  -1.0079692 -0.99125157 0.89382693 1.6351057 1.6351057  5.5403088  5.5403088
 4 4.8644744  -1.0035352 -0.99615284 0.89891136 1.6351057 1.6351057  6.4587374  6.4587374
 1 6.0796944 -0.98912757  -1.0081818 0.91511172 1.6351057 1.6351057  8.8891776  8.8891776
 2  3.890849 -0.99558041 -0.99888317 0.90574681 1.6351057 1.6351057  4.5114867  4.5114867
 2 2.5211699 -0.99063427  -1.0076078 0.91079768 1.6351057 1.6351057  1.7721286  1.7721286
 5 2.4927187 -0.99276522  -1.0083999 0.90926763 1.6351057 1.6351057  1.7152261  1.7152261
 3 1.7021244 -0.99746077  -1.0039149  0.9027178 1.6351057 1.6351057 0.13403756 0.13403756
 1 3.7018892 -0.98452642   -1.022499 0.91670001 1.6351057 1.6351057  4.1335672  4.1335672
 2 2.7257404 -0.98498837  -1.0149697 0.91654724 1.6351057 1.6351057  2.1812694  2.1812694
 4 3.4481839   -1.021223  -0.9723587 0.87855046 1.6351057 1.6351057  3.6261564  3.6261564
 6 3.1630689  -1.0114155 -0.98155242 0.88809176 1.6351057 1.6351057  3.0559264  3.0559264
 3 5.0405783 -0.98328359  -1.0198359 0.91610513 1.6351057 1.6351057  6.8109454  6.8109454
 2 1.9660283  -1.0031747 -0.99851696 0.89618784 1.6351057 1.6351057 0.66184518 0.66184518
1 1.7763609  -1.0017345 -0.99703907 0.89863067 1.6351057 1.6351057 0.28251055 0.28251055
1 1.6859519 -0.99967743 -0.99956431 0.90020316 1.6351057 1.6351057  0.1016924  0.1016924
4 2.0894334 -0.98879027  -1.0124052 0.91231447 1.6351057 1.6351057  0.9086554  0.9086554
6  1.998882 -0.99279477  -1.0089619 0.90853981 1.6351057 1.6351057 0.72755271 0.72755271
1 2.4521429  -1.0100114 -0.98919581 0.89019897 1.6351057 1.6351057  1.6340744  1.6340744
6 1.9051386  -1.0073115 -0.98997977 0.89206733 1.6351057 1.6351057 0.54006587 0.54006587
1 1.9902915  -1.0083119 -0.98889152 0.89152999 1.6351057 1.6351057 0.71037175 0.71037175
6 2.3702178  -1.0097707 -0.98563552 0.89010838 1.6351057 1.6351057  1.4702242  1.4702242
4 2.3498086  -1.0064672 -0.98925594 0.89372049 1.6351057 1.6351057  1.4294058  1.4294058
9 1.9757619   -1.002929 -0.99476557 0.89753185 1.6351057 1.6351057  0.6813125  0.6813125
5  3.868522 -0.97506871  -1.0290387  0.9280658 1.6351057 1.6351057  4.4668327  4.4668327
1 2.7173956 -0.99055206  -1.0072129 0.91036866 1.6351057 1.6351057  2.1645799  2.1645799
5 2.1873895 -0.99792595 -0.99935701 0.90276223 1.6351057 1.6351057  1.1045677  1.1045677
1 2.2401372 -0.99642167  -1.0016503 0.90480059 1.6351057 1.6351057  1.2100631  1.2100631
1 2.2867277 -0.99028695  -1.0089895 0.91124928 1.6351057 1.6351057   1.303244   1.303244
8 1.8314981  -0.9944224  -1.0062194 0.90659572 1.6351057 1.6351057 0.39278485 0.39278485
1 3.3357357  -1.0015396 -0.99248951 0.89887713 1.6351057 1.6351057    3.40126    3.40126
1 4.3144993  -1.0035941 -0.98869531  0.8960407 1.6351057 1.6351057  5.3587872  5.3587872
3  4.012436 -0.99237791  -1.0039272 0.90721422 1.6351057 1.6351057  4.7546607  4.7546607
3 3.6748693  -1.0071666 -0.98571943 0.89192438 1.6351057 1.6351057  4.0795273  4.0795273
2 5.7097402   -1.002598 -0.99257386  0.8947876 1.6351057 1.6351057  8.1492691  8.1492691
5 3.0848661 -0.98325677  -1.0161653 0.91880075 1.6351057 1.6351057  2.8995208  2.8995208
2 2.8456421 -0.98323858  -1.0170536 0.91884624 1.6351057 1.6351057  2.4210729  2.4210729
2 3.0477871 -0.98335871  -1.0161521 0.91862043 1.6351057 1.6351057  2.8253628  2.8253628
3 4.1765417 -0.98180174   -1.015748 0.92036973 1.6351057 1.6351057  5.0828722  5.0828722
1 4.1779838 -0.98176147  -1.0158042 0.92040599 1.6351057 1.6351057  5.0857562  5.0857562
4 3.8074561 -0.98362262  -1.0139836 0.91831663 1.6351057 1.6351057  4.3447009  4.3447009
4 4.0201809  -0.9793851  -1.0195413 0.92292474 1.6351057 1.6351057  4.7701506  4.7701506
3  1.846498 -0.99389146  -1.0060582 0.90701473 1.6351057 1.6351057 0.42278477 0.42278477
6 3.0993944  -1.0051235 -0.99473148 0.89268891 1.6351057 1.6351057  2.9285774  2.9285774
8 2.9507535 -0.98358124  -1.0206987 0.91890905 1.6351057 1.6351057  2.6312956  2.6312956
1  2.033361   -0.997848  -1.0029887 0.90137061 1.6351057 1.6351057 0.79651074 0.79651074
1 2.2808946 -0.99319759  -1.0088941   0.906366 1.6351057 1.6351057  1.2915779  1.2915779
1 2.1633265 -0.99164977  -1.0097433 0.90834196 1.6351057 1.6351057  1.0564417  1.0564417
5 1.9408602 -0.99233588   -1.009443 0.90792243 1.6351057 1.6351057   0.611509   0.611509
2 1.9875773 -0.99437781  -1.0071065 0.90688834 1.6351057 1.6351057 0.70494319 0.70494319
7 2.4783773 -0.98682916  -1.0164605 0.91518066 1.6351057 1.6351057  1.6865432  1.6865432
4 2.5565628 -0.98545992  -1.0180302 0.91659986 1.6351057 1.6351057  1.8429143  1.8429143
2 2.7109604 -0.98434658  -1.0196613 0.91776518 1.6351057 1.6351057  2.1517096  2.1517096
1 1.7459787 -0.99440106  -1.0062649  0.9061679 1.6351057 1.6351057  0.2217461  0.2217461
5 3.1645497  -1.0028498 -0.99404254 0.89871535 1.6351057 1.6351057   3.058888   3.058888
6 2.2310731 -0.99873714 -0.99935873 0.90242443 1.6351057 1.6351057  1.1919349  1.1919349
2 1.9478617 -0.99423893    -1.00815 0.90574601 1.6351057 1.6351057 0.62551212 0.62551212
2 1.9486998 -0.99425606  -1.0081746 0.90573787 1.6351057 1.6351057  0.6271883  0.6271883
2  2.068614 -0.99919437 -0.99941382 0.90182736 1.6351057 1.6351057 0.86701659 0.86701659
1 2.0761657 -0.99942661 -0.99921567 0.90159771 1.6351057 1.6351057 0.88212002 0.88212002
4 2.2439143 -0.98888805  -1.0135287 0.91289728 1.6351057 1.6351057  1.2176173  1.2176173
1 3.2252302  -1.0182978 -0.98071752  0.8807854 1.6351057 1.6351057   3.180249   3.180249
2  3.113706   -1.018884  -0.9793409 0.87985463 1.6351057 1.6351057  2.9572006  2.9572006
3 3.6420187  -1.0231939 -0.97250787 0.87508965 1.6351057 1.6351057  4.0138262  4.0138262
8 2.5091282  -1.0020928 -0.99384119 0.89733076 1.6351057 1.6351057  1.7480451  1.7480451
1 2.4542169  -1.0059358 -0.98925841 0.89360185 1.6351057 1.6351057  1.6382225  1.6382225
2  2.774106  -1.0072393 -0.98706175 0.89217694 1.6351057 1.6351057  2.2780006  2.2780006
1 3.1414142  -1.0085864 -0.98496399 0.89158836 1.6351057 1.6351057  3.0126172  3.0126172
1 3.6537198  -1.0020348 -0.99381538    0.89974 1.6351057 1.6351057  4.0372284  4.0372284
4 2.8387777  -1.0058444 -0.99144506 0.89529008 1.6351057 1.6351057  2.4073442  2.4073442
6 2.2449838  -1.0042073 -0.99491318 0.89660048 1.6351057 1.6351057  1.2197562  1.2197562
8 2.9953815 -0.99196072  -1.0124774  0.9099122 1.6351057 1.6351057  2.7205517  2.7205517
1 2.1442365  -1.0009155  -1.0018905 0.89849288 1.6351057 1.6351057  1.0182617  1.0182617
7 2.3526005  -1.0146131 -0.98181186 0.88467555 1.6351057 1.6351057  1.4349896  1.4349896
 2 2.2808343  -1.0101891 -0.98964146 0.88851839 1.6351057 1.6351057   1.2914572   1.2914572
 4  2.569269 -0.98429141  -1.0176167 0.91710854 1.6351057 1.6351057   1.8683267   1.8683267
 1 2.6023447 -0.98407481  -1.0178768 0.91732614 1.6351057 1.6351057   1.9344781   1.9344781
 5 2.6253895 -0.98421573  -1.0190677  0.9170929 1.6351057 1.6351057   1.9805676   1.9805676
 5 1.7777876 -0.99528897  -1.0051375 0.90556511 1.6351057 1.6351057  0.28536398  0.28536398
 1 3.2290574   -1.013717 -0.97924124  0.8861647 1.6351057 1.6351057   3.1879035   3.1879035
 7 1.6928133   -1.003039 -0.99603293  0.8969537 1.6351057 1.6351057   0.1154153   0.1154153
13 1.6749059  -1.0002968 -0.99943319 0.89939303 1.6351057 1.6351057 0.079600448 0.079600448
 9 1.7092017  -1.0014318 -0.99794733 0.89809097 1.6351057 1.6351057  0.14819211  0.14819211
 3  1.938694  -0.9967428  -1.0025295  0.9029746 1.6351057 1.6351057  0.60717668  0.60717668
 4 1.9723935 -0.99714351  -1.0022353 0.90241657 1.6351057 1.6351057  0.67457574  0.67457574
 8 2.4653559   -1.014601 -0.98296546  0.8840227 1.6351057 1.6351057   1.6605005   1.6605005
 7 1.7320666  -1.0012418 -0.99889937 0.89818454 1.6351057 1.6351057  0.19392196  0.19392196
15 1.8617516 -0.99668919  -1.0025142 0.90322808 1.6351057 1.6351057  0.45329186  0.45329186
 6 1.6506368 -0.99880071  -1.0009608 0.90133298 1.6351057 1.6351057 0.031062201 0.031062201
 1 1.6499044 -0.99920859  -1.0004446 0.90086418 1.6351057 1.6351057 0.029597417 0.029597417
14 2.8560423 -0.99814333  -0.9977312 0.90293551 1.6351057 1.6351057   2.4418733   2.4418733
13 3.3545645  -1.0106924  -0.9917866 0.88763407 1.6351057 1.6351057   3.4389177   3.4389177
 3 2.8616667  -1.0148511 -0.98510914 0.88410294 1.6351057 1.6351057   2.4531221   2.4531221
 3 2.3704569  -1.0111801 -0.98407372 0.88798322 1.6351057 1.6351057   1.4707026   1.4707026
7 2.1962656 -0.99540663  -1.0078445 0.90552521 1.6351057 1.6351057 1.1223199 1.1223199
4 3.2316114 -0.98702886  -1.0191221 0.91365296 1.6351057 1.6351057 3.1930116 3.1930116
1 3.3610531 -0.97892937  -1.0250672 0.92417049 1.6351057 1.6351057 3.4518948 3.4518948
1 3.3737159  -1.0048811 -0.99198977 0.89667335 1.6351057 1.6351057 3.4772205 3.4772205
2 3.7467294  -1.0056968  -0.9919507  0.8960524 1.6351057 1.6351057 4.2232476 4.2232476
2 4.0785424  -1.0224153 -0.97387531 0.87771099 1.6351057 1.6351057 4.8868735 4.8868735
2  3.956888  -1.0231946 -0.96914634 0.87673351 1.6351057 1.6351057 4.6435647 4.6435647
1 2.5937148 -0.99358516  -1.0042417  0.9080589 1.6351057 1.6351057 1.9172183 1.9172183
2    2.7414  -0.9855361  -1.0144881 0.91563053 1.6351057 1.6351057 2.2125886 2.2125886
3 6.0515099 -0.97130741  -1.0372164 0.93198005 1.6351057 1.6351057 8.8328085 8.8328085
5 7.6263426 -0.96768783  -1.0422408 0.93638148 1.6351057 1.6351057 11.982474 11.982474
9 5.6392385 -0.96737894   -1.038009 0.93771422 1.6351057 1.6351057 8.0082656 8.0082656
2 5.6613946 -0.97816925  -1.0236805 0.92217564 1.6351057 1.6351057 8.0525778 8.0525778
2 5.4321196 -0.97794391  -1.0238014 0.92260231 1.6351057 1.6351057 7.5940278 7.5940278
1 4.1109126  -1.0156294 -0.97756094 0.88212585 1.6351057 1.6351057 4.9516138 4.9516138
2 5.5401796  -1.0140174  -0.9749319 0.88543953 1.6351057 1.6351057 7.8101478 7.8101478
2 4.6339008  -1.0006369 -0.99181964 0.90030458 1.6351057 1.6351057 5.9975904 5.9975904
1 2.5739196 -0.99719746  -0.9991447 0.90311789 1.6351057 1.6351057 1.8776278 1.8776278
2 3.4375514  -0.9848279    -1.01317  0.9168293 1.6351057 1.6351057 3.6048915 3.6048915
1 3.5237757 -0.98378146  -1.0157643 0.91708691 1.6351057 1.6351057   3.77734   3.77734
 5 1.8000565  -1.0060301 -0.99330325 0.89322634 1.6351057 1.6351057 0.32990166 0.32990166
 7 1.7032138  -1.0037788 -0.99612551 0.89591532 1.6351057 1.6351057 0.13621635 0.13621635
 8 1.9074139  -1.0061378 -0.99418349 0.89306573 1.6351057 1.6351057 0.54461643 0.54461643
 2 2.2315914  -1.0010266  -1.0019208 0.89825447 1.6351057 1.6351057  1.1929715  1.1929715
 3 3.7837916  -1.0023874  -1.0021609 0.89571588 1.6351057 1.6351057  4.2973719  4.2973719
 1 3.9742604 -0.98666899  -1.0203803 0.91347691 1.6351057 1.6351057  4.6783095  4.6783095
 1 4.0994222   -0.985961  -1.0209995 0.91410921 1.6351057 1.6351057  4.9286331  4.9286331
 1 1.9543151 -0.99147232  -1.0087517 0.90948159 1.6351057 1.6351057  0.6384188  0.6384188
 4 2.6312217  -1.0142141 -0.98248981 0.88579123 1.6351057 1.6351057   1.992232   1.992232
 6 1.9237645 -0.99644841  -1.0022877 0.90360798 1.6351057 1.6351057 0.57731765 0.57731765
 1 1.9047316  -1.0077855 -0.99168109  0.8914162 1.6351057 1.6351057 0.53925183 0.53925183
13 1.9632413  -1.0078686 -0.99089826 0.89206435 1.6351057 1.6351057 0.65627122 0.65627122
 5 2.0066335  -1.0027024 -0.99937652 0.89685709 1.6351057 1.6351057 0.74305578 0.74305578
 4 2.7330859   -1.004067 -0.99728837 0.89412485 1.6351057 1.6351057  2.1959605  2.1959605
 2 4.7892066  -1.0051364 -0.99644561 0.89183292 1.6351057 1.6351057  6.3082019  6.3082019
 4 5.1054427  -1.0091643 -0.99088574 0.88752417 1.6351057 1.6351057   6.940674   6.940674
 1 3.8901401  -1.0153736 -0.98450959 0.88214468 1.6351057 1.6351057  4.5100689  4.5100689
 7  2.591365  -1.0126197 -0.98225037 0.88619412 1.6351057 1.6351057  1.9125188  1.9125188
 5 2.9910839  -1.0126953 -0.98362306 0.88526792 1.6351057 1.6351057  2.7119565  2.7119565
 3 2.2668195  -1.0049525 -0.99154822 0.89410288 1.6351057 1.6351057  1.2634277  1.2634277
10  2.514731  -1.0074944 -0.98912564  0.8931408 1.6351057 1.6351057 1.7592508 1.7592508
 3 4.6647504  -1.0029075  -1.0023097 0.89828083 1.6351057 1.6351057 6.0592894 6.0592894
 1 3.9546729 -0.99926963 -0.99707273 0.90296006 1.6351057 1.6351057 4.6391345 4.6391345
 7  2.931517  -1.0124499 -0.98860164 0.88705801 1.6351057 1.6351057 2.5928227 2.5928227
 2 5.1406776  -1.0238402 -0.96988115 0.87700912 1.6351057 1.6351057 7.0111439 7.0111439
 1 4.0215502  -1.0263585 -0.96709927 0.87322242 1.6351057 1.6351057  4.772889  4.772889
 3 4.4013159   -1.028722 -0.96310353 0.87078564 1.6351057 1.6351057 5.5324206 5.5324206
 1 4.5890577  -1.0303851 -0.96106432 0.86878144 1.6351057 1.6351057 5.9079042 5.9079042
 5 5.0826764  -1.0090412 -0.98132183 0.89114718 1.6351057 1.6351057 6.8951415 6.8951415
 1 3.3584334 -0.98886798  -1.0079543 0.91243082 1.6351057 1.6351057 3.4466556 3.4466556
 5 3.4441932 -0.98894186    -1.00776 0.91220655 1.6351057 1.6351057 3.6181751 3.6181751
 2 3.5334406 -0.99010638  -1.0061915 0.91078477 1.6351057 1.6351057 3.7966698 3.7966698
 4  4.398471 -0.98862862  -1.0067241 0.91242073 1.6351057 1.6351057 5.5267307 5.5267307
 3 4.3632146 -0.99780803   -0.995366 0.90273179 1.6351057 1.6351057 5.4562179 5.4562179
 3 4.2266672  -1.0050078 -0.98729426 0.89432702 1.6351057 1.6351057  5.183123  5.183123
 2 4.2285404  -1.0047298 -0.98759662 0.89464897 1.6351057 1.6351057 5.1868694 5.1868694
 1 5.0165728   -1.002202 -0.99007424  0.8968471 1.6351057 1.6351057 6.7629343 6.7629343
 1   4.37352 -0.98060907  -1.0218194 0.91982173 1.6351057 1.6351057 5.4768286 5.4768286
 1 3.8190887 -0.98796647  -1.0148345 0.91122455 1.6351057 1.6351057 4.3679661 4.3679661
 2 3.8906649  -0.9884745  -1.0144132 0.91058486 1.6351057 1.6351057 4.5111186 4.5111186
3 2.7568807 -0.99284291  -1.0105773 0.90641728 1.6351057 1.6351057   2.2435501   2.2435501
3 3.2958666 -0.98770656   -1.018676 0.91292993 1.6351057 1.6351057   3.3215219   3.3215219
1 5.9203747 -0.98831681  -1.0203918 0.91064527 1.6351057 1.6351057    8.570538    8.570538
5 4.4893634 -0.98623928  -1.0211127 0.91356923 1.6351057 1.6351057   5.7085156   5.7085156
1  4.674573 -0.98678533  -1.0207317   0.912838 1.6351057 1.6351057   6.0789348   6.0789348
3 2.2068235 -0.98910884  -1.0142012 0.91168025 1.6351057 1.6351057   1.1434357   1.1434357
2 1.6624513  -1.0024642  -0.9974354 0.89728777 1.6351057 1.6351057 0.054691319 0.054691319
4 2.1232369  -1.0013598 -0.99795875  0.8996108 1.6351057 1.6351057  0.97626253  0.97626253
2 2.1047566  -0.9989569  -1.0017173 0.90215399 1.6351057 1.6351057  0.93930191  0.93930191
3 2.0040169 -0.99205127  -1.0088857 0.90816712 1.6351057 1.6351057  0.73782239  0.73782239
2 1.8686715 -0.99702973   -1.003526 0.90253683 1.6351057 1.6351057  0.46713165  0.46713165
2 2.3729275 -0.99165321   -1.011376 0.91003423 1.6351057 1.6351057   1.4756437   1.4756437
4 2.4969275 -0.99066453  -1.0129619 0.91107267 1.6351057 1.6351057   1.7236436   1.7236436
1 4.0198249  -1.0229241 -0.96805845 0.87652304 1.6351057 1.6351057   4.7694385   4.7694385
2  3.995519  -1.0216277 -0.96929383 0.87727786 1.6351057 1.6351057   4.7208266   4.7208266
3 4.3827196    -1.02015 -0.97011692 0.87960189 1.6351057 1.6351057   5.4952279   5.4952279
1  3.892274  -1.0208928 -0.97219025 0.87933678 1.6351057 1.6351057   4.5143366   4.5143366
1  3.235741  -1.0220583 -0.97234379 0.87716391 1.6351057 1.6351057   3.2012707   3.2012707
1 3.1312297  -1.0211795 -0.97474785 0.87761001 1.6351057 1.6351057   2.9922481   2.9922481
4 1.9527561  -1.0058217 -0.99242153 0.89442487 1.6351057 1.6351057  0.63530095  0.63530095
3 4.6654462  -1.0247131 -0.96469542 0.87443717 1.6351057 1.6351057   6.0606811   6.0606811
2 3.0672633  -1.0136899 -0.98580177 0.88642677 1.6351057 1.6351057   2.8643153   2.8643153
1 3.0635152  -1.0137011 -0.98578503 0.88641107 1.6351057 1.6351057   2.8568191   2.8568191
1 2.6262093  -1.0070222 -0.99408763 0.89340941 1.6351057 1.6351057   1.9822073   1.9822073
6 3.2652951  -1.0166504 -0.97812865 0.88137614 1.6351057 1.6351057   3.2603788   3.2603788
4   3.14986  -1.0060586 -0.99787556 0.89354293 1.6351057 1.6351057   3.0295088   3.0295088
1 3.8391883  -1.0134588 -0.98923223 0.88508382 1.6351057 1.6351057   4.4081653   4.4081653
3 4.2123981  -1.0012348  -1.0029659 0.89648063 1.6351057 1.6351057    5.154585    5.154585
1 2.9135083 -0.99961216  -1.0033713 0.89883173 1.6351057 1.6351057   2.5568054   2.5568054
9 3.1115861 -0.99677226  -1.0074476 0.90195165 1.6351057 1.6351057   2.9529609   2.9529609
3 2.5782674 -0.98410379  -1.0192502 0.91750567 1.6351057 1.6351057   1.8863234   1.8863234
5 1.6713913 -0.99875168   -1.001948 0.90154507 1.6351057 1.6351057 0.072571289 0.072571289
4 1.8157337 -0.99864966   -1.003332 0.90156594 1.6351057 1.6351057  0.36125604  0.36125604
1 1.7772183  -1.0051684 -0.99441711 0.89411832 1.6351057 1.6351057  0.28422522  0.28422522
2 1.7550109 -0.99981381 -0.99976103 0.89971937 1.6351057 1.6351057  0.23981055  0.23981055
2 3.2793804 -0.99768953  -1.0074396 0.90116498 1.6351057 1.6351057   3.2885496   3.2885496
3 3.4140186  -1.0037757  -1.0012472 0.89587882 1.6351057 1.6351057   3.5578258   3.5578258
4 3.2116582   -1.008603 -0.99395572 0.89150895 1.6351057 1.6351057   3.1531052   3.1531052
9 2.5557118  -1.0046196 -0.99757727 0.89576687 1.6351057 1.6351057   1.8412123   1.8412123
4 2.0367318  -1.0021777 -0.99915576 0.89828045 1.6351057 1.6351057  0.80325237  0.80325237
5 1.9545785  -1.0018289 -0.99945291 0.89856568 1.6351057 1.6351057 0.63894572 0.63894572
1  3.864578  -1.0164374 -0.98094863 0.88094491 1.6351057 1.6351057  4.4589446  4.4589446
7 3.8771523  -1.0085675 -0.98437231 0.89001113 1.6351057 1.6351057  4.4840934  4.4840934
1 2.0571274  -1.0069166 -0.99327221 0.89192878 1.6351057 1.6351057 0.84404353 0.84404353
3  1.901679  -1.0058627 -0.99471578  0.8935836 1.6351057 1.6351057  0.5331466  0.5331466
1 2.9664228  -1.0087349 -0.98493283 0.89071068 1.6351057 1.6351057  2.6626343  2.6626343
4 4.1235073 -0.98938494  -1.0076465 0.91048339 1.6351057 1.6351057  4.9768032  4.9768032
2 4.4246332 -0.98901282  -1.0081754 0.91065201 1.6351057 1.6351057  5.5790551  5.5790551
6 3.3271814  -1.0075979 -0.98663218 0.89321743 1.6351057 1.6351057  3.3841514  3.3841514
4 3.6033645  -1.0203351 -0.97226045 0.87952052 1.6351057 1.6351057  3.9365177  3.9365177
3 3.0426103  -1.0134789 -0.98161485 0.88693893 1.6351057 1.6351057  2.8150092  2.8150092
2 2.4981859  -1.0045714 -0.99064866 0.89512917 1.6351057 1.6351057  1.7261604  1.7261604
1 2.9361515  -1.0019581 -0.99270657 0.89799349 1.6351057 1.6351057  2.6020916  2.6020916
1 4.6651683  -1.0044647 -0.98856801 0.89707025 1.6351057 1.6351057  6.0601254  6.0601254
6 6.1404022 -0.96445571  -1.0392707 0.94135833 1.6351057 1.6351057  9.0105932  9.0105932
1 6.0191516 -0.96526366   -1.037808 0.94065149 1.6351057 1.6351057   8.768092   8.768092
2  7.219678 -0.97234553  -1.0328901 0.93415414 1.6351057 1.6351057  11.169145  11.169145
1 6.2139378 -0.98678415  -1.0160028 0.91787863 1.6351057 1.6351057  9.1576644  9.1576644
8 3.9639599 -0.98145509  -1.0208977 0.92256903 1.6351057 1.6351057  4.6577084  4.6577084
4 4.0311877 -0.97905558  -1.0248042 0.92500063 1.6351057 1.6351057   4.792164   4.792164
 3 4.6014173 -0.98555066  -1.0213156 0.91743963 1.6351057 1.6351057  5.9326233  5.9326233
 1   7.54372 -0.97504316  -1.0328427 0.93060795 1.6351057 1.6351057  11.817229  11.817229
 3 8.3740072 -0.98342984  -1.0127771 0.92211075 1.6351057 1.6351057  13.477803  13.477803
 3 5.9404444 -0.98625918  -1.0154699 0.91842761 1.6351057 1.6351057  8.6106775  8.6106775
 4 6.3976488 -0.96491895  -1.0408007 0.93957886 1.6351057 1.6351057  9.5250862  9.5250862
 2 6.4686709 -0.96557336  -1.0411268 0.93884311 1.6351057 1.6351057  9.6671305  9.6671305
19  2.972082  -1.0168621 -0.97956935 0.88127484 1.6351057 1.6351057  2.6739527  2.6739527
 2 2.8718113  -1.0136863 -0.98352216 0.88431969 1.6351057 1.6351057  2.4734114  2.4734114
 1 1.6664728 -0.99914056   -1.001321 0.90115587 1.6351057 1.6351057 0.06273425 0.06273425
 3 2.8957583  -1.0195377 -0.97667468 0.87951533 1.6351057 1.6351057  2.5213053  2.5213053
 1 2.6192544  -1.0153758   -0.982017 0.88307392 1.6351057 1.6351057  1.9682974  1.9682974
 3 2.3259064  -1.0054305 -0.99684819 0.89420102 1.6351057 1.6351057  1.3816014  1.3816014
 2 2.0813895  -1.0038865 -0.99649479 0.89486731 1.6351057 1.6351057  0.8925677  0.8925677
 1     2.123   -1.003255 -0.99751559 0.89549847 1.6351057 1.6351057 0.97578871 0.97578871
 3 2.0656975 -0.99822694  -1.0025903 0.90091155 1.6351057 1.6351057 0.86118372 0.86118372
 2 2.3239821 -0.99792213  -1.0034073 0.90097826 1.6351057 1.6351057  1.3777529  1.3777529
 1 2.4824788 -0.99613385  -1.0082318 0.90355091 1.6351057 1.6351057  1.6947462  1.6947462
 8 2.1885966 -0.99974958  -1.0035284 0.89991877 1.6351057 1.6351057  1.1069818  1.1069818
 1 1.9520543  -0.9947785  -1.0078793 0.90599352 1.6351057 1.6351057 0.63389734 0.63389734
 8 1.9652169 -0.99615699  -1.0062972 0.90461611 1.6351057 1.6351057 0.66022241 0.66022241
 1 6.1052474 -0.98903548  -1.0132359  0.9153611 1.6351057 1.6351057  8.9402834  8.9402834
 1 6.0286671 -0.98196708  -1.0230487 0.92287108 1.6351057 1.6351057  8.7871229  8.7871229
 1 5.6897321 -0.96759129    -1.03541 0.93825202 1.6351057 1.6351057  8.1092529  8.1092529
 3 5.5668427 -0.98653765  -1.0121341 0.91786224 1.6351057 1.6351057  7.8634741  7.8634741
 8 6.0479889 -0.96656837  -1.0353317 0.93956381 1.6351057 1.6351057  8.8257664  8.8257664
 4 6.5490894 -0.96437355  -1.0381687 0.94226911 1.6351057 1.6351057  9.8279675  9.8279675
14 5.8695121 -0.97055264  -1.0332869 0.93546132 1.6351057 1.6351057  8.4688128  8.4688128
 4 3.4581846 -0.98014857  -1.0199462 0.92200381 1.6351057 1.6351057  3.6461579  3.6461579
 1 3.9978723 -0.97519463  -1.0296984 0.92765824 1.6351057 1.6351057  4.7255333  4.7255333
 2 3.2780544 -0.97941314  -1.0251099 0.92301497 1.6351057 1.6351057  3.2858975  3.2858975
 1 2.8468945 -0.98210512  -1.0215495 0.92024455 1.6351057 1.6351057  2.4235777  2.4235777
 6 2.2810584 -0.98772633   -1.015561 0.91327924 1.6351057 1.6351057  1.2919054  1.2919054
 6 2.3732943 -0.99042001   -1.013772 0.91005438 1.6351057 1.6351057  1.4763774  1.4763774
 5  4.210568 -0.99354388  -1.0142363 0.90624765 1.6351057 1.6351057  5.1509247  5.1509247
 2  4.373532 -0.99524973   -1.012632 0.90444579 1.6351057 1.6351057  5.4768527  5.4768527
 2 3.7656973 -0.99363916  -1.0125885 0.90787448 1.6351057 1.6351057  4.2611833  4.2611833
 5  2.200056 -0.99243742  -1.0110239 0.90870246 1.6351057 1.6351057  1.1299008  1.1299008
 2 1.7201723  -1.0026135  -0.9968089 0.89755961 1.6351057 1.6351057 0.17013337 0.17013337
 7 1.7395191  -1.0042515 -0.99577305 0.89523229 1.6351057 1.6351057 0.20882692 0.20882692
12 1.8017058  -1.0046206  -0.9958259  0.8948507 1.6351057 1.6351057  0.3332003  0.3332003
 2 1.9640506  -1.0088167 -0.99054456 0.89040251 1.6351057 1.6351057  0.6578899  0.6578899
 1 2.2779461  -1.0102724 -0.98913023 0.88832994 1.6351057 1.6351057  1.2856809  1.2856809
14 4.8753403  -1.0063327 -0.99204006 0.89058417 1.6351057 1.6351057  6.4804692  6.4804692
 4 6.5019561  -1.0134632 -0.97892677 0.88337993 1.6351057 1.6351057  9.7337009  9.7337009
 8  5.032383  -1.0068729 -0.98397127 0.89248841 1.6351057 1.6351057  6.7945547  6.7945547
 4 3.5369617 -0.99052348  -1.0055763  0.9111403 1.6351057 1.6351057  3.8037121  3.8037121
10 2.8512074 -0.99215139  -1.0047759 0.90878957 1.6351057 1.6351057  2.4322036  2.4322036
 3 2.1986886 -0.99595289  -1.0047424 0.90331206 1.6351057 1.6351057  1.1271658  1.1271658
 9 2.0785586 -0.99416303  -1.0069671 0.90549497 1.6351057 1.6351057 0.88690597 0.88690597
10  1.994807 -0.99298833  -1.0081412 0.90701647 1.6351057 1.6351057 0.71940277 0.71940277
 1 1.9685041 -0.99335223   -1.008038 0.90661688 1.6351057 1.6351057 0.66679683 0.66679683
 6 1.9651594 -0.99505577  -1.0076003 0.90487336 1.6351057 1.6351057 0.66010754 0.66010754
 4 2.8871295 -0.99278326  -1.0117679  0.9066209 1.6351057 1.6351057  2.5040477  2.5040477
 1 3.2694262 -0.99915718  -1.0057099 0.89955902 1.6351057 1.6351057  3.2686411  3.2686411
 2 2.5012817  -1.0046893 -0.99767417 0.89400969 1.6351057 1.6351057   1.732352   1.732352
 1 2.7416159  -0.9917266  -1.0125859 0.90790514 1.6351057 1.6351057  2.2130204  2.2130204
 2 2.7748279 -0.98977543  -1.0156039 0.91077948 1.6351057 1.6351057  2.2794445  2.2794445
 6 2.6966279 -0.99416738  -1.0110504 0.90608505 1.6351057 1.6351057  2.1230444  2.1230444
 4 4.3233339 -0.97489048    -1.02986 0.92736455 1.6351057 1.6351057  5.3764564  5.3764564
 7 4.4785069   -0.989776  -1.0087645 0.90926759 1.6351057 1.6351057  5.6868026  5.6868026
6 5.0120293 -0.97893615  -1.0255275 0.92144617 1.6351057 1.6351057  6.7538473  6.7538473
5 1.9584932  -1.0039207 -0.99466999 0.89504921 1.6351057 1.6351057 0.64677517 0.64677517
7  3.407816 -0.97927152  -1.0217134 0.92398975 1.6351057 1.6351057  3.5454208  3.5454208
1  3.179556 -0.98064797   -1.020385 0.92236753 1.6351057 1.6351057  3.0889007  3.0889007
1 3.4936805  -0.9770921  -1.0251788 0.92600912 1.6351057 1.6351057  3.7171497  3.7171497
2 4.8638154 -0.97815262  -1.0276997 0.92615821 1.6351057 1.6351057  6.4574194  6.4574194
3 1.9845552 -0.99594249  -1.0034769  0.9038027 1.6351057 1.6351057 0.69889904 0.69889904
1 2.1098588 -0.99739219  -1.0051557 0.90345815 1.6351057 1.6351057 0.94950638 0.94950638
2 2.4166149  -1.0097389 -0.98902623   0.890551 1.6351057 1.6351057  1.5630184  1.5630184
4 3.1347669 -0.98766724  -1.0099585 0.91379945 1.6351057 1.6351057  2.9993224  2.9993224
1 2.7551203  -1.0102402 -0.98392016  0.8896388 1.6351057 1.6351057  2.2400293  2.2400293
1 2.4944154  -1.0029978 -0.99590111 0.89541888 1.6351057 1.6351057  1.7186194  1.7186194
4 3.1152169  -1.0066924 -0.99703521 0.89227441 1.6351057 1.6351057  2.9602226  2.9602226
1 3.1071618  -1.0066144 -0.99712976 0.89238019 1.6351057 1.6351057  2.9441124  2.9441124
3  3.106161  -1.0066635 -0.99706404 0.89232734 1.6351057 1.6351057  2.9421107  2.9421107
1 3.3053016  -1.0139585 -0.98753977 0.88476553 1.6351057 1.6351057  3.3403919  3.3403919
5 1.7809249  -1.0053817 -0.99265851  0.8941421 1.6351057 1.6351057 0.29163855 0.29163855
6  2.398472 -0.98657522  -1.0138571 0.91516783 1.6351057 1.6351057  1.5267328  1.5267328
1 2.3761076 -0.98710822  -1.0131722 0.91464852 1.6351057 1.6351057  1.4820038  1.4820038
2 3.1711576 -0.98083212  -1.0197396 0.92194584 1.6351057 1.6351057  3.0721039  3.0721039
 8 3.2462725 -0.98223787  -1.0219603 0.91877639 1.6351057 1.6351057  3.2223337  3.2223337
 1 1.9594041 -0.99840992  -1.0034247 0.90096009 1.6351057 1.6351057  0.6485968  0.6485968
15 1.9918042  -1.0044803 -0.99699723 0.89489322 1.6351057 1.6351057 0.71339709 0.71339709
 7 2.1784725  -1.0003296  -1.0024024 0.89890001 1.6351057 1.6351057  1.0867336  1.0867336
 3 2.3202979 -0.98797456  -1.0129469 0.91400182 1.6351057 1.6351057  1.3703845  1.3703845
 2 2.1464483 -0.98997873  -1.0123824 0.91160996 1.6351057 1.6351057  1.0226853  1.0226853
 3 2.0486975   -0.991224   -1.010341  0.9102806 1.6351057 1.6351057 0.82718372 0.82718372
11 2.0761195  -0.9913577  -1.0097644 0.91022231 1.6351057 1.6351057 0.88202774 0.88202774
 1 2.0224529 -0.99217372  -1.0085243 0.90928716 1.6351057 1.6351057 0.77469452 0.77469452
 1 2.0776996  -1.0003746 -0.99689787 0.90016959 1.6351057 1.6351057 0.88518784 0.88518784
 4 2.8040613  -1.0112438 -0.98847263 0.88682584 1.6351057 1.6351057  2.3379114  2.3379114
 3  2.603012  -1.0124911 -0.98662278  0.8858212 1.6351057 1.6351057  1.9358126  1.9358126
 4 2.6103506  -1.0123945 -0.98698627 0.88595161 1.6351057 1.6351057  1.9504898  1.9504898
 1 3.6918456  -0.9934766  -1.0134563 0.90625716 1.6351057 1.6351057    4.11348    4.11348
 2  5.386804 -0.98218728  -1.0232104 0.92220285 1.6351057 1.6351057  7.5033966  7.5033966
13 2.6121517  -0.9866458  -1.0161088 0.91572505 1.6351057 1.6351057  1.9540921  1.9540921
 9 1.8626721 -0.99778106  -1.0022941 0.90314496 1.6351057 1.6351057 0.45513285 0.45513285
 1 2.3116489  -1.0081237 -0.99239302  0.8918958 1.6351057 1.6351057  1.3530865  1.3530865
 4 3.7565756  -1.0048197  -0.9985881 0.89298439 1.6351057 1.6351057  4.2429398  4.2429398
 6 5.0218455   -1.008294 -0.99530028 0.88884589 1.6351057 1.6351057  6.7734797  6.7734797
 4 4.1771945   -1.001181  -1.0053558  0.8989667 1.6351057 1.6351057   5.0841776   5.0841776
 1 4.2232243  -1.0078298 -0.99462147 0.88951363 1.6351057 1.6351057   5.1762372   5.1762372
 2 2.8092787  -1.0031634 -0.99804172 0.89497633 1.6351057 1.6351057   2.3483461   2.3483461
 5 3.1615494  -1.0127031 -0.98773215 0.88528918 1.6351057 1.6351057   3.0528874   3.0528874
 2 3.0304889 -0.99881482   -1.006084 0.90178258 1.6351057 1.6351057   2.7907664   2.7907664
 1 3.1631872 -0.99153015   -1.014758  0.9091021 1.6351057 1.6351057    3.056163    3.056163
 1 2.7240687  -0.9967733  -1.0076476 0.90246323 1.6351057 1.6351057    2.177926    2.177926
 2 3.0335169 -0.99922356  -1.0055592 0.89974655 1.6351057 1.6351057   2.7968225   2.7968225
11 2.2180307  -1.0028266 -0.99460714 0.89795498 1.6351057 1.6351057     1.16585     1.16585
 1 3.7138028  -1.0219476 -0.96968264 0.87719229 1.6351057 1.6351057   4.1573942   4.1573942
 3 3.6118137  -1.0148742 -0.98620748 0.88319721 1.6351057 1.6351057    3.953416    3.953416
 4 1.6737185  -0.9998072 -0.99971367 0.89999667 1.6351057 1.6351057 0.077225745 0.077225745
 8 2.2469821  -1.0103901  -0.9873645 0.88967231 1.6351057 1.6351057   1.2237529   1.2237529
 1 1.9727217  -1.0051128 -0.99229943 0.89510591 1.6351057 1.6351057  0.67523209  0.67523209
 2 4.5549414 -0.97955524  -1.0283722 0.92278944 1.6351057 1.6351057   5.8396715   5.8396715
 2 4.4071436 -0.97914193  -1.0280185  0.9239342 1.6351057 1.6351057   5.5440758   5.5440758
 7 2.4208813 -0.98567862    -1.01594 0.91638565 1.6351057 1.6351057   1.5715512   1.5715512
 3 3.9268704 -0.97615714  -1.0276447 0.92603793 1.6351057 1.6351057   4.5835295   4.5835295
13 1.8536634 -0.99438809  -1.0051134 0.90617332 1.6351057 1.6351057  0.43711545  0.43711545
 9 2.0100265 -0.99375662  -1.0060866 0.90628563 1.6351057 1.6351057  0.74984164  0.74984164
 5 2.1603646 -0.99267859  -1.0062705 0.90776257 1.6351057 1.6351057   1.0505179   1.0505179
 2 3.1271142 -0.98135893  -1.0234081 0.92046628 1.6351057 1.6351057   2.9840172   2.9840172
 1 3.0160523 -0.98343659  -1.0198573 0.91946202 1.6351057 1.6351057   2.7618933   2.7618933
 5 3.2261099 -0.99370152  -1.0099683 0.90509722 1.6351057 1.6351057   3.1820084   3.1820084
 3 3.0014129  -1.0022681 -0.99936164 0.89580051 1.6351057 1.6351057   2.7326145   2.7326145
 1 3.8984595  -1.0103993  -0.9917809 0.88721479 1.6351057 1.6351057   4.5267076   4.5267076
 6 1.8399602  -1.0057289 -0.99294649 0.89338928 1.6351057 1.6351057  0.40970901  0.40970901
 1 2.0103688  -1.0055245 -0.99445941  0.8947043 1.6351057 1.6351057  0.75052624  0.75052624
 1 2.5830774  -1.0101191 -0.98630136  0.8903252 1.6351057 1.6351057   1.8959436   1.8959436
 1 4.0241144  -1.0265232 -0.96854174 0.87215794 1.6351057 1.6351057   4.7780174   4.7780174
 1 4.4099523  -1.0273047 -0.96867519 0.87126999 1.6351057 1.6351057   5.5496932   5.5496932
 4  3.322502  -1.0206528 -0.97676475 0.87864856 1.6351057 1.6351057   3.3747926   3.3747926
 1 2.9848555 -0.98288718  -1.0214241 0.91963017 1.6351057 1.6351057   2.6994996   2.6994996
13 1.9420579 -0.99449993  -1.0075328  0.9053711 1.6351057 1.6351057  0.61390456  0.61390456
27 1.6650289 -0.99919667  -1.0014066 0.90064474 1.6351057 1.6351057 0.059846423 0.059846423
 2 1.6402615 -0.99985594  -1.0001061 0.90026718 1.6351057 1.6351057 0.010311674 0.010311674
 1 1.7122667  -1.0016984 -0.99852601 0.89848193 1.6351057 1.6351057  0.15432199  0.15432199
 5 4.0198522   -1.014375 -0.97782081 0.88611973 1.6351057 1.6351057    4.769493    4.769493
 4 4.5467405  -1.0298622 -0.96238378 0.86878378 1.6351057 1.6351057   5.8232697   5.8232697
 1 4.1291368  -1.0276544 -0.96602146 0.87102266 1.6351057 1.6351057   4.9880622   4.9880622
 1 2.7810966  -1.0134398 -0.98056666 0.88624135 1.6351057 1.6351057  2.2919818  2.2919818
 5 2.2636356  -1.0007606 -0.99960804 0.89794222 1.6351057 1.6351057    1.25706    1.25706
 5 4.4290291 -0.99555272  -1.0080496 0.90231536 1.6351057 1.6351057  5.5878468  5.5878468
 2 4.7186391 -0.98665694  -1.0175848 0.91228002 1.6351057 1.6351057  6.1670669  6.1670669
 1 4.8922913 -0.98434519  -1.0215473 0.91507992 1.6351057 1.6351057  6.5143713  6.5143713
 2  2.018107   -1.004067 -0.99752668 0.89517699 1.6351057 1.6351057 0.76600277 0.76600277
 3  4.748215 -0.97230922  -1.0304993 0.93048141 1.6351057 1.6351057  6.2262187  6.2262187
 3 4.6535147  -1.0165212 -0.98627388 0.88188073 1.6351057 1.6351057  6.0368181  6.0368181
 2  4.390197  -1.0145991 -0.98816004 0.88342211 1.6351057 1.6351057  5.5101826  5.5101826
 1 3.2379303  -1.0134078 -0.98792509 0.88502144 1.6351057 1.6351057  3.2056493  3.2056493
 3 4.1388503  -0.9852703  -1.0205586 0.91449362 1.6351057 1.6351057  5.0074892  5.0074892
12  3.167103  -1.0107449 -0.98915088 0.88700664 1.6351057 1.6351057  3.0639947  3.0639947
 7 3.5924795  -1.0124363 -0.98884929  0.8853559 1.6351057 1.6351057  3.9147478  3.9147478
 2 4.6627865   -1.008049 -0.99128877 0.88884772 1.6351057 1.6351057  6.0553617  6.0553617
13 3.2400267 -0.99232258  -1.0082299 0.90664232 1.6351057 1.6351057   3.209842   3.209842
 1   4.73054  -1.0067665 -0.99319865 0.89524045 1.6351057 1.6351057  6.1908686  6.1908686
 1 5.8971246 -0.99583547  -1.0031225 0.90784052 1.6351057 1.6351057  8.5240379  8.5240379
 1  5.430633 -0.99054123  -1.0094438 0.91349261 1.6351057 1.6351057  7.5910548  7.5910548
13 2.0473299 -0.99546814  -1.0040172 0.90583272 1.6351057 1.6351057 0.82444842 0.82444842
 3 2.0203415 -0.99356958  -1.0065984 0.90782704 1.6351057 1.6351057 0.77047174 0.77047174
3  3.149931  -1.0032333 -0.99829679 0.89810338 1.6351057 1.6351057 3.0296506 3.0296506
3 3.6000942   -1.001315  -1.0012625 0.90034249 1.6351057 1.6351057 3.9299771 3.9299771
5 2.6789252  -1.0114096 -0.98818712 0.88871037 1.6351057 1.6351057  2.087639  2.087639
4 2.6899062   -1.007757   -0.993704 0.89247245 1.6351057 1.6351057  2.109601  2.109601
1 2.7898076  -1.0023233  -1.0003795 0.89852991 1.6351057 1.6351057 2.3094038 2.3094038
2 2.2187106  -1.0008396 -0.99965009 0.90020917 1.6351057 1.6351057 1.1672099 1.1672099
1 3.3102089  -1.0012436 -0.99886774 0.90063063 1.6351057 1.6351057 3.3502065 3.3502065
1 3.1827108  -1.0004943 -0.99980347 0.90136725 1.6351057 1.6351057 3.0952103 3.0952103
3 3.1002647   -1.006263 -0.98815727 0.89441383 1.6351057 1.6351057 2.9303181 2.9303181
4 2.6178871  -0.9904475  -1.0095922 0.91183226 1.6351057 1.6351057 1.9655629 1.9655629
1  2.141638 -0.99146207  -1.0077206 0.90947517 1.6351057 1.6351057 1.0130646 1.0130646
2 2.2876809 -0.99438925   -1.007918 0.90712634 1.6351057 1.6351057 1.3051504 1.3051504
3 3.3467018  -1.0148533 -0.98134303 0.88575142 1.6351057 1.6351057 3.4231923 3.4231923
2   3.25143  -1.0185275 -0.97652518 0.87955881 1.6351057 1.6351057 3.2326487 3.2326487
1 2.4914547  -1.0155904 -0.98162649 0.88378586 1.6351057 1.6351057 1.7126982 1.7126982
1 2.5819366  -1.0161551 -0.98023949 0.88338382 1.6351057 1.6351057 1.8936619 1.8936619
6  3.538081  -1.0049383 -0.99040646 0.89648996 1.6351057 1.6351057 3.8059506 3.8059506
2 3.4629136 -0.98280489  -1.0178747 0.92066669 1.6351057 1.6351057 3.6556159 3.6556159
2 2.9322806 -0.98204712  -1.0199439 0.91947693 1.6351057 1.6351057 2.5943498 2.5943498
3 2.5881129 -0.99866041 -0.99955705 0.90025609 1.6351057 1.6351057 1.9060145 1.9060145
 6 3.7321392 -0.98019728  -1.0188324 0.92235602 1.6351057 1.6351057  4.194067  4.194067
 2 3.8172789 -0.98656705    -1.01005 0.91520549 1.6351057 1.6351057 4.3643466 4.3643466
 2 3.9241185   -0.980769  -1.0181382 0.92102496 1.6351057 1.6351057 4.5780257 4.5780257
 9 3.7949504 -0.97721853  -1.0258219 0.92670848 1.6351057 1.6351057 4.3196894 4.3196894
 9 2.2740432 -0.99270685  -1.0068813 0.90722826 1.6351057 1.6351057 1.2778752 1.2778752
 5 2.8342971 -0.99864918 -0.99902454 0.90020152 1.6351057 1.6351057  2.398383  2.398383
 2 3.2467367 -0.98995114  -1.0150592 0.90958958 1.6351057 1.6351057 3.2232621 3.2232621
 1 2.9659307  -1.0080931 -0.99354626 0.89001874 1.6351057 1.6351057   2.66165   2.66165
 6 4.4318302  -1.0085692 -0.98946622 0.88847003 1.6351057 1.6351057  5.593449  5.593449
13 2.3200382 -0.99478029  -1.0039924  0.9049127 1.6351057 1.6351057 1.3698651 1.3698651
 8 2.7605966 -0.98557304  -1.0138717 0.91601591 1.6351057 1.6351057 2.2509818 2.2509818
 7 2.7094006 -0.98489339  -1.0150221 0.91690526 1.6351057 1.6351057 2.1485898 2.1485898
 7 3.0392381 -0.98528768  -1.0184396 0.91509868 1.6351057 1.6351057 2.8082649 2.8082649
 1  3.005985 -0.98292933  -1.0210551 0.91819054 1.6351057 1.6351057 2.7417588 2.7417588
 2 2.7250787  -0.9868721  -1.0179941 0.91401319 1.6351057 1.6351057  2.179946  2.179946
 1  2.885727   -1.002818  -1.0007475  0.8976409 1.6351057 1.6351057 2.5012428 2.5012428
 6 2.2017206  -1.0078064 -0.99179183 0.89239269 1.6351057 1.6351057 1.1332298 1.1332298
 1 2.2364027  -1.0080007 -0.99133624 0.89226228 1.6351057 1.6351057  1.202594  1.202594
 6 2.5701422 -0.99502895   -1.006786 0.90680003 1.6351057 1.6351057 1.8700731 1.8700731
 5 2.9359249 -0.99924618    -1.00141 0.90255639 1.6351057 1.6351057 2.6016386 2.6016386
1 2.8123914  -1.0134765 -0.98602782 0.88638474 1.6351057 1.6351057  2.3545715  2.3545715
1 2.3805586  -1.0069248 -0.99508832 0.89244433 1.6351057 1.6351057  1.4909058  1.4909058
6 2.7853515  -1.0066769 -0.99643269 0.89254702 1.6351057 1.6351057  2.3004916  2.3004916
1 3.6898862    -1.00406 -0.99523161 0.89778621 1.6351057 1.6351057  4.1095611  4.1095611
7 4.6340449  -1.0152159 -0.98300708  0.8859772 1.6351057 1.6351057  5.9978786  5.9978786
1 4.7610362 -0.98688265  -1.0101497 0.91668768 1.6351057 1.6351057   6.251861   6.251861
1 3.9649302 -0.98946417  -1.0152281 0.91340476 1.6351057 1.6351057  4.6596491  4.6596491
5 3.6237171 -0.98155829  -1.0248625 0.92050637 1.6351057 1.6351057  3.9772229  3.9772229
3 5.1492876 -0.97487794  -1.0316646 0.92684388 1.6351057 1.6351057  7.0283639  7.0283639
3 6.4939542 -0.96866018  -1.0381575 0.93412168 1.6351057 1.6351057   9.717697   9.717697
2 6.7379549 -0.96765867  -1.0391348 0.93529362 1.6351057 1.6351057  10.205698  10.205698
1 4.5170675 -0.97451938  -1.0278832 0.92768199 1.6351057 1.6351057  5.7639237  5.7639237
3 3.1319274  -0.9930889  -1.0071506 0.90945953 1.6351057 1.6351057  2.9936435  2.9936435
1  2.944613  -0.9876148  -1.0149629  0.9151038 1.6351057 1.6351057  2.6190147  2.6190147
7 2.5135089 -0.99172606  -1.0083188 0.90801796 1.6351057 1.6351057  1.7568064  1.7568064
2 2.0205588 -0.99307686   -1.008942 0.90687824 1.6351057 1.6351057 0.77090632 0.77090632
2 2.6124806  -1.0096836 -0.99182752  0.8898045 1.6351057 1.6351057  1.9547499  1.9547499
1 2.6588112 -0.99511278  -1.0089372 0.90415522 1.6351057 1.6351057   2.047411   2.047411
3 2.7287011 -0.99625989  -1.0076859 0.90280047 1.6351057 1.6351057  2.1871908  2.1871908
2 4.3871044 -0.99004348  -1.0103408 0.90865318 1.6351057 1.6351057  5.5039975  5.5039975
 1 4.8653836 -0.99204746  -1.0079635 0.90614656 1.6351057 1.6351057  6.4605558  6.4605558
 1 3.9690461  -1.0146916 -0.97954515 0.88292116 1.6351057 1.6351057  4.6678808  4.6678808
 3 4.2078484  -1.0135617 -0.97971396 0.88418682 1.6351057 1.6351057  5.1454854  5.1454854
 1 5.1076294  -1.0078839 -0.99846043 0.89072192 1.6351057 1.6351057  6.9450475  6.9450475
 1 3.3301438  -1.0196222 -0.97293056 0.87961294 1.6351057 1.6351057  3.3900762  3.3900762
 2 3.3735305  -1.0202452 -0.97225146 0.87896032 1.6351057 1.6351057  3.4768498  3.4768498
 1 3.3515777 -0.99805148  -1.0055702 0.90026011 1.6351057 1.6351057  3.4329442  3.4329442
 5 3.4701562 -0.99621283  -1.0068301 0.90208699 1.6351057 1.6351057  3.6701012  3.6701012
12 2.2656711 -0.99626365  -1.0043478 0.90289445 1.6351057 1.6351057  1.2611309  1.2611309
 1 2.3423472 -0.99683585  -1.0036269 0.90218337 1.6351057 1.6351057   1.414483   1.414483
 1 2.3982982  -1.0069999 -0.99355234 0.89141932 1.6351057 1.6351057   1.526385   1.526385
 4 2.3447588   -1.007556 -0.99262268 0.89088671 1.6351057 1.6351057  1.4193062  1.4193062
 1 2.4944857  -1.0073637 -0.99329655  0.8909792 1.6351057 1.6351057    1.71876    1.71876
 1 2.0323755 -0.99745749  -1.0050808 0.90204731 1.6351057 1.6351057 0.79453971 0.79453971
13  2.263827  -1.0009268  -1.0022853 0.89907766 1.6351057 1.6351057  1.2574428  1.2574428
 1 2.1471797 -0.99885999  -1.0043976 0.90128882 1.6351057 1.6351057   1.024148   1.024148
 2 1.7726313  -1.0062873 -0.99281018 0.89324693 1.6351057 1.6351057 0.27505136 0.27505136
 1 1.7034456  -1.0035282 -0.99632465 0.89633286 1.6351057 1.6351057 0.13667993 0.13667993
 5 1.7067415   -1.003585 -0.99625722  0.8962843 1.6351057 1.6351057 0.14327171 0.14327171
15 2.2675145 -0.98696017  -1.0157268 0.91465769 1.6351057 1.6351057  1.2648178  1.2648178
11  2.405211 -0.98677172  -1.0148013 0.91408262 1.6351057 1.6351057 1.5402106 1.5402106
 3 3.5493372  -1.0056592 -0.98735599 0.89450704 1.6351057 1.6351057  3.828463  3.828463
 3  2.817241   -1.002148 -0.99323289  0.8986733 1.6351057 1.6351057 2.3642708 2.3642708
 1 2.7475169  -1.0011422 -0.99433372 0.89959132 1.6351057 1.6351057 2.2248225 2.2248225
 2 2.6732724 -0.99895393 -0.99717911 0.90203122 1.6351057 1.6351057 2.0763334 2.0763334
 1 2.0269395  -1.0036368 -0.99391824 0.89683499 1.6351057 1.6351057 0.7836676 0.7836676
 4  2.332611 -0.99297323  -1.0101604 0.90669575 1.6351057 1.6351057 1.3950107 1.3950107
 1 2.4483018 -0.99362676   -1.009635 0.90583308 1.6351057 1.6351057 1.6263923 1.6263923
 1 2.5033455   -1.012142 -0.98605193 0.88616696 1.6351057 1.6351057 1.7364796 1.7364796
 2 3.3284329  -1.0014851  -0.9987381 0.89638556 1.6351057 1.6351057 3.3866545 3.3866545
 4 3.1083757 -0.99845834  -1.0000948  0.9000167 1.6351057 1.6351057   2.94654   2.94654
11 2.7018536 -0.99681021  -1.0028884   0.901987 1.6351057 1.6351057 2.1334958 2.1334958
 1 3.7668601  -1.0049354 -0.99050686 0.89311693 1.6351057 1.6351057 4.2635089 4.2635089
 7 5.1324023 -0.99620281 -0.99868751 0.90247717 1.6351057 1.6351057 6.9945932 6.9945932
 3 3.1682011 -0.99950829  -1.0002412  0.8986545 1.6351057 1.6351057 3.0661909 3.0661909
 6 2.3999412 -0.99018785  -1.0085638  0.9112307 1.6351057 1.6351057  1.529671  1.529671
 2 2.5195561 -0.98880616  -1.0100351 0.91271867 1.6351057 1.6351057 1.7689009 1.7689009
 2 2.4567571 -0.98884701  -1.0102112 0.91270762 1.6351057 1.6351057  1.643303  1.643303
 2 2.2824833 -0.99836998 -0.99873126 0.90247613 1.6351057 1.6351057 1.2947553 1.2947553
 1 2.4972019 -0.98590595  -1.0147125 0.91617668 1.6351057 1.6351057 1.7241926 1.7241926
 3 3.2158822 -0.99206526  -1.0094901 0.91058467 1.6351057 1.6351057 3.1615531 3.1615531
 2 1.9314681  -1.0049578 -0.99596345 0.89483368 1.6351057 1.6351057 0.5927249 0.5927249
 7 3.6491996 -0.98500085  -1.0214589 0.91557362 1.6351057 1.6351057 4.0281878 4.0281878
 1 3.9245332 -0.98383814  -1.0231183 0.91691987 1.6351057 1.6351057  4.578855  4.578855
 1 3.6082946 -0.98107503  -1.0184284 0.92070015 1.6351057 1.6351057  3.946378  3.946378
 1 3.0240823 -0.99157011   -1.005758 0.90869965 1.6351057 1.6351057 2.7779533 2.7779533
10 2.8939372  -1.0024636 -0.99297647 0.89849735 1.6351057 1.6351057  2.517663  2.517663
 1 3.3646069  -1.0024884 -0.99271467 0.89886755 1.6351057 1.6351057 3.4590025 3.4590025
 6 2.7928745 -0.98939586  -1.0110696 0.91314689 1.6351057 1.6351057 2.3155376 2.3155376
 6 3.0908031 -0.99431053  -1.0019208 0.90718232 1.6351057 1.6351057 2.9113948 2.9113948
 6 2.8689361 -0.98863585  -1.0092846 0.91295699 1.6351057 1.6351057 2.4676609 2.4676609
 5 2.1945463 -0.99390395  -1.0042496 0.90681425 1.6351057 1.6351057 1.1188813 1.1188813
 2 2.1881416 -0.99386862  -1.0043162  0.9068552 1.6351057 1.6351057 1.1060719 1.1060719
 8 2.2866561 -0.99223386   -1.006153 0.90859228 1.6351057 1.6351057 1.3031008 1.3031008
 9 2.3616675 -0.99098756  -1.0076658 0.90981755 1.6351057 1.6351057 1.4531236 1.4531236
 3 2.3937265 -0.99186961   -1.006661 0.90857922 1.6351057 1.6351057 1.5172416 1.5172416
 5 3.1020566   -1.005096  -0.9925633 0.89631478 1.6351057 1.6351057 2.9339019 2.9339019
13 2.7897734  -1.0060192 -0.99066949 0.89500102 1.6351057 1.6351057 2.3093355 2.3093355
 1 4.4762678  -1.0099188 -0.98285113 0.89126526 1.6351057 1.6351057 5.6823243 5.6823243
 1 3.7678914  -1.0182013 -0.97321834 0.88135017 1.6351057 1.6351057 4.2655715 4.2655715
4 3.8055425  -1.0183759  -0.9729345 0.88113605 1.6351057 1.6351057 4.3408737 4.3408737
3 4.1120209 -0.99983257   -1.005217 0.90157215 1.6351057 1.6351057 4.9538304 4.9538304
5  3.813868 -0.99654123  -1.0093583 0.90474106 1.6351057 1.6351057 4.3575248 4.3575248
2 2.8821164  -1.0114296 -0.99007175 0.88727471 1.6351057 1.6351057 2.4940215 2.4940215
3 2.6542906  -1.0117361 -0.98909566 0.88712237 1.6351057 1.6351057 2.0383698 2.0383698
7 2.4956185  -1.0156831 -0.98020156 0.88319317 1.6351057 1.6351057 1.7210256 1.7210256
5  2.691215  -1.0174695 -0.97825751  0.8812679 1.6351057 1.6351057 2.1122187 2.1122187
1  3.577133  -1.0226759 -0.97033979 0.87583777 1.6351057 1.6351057 3.8840547 3.8840547
1 2.7172239  -1.0109321 -0.98437148  0.8875551 1.6351057 1.6351057 2.1642365 2.1642365
2 3.0741348  -1.0074023 -0.98635731 0.89185368 1.6351057 1.6351057 2.8780584 2.8780584
1 5.1614455  -1.0036456 -0.98750413 0.89687668 1.6351057 1.6351057 7.0526797 7.0526797
1  5.066408   -1.004794 -0.98859543 0.89711907 1.6351057 1.6351057 6.8626047 6.8626047
1 4.0640607 -0.97956957  -1.0198852 0.92424782 1.6351057 1.6351057 4.8579101 4.8579101
1 5.3108219 -0.97132198  -1.0282467 0.93283294 1.6351057 1.6351057 7.3514325 7.3514325
2 4.9305313 -0.99228307  -1.0027709  0.9072658 1.6351057 1.6351057 6.5908513 6.5908513
5 4.5982752 -0.99335017  -1.0019927  0.9060476 1.6351057 1.6351057 5.9263391 5.9263391
1 3.7171102  -1.0073292  -0.9870801 0.89084856 1.6351057 1.6351057 4.1640091 4.1640091
2 2.5357611  -1.0057918 -0.98950447 0.89341586 1.6351057 1.6351057 1.8013108 1.8013108
3 2.6550358  -1.0052091 -0.99614677 0.89304562 1.6351057 1.6351057 2.0398603 2.0398603
9  3.038925 -0.98801259  -1.0176333 0.91242803 1.6351057 1.6351057 2.8076388 2.8076388
14 1.8603206 -0.99995314  -0.9979924 0.90006883 1.6351057 1.6351057 0.45042995 0.45042995
 6 3.2352445  -1.0159329 -0.98386328 0.88229478 1.6351057 1.6351057  3.2002778  3.2002778
 2  4.682828 -0.99837558  -1.0028787 0.89904372 1.6351057 1.6351057  6.0954446  6.0954446
 2 4.2136966 -0.99565127  -1.0054077 0.90227161 1.6351057 1.6351057  5.1571818  5.1571818
 5 4.8016157  -1.0268068 -0.97053081  0.8725533 1.6351057 1.6351057  6.3330201  6.3330201
 3  4.322494  -1.0212351 -0.97674605 0.87893383 1.6351057 1.6351057  5.3747768  5.3747768
 2 5.2374683 -0.99599345  -1.0051422 0.90733215 1.6351057 1.6351057  7.2047252  7.2047252
 2 3.1652538 -0.97994965  -1.0224724 0.92196547 1.6351057 1.6351057  3.0602964  3.0602964
 3 3.3965405 -0.97844209  -1.0239707 0.92371882 1.6351057 1.6351057  3.5228696  3.5228696
 3   2.58844  -1.0007886  -1.0013769 0.90028312 1.6351057 1.6351057  1.9066687  1.9066687
 1  2.345844  -1.0088768 -0.99213968 0.89068222 1.6351057 1.6351057  1.4214766  1.4214766
 4 3.5930475   -1.018151  -0.9818748 0.88035621 1.6351057 1.6351057  3.9158836  3.9158836
 3 3.8354178  -1.0120502 -0.99111034 0.88643885 1.6351057 1.6351057  4.4006242  4.4006242
 3 3.6995678 -0.99824337  -1.0079367 0.90235182 1.6351057 1.6351057  4.1289242  4.1289242
12  2.962859  -1.0038331 -0.99057295 0.89650828 1.6351057 1.6351057  2.6555067  2.6555067
 3 3.3322014   -1.002538 -0.99179312 0.89835783 1.6351057 1.6351057  3.3941915  3.3941915
 1 4.9917936   -1.002557 -0.98892169 0.89772245 1.6351057 1.6351057   6.713376   6.713376
 2 3.9328304  -1.0033502 -0.99007965 0.89570161 1.6351057 1.6351057  4.5954495  4.5954495
 2 3.9231167  -1.0039729 -0.98937153  0.8950313 1.6351057 1.6351057   4.576022   4.576022
 5 3.3054567  -1.0071265  -0.9882471  0.8910549 1.6351057 1.6351057  3.3407022  3.3407022
 1 2.0143246  -1.0062296 -0.99034564 0.89347045 1.6351057 1.6351057  0.7584378  0.7584378
 1 1.9299041  -1.0081755  -0.9894294 0.89159732 1.6351057 1.6351057 0.58959678 0.58959678
 1 2.2885062  -1.0125771 -0.98353683 0.88704123 1.6351057 1.6351057  1.3068011  1.3068011
 1 3.0828571   -1.018608 -0.97736436  0.8796013 1.6351057 1.6351057  2.8955029  2.8955029
 1 3.0928807  -1.0186969 -0.97727322 0.87951189 1.6351057 1.6351057  2.9155501  2.9155501
 6 2.3416969  -1.0126839 -0.98614022 0.88607111 1.6351057 1.6351057  1.4131825  1.4131825
 2 2.3425761  -1.0106278 -0.98461649 0.88882306 1.6351057 1.6351057  1.4149409  1.4149409
 1  2.351297   -1.011055 -0.98419744 0.88846287 1.6351057 1.6351057  1.4323827  1.4323827
11 2.7599649  -1.0150181 -0.97898146 0.88412282 1.6351057 1.6351057  2.2497185  2.2497185
 3 2.7588268  -1.0173202 -0.97932697 0.88118451 1.6351057 1.6351057  2.2474423  2.2474423
 1 3.7537992  -1.0180479  -0.9748962  0.8800233 1.6351057 1.6351057   4.237387   4.237387
 2 2.9552895 -0.99181809  -1.0051183 0.90886116 1.6351057 1.6351057  2.6403677  2.6403677
 1 3.6856628 -0.98684618  -1.0125964 0.91309174 1.6351057 1.6351057  4.1011142  4.1011142
 5 2.7577552  -1.0059375 -0.99406015  0.8920937 1.6351057 1.6351057  2.2452991  2.2452991
 8 2.5703794  -1.0114483 -0.98476856 0.88694357 1.6351057 1.6351057  1.8705475  1.8705475
 2  2.383963  -1.0081754 -0.98820297 0.89049835 1.6351057 1.6351057  1.4977146  1.4977146
 3 2.2267765  -1.0036156 -0.99321176 0.89550999 1.6351057 1.6351057  1.1833417  1.1833417
 6 2.3669802   -1.003624 -0.99420717   0.895022 1.6351057 1.6351057  1.4637492  1.4637492
 7  4.376181 -0.97685289  -1.0300514  0.9261378 1.6351057 1.6351057  5.4821506  5.4821506
 8 2.6328526 -0.98812894  -1.0167866 0.91283139 1.6351057 1.6351057  1.9954939  1.9954939
 2  4.223846  -1.0033989  -1.0007637 0.89785522 1.6351057 1.6351057 5.1774807 5.1774807
10 2.9631945  -1.0030892 -0.99791822 0.89823405 1.6351057 1.6351057 2.6561776 2.6561776
12 2.3152183  -1.0011108 -0.99684241 0.89999185 1.6351057 1.6351057 1.3602254 1.3602254
 3 3.4172074 -0.98544384   -1.019367  0.9146903 1.6351057 1.6351057 3.5642036 3.5642036
 2 3.4979554 -0.98531532  -1.0196435 0.91479865 1.6351057 1.6351057 3.7256994 3.7256994
 1 3.8041278 -0.98649113  -1.0167937 0.91298286 1.6351057 1.6351057 4.3380443 4.3380443
 3 2.8108328 -0.98741314  -1.0137029    0.91278 1.6351057 1.6351057 2.3514544 2.3514544
13 3.1221026  -0.9957758   -1.007603 0.90284468 1.6351057 1.6351057 2.9739938 2.9739938
 1 2.6392657 -0.98636901  -1.0181442 0.91466852 1.6351057 1.6351057 2.0083202 2.0083202
 2 3.0342462 -0.98966136  -1.0163685 0.91122949 1.6351057 1.6351057 2.7982811 2.7982811
 2 2.8376947 -0.99287557  -1.0112046 0.90886562 1.6351057 1.6351057 2.4051781 2.4051781
 7  2.273735  -1.0000125 -0.99999129 0.90122502 1.6351057 1.6351057 1.2772587 1.2772587
 5 3.4173292  -1.0052415 -0.98963627 0.89595756 1.6351057 1.6351057 3.5644471 3.5644471
 3 3.2689881 -0.99532113  -1.0103432 0.90392642 1.6351057 1.6351057 3.2677648 3.2677648
 4 2.6451873  -1.0025574  -0.9979583 0.89569977 1.6351057 1.6351057 2.0201633 2.0201633
 7 2.5495796 -0.99803188  -1.0034457 0.90065837 1.6351057 1.6351057 1.8289479 1.8289479
 1 2.9065197 -0.98832433  -1.0163935 0.91178525 1.6351057 1.6351057 2.5428281 2.5428281
 6 3.1959109 -0.99191541  -1.0137713  0.9077036 1.6351057 1.6351057 3.1216104 3.1216104
 7  4.114798 -0.99136651   -1.014223 0.90742882 1.6351057 1.6351057 4.9593847 4.9593847
 3 5.0379045 -0.98758155  -1.0106778 0.91640039 1.6351057 1.6351057 6.8055977 6.8055977
1 4.6873076 -0.99148149   -1.006289 0.91193963 1.6351057 1.6351057 6.1044039 6.1044039
2 3.7309793  -1.0126896 -0.99018376 0.88638391 1.6351057 1.6351057 4.1917473 4.1917473
8 3.7959007  -1.0117696 -0.99152016 0.88744353 1.6351057 1.6351057   4.32159   4.32159
2  2.787353  -1.0075894  -0.9943236 0.89258923 1.6351057 1.6351057 2.3044946 2.3044946
1 3.0542522  -1.0083949 -0.99416294 0.89156394 1.6351057 1.6351057  2.838293  2.838293
1 3.7807073  -1.0195643 -0.98023138  0.8794094 1.6351057 1.6351057 4.2912032 4.2912032
2 3.6175503  -1.0191142 -0.98055608 0.87962083 1.6351057 1.6351057 3.9648893 3.9648893
1 3.5724012  -1.0176771 -0.98266137 0.88103618 1.6351057 1.6351057 3.8745912 3.8745912
1 5.1080388  -1.0216221 -0.97965974 0.87701441 1.6351057 1.6351057 6.9458662 6.9458662
3 5.3622326    -1.02369  -0.9768736 0.87532636 1.6351057 1.6351057 7.4542539 7.4542539
4 4.6268194  -1.0190861 -0.98255631 0.87995858 1.6351057 1.6351057 5.9834275 5.9834275
2 3.9829452  -1.0164285 -0.98488908 0.88314604 1.6351057 1.6351057 4.6956791 4.6956791
3 4.1356983  -1.0176084 -0.98368681 0.88172616 1.6351057 1.6351057 5.0011853 5.0011853
1 3.6596838  -1.0128889 -0.98965599 0.88644802 1.6351057 1.6351057 4.0491563 4.0491563
