#weight  minuslogpost  log10_alpha    log10_rs         vw  minuslogprior  minuslogprior__0       chi2  chi2__lisa_likelihood
     28     3.0250342   -1.0155468 -0.98107565 0.88243314      1.6351057         1.6351057  2.7798571              2.7798571
      7      2.712861   -1.0121409 -0.98591905 0.88593821      1.6351057         1.6351057  2.1555107              2.1555107
      3     2.9120276   -1.0125281 -0.98612818 0.88540529      1.6351057         1.6351057  2.5538438              2.5538438
     29     2.7203787   -1.0136177  -0.9859682 0.88482694      1.6351057         1.6351057  2.1705462              2.1705462
      3     2.6570006   -1.0133929 -0.98600965 0.88504929      1.6351057         1.6351057    2.04379                2.04379
     10     2.7064549   -1.0123073 -0.98837198 0.88646897      1.6351057         1.6351057  2.1426985              2.1426985
     36     3.4144001   -1.0161306 -0.97956576 0.88162253      1.6351057         1.6351057  3.5585889              3.5585889
      7     4.3688718   -1.0150365 -0.97556503 0.88483755      1.6351057         1.6351057  5.4675323              5.4675323
     13     3.7851922   -1.0153553 -0.98014295 0.88215316      1.6351057         1.6351057   4.300173               4.300173
      3     3.3105593   -1.0175215   -0.982053  0.8817642      1.6351057         1.6351057  3.3509072              3.3509072
     61     3.4451089   -1.0160967 -0.98280125 0.88168211      1.6351057         1.6351057  3.6200065              3.6200065
     18     2.4061685   -1.0082194  -0.9934079 0.89101348      1.6351057         1.6351057  1.5421258              1.5421258
     19     2.5005451   -1.0080848  -0.9938607 0.89109907      1.6351057         1.6351057  1.7308789              1.7308789
     24     3.2258658   -1.0046746 -0.99431055 0.89311056      1.6351057         1.6351057  3.1815202              3.1815202
     23     5.6062316   -1.0060826 -0.98590589 0.89202423      1.6351057         1.6351057  7.9422519              7.9422519
     29     3.6097581   -1.0125874 -0.98746079 0.88494637      1.6351057         1.6351057  3.9493049              3.9493049
      6     3.6069647   -1.0125914 -0.98746136 0.88494524      1.6351057         1.6351057   3.943718               3.943718
     88     1.8140355   -1.0053502  -0.9931746 0.89467683      1.6351057         1.6351057 0.35785963             0.35785963
     12     1.9337462   -1.0050302 -0.99285773 0.89406665      1.6351057         1.6351057  0.5972811              0.5972811
     10     1.9063084   -1.0059319  -0.9930333 0.89420822      1.6351057         1.6351057 0.54240549             0.54240549
 76 1.9652576  -1.0054568 -0.99253699 0.89353236 1.6351057 1.6351057 0.66030392 0.66030392
  5 2.8142825  -1.0044352 -0.99145414  0.8942631 1.6351057 1.6351057  2.3583536  2.3583536
 16 2.4736248  -1.0046563 -0.99228711 0.89400842 1.6351057 1.6351057  1.6770383  1.6770383
  7 3.4688815 -0.99929416  -1.0022745 0.90273288 1.6351057 1.6351057  3.6675516  3.6675516
 51 2.9963393 -0.99385749  -1.0041765 0.90556049 1.6351057 1.6351057  2.7224672  2.7224672
  9 2.1062654 -0.99404382   -1.004383 0.90660796 1.6351057 1.6351057  0.9423194  0.9423194
 59 2.5434001 -0.99468666  -1.0024099 0.90569189 1.6351057 1.6351057  1.8165889  1.8165889
  3 2.6686582 -0.99553308  -1.0037553 0.90643157 1.6351057 1.6351057  2.0671052  2.0671052
  8  2.352036  -1.0028428 -0.99614734 0.89570044 1.6351057 1.6351057  1.4338607  1.4338607
 19  3.798162   -1.007055 -0.98544897 0.89228774 1.6351057 1.6351057  4.3261126  4.3261126
  1 3.6341092  -1.0073207 -0.98596764 0.89338439 1.6351057 1.6351057  3.9980071  3.9980071
  4 4.7635088  -1.0054763   -0.989797 0.89202012 1.6351057 1.6351057  6.2568064  6.2568064
 26 3.0883529  -1.0059263 -0.99090645 0.89214416 1.6351057 1.6351057  2.9064945  2.9064945
 78 2.2388475   -1.005592 -0.99030858  0.8938704 1.6351057 1.6351057  1.2074836  1.2074836
  2 4.6437979   -1.004546 -0.99630952 0.89756969 1.6351057 1.6351057  6.0173846  6.0173846
  3 5.2376813  -1.0201774 -0.98125985  0.8775562 1.6351057 1.6351057  7.2051513  7.2051513
 35 5.5462883   -1.019046 -0.97342773 0.88228016 1.6351057 1.6351057  7.8223653  7.8223653
 15 4.7594232  -1.0279306 -0.96645577 0.86998592 1.6351057 1.6351057   6.248635   6.248635
 27 4.8170122  -1.0278296 -0.96643306 0.87000932 1.6351057 1.6351057  6.3638131  6.3638131
120 5.4061828  -1.0271818 -0.96437834 0.87033889 1.6351057 1.6351057  7.5421544  7.5421544
47 4.3693869  -1.0276731 -0.96437121 0.87071033 1.6351057 1.6351057  5.4685624  5.4685624
59 4.2004832   -1.027841 -0.96621091 0.87147999 1.6351057 1.6351057   5.130755   5.130755
 4 4.8154136  -1.0263007 -0.97001251 0.87368814 1.6351057 1.6351057  6.3606158  6.3606158
53 4.1297601  -1.0255267 -0.97100602 0.87301075 1.6351057 1.6351057  4.9893088  4.9893088
 3 4.1979827  -1.0253646 -0.97107824 0.87290522 1.6351057 1.6351057  5.1257541  5.1257541
54   4.38404  -1.0254565 -0.97134051 0.87269294 1.6351057 1.6351057  5.4978686  5.4978686
32 4.7731945  -1.0247036 -0.97248676 0.87295652 1.6351057 1.6351057  6.2761776  6.2761776
21 4.4213406  -1.0239849 -0.96814338 0.87628672 1.6351057 1.6351057  5.5724699  5.5724699
36 3.8986993  -1.0247013 -0.96687859 0.87437969 1.6351057 1.6351057  4.5271873  4.5271873
10 2.2308288  -1.0099611 -0.98725931 0.88867666 1.6351057 1.6351057  1.1914462  1.1914462
 3 6.0606803  -1.0196699 -0.98197579 0.88072468 1.6351057 1.6351057  8.8511493  8.8511493
 4 6.0498813 -0.99632662 -0.99744015 0.90229806 1.6351057 1.6351057  8.8295514  8.8295514
 3 5.9850551 -0.99635766 -0.99740878 0.90229747 1.6351057 1.6351057  8.6998989  8.6998989
 3 2.5895977 -0.99949717 -0.99803223 0.90190842 1.6351057 1.6351057   1.908984   1.908984
 6 3.0849838 -0.98872254  -1.0091948 0.91350962 1.6351057 1.6351057  2.8997562  2.8997562
33 2.3340984  -0.9900403  -1.0111806 0.91197796 1.6351057 1.6351057  1.3979856  1.3979856
25 2.1360633 -0.98877381  -1.0126037  0.9128488 1.6351057 1.6351057  1.0019152  1.0019152
 5   2.11664 -0.98833336  -1.0129926 0.91302204 1.6351057 1.6351057 0.96306862 0.96306862
 5  3.710339 -0.99368171  -1.0097359  0.9088324 1.6351057 1.6351057  4.1504667  4.1504667
20 3.3139932 -0.99342796  -1.0118845 0.90817657 1.6351057 1.6351057   3.357775   3.357775
11 3.1651536  -0.9855692  -1.0193263 0.91691293 1.6351057 1.6351057 3.0600958 3.0600958
16 3.5510642 -0.98729272  -1.0195732 0.91336377 1.6351057 1.6351057  3.831917  3.831917
74  3.024208 -0.98668053  -1.0189941 0.91415228 1.6351057 1.6351057 2.7782047 2.7782047
24 3.6831634  -0.9842586  -1.0195115 0.91577286 1.6351057 1.6351057 4.0961156 4.0961156
12 4.1581241 -0.98306061  -1.0241966 0.91944295 1.6351057 1.6351057 5.0460368 5.0460368
15   4.97018 -0.98395823  -1.0249576 0.91690238 1.6351057 1.6351057 6.6701487 6.6701487
19 2.7300511 -0.98359097  -1.0184814 0.91900188 1.6351057 1.6351057 2.1898909 2.1898909
17 5.5406454 -0.98544198  -1.0234622 0.91714262 1.6351057 1.6351057 7.8110795 7.8110795
24 3.4819542 -0.98609622  -1.0124774 0.91453364 1.6351057 1.6351057 3.6936972 3.6936972
15 3.4515144 -0.98841896  -1.0085749 0.91372461 1.6351057 1.6351057 3.6328175 3.6328175
24 6.4762251 -0.98891953  -1.0038643 0.91350406 1.6351057 1.6351057 9.6822388 9.6822388
 7 9.7261889 -0.99003113  -1.0040726 0.91499723 1.6351057 1.6351057 16.182166 16.182166
 4  8.377855 -0.99968573 -0.98982267 0.89943949 1.6351057 1.6351057 13.485499 13.485499
 1 6.6922921  -1.0012024 -0.99241302 0.89638855 1.6351057 1.6351057 10.114373 10.114373
 4 6.0072176 -0.99874133  -0.9968086 0.89889705 1.6351057 1.6351057 8.7442239 8.7442239
 9 5.4552356   -1.002706 -0.98847876 0.89827322 1.6351057 1.6351057 7.6402598 7.6402598
 7 5.6948514  -1.0043705 -0.99029667 0.89815779 1.6351057 1.6351057 8.1194916 8.1194916
14 4.2001358  -1.0039219 -0.98835703 0.89632303 1.6351057 1.6351057 5.1300602 5.1300602
 3 4.5427236  -1.0069243 -0.98437834 0.89285529 1.6351057 1.6351057 5.8152359 5.8152359
 1 2.9907445 -0.98228176  -1.0200441 0.91900191 1.6351057 1.6351057 2.7112777 2.7112777
 8  2.498675 -0.98432373  -1.0184587 0.91743067 1.6351057 1.6351057  1.7271387  1.7271387
 1 3.2062611 -0.99497036  -1.0058182 0.90360871 1.6351057 1.6351057  3.1423109  3.1423109
 5  3.713701  -1.0212331 -0.97086927  0.8772962 1.6351057 1.6351057  4.1571906  4.1571906
 5 4.0110048  -1.0093104 -0.98322411 0.89139705 1.6351057 1.6351057  4.7517983  4.7517983
 5 2.8277945 -0.98886686  -1.0130634  0.9137219 1.6351057 1.6351057  2.3853776  2.3853776
 7 3.2792313 -0.98041918  -1.0226915 0.92286883 1.6351057 1.6351057  3.2882513  3.2882513
 2 4.9785811 -0.97776123  -1.0212481 0.92686189 1.6351057 1.6351057  6.6869508  6.6869508
 2 3.9773536 -0.98224855  -1.0246631 0.91882034 1.6351057 1.6351057  4.6844958  4.6844958
 4 3.9048398 -0.97997001  -1.0264472 0.92163711 1.6351057 1.6351057  4.5394682  4.5394682
 2 2.3971258 -0.99265428  -1.0110277 0.90872366 1.6351057 1.6351057  1.5240404  1.5240404
 1 2.6226397 -0.99797703  -1.0066825 0.90179535 1.6351057 1.6351057   1.975068   1.975068
10 1.8531777  -1.0027606 -0.99712118 0.89633656 1.6351057 1.6351057 0.43614416 0.43614416
 1 2.8197909 -0.99133983  -1.0101459 0.91108195 1.6351057 1.6351057  2.3693705  2.3693705
 7 3.5622759 -0.99062788   -1.005361  0.9104601 1.6351057 1.6351057  3.8543405  3.8543405
 3 3.8413556  -1.0025397 -0.99060262 0.89716749 1.6351057 1.6351057  4.4124999  4.4124999
 5 3.7316598  -1.0027478 -0.99071803 0.89667919 1.6351057 1.6351057  4.1931084  4.1931084
 1 2.8893031 -0.99967859 -0.99583722 0.89995551 1.6351057 1.6351057  2.5083948  2.5083948
 1 2.7375499  -1.0004059 -0.99490924 0.89979712 1.6351057 1.6351057  2.2048885  2.2048885
 7 2.8342041  -1.0169218 -0.97932687 0.88140183 1.6351057 1.6351057  2.3981969  2.3981969
 1 2.6143348  -1.0144189 -0.98436469 0.88412081 1.6351057 1.6351057  1.9584583  1.9584583
2  2.970887  -1.0167268  -0.9819218 0.88166812 1.6351057 1.6351057  2.6715627  2.6715627
1 2.2744932  -1.0115569 -0.98790441 0.88781954 1.6351057 1.6351057  1.2787751  1.2787751
5 2.2781849  -1.0115643 -0.98791119 0.88781157 1.6351057 1.6351057  1.2861584  1.2861584
3 2.6278001  -1.0078171 -0.99096267 0.89027971 1.6351057 1.6351057  1.9853888  1.9853888
3 2.2773681   -1.006155 -0.99556237  0.8927964 1.6351057 1.6351057  1.2845249  1.2845249
2 2.1703386 -0.99614998  -1.0075475 0.90410673 1.6351057 1.6351057  1.0704659  1.0704659
7 2.1779116 -0.99341644  -1.0097116 0.90643539 1.6351057 1.6351057   1.085612   1.085612
6 2.4159201 -0.99393242  -1.0100849  0.9057934 1.6351057 1.6351057   1.561629   1.561629
2 1.9959857 -0.99506441  -1.0043272   0.904852 1.6351057 1.6351057 0.72176012 0.72176012
3 1.7347891   -1.001124  -0.9973432 0.89875565 1.6351057 1.6351057 0.19936682 0.19936682
5 1.7133512  -1.0033052 -0.99546158 0.89669314 1.6351057 1.6351057 0.15649106 0.15649106
4 2.8729203  -1.0187935 -0.97714047 0.87979729 1.6351057 1.6351057  2.4756292  2.4756292
5 5.9896704  -1.0048695 -0.98791268  0.8973713 1.6351057 1.6351057  8.7091294  8.7091294
5 2.9160828 -0.99156404  -1.0075213 0.91083242 1.6351057 1.6351057  2.5619542  2.5619542
1 4.0708948 -0.99118071  -1.0038564 0.91033459 1.6351057 1.6351057  4.8715782  4.8715782
3 5.5660187   -1.019208 -0.96928926 0.88075973 1.6351057 1.6351057  7.8618261  7.8618261
2 4.9778226 -0.98855161  -1.0070158 0.91455635 1.6351057 1.6351057  6.6854338  6.6854338
3 4.8556045 -0.99201616  -1.0019032 0.90981689 1.6351057 1.6351057  6.4409977  6.4409977
1 4.7365344 -0.99269168  -1.0020947 0.90980322 1.6351057 1.6351057  6.2028575  6.2028575
3 2.3600311 -0.99203195  -1.0066742 0.90955827 1.6351057 1.6351057   1.449851   1.449851
1 3.6936423 -0.98056848  -1.0184455 0.92179433 1.6351057 1.6351057 4.1170732 4.1170732
2 3.9760919 -0.98365521  -1.0142682 0.91757938 1.6351057 1.6351057 4.6819724 4.6819724
4 4.0485804 -0.99636389 -0.99776988 0.90499162 1.6351057 1.6351057 4.8269494 4.8269494
2 2.3340415 -0.99836856 -0.99830389 0.90184342 1.6351057 1.6351057 1.3978716 1.3978716
9 2.7326543 -0.99943635 -0.99996459 0.89906156 1.6351057 1.6351057 2.1950973 2.1950973
2 2.2445531  -1.0009214 -0.99858552 0.89783019 1.6351057 1.6351057 1.2188949 1.2188949
5 2.4148844  -1.0042642  -0.9937497 0.89424869 1.6351057 1.6351057 1.5595575 1.5595575
2 2.7466936 -0.98796438  -1.0130877 0.91217477 1.6351057 1.6351057  2.223176  2.223176
1 2.4009181 -0.99552215  -1.0024426 0.90423558 1.6351057 1.6351057 1.5316248 1.5316248
5 2.5956959 -0.99966836  -1.0003827 0.90188393 1.6351057 1.6351057 1.9211805 1.9211805
4 2.8137184  -1.0079596 -0.98634239 0.89119888 1.6351057 1.6351057 2.3572255 2.3572255
1 2.9069411  -1.0137615 -0.97984345 0.88589327 1.6351057 1.6351057 2.5436709 2.5436709
3 2.4962544  -0.9996171 -0.99906386 0.90184976 1.6351057 1.6351057 1.7222974 1.7222974
4 3.6904209 -0.99551811  -1.0008468 0.90671822 1.6351057 1.6351057 4.1106304 4.1106304
6 3.7002284  -1.0115187 -0.98268715 0.88942146 1.6351057 1.6351057 4.1302455 4.1302455
4 4.4311288 -0.99209638  -1.0048569 0.91097942 1.6351057 1.6351057 5.5920463 5.5920463
2 3.1290594  -1.0155323 -0.98363707 0.88435285 1.6351057 1.6351057 2.9879075 2.9879075
3  5.253599 -0.99533637  -1.0040789 0.90812865 1.6351057 1.6351057 7.2369866 7.2369866
1 2.8099227 -0.99385648  -1.0042328 0.90814025 1.6351057 1.6351057 2.3496342 2.3496342
7 2.8592244  -1.0190996 -0.97746568 0.87982581 1.6351057 1.6351057 2.4482375 2.4482375
20 2.9575833  -1.0196278 -0.97709549 0.87923931 1.6351057 1.6351057  2.6449552  2.6449552
 2 5.5153295  -1.0282859 -0.96879447 0.86955054 1.6351057 1.6351057  7.7604477  7.7604477
 3 3.7221192 -0.99590374 -0.99864715 0.90519545 1.6351057 1.6351057  4.1740271  4.1740271
 2 2.0139086  -1.0029557  -0.9975257 0.89757893 1.6351057 1.6351057  0.7576059  0.7576059
 6 1.9780662  -0.9928847  -1.0093672 0.90827655 1.6351057 1.6351057 0.68592114 0.68592114
 1 2.6344106 -0.98721391  -1.0145785 0.91527225 1.6351057 1.6351057    1.99861    1.99861
 2 2.9960791 -0.99377741  -1.0053591 0.90856318 1.6351057 1.6351057  2.7219468  2.7219468
 7 2.2228485 -0.98835255  -1.0139161 0.91340659 1.6351057 1.6351057  1.1754856  1.1754856
 1 2.5337754 -0.98693985  -1.0129406 0.91419705 1.6351057 1.6351057  1.7973395  1.7973395
 2 3.2835166 -0.99274399  -1.0099869 0.90604945 1.6351057 1.6351057  3.2968219  3.2968219
 2 2.5489891 -0.99433887    -1.00797 0.90745737 1.6351057 1.6351057  1.8277669  1.8277669
 4 1.6893252  -0.9992599  -1.0013868 0.90107888 1.6351057 1.6351057 0.10843905 0.10843905
 1 3.1119571 -0.99917705  -1.0062601 0.90079016 1.6351057 1.6351057  2.9537029  2.9537029
 2 3.1033509  -1.0010992  -1.0040148 0.89852324 1.6351057 1.6351057  2.9364904  2.9364904
 3 3.4728319  -1.0015739  -1.0035088  0.8970831 1.6351057 1.6351057  3.6754525  3.6754525
 7 3.4011222  -1.0068547 -0.98731725  0.8940324 1.6351057 1.6351057  3.5320331  3.5320331
 1  2.263997 -0.99059106  -1.0133802 0.91014393 1.6351057 1.6351057  1.2577827  1.2577827
 2 4.0521421 -0.98693704  -1.0145235 0.91237931 1.6351057 1.6351057  4.8340729  4.8340729
 2 4.4812344  -1.0053796  -0.9934656 0.89172559 1.6351057 1.6351057  5.6922575  5.6922575
 1 3.7921247  -1.0127824 -0.98604625 0.88454005 1.6351057 1.6351057  4.3140381  4.3140381
 3 3.0959542  -0.9839937  -1.0210773 0.91834106 1.6351057 1.6351057   2.9216972   2.9216972
 2 3.1013946 -0.98316861  -1.0221017 0.91827171 1.6351057 1.6351057   2.9325778   2.9325778
 2   2.38639 -0.99268212  -1.0057944 0.90755635 1.6351057 1.6351057   1.5025686   1.5025686
 9 1.6749204 -0.99734087  -1.0026577 0.90303338 1.6351057 1.6351057  0.07962943  0.07962943
 7 1.9361869 -0.99741838  -1.0024392 0.90205933 1.6351057 1.6351057  0.60216247  0.60216247
11 1.9210426  -1.0062025 -0.99121508 0.89303553 1.6351057 1.6351057  0.57187396  0.57187396
 1 1.9268323  -1.0068431 -0.99083116  0.8922636 1.6351057 1.6351057  0.58345337  0.58345337
 4 2.5431067  -1.0137652 -0.98193713 0.88482355 1.6351057 1.6351057    1.816002    1.816002
 2 2.5335125     -1.0137 -0.98414655 0.88468958 1.6351057 1.6351057   1.7968138   1.7968138
 1   3.77838  -1.0212972 -0.97730665 0.87717571 1.6351057 1.6351057   4.2865486   4.2865486
 1 2.8567602  -1.0106173 -0.99032953 0.88939902 1.6351057 1.6351057   2.4433091   2.4433091
 1 2.8627513 -0.99818244  -1.0064177 0.90252217 1.6351057 1.6351057   2.4552913   2.4552913
 2 1.7912817 -0.99378319  -1.0078803 0.90668666 1.6351057 1.6351057  0.31235202  0.31235202
 4 1.7253721 -0.99526195   -1.005508 0.90537408 1.6351057 1.6351057  0.18053294  0.18053294
 4 1.8562207 -0.99669618  -1.0039026 0.90427821 1.6351057 1.6351057     0.44223     0.44223
 5 1.7504117  -1.0026987 -0.99546931 0.89713909 1.6351057 1.6351057  0.23061204  0.23061204
 4   1.72011  -1.0026107 -0.99584716 0.89734297 1.6351057 1.6351057  0.17000862  0.17000862
 1 1.6455909  -1.0007149 -0.99937995 0.89909009 1.6351057 1.6351057 0.020970554 0.020970554
 4 3.9718343  -1.0142216 -0.98444631  0.8830353 1.6351057 1.6351057   4.6734572   4.6734572
 6 2.6175514  -1.0162127 -0.97939749 0.88248295 1.6351057 1.6351057   1.9648914   1.9648914
1 2.6366269  -1.0165544 -0.97886712 0.88220432 1.6351057 1.6351057  2.0030425  2.0030425
6 2.1852949  -1.0125445 -0.98405826 0.88678594 1.6351057 1.6351057  1.1003784  1.1003784
5  2.657522 -0.99574634  -1.0009057 0.90443047 1.6351057 1.6351057  2.0448327  2.0448327
1 8.2936314 -0.97389398  -1.0264756 0.92659252 1.6351057 1.6351057  13.317051  13.317051
8 8.0144136  -0.9744682  -1.0268949 0.92579934 1.6351057 1.6351057  12.758616  12.758616
1 3.4771742  -0.9997503  -1.0048192 0.89863136 1.6351057 1.6351057  3.6841372  3.6841372
1 3.8657497  -1.0133257 -0.98598623 0.88399914 1.6351057 1.6351057  4.4612881  4.4612881
4 1.8710539  -1.0065895 -0.99099489 0.89273663 1.6351057 1.6351057 0.47189647 0.47189647
4 3.1171912  -1.0003787 -0.99554466 0.90106099 1.6351057 1.6351057  2.9641712  2.9641712
1 2.7102941 -0.98711345  -1.0163194 0.91320257 1.6351057 1.6351057  2.1503768  2.1503768
2 1.8046453  -0.9976629  -1.0034926 0.90195899 1.6351057 1.6351057 0.33907936 0.33907936
2 4.5357177  -1.0017792 -0.99847223  0.8954581 1.6351057 1.6351057  5.8012241  5.8012241
2 4.5838135  -1.0028513  -1.0038715 0.89718816 1.6351057 1.6351057  5.8974157  5.8974157
3 4.7383302  -1.0051464 -0.99753445 0.89659424 1.6351057 1.6351057  6.2064492  6.2064492
4 1.8926982  -1.0013978 -0.99871798 0.89770527 1.6351057 1.6351057 0.51518515 0.51518515
4 2.8625363 -0.98918355  -1.0088544 0.91275154 1.6351057 1.6351057  2.4548612  2.4548612
1 3.3204546  -0.9850052  -1.0130783 0.91703276 1.6351057 1.6351057  3.3706979  3.3706979
6 3.0639989  -0.9929443  -1.0077729 0.90602541 1.6351057 1.6351057  2.8577865  2.8577865
2  2.838987 -0.99225677  -1.0092976 0.90692672 1.6351057 1.6351057  2.4077627  2.4077627
3 1.9844338  -1.0065408 -0.99150757 0.89236603 1.6351057 1.6351057 0.69865626 0.69865626
15 2.4505489  -1.0115884 -0.98852221 0.88786338 1.6351057 1.6351057  1.6308865  1.6308865
 9 2.0457162  -1.0080118 -0.99232967 0.89141598 1.6351057 1.6351057 0.82122102 0.82122102
 1  2.304757  -1.0034175 -0.99864554 0.89538648 1.6351057 1.6351057  1.3393028  1.3393028
 4 4.2024129 -0.98576401  -1.0109058  0.9170674 1.6351057 1.6351057  5.1346145  5.1346145
 1 4.5302995   -1.020854 -0.96913764 0.87783676 1.6351057 1.6351057  5.7903876  5.7903876
 1 4.4001629  -1.0210693 -0.96916304 0.87761982 1.6351057 1.6351057  5.5301144  5.5301144
 1 4.1857739  -1.0150887 -0.97565273 0.88442074 1.6351057 1.6351057  5.1013366  5.1013366
 5 4.2690807  -1.0152156 -0.97537452 0.88428425 1.6351057 1.6351057    5.26795    5.26795
 3 3.6921375  -1.0130466 -0.97884109 0.88675046 1.6351057 1.6351057  4.1140637  4.1140637
 1 2.5370492  -1.0140718 -0.98068443 0.88513029 1.6351057 1.6351057  1.8038871  1.8038871
13  2.332184  -1.0110789 -0.98422717 0.88832906 1.6351057 1.6351057  1.3941566  1.3941566
 4  2.411542  -1.0128295   -0.984497 0.88708389 1.6351057 1.6351057  1.5528726  1.5528726
 2 2.4122772  -1.0128432 -0.98446914 0.88706961 1.6351057 1.6351057   1.554343   1.554343
14 2.0742605  -1.0055457 -0.99284163   0.893207 1.6351057 1.6351057 0.87830972 0.87830972
 2 2.0725761  -1.0058685 -0.99242304 0.89288683 1.6351057 1.6351057  0.8749409  0.8749409
 2 1.9450014  -1.0092646 -0.98955111 0.89001836 1.6351057 1.6351057 0.61979156 0.61979156
 7 1.9149987 -0.99519087  -1.0051641 0.90598085 1.6351057 1.6351057 0.55978605 0.55978605
 5 1.8566065 -0.99687627  -1.0027794  0.9040641 1.6351057 1.6351057 0.44300173 0.44300173
 1 3.1242078 -0.99247514  -1.0044761 0.90764369 1.6351057 1.6351057  2.9782042  2.9782042
 3 2.7847025 -0.99171954  -1.0061417 0.90851365 1.6351057 1.6351057  2.2991936  2.2991936
1  3.120842  -1.0047004 -0.98990909 0.89611231 1.6351057 1.6351057 2.9714726 2.9714726
1 2.6380664  -1.0002616 -0.99949243 0.90127866 1.6351057 1.6351057 2.0059214 2.0059214
1 4.2668816 -0.98493428  -1.0153074 0.91901929 1.6351057 1.6351057 5.2635518 5.2635518
2 4.6871916 -0.98360231  -1.0166582 0.92071716 1.6351057 1.6351057  6.104172  6.104172
3 5.4883195 -0.98991011  -1.0101793 0.91421442 1.6351057 1.6351057 7.7064276 7.7064276
6 3.6717102 -0.98823774  -1.0145254 0.91496665 1.6351057 1.6351057 4.0732092 4.0732092
1 4.2920916 -0.99112998   -1.012363  0.9120147 1.6351057 1.6351057  5.313972  5.313972
2 2.4004883 -0.98808266   -1.011806 0.91378022 1.6351057 1.6351057 1.5307653 1.5307653
7 4.3894019  -1.0109537 -0.99105348 0.88632022 1.6351057 1.6351057 5.5085925 5.5085925
2 4.4314795  -1.0106896 -0.99153636 0.88659153 1.6351057 1.6351057 5.5927477 5.5927477
5 3.1925397 -0.98942555   -1.014285 0.90999824 1.6351057 1.6351057  3.114868  3.114868
2 3.1317284 -0.98460543  -1.0186296 0.91581043 1.6351057 1.6351057 2.9932455 2.9932455
3  3.093201  -0.9926157  -1.0080022 0.90639529 1.6351057 1.6351057 2.9161906 2.9161906
2 4.0861899  -0.9944515  -0.9998383 0.90675575 1.6351057 1.6351057 4.9021685 4.9021685
1 4.0288992 -0.98109857  -1.0170398 0.92196791 1.6351057 1.6351057 4.7875871 4.7875871
5 3.7603502 -0.97936933  -1.0199505 0.92340704 1.6351057 1.6351057 4.2504891 4.2504891
1 2.1793536 -0.99210007  -1.0070985 0.90832689 1.6351057 1.6351057 1.0884959 1.0884959
3 2.2274041  -0.9920729  -1.0105174  0.9077898 1.6351057 1.6351057 1.1845968 1.1845968
2 3.5025232 -0.98309523  -1.0213776 0.91743358 1.6351057 1.6351057  3.734835  3.734835
3 2.9832689 -0.98060399  -1.0221462 0.92143528 1.6351057 1.6351057 2.6963264 2.6963264
 1 2.7352553 -0.99042514  -1.0143673 0.90960324 1.6351057 1.6351057  2.2002994  2.2002994
17 3.5995935 -0.98706696  -1.0199529 0.91424846 1.6351057 1.6351057  3.9289756  3.9289756
 1 4.5877874 -0.99219696  -1.0158582 0.90724296 1.6351057 1.6351057  5.9053634  5.9053634
 1 5.1393938 -0.99327756   -1.015557 0.90615082 1.6351057 1.6351057  7.0085762  7.0085762
 2 3.8465404  -1.0108059 -0.99294041 0.88798365 1.6351057 1.6351057  4.4228694  4.4228694
 3 5.1168187  -1.0101208 -0.99392682 0.89055188 1.6351057 1.6351057  6.9634261  6.9634261
 2 4.0032292  -1.0065883 -0.99759878   0.893883 1.6351057 1.6351057   4.736247   4.736247
 1 3.8960424  -1.0125613 -0.99020251 0.88713292 1.6351057 1.6351057  4.5218735  4.5218735
10 4.9911769   -1.014521  -0.9890458 0.88522883 1.6351057 1.6351057  6.7121425  6.7121425
 1 8.6536822  -1.0246004 -0.97962058 0.87356745 1.6351057 1.6351057  14.037153  14.037153
 1  7.403069  -1.0142927  -0.9908162 0.88248894 1.6351057 1.6351057  11.535927  11.535927
 4 4.5159028 -0.99060587  -1.0173188 0.90893462 1.6351057 1.6351057  5.7615942  5.7615942
 3 4.4799051 -0.98983851  -1.0180987 0.90983416 1.6351057 1.6351057  5.6895988  5.6895988
 1 3.3807362 -0.99744382  -1.0079145 0.90355898 1.6351057 1.6351057   3.491261   3.491261
 1 2.3096248 -0.99341738  -1.0095209 0.90804972 1.6351057 1.6351057  1.3490384  1.3490384
13 1.9092573  -1.0014131  -1.0004152 0.89866128 1.6351057 1.6351057 0.54830337 0.54830337
 3 1.7327321  -1.0041476 -0.99471856 0.89582655 1.6351057 1.6351057  0.1952528  0.1952528
 3  2.044113   -1.004536 -0.99276109 0.89459348 1.6351057 1.6351057 0.81801466 0.81801466
 6 2.0547563  -1.0022378  -0.9953899 0.89699885 1.6351057 1.6351057 0.83930125 0.83930125
 1 3.9679831  -1.0022389 -0.99068889 0.89767915 1.6351057 1.6351057  4.6657549  4.6657549
 2 3.8598533  -1.0003313 -0.99305734 0.90006484 1.6351057 1.6351057  4.4494953  4.4494953
 1 3.6742715  -1.0011766 -0.99238916 0.89936199 1.6351057 1.6351057  4.0783317  4.0783317
 1 4.0189496 -0.98601817  -1.0104597 0.91620487 1.6351057 1.6351057  4.7676879  4.7676879
 3 3.9192004 -0.98649997  -1.0099583 0.91534681 1.6351057 1.6351057  4.5681895  4.5681895
 1 5.3477555  -1.0139066 -0.97547638 0.88616624 1.6351057 1.6351057  7.4252997  7.4252997
 2 3.5956385  -1.0210273 -0.97355492 0.87902861 1.6351057 1.6351057  3.9210657  3.9210657
 3 3.3580164  -1.0162716 -0.97981351 0.88418055 1.6351057 1.6351057  3.4458214  3.4458214
 1 3.3523653  -1.0152533 -0.97728733 0.88450267 1.6351057 1.6351057  3.4345193  3.4345193
 6 3.1094941  -1.0010857 -0.99947421 0.89694046 1.6351057 1.6351057  2.9487768  2.9487768
 1 4.1474939  -1.0035792 -0.98906098 0.89713287 1.6351057 1.6351057  5.0247765  5.0247765
 2 3.7697465   -1.002007 -0.99304819 0.89964905 1.6351057 1.6351057  4.2692817  4.2692817
 3 3.1529128 -0.99354376  -1.0032774 0.90838043 1.6351057 1.6351057  3.0356143  3.0356143
 4 2.5209973 -0.99749239 -0.99959514 0.90375507 1.6351057 1.6351057  1.7717834  1.7717834
 3 2.3797271  -1.0018974 -0.99585098 0.89692722 1.6351057 1.6351057   1.489243   1.489243
 2 2.6014566  -1.0051546 -0.99182707 0.89333111 1.6351057 1.6351057  1.9327018  1.9327018
 1 1.8182819 -0.99709873   -1.001687 0.90326564 1.6351057 1.6351057 0.36635249 0.36635249
 8 2.0559042   -1.007455 -0.98961535 0.89262303 1.6351057 1.6351057  0.8415971  0.8415971
 1 2.3449167  -1.0125905  -0.9854146 0.88718742 1.6351057 1.6351057  1.4196221  1.4196221
10 2.2863877  -1.0129719 -0.98516997 0.88653301 1.6351057 1.6351057  1.3025641  1.3025641
 4 1.9671279  -1.0073052 -0.99288117 0.89227782 1.6351057 1.6351057 0.66404449 0.66404449
 3 2.2315166 -0.99792685  -1.0057763 0.90210769 1.6351057 1.6351057  1.1928218  1.1928218
 4 2.1023699 -0.99803214  -1.0052654 0.90192885 1.6351057 1.6351057 0.93452854 0.93452854
16 3.5752048 -0.97783952  -1.0271009 0.92487744 1.6351057 1.6351057  3.8801983  3.8801983
 4 3.8537641 -0.98594458  -1.0212095 0.91595236 1.6351057 1.6351057  4.4373169  4.4373169
 2 4.0601742 -0.98588474  -1.0212025 0.91640274 1.6351057 1.6351057   4.850137   4.850137
 4 2.7157159 -0.98347651  -1.0201866  0.9180197 1.6351057 1.6351057  2.1612206  2.1612206
 3 2.2225468 -0.98696628  -1.0148101 0.91451304 1.6351057 1.6351057  1.1748822  1.1748822
 2 5.7764062 -0.99338237   -1.014595 0.90878906 1.6351057 1.6351057   8.282601   8.282601
 2 5.8591416 -0.99278983  -1.0141516 0.90999588 1.6351057 1.6351057  8.4480719  8.4480719
12 3.9155352  -0.9754129  -1.0284463 0.92717493 1.6351057 1.6351057  4.5608591  4.5608591
 1 4.8934509 -0.97217765  -1.0327062 0.93048654 1.6351057 1.6351057  6.5166904  6.5166904
 5  5.340921  -1.0202639 -0.97937937  0.8768026 1.6351057 1.6351057  7.4116307  7.4116307
 3 3.1711013 -0.99785624  -1.0071528 0.90106191 1.6351057 1.6351057  3.0719912  3.0719912
 9 3.9732136 -0.99672062  -1.0096482 0.90206223 1.6351057 1.6351057  4.6762159  4.6762159
 1 2.8153975  -0.9861138  -1.0129941 0.91529947 1.6351057 1.6351057  2.3605836  2.3605836
 9  2.100637 -0.99639525  -1.0021761 0.90476445 1.6351057 1.6351057 0.93106271 0.93106271
 1 4.3516667  -1.0071347 -0.99787768 0.89098553 1.6351057 1.6351057  5.4331221  5.4331221
 4 4.4153867   -1.005178  -1.0009114 0.89351528 1.6351057 1.6351057  5.5605622  5.5605622
 2 5.1774942 -0.97577317  -1.0321116  0.9262705 1.6351057 1.6351057  7.0847771  7.0847771
 1 3.2111472 -0.98106777  -1.0191202 0.92121103 1.6351057 1.6351057  3.1520832  3.1520832
 1 2.7084272 -0.98543216  -1.0142459 0.91657358 1.6351057 1.6351057  2.1466431  2.1466431
 7 1.7326188 -0.99997522 -0.99884661 0.90033897 1.6351057 1.6351057 0.19502631 0.19502631
 1 1.8767684 -0.99916067 -0.99904712 0.90134762 1.6351057 1.6351057 0.48332553 0.48332553
 1 2.5740768  -1.0018507 -0.99492315 0.89708492 1.6351057 1.6351057  1.8779422  1.8779422
 1 2.5970532  -1.0004106 -0.99673321 0.89856886 1.6351057 1.6351057  1.9238951  1.9238951
 1 2.6266491 -0.99644128  -1.0003393 0.90346036 1.6351057 1.6351057  1.9830869  1.9830869
 1 2.2610293 -0.99569207  -1.0073294  0.9054201 1.6351057 1.6351057  1.2518473  1.2518473
 4  2.320316  -1.0014267  -1.0019139 0.89836464 1.6351057 1.6351057  1.3704207  1.3704207
11 1.8904637 -0.99708027   -1.005358 0.90334892 1.6351057 1.6351057 0.51071604 0.51071604
 2 2.0880933 -0.99012972  -1.0129052  0.9107002 1.6351057 1.6351057 0.90597523 0.90597523
11 2.1235315 -0.99135705  -1.0117447 0.90896858 1.6351057 1.6351057 0.97685165 0.97685165
 5 2.2476194 -0.99628124  -1.0040458 0.90291631 1.6351057 1.6351057  1.2250275  1.2250275
 1 2.8468868 -0.99895362 -0.99894785 0.89978371 1.6351057 1.6351057  2.4235623  2.4235623
 1 2.5562482 -0.99996956 -0.99728769 0.89907669 1.6351057 1.6351057   1.842285   1.842285
 1 2.9035283 -0.99337784  -1.0043531 0.90635008 1.6351057 1.6351057  2.5368453  2.5368453
12 3.0661674 -0.99102376  -1.0077632 0.90866968 1.6351057 1.6351057  2.8621235  2.8621235
 1 5.9240648 -0.98057995  -1.0148062 0.92173882 1.6351057 1.6351057  8.5779183  8.5779183
 2 5.3274123  -0.9801434  -1.0160324 0.92252422 1.6351057 1.6351057  7.3846133  7.3846133
 1 3.9028074 -0.98009248  -1.0186645 0.92301411 1.6351057 1.6351057  4.5354035  4.5354035
 1  4.155711  -1.0069024 -0.98654034 0.89435835 1.6351057 1.6351057  5.0412107  5.0412107
11  2.280544  -1.0102661 -0.98521119 0.88913496 1.6351057 1.6351057  1.2908767  1.2908767
 1 1.9896731 -0.99513333  -1.0034124 0.90541736 1.6351057 1.6351057  0.7091348  0.7091348
 6 2.5339821 -0.99789493  -1.0035771  0.9008211 1.6351057 1.6351057  1.7977528  1.7977528
 1 2.4060486 -0.98603929  -1.0170634 0.91579484 1.6351057 1.6351057  1.5418859  1.5418859
 3 2.4138484 -0.98600526  -1.0172089 0.91579383 1.6351057 1.6351057  1.5574855  1.5574855
 5 2.3509795  -1.0046571 -0.99750202 0.89542925 1.6351057 1.6351057  1.4317476  1.4317476
 1 2.1240688   -1.003578  -0.9983568 0.89645956 1.6351057 1.6351057 0.97792624 0.97792624
 1 2.2906966  -1.0022625 -0.99726207 0.89878394 1.6351057 1.6351057  1.3111818  1.3111818
 7 1.8564645 -0.99964829 -0.99843812 0.90070386 1.6351057 1.6351057 0.44271778 0.44271778
 1 1.7874705 -0.99650276  -1.0026514 0.90395159 1.6351057 1.6351057 0.30472973 0.30472973
 2  1.724259  -1.0047302 -0.99383752 0.89495713 1.6351057 1.6351057 0.17830671 0.17830671
 4 3.4578991  -1.0123394 -0.98011551 0.88670291 1.6351057 1.6351057   3.645587   3.645587
 3 3.3624022  -1.0122913 -0.98038044 0.88672148 1.6351057 1.6351057   3.454593   3.454593
 9 2.4267178  -1.0129784 -0.98231799 0.88662158 1.6351057 1.6351057  1.5832243  1.5832243
13 2.3753928  -1.0070207  -0.9889254 0.89330281 1.6351057 1.6351057  1.4805742  1.4805742
 1  3.987472  -1.0239142  -0.9695045 0.87413834 1.6351057 1.6351057  4.7047326  4.7047326
 2 4.5411146  -1.0156903 -0.98351389 0.88135292 1.6351057 1.6351057  5.8120179  5.8120179
 1 2.9359798  -1.0135912 -0.98627516 0.88461819 1.6351057 1.6351057  2.6017482  2.6017482
16 1.8850145  -1.0063685  -0.9925505 0.89264135 1.6351057 1.6351057 0.49981778 0.49981778
 1 2.2141246 -0.99631654  -1.0066829 0.90311019 1.6351057 1.6351057  1.1580379  1.1580379
 3 3.9408636  -0.9761431   -1.025378 0.92636382 1.6351057 1.6351057   4.611516   4.611516
 2 4.1238525 -0.97531765  -1.0260761 0.92733448 1.6351057 1.6351057  4.9774937  4.9774937
 3   3.24396  -1.0039083 -0.98991358 0.89578206 1.6351057 1.6351057  3.2177088  3.2177088
 1 3.3815013  -1.0022323 -0.99168948  0.8974843 1.6351057 1.6351057  3.4927913  3.4927913
 1 2.2463838 -0.98736014  -1.0147265 0.91362156 1.6351057 1.6351057  1.2225562  1.2225562
 3 2.4002621 -0.99254839   -1.010115 0.90702297 1.6351057 1.6351057  1.5303129  1.5303129
11 1.9741732 -0.99754905  -1.0004727  0.9030151 1.6351057 1.6351057 0.67813517 0.67813517
 3 2.3779407 -0.99647184  -1.0008934 0.90465456 1.6351057 1.6351057  1.4856701  1.4856701
 3 2.7617809 -0.99301661  -1.0040131 0.90833421 1.6351057 1.6351057  2.2533505  2.2533505
 1 2.0339563  -1.0091481 -0.98746276 0.89035322 1.6351057 1.6351057 0.79770121 0.79770121
 2 2.5909087 -0.99560235  -1.0092279 0.90434059 1.6351057 1.6351057  1.9116061  1.9116061
 1 3.2435646 -0.99202301  -1.0143447 0.90815617 1.6351057 1.6351057  3.2169178  3.2169178
 9 3.9655925 -0.97637505  -1.0285179 0.92730314 1.6351057 1.6351057  4.6609737  4.6609737
 3 3.9362353  -0.9766153  -1.0281986 0.92706895 1.6351057 1.6351057  4.6022593  4.6022593
 2 7.4755714   -1.002974  -1.0045113 0.89390063 1.6351057 1.6351057  11.680932  11.680932
 1 5.2636144 -0.98721083   -1.022303 0.91378265 1.6351057 1.6351057  7.2570174  7.2570174
 2 5.2238903  -0.9899412  -1.0194076 0.91093919 1.6351057 1.6351057  7.1775693  7.1775693
12 4.9623803 -0.98963654  -1.0194043 0.91129002 1.6351057 1.6351057  6.6545492  6.6545492
 3 3.3819218  -1.0128317 -0.98828842 0.88516129 1.6351057 1.6351057  3.4936322  3.4936322
 4 3.8960837 -0.98839535  -1.0189359 0.91313909 1.6351057 1.6351057  4.5219561  4.5219561
3 3.7666308 -0.98539498  -1.0211528 0.91694395 1.6351057 1.6351057  4.2630502  4.2630502
1 2.4667637 -0.99691984  -1.0020283 0.90473713 1.6351057 1.6351057  1.6633161  1.6633161
8 2.1961584 -0.99821772  -1.0001242 0.90297572 1.6351057 1.6351057  1.1221054  1.1221054
3 2.6932436 -0.98474281  -1.0153691 0.91733965 1.6351057 1.6351057   2.116276   2.116276
1 6.7930911 -0.96387049  -1.0369281 0.94253724 1.6351057 1.6351057  10.315971  10.315971
4 5.4378765  -1.0317448 -0.96114962 0.86626479 1.6351057 1.6351057  7.6055416  7.6055416
1   5.51699  -1.0326272 -0.96019508 0.86551377 1.6351057 1.6351057  7.7637686  7.7637686
2 2.7678097   -1.005499 -0.99448092 0.89553186 1.6351057 1.6351057  2.2654081  2.2654081
1 3.4624542  -1.0041347 -0.99872756 0.89693506 1.6351057 1.6351057  3.6546971  3.6546971
5 8.2936493 -0.99809253  -1.0044402 0.90594459 1.6351057 1.6351057  13.317087  13.317087
3 10.190899 -0.98554363  -1.0195074  0.9203894 1.6351057 1.6351057  17.111587  17.111587
2 9.6592155  -1.0061803 -0.99442456 0.89753286 1.6351057 1.6351057   16.04822   16.04822
1 8.8135558 -0.97120667  -1.0241429 0.93493667 1.6351057 1.6351057    14.3569    14.3569
3 6.1512798 -0.97973057  -1.0160589 0.92214978 1.6351057 1.6351057  9.0323484  9.0323484
4 4.0966128 -0.98638011  -1.0112178 0.91403237 1.6351057 1.6351057  4.9230143  4.9230143
1 1.8480081  -1.0055912 -0.99391373 0.89349769 1.6351057 1.6351057 0.42580498 0.42580498
5 3.1945339  -1.0115076 -0.98644689 0.88616922 1.6351057 1.6351057  3.1188564  3.1188564
1 1.9500537 -0.99739875   -1.000839 0.90326211 1.6351057 1.6351057 0.62989606 0.62989606
1  1.987446  -1.0039195 -0.99426847 0.89658186 1.6351057 1.6351057 0.70468064 0.70468064
2 1.8154819  -1.0073469 -0.99127328 0.89208467 1.6351057 1.6351057 0.36075256 0.36075256
 1 2.0246288  -1.0014852 -0.99570155 0.89887412 1.6351057 1.6351057 0.77904626 0.77904626
 5 2.0297288  -1.0011827 -0.99617118 0.89930366 1.6351057 1.6351057 0.78924633 0.78924633
 6 2.0188505  -1.0052288  -0.9931497 0.89519899 1.6351057 1.6351057 0.76748963 0.76748963
 3 1.8171664  -1.0029224  -0.9959821 0.89744125 1.6351057 1.6351057 0.36412147 0.36412147
 2 2.5865413  -1.0024798  -1.0012641 0.89727233 1.6351057 1.6351057  1.9028714  1.9028714
 1 3.5285381  -1.0127746 -0.98944135 0.88672552 1.6351057 1.6351057  3.7868648  3.7868648
 5 2.2069689  -1.0103355 -0.98957245 0.88901028 1.6351057 1.6351057  1.1437264  1.1437264
 5 1.8998776   -1.006236 -0.99217031 0.89386035 1.6351057 1.6351057 0.52954378 0.52954378
24 1.8904609  -1.0072587 -0.99138439 0.89263474 1.6351057 1.6351057 0.51071045 0.51071045
 2 1.8869807  -1.0072899 -0.99097501 0.89259705 1.6351057 1.6351057 0.50375018 0.50375018
 6 2.3454505  -1.0061929 -0.98928478 0.89374384 1.6351057 1.6351057  1.4206898  1.4206898
 3 4.5333107 -0.99833908 -0.99450377 0.90224934 1.6351057 1.6351057    5.79641    5.79641
 1 5.2118322  -1.0286505 -0.96217105 0.86925089 1.6351057 1.6351057   7.153453   7.153453
 1 4.7222421  -1.0253037 -0.96828642 0.87227573 1.6351057 1.6351057  6.1742729  6.1742729
 3 3.7538694  -1.0238395 -0.97063813 0.87437483 1.6351057 1.6351057  4.2375274  4.2375274
 4 2.2195824  -1.0109752 -0.98834094 0.88785757 1.6351057 1.6351057  1.1689535  1.1689535
 1 1.8376738  -1.0036499 -0.99478685 0.89558487 1.6351057 1.6351057 0.40513637 0.40513637
 1 3.4884953  -1.0083723 -0.99007018 0.88913365 1.6351057 1.6351057  3.7067793  3.7067793
 2 4.1018055   -1.013658 -0.98261989 0.88358202 1.6351057 1.6351057  4.9333996  4.9333996
 1 4.0670467  -1.0243261 -0.96658032 0.87474603 1.6351057 1.6351057  4.8638822  4.8638822
 1 5.0310365  -1.0145689 -0.97512233 0.88541088 1.6351057 1.6351057  6.7918617  6.7918617
 3 3.3437674  -1.0128034 -0.97972077 0.88684449 1.6351057 1.6351057  3.4173234  3.4173234
10 2.7271026  -1.0137289 -0.98044517 0.88590823 1.6351057 1.6351057  2.1839938  2.1839938
10 2.1103225  -1.0066209 -0.99051811 0.89365729 1.6351057 1.6351057 0.95043367 0.95043367
 2 3.9159283  -1.0164731 -0.97833086 0.88432884 1.6351057 1.6351057  4.5616454  4.5616454
 1 3.6605134  -1.0219794 -0.97354608 0.87794115 1.6351057 1.6351057  4.0508155  4.0508155
 5 2.6720209  -1.0101811 -0.98668431  0.8880058 1.6351057 1.6351057  2.0738305  2.0738305
 2 3.2233865  -1.0133156 -0.98290988 0.88447904 1.6351057 1.6351057  3.1765616  3.1765616
 4 2.7456809  -1.0122782 -0.98789148  0.8860864 1.6351057 1.6351057  2.2211504  2.2211504
 1 3.4305245    -1.00401 -0.99905664 0.89698475 1.6351057 1.6351057  3.5908376  3.5908376
 3 3.3002159  -1.0051989 -0.99544628 0.89614354 1.6351057 1.6351057  3.3302205  3.3302205
 1 5.2874213   -1.018038 -0.98469506  0.8798613 1.6351057 1.6351057  7.3046312  7.3046312
 2  3.253783  -1.0162597 -0.97932721 0.88410601 1.6351057 1.6351057  3.2373546  3.2373546
 5 3.0281192  -1.0185474 -0.97556239 0.88108208 1.6351057 1.6351057   2.786027   2.786027
 1 3.3371825  -1.0090654 -0.98379748 0.89055226 1.6351057 1.6351057  3.4041536  3.4041536
 5 2.4748003  -1.0023068 -0.99671059 0.89616687 1.6351057 1.6351057  1.6793892  1.6793892
 2 2.2381516 -0.98928358  -1.0126416  0.9125666 1.6351057 1.6351057  1.2060919  1.2060919
 1 3.4670182 -0.99403954  -1.0013286 0.90654867 1.6351057 1.6351057   3.663825   3.663825
 7 2.9014452  -1.0016367 -0.99392715 0.89753002 1.6351057 1.6351057  2.5326791  2.5326791
 3 2.8867683   -1.001553 -0.99403848 0.89763038 1.6351057 1.6351057  2.5033254  2.5033254
 4 3.8905589 -0.99682912 -0.99814231  0.9026019 1.6351057 1.6351057  4.5109065  4.5109065
 9 3.1711415  -1.0088362 -0.98696843 0.89215884 1.6351057 1.6351057  3.0720717  3.0720717
 4 3.1792055  -1.0085232 -0.98514465 0.89181386 1.6351057 1.6351057  3.0881998  3.0881998
 1 3.2657591  -1.0124506 -0.98031901 0.88731081 1.6351057 1.6351057  3.2613069  3.2613069
12 2.9251282  -1.0119748 -0.98153252 0.88763286 1.6351057 1.6351057  2.5800451  2.5800451
 1 3.6534349 -0.98937938  -1.0091515 0.91027599 1.6351057 1.6351057  4.0366584  4.0366584
 1 3.2851544  -0.9916059  -1.0067419 0.90791848 1.6351057 1.6351057  3.3000975  3.3000975
 9 3.7056849 -0.99369564  -1.0024568 0.90594045 1.6351057 1.6351057  4.1411584  4.1411584
 1 3.8669541 -0.98127908  -1.0250528 0.91988014 1.6351057 1.6351057  4.4636969  4.4636969
 2 4.5593165  -1.0096319 -0.99501799 0.88840838 1.6351057 1.6351057  5.8484218  5.8484218
 1 2.3249609 -0.98606076   -1.015791 0.91572947 1.6351057 1.6351057  1.3797105  1.3797105
 1 2.3948995 -0.98518114  -1.0168526 0.91654366 1.6351057 1.6351057  1.5195877  1.5195877
 1 1.9147558  -0.9916693  -1.0103989 0.90932501 1.6351057 1.6351057 0.55930029 0.55930029
 7 2.4068059 -0.98817532  -1.0158622 0.91323149 1.6351057 1.6351057  1.5434004  1.5434004
 1 2.3112248 -0.98699145  -1.0161112   0.914115 1.6351057 1.6351057  1.3522384  1.3522384
 6 4.3958143 -0.97950831  -1.0265363 0.92140513 1.6351057 1.6351057  5.5214173  5.5214173
 1 4.4816856 -0.97930984  -1.0267762 0.92158657 1.6351057 1.6351057  5.6931598  5.6931598
 1 3.8716823 -0.99944562  -1.0048599 0.89857257 1.6351057 1.6351057  4.4731532  4.4731532
 1 3.9247276  -1.0052705 -0.99161323 0.89233486 1.6351057 1.6351057   4.579244   4.579244
 2 2.3065265  -1.0056464 -0.99132996 0.89311029 1.6351057 1.6351057  1.3428416  1.3428416
13  2.029467  -1.0012767  -0.9982815 0.89767448 1.6351057 1.6351057 0.78872273 0.78872273
 1 2.1126233  -1.0002322  -0.9991999 0.89873175 1.6351057 1.6351057 0.95503525 0.95503525
 1 2.2408926 -0.99266456  -1.0092847 0.90702797 1.6351057 1.6351057  1.2115739  1.2115739
 2 2.6931107 -0.99355589   -1.009069  0.9055761 1.6351057 1.6351057  2.1160101  2.1160101
 4 2.3560466   -1.012913 -0.98479084 0.88685709 1.6351057 1.6351057  1.4418819  1.4418819
10 2.5424312 -0.99809023  -1.0026731  0.9035272 1.6351057 1.6351057   1.814651   1.814651
 3 1.8975068 -0.99752476  -1.0026321 0.90347776 1.6351057 1.6351057 0.52480228 0.52480228
 1 1.9216925 -0.99744494  -1.0027431 0.90360054 1.6351057 1.6351057 0.57317361 0.57317361
 4 2.8390303 -0.98643953   -1.018859 0.91489118 1.6351057 1.6351057  2.4078492  2.4078492
 4  2.987213 -0.98873681  -1.0157615 0.91344724 1.6351057 1.6351057  2.7042147  2.7042147
 4 3.1588213  -1.0112886 -0.99022821 0.88865525 1.6351057 1.6351057  3.0474313  3.0474313
 5 2.8757741  -1.0071233 -0.99433515 0.89342596 1.6351057 1.6351057  2.4813369  2.4813369
 5 3.0571332  -1.0138821 -0.98578388 0.88612655 1.6351057 1.6351057  2.8440551  2.8440551
 2 2.5582211  -1.0108267 -0.99013447 0.88848896 1.6351057 1.6351057  1.8462308  1.8462308
 1 2.9136724   -1.016117 -0.98318289 0.88308355 1.6351057 1.6351057  2.5571335  2.5571335
 1  2.597345  -1.0150226 -0.98369464 0.88425053 1.6351057 1.6351057  1.9244787  1.9244787
 2 2.2486481  -1.0042553 -0.99797227 0.89481338 1.6351057 1.6351057   1.227085   1.227085
 3 1.9346744  -1.0015487  -1.0003988 0.89790978 1.6351057 1.6351057 0.59913747 0.59913747
 5 2.0308442  -1.0010249   -1.001225 0.89829639 1.6351057 1.6351057 0.79147704 0.79147704
 2 2.5086739   -1.009481 -0.98989044 0.88875593 1.6351057 1.6351057  1.7471365  1.7471365
5 3.3628455  -1.0119936 -0.98739796 0.88561347 1.6351057 1.6351057  3.4554797  3.4554797
1 1.9779574 -0.99768635  -1.0008096 0.90206837 1.6351057 1.6351057 0.68570342 0.68570342
2 2.1968153 -0.99657958  -1.0020612 0.90297087 1.6351057 1.6351057  1.1234192  1.1234192
1 3.1416396  -1.0039537 -0.99870975 0.89413182 1.6351057 1.6351057  3.0130679  3.0130679
1 4.1722725  -1.0057126  -0.9989913 0.89226007 1.6351057 1.6351057  5.0743337  5.0743337
2 6.7437559  -1.0269895 -0.97215763 0.87024437 1.6351057 1.6351057    10.2173    10.2173
3 4.9104558  -1.0205803 -0.97151394 0.87688814 1.6351057 1.6351057  6.5507004  6.5507004
4 3.9448045  -1.0172726 -0.97401318 0.88146739 1.6351057 1.6351057  4.6193976  4.6193976
1 3.9734472  -1.0175871 -0.97362631  0.8811456 1.6351057 1.6351057   4.676683   4.676683
2 5.6877149   -1.020867 -0.98156586 0.87747026 1.6351057 1.6351057  8.1052185  8.1052185
2  2.256461  -1.0046966 -0.99742982 0.89519039 1.6351057 1.6351057  1.2427107  1.2427107
7 2.5411754  -1.0109309 -0.98998571 0.88816128 1.6351057 1.6351057  1.8121396  1.8121396
2 1.9849388 -0.99244361  -1.0072351 0.90866968 1.6351057 1.6351057 0.69966634 0.69966634
2 2.7709986 -0.99721284  -1.0000106 0.90439661 1.6351057 1.6351057  2.2717858  2.2717858
5 3.0361273  -1.0099063 -0.98957624 0.89081439 1.6351057 1.6351057  2.8020433  2.8020433
2  3.160942  -1.0088688 -0.98436159 0.89067598 1.6351057 1.6351057  3.0516726  3.0516726
2 3.5151935  -1.0062078  -0.9882175  0.8922437 1.6351057 1.6351057  3.7601756  3.7601756
9 3.6601193  -1.0032372 -0.99112044 0.89553157 1.6351057 1.6351057  4.0500274  4.0500274
1 3.0479401   -1.005179 -0.98974329 0.89361564 1.6351057 1.6351057  2.8256688  2.8256688
9 3.5742583  -1.0109731 -0.99008471 0.88961474 1.6351057 1.6351057  3.8783053  3.8783053
1 3.4110876  -1.0010395   -1.004462 0.89900961 1.6351057 1.6351057  3.5519639  3.5519639
2 3.3222075 -0.99721415  -1.0086066 0.90336727 1.6351057 1.6351057  3.3742037  3.3742037
6 3.3736814 -0.99868215  -1.0071443 0.90159935 1.6351057 1.6351057  3.4771515  3.4771515
3 2.8482015  -1.0168674 -0.98081319 0.88276509 1.6351057 1.6351057  2.4261918  2.4261918
2 1.8052442  -1.0038208 -0.99698114 0.89573875 1.6351057 1.6351057 0.34027715 0.34027715
2 3.0047966 -0.99705638  -1.0079332 0.90378889 1.6351057 1.6351057  2.7393819  2.7393819
7 3.8921388 -0.99414991  -1.0089281 0.90411379 1.6351057 1.6351057  4.5140663  4.5140663
2  3.670169  -0.9954495   -1.006903 0.90276514 1.6351057 1.6351057  4.0701266  4.0701266
3 2.7074335 -0.98347144  -1.0174534 0.91876288 1.6351057 1.6351057  2.1446557  2.1446557
4 2.6937307 -0.98357911  -1.0173727 0.91866557 1.6351057 1.6351057  2.1172501  2.1172501
2 4.4501295  -1.0129334 -0.98540565 0.88841769 1.6351057 1.6351057  5.6300478  5.6300478
2 4.2317551  -1.0140406 -0.98405081 0.88709471 1.6351057 1.6351057  5.1932989  5.1932989
8 3.9285221  -1.0152693 -0.98317671 0.88548737 1.6351057 1.6351057  4.5868329  4.5868329
1 4.1825114  -1.0190929 -0.97900766 0.88132415 1.6351057 1.6351057  5.0948116  5.0948116
3 4.1157023  -1.0189632 -0.97914745  0.8814258 1.6351057 1.6351057  4.9611932  4.9611932
8 4.1077301  -1.0189779   -0.979148 0.88139948 1.6351057 1.6351057   4.945249   4.945249
1 1.7553686 -0.99543938  -1.0060472 0.90470761 1.6351057 1.6351057 0.24052596 0.24052596
1 1.8139823 -0.99359588  -1.0083243 0.90701598 1.6351057 1.6351057 0.35775338 0.35775338
1 1.9517222 -0.99072863  -1.0112475 0.91004473 1.6351057 1.6351057 0.63323314 0.63323314
3 2.7762525 -0.99890317 -0.99710427 0.90217086 1.6351057 1.6351057  2.2822936  2.2822936
3 4.2736439 -0.99049082  -1.0047106   0.911641 1.6351057 1.6351057  5.2770764  5.2770764
2 6.0698313 -0.99263097 -0.99983667 0.90790082 1.6351057 1.6351057  8.8694513  8.8694513
3 7.3572844  -1.0011613 -0.99170517 0.89641272 1.6351057 1.6351057  11.444358  11.444358
1 2.8794614  -1.0161404 -0.97763274 0.88282519 1.6351057 1.6351057  2.4887115  2.4887115
3 3.3121271 -0.98398389  -1.0157504 0.91912954 1.6351057 1.6351057  3.3540428  3.3540428
4 4.4516442 -0.99995147  -1.0039735 0.90204368 1.6351057 1.6351057  5.6330772  5.6330772
3 4.2158058  -1.0041142  -0.9997808 0.89711761 1.6351057 1.6351057  5.1614002  5.1614002
4 5.9602432  -1.0216284 -0.98013906 0.87810952 1.6351057 1.6351057  8.6502751  8.6502751
2 5.1032827  -1.0065671 -0.99899451 0.89403237 1.6351057 1.6351057   6.936354   6.936354
8 7.2023197  -1.0386921 -0.94775829 0.85982909 1.6351057 1.6351057  11.134428  11.134428
4 6.3724605  -1.0348211 -0.95163925 0.86480753 1.6351057 1.6351057  9.4747098  9.4747098
1 2.7080669  -1.0143776 -0.97999015 0.88527597 1.6351057 1.6351057  2.1459225  2.1459225
2 2.8088666  -1.0124787  -0.9815522  0.8873589 1.6351057 1.6351057  2.3475218  2.3475218
4 3.8378815    -1.02178 -0.96954703 0.87761001 1.6351057 1.6351057  4.4055517  4.4055517
1 2.4687255 -0.98950268  -1.0092986 0.91153815 1.6351057 1.6351057  1.6672397  1.6672397
3 2.1163903 -0.99475533  -1.0058669 0.90479105 1.6351057 1.6351057 0.96256924 0.96256924
4 2.0060523  -1.0051804 -0.99257885 0.89381169 1.6351057 1.6351057 0.74189336 0.74189336
4 2.4281093 -0.99606175   -1.008094 0.90357469 1.6351057 1.6351057  1.5860073  1.5860073
1 2.6141995 -0.98966579  -1.0150903 0.91170596 1.6351057 1.6351057  1.9581876  1.9581876
7 2.7148064  -1.0014349  -1.0012555 0.89949359 1.6351057 1.6351057  2.1594014  2.1594014
 1 5.2425163   -1.008087 -0.99830546 0.89141075 1.6351057 1.6351057  7.2148212  7.2148212
 2 4.7637913  -1.0032018  -1.0039242 0.89591416 1.6351057 1.6351057  6.2573713  6.2573713
 1 4.4907775 -0.99708036  -1.0094018 0.90127684 1.6351057 1.6351057  5.7113438  5.7113438
 2 2.5062649 -0.98676146  -1.0130175 0.91496955 1.6351057 1.6351057  1.7423185  1.7423185
 1 2.0051461 -0.99442384  -1.0043238 0.90642183 1.6351057 1.6351057 0.74008085 0.74008085
 2 1.8460922  -0.9930611   -1.008734 0.90783192 1.6351057 1.6351057 0.42197304 0.42197304
 4 1.8484958 -0.99262409  -1.0091934 0.90821608 1.6351057 1.6351057 0.42678038 0.42678038
 6 3.7050699 -0.99466571  -1.0077955 0.90790717 1.6351057 1.6351057  4.1399286  4.1399286
 1 2.5980878 -0.98352866  -1.0192966 0.91855004 1.6351057 1.6351057  1.9259644  1.9259644
 2 2.5480846   -1.009191 -0.98580755 0.88979754 1.6351057 1.6351057  1.8259579  1.8259579
 6 2.7005897  -1.0066384 -0.98907915 0.89201084 1.6351057 1.6351057  2.1309681  2.1309681
 1  2.345478  -0.9948205  -1.0077777 0.90449715 1.6351057 1.6351057  1.4207448  1.4207448
 3 2.0543179 -0.99401192  -1.0085791 0.90582932 1.6351057 1.6351057 0.83842443 0.83842443
12 1.9793261 -0.99558215  -1.0067164 0.90412365 1.6351057 1.6351057 0.68844086 0.68844086
 1  2.688902  -1.0110406 -0.98819835 0.88707164 1.6351057 1.6351057  2.1075927  2.1075927
 4 2.5200822  -1.0150773 -0.98142024 0.88459786 1.6351057 1.6351057  1.7699531  1.7699531
 5 2.6369988  -1.0164659 -0.98021454 0.88308865 1.6351057 1.6351057  2.0037863  2.0037863
 1  2.660025  -1.0168934 -0.97986535 0.88257005 1.6351057 1.6351057  2.0498386  2.0498386
 2  2.517999  -1.0155823 -0.98002038 0.88328756 1.6351057 1.6351057  1.7657866  1.7657866
 3 3.8652947  -1.0133327 -0.98008638 0.88462125 1.6351057 1.6351057  4.4603781  4.4603781
 2 3.8006533  -1.0082938 -0.98558837 0.88992564 1.6351057 1.6351057  4.3310953  4.3310953
 3 2.0094174 -0.99899372  -0.9985188 0.90129727 1.6351057 1.6351057 0.74862341 0.74862341
12 2.1703781  -1.0047106 -0.99708468 0.89432391 1.6351057 1.6351057  1.0705449  1.0705449
 2 3.2726416 -0.98847935  -1.0159059 0.91405577 1.6351057 1.6351057  3.2750719  3.2750719
 2 3.5045218 -0.98149007  -1.0238813 0.91971066 1.6351057 1.6351057  3.7388324  3.7388324
 4 2.2554655 -0.98830084  -1.0150577 0.91262268 1.6351057 1.6351057  1.2407197  1.2407197
 5 3.7067029 -0.98021315  -1.0205832  0.9235565 1.6351057 1.6351057  4.1431945  4.1431945
 4 4.9362366 -0.99060802  -1.0175442 0.91122828 1.6351057 1.6351057   6.602262   6.602262
 6 3.4828119 -0.99981229  -1.0009234 0.90226562 1.6351057 1.6351057  3.6954125  3.6954125
 4 3.7127064  -1.0020092 -0.99752358 0.90005074 1.6351057 1.6351057  4.1552016  4.1552016
 6 2.8304616  -1.0045243 -0.99772686 0.89616125 1.6351057 1.6351057  2.3907118  2.3907118
 2 2.8156695   -1.004442 -0.99786122 0.89622392 1.6351057 1.6351057  2.3611277  2.3611277
 5 3.2111449  -1.0174751 -0.97627321 0.88248838 1.6351057 1.6351057  3.1520784  3.1520784
 1 4.8549095  -1.0076591 -0.98876588 0.89443408 1.6351057 1.6351057  6.4396078  6.4396078
 1  4.913669  -1.0152402 -0.98397344 0.88594315 1.6351057 1.6351057  6.5571268  6.5571268
 2 3.7950385  -1.0068893 -0.99485291 0.89430663 1.6351057 1.6351057  4.3198657  4.3198657
 1 3.6835525 -0.99829734 -0.99954104  0.9040479 1.6351057 1.6351057  4.0968937  4.0968937
 6 2.3709124  -1.0046462 -0.99149561 0.89585467 1.6351057 1.6351057  1.4716134  1.4716134
 1 2.8534615  -0.9952632  -1.0092559 0.90393313 1.6351057 1.6351057  2.4367117  2.4367117
 5 3.5380921 -0.99375122  -1.0116142 0.90517876 1.6351057 1.6351057  3.8059728  3.8059728
2 2.6055265  -1.0108403 -0.98728364 0.88730069 1.6351057 1.6351057  1.9408417  1.9408417
2 5.4100902 -0.99672479  -1.0069103 0.90058442 1.6351057 1.6351057   7.549969   7.549969
1 5.2238255  -0.9970336   -1.006145 0.90030046 1.6351057 1.6351057  7.1774397  7.1774397
5 5.4931381 -0.98634783  -1.0183003 0.91227408 1.6351057 1.6351057  7.7160648  7.7160648
6 4.0313095 -0.97808338  -1.0218529  0.9240921 1.6351057 1.6351057  4.7924078  4.7924078
2 4.8996683 -0.97859893   -1.020425 0.92283596 1.6351057 1.6351057  6.5291252  6.5291252
6 3.3693213 -0.98868607  -1.0140378 0.91067679 1.6351057 1.6351057  3.4684314  3.4684314
2 4.7250759 -0.99013187  -1.0098349 0.90844081 1.6351057 1.6351057  6.1799405  6.1799405
3 2.4468892  -1.0101451 -0.98473152 0.88928489 1.6351057 1.6351057  1.6235672  1.6235672
1 3.0437892 -0.99344669  -1.0050602  0.9088703 1.6351057 1.6351057  2.8173671  2.8173671
3 3.7134224 -0.98837304  -1.0086778 0.91422615 1.6351057 1.6351057  4.1566334  4.1566334
3 3.3861813 -0.99410807  -1.0026177 0.90802432 1.6351057 1.6351057  3.5021512  3.5021512
1 3.6148272 -0.98960043  -1.0077865 0.91306334 1.6351057 1.6351057   3.959443   3.959443
9 2.6179412  -0.9849818  -1.0153235 0.91703278 1.6351057 1.6351057   1.965671   1.965671
5 2.7221195 -0.98592616  -1.0134596 0.91601239 1.6351057 1.6351057  2.1740277  2.1740277
3 3.2138744  -1.0020154 -0.99225879 0.89856842 1.6351057 1.6351057  3.1575375  3.1575375
1 2.4961753 -0.98654305  -1.0134281 0.91491486 1.6351057 1.6351057  1.7221393  1.7221393
1 2.5483779 -0.98652236  -1.0132418 0.91493794 1.6351057 1.6351057  1.8265444  1.8265444
1 1.9988094 -0.99908681 -0.99844414  0.9011844 1.6351057 1.6351057 0.72740746 0.72740746
2 2.0719518 -0.99927796 -0.99808002 0.90123921 1.6351057 1.6351057 0.87369235 0.87369235
 5  2.869434 -0.99780241  -0.9979945  0.9032031 1.6351057 1.6351057  2.4686567  2.4686567
 4 7.0214472 -0.97733267  -1.0284868 0.92242731 1.6351057 1.6351057  10.772683  10.772683
 3 5.5828361    -1.02377 -0.96595026 0.87396741 1.6351057 1.6351057  7.8954608  7.8954608
 2 3.6645166  -1.0079848 -0.98608394 0.89029692 1.6351057 1.6351057  4.0588218  4.0588218
 1  5.354225  -1.0138512 -0.98052743 0.88304237 1.6351057 1.6351057  7.4382386  7.4382386
 1 3.1520366  -1.0108158 -0.98907555 0.88694937 1.6351057 1.6351057  3.0338618  3.0338618
 2 4.4988254  -1.0218762 -0.97559909 0.87557733 1.6351057 1.6351057  5.7274395  5.7274395
10 5.8479043  -1.0275691 -0.96900732 0.86974166 1.6351057 1.6351057  8.4255972  8.4255972
 1 7.5555828  -1.0376971 -0.95495974 0.86009131 1.6351057 1.6351057  11.840954  11.840954
 4 4.9417648  -1.0291433 -0.96622596  0.8690541 1.6351057 1.6351057  6.6133183  6.6133183
 8 4.8037607  -1.0291302 -0.96516142 0.86900804 1.6351057 1.6351057  6.3373101  6.3373101
 4 5.4026644  -1.0306816 -0.96053293 0.86724067 1.6351057 1.6351057  7.5351175  7.5351175
 1 5.7177793  -1.0075168 -0.99026587 0.88905484 1.6351057 1.6351057  8.1653473  8.1653473
 1 5.2594624   -1.003998 -0.99305587 0.89306627 1.6351057 1.6351057  7.2487135  7.2487135
 2 3.5118857  -1.0168174 -0.98001001 0.88082481 1.6351057 1.6351057  3.7535601  3.7535601
 3 3.0281319  -1.0144716 -0.98316587 0.88342713 1.6351057 1.6351057  2.7860526  2.7860526
 9 2.4940401  -1.0017562 -0.99579937 0.89702223 1.6351057 1.6351057  1.7178689  1.7178689
 8 3.2734995  -1.0188237 -0.97915341 0.87938866 1.6351057 1.6351057  3.2767877  3.2767877
 6 3.1572285  -1.0132648 -0.98698885 0.88677697 1.6351057 1.6351057  3.0442456  3.0442456
 2 2.0380062  -1.0062304 -0.99406033 0.89382209 1.6351057 1.6351057 0.80580104 0.80580104
 3 6.0012494 -0.99836847  -1.0109052  0.9018281 1.6351057 1.6351057  8.7322875  8.7322875
 4 5.9051834 -0.99881271  -1.0101272 0.90161273 1.6351057 1.6351057  8.5401555  8.5401555
 3 6.1442244 -0.97018649  -1.0367509 0.93236597 1.6351057 1.6351057  9.0182375  9.0182375
 6 4.4446207 -0.98232598  -1.0236532  0.9212495 1.6351057 1.6351057    5.61903    5.61903
 2 4.0647863  -1.0172346 -0.98273918 0.88290547 1.6351057 1.6351057  4.8593613  4.8593613
 6 4.1282766  -1.0243386  -0.9726382 0.87518321 1.6351057 1.6351057  4.9863419  4.9863419
 1 4.9854878  -1.0264985 -0.97170265 0.87261841 1.6351057 1.6351057  6.7007643  6.7007643
 4 5.1114969  -1.0133619 -0.98858475 0.88753724 1.6351057 1.6351057  6.9527825  6.9527825
 1 2.7994881  -1.0112146 -0.98986546 0.88847457 1.6351057 1.6351057   2.328765   2.328765
 3 2.7500576  -1.0054629 -0.99505919 0.89547139 1.6351057 1.6351057  2.2299038  2.2299038
 1 3.4791369  -1.0053073  -0.9949987 0.89618267 1.6351057 1.6351057  3.6880626  3.6880626
 3  3.474054  -1.0059113 -0.99420745  0.8955278 1.6351057 1.6351057  3.6778967  3.6778967
12 1.7179344 -0.99758124  -1.0021354 0.90297951 1.6351057 1.6351057 0.16565749 0.16565749
 2  1.760602  -0.9957717   -1.005972 0.90440189 1.6351057 1.6351057 0.25099272 0.25099272
 1 1.9518442 -0.99039269  -1.0110707  0.9106269 1.6351057 1.6351057 0.63347711 0.63347711
 3 2.0407991 -0.98924198  -1.0128305  0.9118997 1.6351057 1.6351057 0.81138684 0.81138684
 4  2.905856 -0.98906184  -1.0165728 0.91151841 1.6351057 1.6351057  2.5415007  2.5415007
 6 3.4106529 -0.99087866  -1.0157097 0.90921758 1.6351057 1.6351057  3.5510945  3.5510945
 1 3.2409188 -0.98955499  -1.0168992   0.911289 1.6351057 1.6351057  3.2116262  3.2116262
 2  3.189193 -0.98508399  -1.0209363 0.91632674 1.6351057 1.6351057  3.1081746  3.1081746
 1 4.0998282 -0.98425798  -1.0226624 0.91834534 1.6351057 1.6351057  4.9294452  4.9294452
 2  3.892905 -0.98081178  -1.0253668 0.92218702 1.6351057 1.6351057  4.5155987  4.5155987
 5 1.9273639  -1.0036543 -0.99482769 0.89680528 1.6351057 1.6351057 0.58451645 0.58451645
 1 2.2438776  -1.0003472  -1.0008925 0.90066506 1.6351057 1.6351057  1.2175439  1.2175439
 9 2.3168599 -0.98908111  -1.0147647 0.91166654 1.6351057 1.6351057  1.3635084  1.3635084
 3 1.8940359 -0.99204509  -1.0092102 0.90908778 1.6351057 1.6351057  0.5178604  0.5178604
 1 4.7644602  -1.0151967 -0.98658866 0.88520147 1.6351057 1.6351057   6.258709   6.258709
 2 3.6220451  -1.0070305 -0.99516815  0.8939013 1.6351057 1.6351057   3.973879   3.973879
 2 3.6062456  -1.0104015 -0.99298999   0.888233 1.6351057 1.6351057  3.9422799  3.9422799
11 2.9726276  -1.0174337 -0.97640758 0.88130794 1.6351057 1.6351057  2.6750439  2.6750439
 4 3.3191426  -1.0174972 -0.97493647 0.88157599 1.6351057 1.6351057   3.368074   3.368074
 1 2.2814487  -1.0050499 -0.99572403 0.89543487 1.6351057 1.6351057   1.292686   1.292686
 2 2.1257324  -1.0052122 -0.99583894 0.89492502 1.6351057 1.6351057  0.9812535  0.9812535
 6  5.006178 -0.97174221  -1.0287463 0.93304571 1.6351057 1.6351057  6.7421447  6.7421447
 7 2.4839162  -0.9950027  -1.0091388  0.9045707 1.6351057 1.6351057  1.6976212  1.6976212
 1 2.2802293 -0.99778827  -1.0056033 0.90160589 1.6351057 1.6351057  1.2902472  1.2902472
 4 3.4127349  -1.0020943  -1.0032372  0.8969854 1.6351057 1.6351057  3.5552585  3.5552585
 1 3.4302846  -1.0047549  -0.9999791 0.89412165 1.6351057 1.6351057  3.5903578  3.5903578
 5 2.3458305  -1.0030677 -0.99991959 0.89624164 1.6351057 1.6351057  1.4214496  1.4214496
 6 4.0286872  -1.0024206 -0.99888162 0.89501275 1.6351057 1.6351057  4.7871631  4.7871631
 4 3.1904106  -1.0185849 -0.97605001 0.87963869 1.6351057 1.6351057 3.1106098 3.1106098
 2 2.8379861   -1.015856   -0.983405 0.88296459 1.6351057 1.6351057 2.4057608 2.4057608
 6 2.5793939  -1.0099937 -0.99139705 0.88896695 1.6351057 1.6351057 1.8885765 1.8885765
 3 3.6265111  -1.0076137 -0.99668835  0.8919203 1.6351057 1.6351057 3.9828109 3.9828109
 1 4.0757453  -1.0087142  -0.9960162 0.89064204 1.6351057 1.6351057 4.8812793 4.8812793
 1 4.1044778   -1.009186 -0.99542832 0.89018218 1.6351057 1.6351057 4.9387443 4.9387443
 5 2.8867326 -0.99749602  -1.0077783 0.90227398 1.6351057 1.6351057 2.5032538 2.5032538
 2 3.1537971 -0.97969396  -1.0241686 0.92295939 1.6351057 1.6351057 3.0373829 3.0373829
 1 2.5111457 -0.98507651  -1.0165608  0.9171538 1.6351057 1.6351057   1.75208   1.75208
 2 3.5437083  -1.0086981 -0.99523337 0.89054606 1.6351057 1.6351057 3.8172053 3.8172053
 4  4.129826  -1.0255302 -0.96912047 0.87429555 1.6351057 1.6351057 4.9894407 4.9894407
 1  3.645097  -1.0056845 -0.99312543 0.89599354 1.6351057 1.6351057 4.0199826 4.0199826
 1  3.596782  -1.0072136 -0.99122035 0.89429515 1.6351057 1.6351057 3.9233526 3.9233526
11 4.0126868  -1.0054986 -0.99143092 0.89638371 1.6351057 1.6351057 4.7551623 4.7551623
 2 4.7584976 -0.99258267  -1.0093648 0.91084304 1.6351057 1.6351057 6.2467839 6.2467839
 3 4.1708025 -0.99834049  -1.0088992  0.9012033 1.6351057 1.6351057 5.0713936 5.0713936
 3 3.6037228  -1.0170536 -0.98335713 0.88236688 1.6351057 1.6351057 3.9372342 3.9372342
 1  4.162392  -1.0233466 -0.97186661 0.87438302 1.6351057 1.6351057 5.0545727 5.0545727
 1 2.3127604  -1.0110455 -0.98727908 0.88744759 1.6351057 1.6351057 1.3553095 1.3553095
 6 3.8257147  -1.0091627 -0.98590857 0.88859378 1.6351057 1.6351057 4.3812181 4.3812181
 2 1.9598109 -0.99720821  -1.0036426 0.90218312 1.6351057 1.6351057  0.64941057  0.64941057
 1 3.1203267 -0.98677658  -1.0161112 0.91315042 1.6351057 1.6351057   2.9704422   2.9704422
 3 3.9014682 -0.99013356  -1.0128183 0.90865261 1.6351057 1.6351057   4.5327252   4.5327252
 1 3.9937073   -0.985661  -1.0169504 0.91385982 1.6351057 1.6351057   4.7172032   4.7172032
 3   1.66966  -1.0008632 -0.99831139 0.89924749 1.6351057 1.6351057 0.069108598 0.069108598
 3 1.9685454 -0.99206471  -1.0107169 0.90869257 1.6351057 1.6351057  0.66687956  0.66687956
 4 2.6810728 -0.98486766  -1.0161027 0.91627806 1.6351057 1.6351057   2.0919343   2.0919343
 5 3.6863903  -1.0147838 -0.98386192 0.88584817 1.6351057 1.6351057   4.1025692   4.1025692
10 3.6227044  -1.0156346 -0.98308867 0.88480625 1.6351057 1.6351057   3.9751976   3.9751976
10  2.883217  -1.0102871  -0.9891935 0.89025357 1.6351057 1.6351057   2.4962227   2.4962227
 2 3.6201446   -1.022332 -0.97512172  0.8767678 1.6351057 1.6351057   3.9700778   3.9700778
 1 6.9983631  -1.0108722 -0.98308308 0.89167963 1.6351057 1.6351057   10.726515   10.726515
 4 7.4634916  -1.0364173 -0.95084547 0.86448139 1.6351057 1.6351057   11.656772   11.656772
 2 9.7517975   -1.009684 -0.98138609 0.89346998 1.6351057 1.6351057   16.233384   16.233384
 3 9.5239548  -1.0072213 -0.98424302 0.89604602 1.6351057 1.6351057   15.777698   15.777698
 1 5.2637858  -1.0302102 -0.96002661 0.86793986 1.6351057 1.6351057   7.2573602   7.2573602
 3  5.427257  -1.0320134 -0.95870638 0.86615154 1.6351057 1.6351057   7.5843027   7.5843027
 9  1.872527 -0.99987954 -0.99840605 0.90067071 1.6351057 1.6351057  0.47484272  0.47484272
 3 1.6600332   -1.002155 -0.99705317 0.89774774 1.6351057 1.6351057 0.049855113 0.049855113
 6 2.2073648  -1.0109323  -0.9866714 0.88897963 1.6351057 1.6351057   1.1445183   1.1445183
5 1.9909616  -1.0050313 -0.99434832 0.89534598 1.6351057 1.6351057 0.71171182 0.71171182
2 3.3407057  -1.0081208 -0.99048933 0.89312951 1.6351057 1.6351057  3.4112001  3.4112001
2 3.3436381  -1.0081631 -0.99057259 0.89307568 1.6351057 1.6351057  3.4170648  3.4170648
9 2.7774275  -1.0071518 -0.99182453 0.89379271 1.6351057 1.6351057  2.2846437  2.2846437
1 2.9516812    -1.00798 -0.99131485 0.89296273 1.6351057 1.6351057   2.633151   2.633151
8 2.6082596   -1.010817 -0.98788543 0.88951921 1.6351057 1.6351057  1.9463079  1.9463079
1 2.7300786 -0.99912228 -0.99836512 0.90242893 1.6351057 1.6351057  2.1899458  2.1899458
5 2.7792066  -0.9971501  -1.0001834  0.9045025 1.6351057 1.6351057  2.2882019  2.2882019
3 1.9606774  -1.0029702 -0.99705336 0.89595173 1.6351057 1.6351057 0.65114342 0.65114342
3 1.9959307 -0.99810589  -1.0028967 0.90113711 1.6351057 1.6351057 0.72165016 0.72165016
3 4.6247921  -1.0278659 -0.96202563 0.87144259 1.6351057 1.6351057  5.9793729  5.9793729
2 4.9171835  -1.0297428 -0.95962368 0.86943663 1.6351057 1.6351057  6.5641558  6.5641558
2  6.168162   -1.018358 -0.97605354 0.88340518 1.6351057 1.6351057  9.0661126  9.0661126
3 4.5399898  -1.0117504 -0.98999252 0.88914599 1.6351057 1.6351057  5.8097683  5.8097683
1 4.3444623  -1.0133592 -0.98893821  0.8842389 1.6351057 1.6351057  5.4187132  5.4187132
4 2.6651544 -0.99306159  -1.0106086 0.90631032 1.6351057 1.6351057  2.0600974  2.0600974
1  3.355579  -0.9917061   -1.011826 0.90723217 1.6351057 1.6351057  3.4409466  3.4409466
2 3.0514451 -0.99743593 -0.99789239 0.90284765 1.6351057 1.6351057  2.8326789  2.8326789
1 2.5524183  -1.0042417 -0.99091814 0.89587571 1.6351057 1.6351057  1.8346253  1.8346253
1 2.0738141 -0.99442477  -1.0040677 0.90647944 1.6351057 1.6351057 0.87741687 0.87741687
 2 2.0304929  -0.9947974  -1.0037702 0.90607935 1.6351057 1.6351057 0.79077458 0.79077458
 1 1.8096728  -1.0034743 -0.99499713 0.89582825 1.6351057 1.6351057 0.34913434 0.34913434
10 2.0690862 -0.99789922  -1.0052987 0.90204427 1.6351057 1.6351057 0.86796109 0.86796109
 8 1.7678673  -1.0053963 -0.99424318 0.89399376 1.6351057 1.6351057 0.26552325 0.26552325
15 1.7107245  -1.0047002  -0.9944965  0.8948768 1.6351057 1.6351057 0.15123761 0.15123761
 1 2.5489856  -1.0092464 -0.99231478 0.88967077 1.6351057 1.6351057  1.8277598  1.8277598
 1 2.4701165  -1.0072666 -0.99482285  0.8917815 1.6351057 1.6351057  1.6700217  1.6700217
 1  2.250871  -1.0061098 -0.99553776 0.89285254 1.6351057 1.6351057  1.2315307  1.2315307
 3   2.65731 -0.99972466 -0.99910044 0.90187825 1.6351057 1.6351057  2.0444086  2.0444086
 2 4.1724021  -1.0005409 -0.99477053 0.90152985 1.6351057 1.6351057  5.0745929  5.0745929
 1 2.6582747  -1.0143963 -0.98075584 0.88546922 1.6351057 1.6351057   2.046338   2.046338
 2 2.5627766  -1.0125933 -0.98421473  0.8875674 1.6351057 1.6351057  1.8553419  1.8553419
 4  2.534844  -1.0137588 -0.98206166 0.88612473 1.6351057 1.6351057  1.7994767  1.7994767
 3 2.5367438  -1.0137798 -0.98203595 0.88610313 1.6351057 1.6351057  1.8032762  1.8032762
 2 5.0779847 -0.97111825  -1.0352708 0.93274244 1.6351057 1.6351057  6.8857582  6.8857582
 5 5.2707552 -0.98476385  -1.0210055 0.91434652 1.6351057 1.6351057  7.2712991  7.2712991
 4 6.9317603 -0.97716364  -1.0270204 0.92263929 1.6351057 1.6351057  10.593309  10.593309
 1 4.4459195  -1.0190928 -0.97893625 0.87814733 1.6351057 1.6351057  5.6216277  5.6216277
 3 3.7636246  -1.0147427 -0.98713636 0.88360027 1.6351057 1.6351057  4.2570378  4.2570378
 5 3.6137774  -1.0084689 -0.99533324 0.89130467 1.6351057 1.6351057  3.9573435  3.9573435
 1 1.9197535  -1.0023261 -0.99863347 0.89677776 1.6351057 1.6351057 0.56929574 0.56929574
 1 2.5461468  -1.0064277 -0.99448447 0.89187496 1.6351057 1.6351057  1.8220822  1.8220822
10 2.9081044  -1.0151223 -0.98239193 0.88293317 1.6351057 1.6351057  2.5459975  2.5459975
 9 1.9376394 -0.99580668  -1.0069797 0.90424088 1.6351057 1.6351057 0.60506745 0.60506745
 3 1.7700509  -1.0012394  -1.0000965 0.89847859 1.6351057 1.6351057 0.26989053 0.26989053
 4 3.3881224  -0.9963528  -1.0013725 0.90592617 1.6351057 1.6351057  3.5060336  3.5060336
 1 2.8746868 -0.98110577  -1.0214872 0.92120233 1.6351057 1.6351057  2.4791622  2.4791622
 3 3.4507877 -0.97762502  -1.0242479 0.92514622 1.6351057 1.6351057   3.631364   3.631364
 3 2.5027905  -1.0123436 -0.98649509 0.88604493 1.6351057 1.6351057  1.7353697  1.7353697
 7 2.5721853 -0.99052229  -1.0114116 0.90917989 1.6351057 1.6351057  1.8741593  1.8741593
 3 2.4265776 -0.99132162  -1.0121602  0.9085514 1.6351057 1.6351057  1.5829438  1.5829438
 5 3.1691189  -1.0068513 -0.99145066    0.89444 1.6351057 1.6351057  3.0680265  3.0680265
 3 3.6197449 -0.99757598  -1.0020513 0.90487047 1.6351057 1.6351057  3.9692785  3.9692785
 4  3.336643 -0.99605066  -1.0100816 0.90349907 1.6351057 1.6351057  3.4030747  3.4030747
 2 3.3863313  -1.0200228  -0.9741781 0.87816608 1.6351057 1.6351057  3.5024513  3.5024513
 1 4.4214436 -0.99837864 -0.99520346 0.90113981 1.6351057 1.6351057  5.5726758  5.5726758
 1 4.1405728 -0.99414018  -1.0003985 0.90610918 1.6351057 1.6351057  5.0109344  5.0109344
 2 3.6597075 -0.98836485  -1.0124948 0.91098825 1.6351057 1.6351057  4.0492037  4.0492037
 3 6.1744966 -0.98505099  -1.0172948 0.91351704 1.6351057 1.6351057  9.0787818  9.0787818
 5 4.8694729 -0.99218583  -1.0113647 0.90583232 1.6351057 1.6351057  6.4687344  6.4687344
4 2.1989858  -0.9971525  -1.0044765 0.90197102 1.6351057 1.6351057  1.1277603  1.1277603
2 2.1112982  -0.9976715  -1.0038019 0.90149233 1.6351057 1.6351057 0.95238501 0.95238501
4 2.3341154  -0.9987282   -1.004171 0.90034085 1.6351057 1.6351057  1.3980195  1.3980195
8 2.2996097 -0.99533915  -1.0075775 0.90403455 1.6351057 1.6351057  1.3290081  1.3290081
3 1.8627802 -0.99552758  -1.0054657 0.90425876 1.6351057 1.6351057 0.45534905 0.45534905
1 1.7906397  -1.0065548 -0.99261754 0.89287661 1.6351057 1.6351057 0.31106807 0.31106807
3 1.8105796   -1.003045 -0.99707035 0.89720082 1.6351057 1.6351057 0.35094795 0.35094795
3 1.8040184  -1.0036309 -0.99519253 0.89661988 1.6351057 1.6351057 0.33782541 0.33782541
7 1.8113128  -1.0039154 -0.99477973 0.89630952 1.6351057 1.6351057 0.35241422 0.35241422
2 1.9717852  -1.0041868 -0.99390325 0.89625218 1.6351057 1.6351057 0.67335917 0.67335917
1 1.7623289 -0.99617815   -1.005276 0.90445991 1.6351057 1.6351057 0.25444639 0.25444639
3 1.9969622  -1.0032207 -0.99864775 0.89654041 1.6351057 1.6351057 0.72371315 0.72371315
3 2.1180922  -1.0054447 -0.99623554 0.89398861 1.6351057 1.6351057 0.96597306 0.96597306
8 2.3730241  -1.0007318 -0.99544043 0.89968083 1.6351057 1.6351057  1.4758369  1.4758369
2 4.2771236 -0.98440772  -1.0162314 0.91542044 1.6351057 1.6351057  5.2840359  5.2840359
2 4.0073901 -0.99324766   -1.006842 0.90517746 1.6351057 1.6351057  4.7445688  4.7445688
2 3.1723814  -1.0036443 -0.99641078 0.89418801 1.6351057 1.6351057  3.0745515  3.0745515
3 4.3452308  -1.0044142 -0.99797811 0.89285686 1.6351057 1.6351057  5.4202503  5.4202503
3 4.4461357  -1.0045078  -0.9980691 0.89273051 1.6351057 1.6351057  5.6220601  5.6220601
1 3.8361011  -1.0091665 -0.99000748 0.88811252 1.6351057 1.6351057  4.4019909  4.4019909
1 2.7543553  -1.0129628 -0.98763708 0.88614442 1.6351057 1.6351057  2.2384994  2.2384994
3 2.4292498 -0.98846234  -1.0141032 0.91361846 1.6351057 1.6351057  1.5882883  1.5882883
2  2.502256 -0.98837169  -1.0146922 0.91370721 1.6351057 1.6351057  1.7343007  1.7343007
2 2.8062827 -0.98646231  -1.0181853 0.91554685 1.6351057 1.6351057   2.342354   2.342354
1 1.9224832    -1.00163  -1.0002276 0.89840666 1.6351057 1.6351057 0.57475515 0.57475515
7 1.7350637 -0.99970383  -1.0017265 0.90018421 1.6351057 1.6351057 0.19991606 0.19991606
4 1.7259792  -1.0041746 -0.99553645 0.89568075 1.6351057 1.6351057 0.18174717 0.18174717
2 3.1178888  -1.0073025 -0.99628358 0.89204601 1.6351057 1.6351057  2.9655664  2.9655664
3 4.4868773  -1.0058016 -0.99783386 0.89541839 1.6351057 1.6351057  5.7035433  5.7035433
5 3.0415594 -0.98155579  -1.0204741 0.92146884 1.6351057 1.6351057  2.8129075  2.8129075
2 2.9345762  -1.0098748 -0.98767164 0.89095103 1.6351057 1.6351057  2.5989411  2.5989411
5 1.9655763  -1.0095583 -0.98871697 0.89001402 1.6351057 1.6351057 0.66094127 0.66094127
2  7.462058 -0.99254972  -1.0149367 0.91083746 1.6351057 1.6351057  11.653905  11.653905
1 8.9789706 -0.97615907  -1.0247079  0.9309592 1.6351057 1.6351057   14.68773   14.68773
3 6.2027644 -0.98494189  -1.0098033 0.91873167 1.6351057 1.6351057  9.1353176  9.1353176
1 6.9027497 -0.97441687  -1.0280654 0.93200402 1.6351057 1.6351057  10.535288  10.535288
1 6.8724327 -0.97433238  -1.0280556 0.93208489 1.6351057 1.6351057  10.474654  10.474654
3 5.5459284 -0.96864759   -1.037344 0.93624603 1.6351057 1.6351057  7.8216455  7.8216455
3 4.9039691 -0.97105578  -1.0343075  0.9334146 1.6351057 1.6351057  6.5377268  6.5377268
2 5.0704714 -0.97043938  -1.0351591 0.93410876 1.6351057 1.6351057  6.8707315  6.8707315
 1 5.6378477 -0.96865634  -1.0377154 0.93614037 1.6351057 1.6351057  8.005484  8.005484
 1 5.4849424 -0.97475367  -1.0300264 0.93056389 1.6351057 1.6351057 7.6996735 7.6996735
 2  5.322039 -0.98015664  -1.0253346 0.92439447 1.6351057 1.6351057 7.3738668 7.3738668
 5  5.157588  -0.9834207  -1.0213728 0.92083946 1.6351057 1.6351057 7.0449647 7.0449647
 2 7.2385276   -0.963503   -1.039653 0.94387808 1.6351057 1.6351057 11.206844 11.206844
 3 6.7696963 -0.97159318  -1.0254269 0.93346272 1.6351057 1.6351057 10.269181 10.269181
 1 5.3736216 -0.99438855  -1.0043126 0.90920277 1.6351057 1.6351057 7.4770318 7.4770318
 5 4.4029324  -0.9904528  -1.0058879 0.91249395 1.6351057 1.6351057 5.5356535 5.5356535
 1 4.5473993 -0.97447487  -1.0252762 0.92931406 1.6351057 1.6351057 5.8245873 5.8245873
 1  4.766659 -0.97895144  -1.0185324 0.92447049 1.6351057 1.6351057 6.2631068 6.2631068
 4 4.9987738 -0.97865196  -1.0187093 0.92509414 1.6351057 1.6351057 6.7273363 6.7273363
11 3.7291618 -0.97957606  -1.0197287 0.92316284 1.6351057 1.6351057 4.1881122 4.1881122
 4 3.4909286 -0.97721159  -1.0261081 0.92538494 1.6351057 1.6351057 3.7116459 3.7116459
 2 2.7665797 -0.99237521  -1.0047083 0.90843573 1.6351057 1.6351057 2.2629481 2.2629481
 4 2.8179529 -0.98530012  -1.0193727 0.91671515 1.6351057 1.6351057 2.3656945 2.3656945
 3 3.6386105 -0.97615434  -1.0264438 0.92715475 1.6351057 1.6351057 4.0070096 4.0070096
 4  3.236791 -0.98468476  -1.0177367  0.9156194 1.6351057 1.6351057 3.2033708 3.2033708
 1  3.850592 -0.98693878  -1.0160073 0.91241835 1.6351057 1.6351057 4.4309728 4.4309728
 1 3.0790042 -0.99274106  -1.0122908 0.90662497 1.6351057 1.6351057  2.887797  2.887797
 2 2.6607074  -1.0094507 -0.99051135 0.88869427 1.6351057 1.6351057 2.0512034 2.0512034
3 4.8703986  -1.0238317 -0.97076237 0.87347266 1.6351057 1.6351057  6.4705859  6.4705859
3 2.4782355  -1.0005713 -0.99813673 0.90080443 1.6351057 1.6351057  1.6862596  1.6862596
2  2.488461 -0.99671957  -1.0034577 0.90501833 1.6351057 1.6351057  1.7067107  1.7067107
2 2.5799626 -0.99977369   -1.000342 0.90175118 1.6351057 1.6351057  1.8897139  1.8897139
2 1.6979249   -1.002743 -0.99759367 0.89700644 1.6351057 1.6351057 0.12563845 0.12563845
3 1.8132531  -1.0040242 -0.99675397 0.89552129 1.6351057 1.6351057 0.35629479 0.35629479
3 1.7592873  -1.0043018 -0.99553266  0.8956298 1.6351057 1.6351057 0.24836336 0.24836336
2 2.3347663  -1.0004813  -1.0030619 0.89945325 1.6351057 1.6351057  1.3993213  1.3993213
8 2.2903485 -0.99940301  -1.0041723 0.90070504 1.6351057 1.6351057  1.3104857  1.3104857
1 2.5554891  -1.0015389  -1.0019624 0.89747303 1.6351057 1.6351057  1.8407668  1.8407668
1 2.5313587  -1.0050979 -0.99686355 0.89342941 1.6351057 1.6351057  1.7925062  1.7925062
1 3.5430996  -0.9878753   -1.009354 0.91456962 1.6351057 1.6351057  3.8159879  3.8159879
1 4.1923357  -0.9798046  -1.0185369 0.92250213 1.6351057 1.6351057  5.1144601  5.1144601
1 2.5691032 -0.99489099  -1.0019927 0.90565733 1.6351057 1.6351057   1.867995   1.867995
7 2.9364709 -0.99665196  -1.0024172 0.90542656 1.6351057 1.6351057  2.6027305  2.6027305
3 4.1475777   -1.020834 -0.97371872 0.87671244 1.6351057 1.6351057  5.0249441  5.0249441
3 4.1550435  -1.0201582 -0.97444936 0.87734211 1.6351057 1.6351057  5.0398757  5.0398757
3 3.9743312  -1.0055678 -0.98674427 0.89433993 1.6351057 1.6351057  4.6784512  4.6784512
3 4.5626187  -1.0017814 -0.99462422 0.89592407 1.6351057 1.6351057  5.8550261  5.8550261
3 4.8747983  -1.0034224 -0.99293984 0.89397764 1.6351057 1.6351057  6.4793852  6.4793852
5 3.2828766  -1.0178343 -0.97617084 0.88223536 1.6351057 1.6351057 3.2955418 3.2955418
1 5.0393974  -1.0207933 -0.96923509 0.87961102 1.6351057 1.6351057 6.8085835 6.8085835
1 4.7683068  -1.0211519 -0.96846964 0.87871588 1.6351057 1.6351057 6.2664023 6.2664023
6 5.4814251  -1.0242049 -0.96423904 0.87582149 1.6351057 1.6351057 7.6926389 7.6926389
9 3.6563825 -0.99353124  -1.0044288 0.90914959 1.6351057 1.6351057 4.0425537 4.0425537
2 3.7259273 -0.99002419   -1.010726 0.91318109 1.6351057 1.6351057 4.1816434 4.1816434
4 2.5574978 -0.99049273  -1.0113167 0.91172619 1.6351057 1.6351057 1.8447842 1.8447842
1 2.5212518 -0.99238689  -1.0091718 0.90967386 1.6351057 1.6351057 1.7722923 1.7722923
1  2.593203 -0.99243395  -1.0089763 0.90970351 1.6351057 1.6351057 1.9161947 1.9161947
2 2.6623525  -0.9965571 -0.99977793 0.90431981 1.6351057 1.6351057 2.0544937 2.0544937
5 2.7800564 -0.99912625  -1.0028585  0.9023776 1.6351057 1.6351057 2.2899015 2.2899015
5 2.5232766 -0.99033977  -1.0127044 0.91164231 1.6351057 1.6351057  1.776342  1.776342
1 2.8557921  -1.0164076 -0.97777154 0.88322962 1.6351057 1.6351057 2.4413729 2.4413729
1 3.1491205  -1.0186187 -0.97444545 0.88069471 1.6351057 1.6351057 3.0280298 3.0280298
1 6.9449446   -0.995789 -0.99574544 0.90657315 1.6351057 1.6351057 10.619678 10.619678
3 5.7002324 -0.98459039  -1.0102794 0.91675584 1.6351057 1.6351057 8.1302536 8.1302536
2 4.8646222 -0.98168216  -1.0146952 0.92078952 1.6351057 1.6351057  6.459033  6.459033
2 4.8471944 -0.97878769  -1.0202213 0.92570572 1.6351057 1.6351057 6.4241775 6.4241775
2 4.2484836 -0.98433879  -1.0191013 0.91953091 1.6351057 1.6351057  5.226756  5.226756
4 4.0999296  -1.0258769 -0.96771117 0.87392634 1.6351057 1.6351057 4.9296478 4.9296478
2 3.6272415   -1.022271 -0.96989164 0.87715564 1.6351057 1.6351057  3.9842716  3.9842716
1 3.1677109  -1.0169211 -0.97664855 0.88298145 1.6351057 1.6351057  3.0652104  3.0652104
7  2.735373  -0.9986457  -1.0061478 0.90100647 1.6351057 1.6351057  2.2005346  2.2005346
3 2.2148938  -1.0013689   -1.001697 0.89841497 1.6351057 1.6351057  1.1595762  1.1595762
4 1.9240022 -0.99433109  -1.0062565 0.90558621 1.6351057 1.6351057 0.57779308 0.57779308
6 3.5098878 -0.97953702  -1.0259205 0.92257585 1.6351057 1.6351057  3.7495643  3.7495643
6 2.6581995 -0.98862917  -1.0160125 0.91179911 1.6351057 1.6351057  2.0461876  2.0461876
2 2.5349105 -0.99502379  -1.0096757 0.90550625 1.6351057 1.6351057  1.7996096  1.7996096
5 2.5116667 -0.99477515  -1.0097956 0.90591085 1.6351057 1.6351057  1.7531222  1.7531222
4 3.1916191 -0.99325689  -1.0119859 0.90601628 1.6351057 1.6351057  3.1130268  3.1130268
2 4.5578096  -1.0299293 -0.96183971 0.86879073 1.6351057 1.6351057  5.8454079  5.8454079
8 2.1804367  -1.0090342 -0.98682385 0.89039106 1.6351057 1.6351057  1.0906621  1.0906621
4 2.3395935 -0.99663802  -1.0015763 0.90476932 1.6351057 1.6351057  1.4089757  1.4089757
2 2.5242283 -0.99997625 -0.99652893 0.90100578 1.6351057 1.6351057  1.7782453  1.7782453
1 2.0084668  -1.0001824 -0.99715202 0.90013525 1.6351057 1.6351057 0.74672219 0.74672219
1 2.0767614 -0.99281424  -1.0062957 0.90834247 1.6351057 1.6351057 0.88331158 0.88331158
1 2.8430066  -1.0010739  -1.0030584 0.89932847 1.6351057 1.6351057  2.4158018  2.4158018
1 3.0234413 -0.99815709  -1.0072551 0.90143207 1.6351057 1.6351057  2.7766713  2.7766713
3 2.9917445   -0.997767  -1.0076238 0.90182554 1.6351057 1.6351057  2.7132777  2.7132777
3 3.0376574  -1.0000138  -1.0051011 0.89935433 1.6351057 1.6351057  2.8051034  2.8051034
 4 3.1530219 -0.99902088   -1.006418 0.90032229 1.6351057 1.6351057  3.0358324  3.0358324
 3 2.1265721 -0.99383506  -1.0056524 0.90609724 1.6351057 1.6351057 0.98293293 0.98293293
 1 2.0712568 -0.99230502  -1.0078422 0.90788834 1.6351057 1.6351057 0.87230233 0.87230233
 3 1.7384717 -0.99885905  -1.0014702 0.90074775 1.6351057 1.6351057 0.20673203 0.20673203
 5 2.2928969  -1.0082652 -0.99196623  0.8917999 1.6351057 1.6351057  1.3155825  1.3155825
12 2.0651709 -0.99721677  -1.0050133 0.90370627 1.6351057 1.6351057 0.86013043 0.86013043
 1 2.0765941 -0.99746487  -1.0047951 0.90343421 1.6351057 1.6351057 0.88297697 0.88297697
 2  2.259674 -0.99605628  -1.0066932 0.90511211 1.6351057 1.6351057  1.2491368  1.2491368
 1 2.0136079  -1.0041475 -0.99256493 0.89570176 1.6351057 1.6351057 0.75700447 0.75700447
 1 2.1282153  -1.0099675 -0.98619671 0.88943442 1.6351057 1.6351057 0.98621922 0.98621922
 4 2.1880489  -1.0114012 -0.98475607 0.88810766 1.6351057 1.6351057  1.1058865  1.1058865
 1 2.1942752 -0.99289243  -1.0105041 0.90823473 1.6351057 1.6351057  1.1183392  1.1183392
 3 2.4454263 -0.99141974   -1.012532 0.90855797 1.6351057 1.6351057  1.6206413  1.6206413
 1 1.8713636  -1.0022476 -0.99936706  0.8973331 1.6351057 1.6351057 0.47251583 0.47251583
 1  2.669089 -0.98861366  -1.0099151  0.9125361 1.6351057 1.6351057  2.0679667  2.0679667
 3 3.1358776 -0.99471312  -1.0017197 0.90701126 1.6351057 1.6351057  3.0015439  3.0015439
 2 3.2200362 -0.99243036  -1.0043997 0.90955945 1.6351057 1.6351057  3.1698612  3.1698612
 3 3.1240196 -0.99285225  -1.0040455  0.9090601 1.6351057 1.6351057  2.9778279  2.9778279
 8 3.3638792 -0.99495974  -1.0010695 0.90683259 1.6351057 1.6351057  3.4575471  3.4575471
 3 3.5057533  -1.0026278 -0.99347408 0.89906282 1.6351057 1.6351057  3.7412953  3.7412953
 1 4.2070032 -0.99654159 -0.99910383 0.90582062 1.6351057 1.6351057  5.1437951  5.1437951
 1 4.3679399  -1.0078523 -0.98366172 0.89238958 1.6351057 1.6351057  5.4656685  5.4656685
 6 4.3769281  -1.0090282 -0.98232703 0.89118455 1.6351057 1.6351057  5.4836449  5.4836449
 2 2.4262104  -1.0131588 -0.98195647 0.88615847 1.6351057 1.6351057  1.5822096  1.5822096
 1 1.9618088  -1.0083071 -0.98877752 0.89137224 1.6351057 1.6351057 0.65340629 0.65340629
 1 1.9477347  -1.0083302 -0.98877193 0.89125634 1.6351057 1.6351057 0.62525814 0.62525814
 2 1.9554548  -1.0061949 -0.99070746 0.89359856 1.6351057 1.6351057 0.64069822 0.64069822
 2 2.1641657   -1.009447 -0.98680135 0.89037392 1.6351057 1.6351057  1.0581202  1.0581202
 3 1.9711507 -0.99064942  -1.0110222 0.91060489 1.6351057 1.6351057 0.67209011 0.67209011
 3 2.5361609 -0.98491084  -1.0186609 0.91692333 1.6351057 1.6351057  1.8021105  1.8021105
10 3.0371789 -0.98221501  -1.0226505 0.91964854 1.6351057 1.6351057  2.8041466  2.8041466
 7 3.1255166 -0.98251626  -1.0224783 0.91889856 1.6351057 1.6351057  2.9808219  2.9808219
 5 1.9219466  -0.9916778  -1.0105363 0.90927291 1.6351057 1.6351057 0.57368186 0.57368186
 3 3.5067496 -0.99004168  -1.0061592 0.91129949 1.6351057 1.6351057  3.7432879  3.7432879
 8 3.5294757  -0.9916725  -1.0041152  0.9097692 1.6351057 1.6351057    3.78874    3.78874
 2 3.7353434  -0.9882496  -1.0080569 0.91356841 1.6351057 1.6351057  4.2004754  4.2004754
