#weight  minuslogpost  log10_alpha    log10_rs         vw  minuslogprior  minuslogprior__0       chi2  chi2__lisa_likelihood
     10     5.1906536  -0.98939113  -1.0063723 0.91395388      1.6351057         1.6351057   7.111096               7.111096
     47     5.7079012  -0.98946717  -1.0038606 0.91238483      1.6351057         1.6351057  8.1455911              8.1455911
     49     2.6350358  -0.99075687  -1.0075214 0.90975794      1.6351057         1.6351057  1.9998602              1.9998602
    103     1.8700142  -0.99523387  -1.0038499 0.90527135      1.6351057         1.6351057 0.46981699             0.46981699
     60     1.7981818  -0.99633857  -1.0038013 0.90352568      1.6351057         1.6351057 0.32615221             0.32615221
     82     1.8128694  -0.99637907  -1.0055828 0.90356154      1.6351057         1.6351057  0.3555274              0.3555274
     22     1.8636271  -0.99673684  -1.0055484  0.9037634      1.6351057         1.6351057 0.45704289             0.45704289
     57     3.2067053   -0.9989126 -0.99660121 0.90045025      1.6351057         1.6351057  3.1431994              3.1431994
     13     3.4176259   -1.0008534  -1.0016739 0.90076117      1.6351057         1.6351057  3.5650406              3.5650406
     24     3.0071472   -1.0019449  -1.0027983 0.89776565      1.6351057         1.6351057  2.7440832              2.7440832
     14     2.6880926   -1.0016427  -1.0021903 0.89736264      1.6351057         1.6351057  2.1059739              2.1059739
     55     2.3572001   -1.0018041  -1.0015703 0.89782436      1.6351057         1.6351057  1.4441889              1.4441889
      6     2.1576244  -0.99816154 -0.99969471 0.90283216      1.6351057         1.6351057  1.0450375              1.0450375
     30     2.6619796  -0.99667234 -0.99981932 0.90334763      1.6351057         1.6351057  2.0537479              2.0537479
     27     2.1118362  -0.99539611  -1.0028658 0.90477693      1.6351057         1.6351057 0.95346108             0.95346108
     53     2.1105377  -0.99893446  -1.0007168 0.90014712      1.6351057         1.6351057   0.950864               0.950864
      3     1.9269367  -0.99975145  -1.0015414 0.90090846      1.6351057         1.6351057 0.58366205             0.58366205
      7       1.76311  -0.99959397  -1.0015598 0.90077736      1.6351057         1.6351057 0.25600863             0.25600863
     16     1.9395523  -0.99721017  -1.0016831 0.90254762      1.6351057         1.6351057 0.60889318             0.60889318
      6     3.7798862  -0.99701796  -1.0012674 0.90128422      1.6351057         1.6351057   4.289561               4.289561
 2 2.0788811 -0.99878278  -1.0017116 0.90233453 1.6351057 1.6351057  0.88755096  0.88755096
46 2.0639496 -0.99886787  -1.0016406 0.90222158 1.6351057 1.6351057  0.85768797  0.85768797
 6 1.9846531 -0.99876925  -1.0017085 0.90223243 1.6351057 1.6351057  0.69909481  0.69909481
86 1.6512683 -0.99906809  -1.0015998 0.90100419 1.6351057 1.6351057 0.032325322 0.032325322
74 1.6521864 -0.99907589  -1.0016101  0.9009899 1.6351057 1.6351057 0.034161437 0.034161437
 4  1.794841  -0.9997998  -1.0009149 0.90074771 1.6351057 1.6351057  0.31947076  0.31947076
14 3.4566416  -1.0006183 -0.99657821 0.89764882 1.6351057 1.6351057    3.643072    3.643072
 2 3.5929005  -1.0031526 -0.99187812 0.89537386 1.6351057 1.6351057   3.9155896   3.9155896
25 2.5330549  -1.0025894 -0.99289222 0.89713594 1.6351057 1.6351057   1.7958984   1.7958984
 9 3.9486424  -0.9951259  -1.0118971 0.90420234 1.6351057 1.6351057   4.6270734   4.6270734
30 3.8277909 -0.99491545  -1.0117911 0.90608502 1.6351057 1.6351057   4.3853704   4.3853704
 5 2.3511528 -0.99348756  -1.0090438 0.90813877 1.6351057 1.6351057   1.4320943   1.4320943
20 3.8585641 -0.99337474  -1.0117542  0.9087839 1.6351057 1.6351057   4.4469169   4.4469169
12 3.7463237 -0.99602894 -0.99871109  0.9054128 1.6351057 1.6351057   4.2224362   4.2224362
 5 3.5047161 -0.99603318 -0.99875845 0.90474429 1.6351057 1.6351057   3.7392208   3.7392208
21 3.5742777 -0.98977481  -1.0113605 0.90934001 1.6351057 1.6351057   3.8783441   3.8783441
74 6.7405809   -1.014616 -0.99151616 0.88444182 1.6351057 1.6351057    10.21095    10.21095
 7 6.0240845  -1.0140695  -0.9915165 0.88444666 1.6351057 1.6351057   8.7779577   8.7779577
17 1.7431333  -1.0048642 -0.99423168 0.89501723 1.6351057 1.6351057  0.21605524  0.21605524
39 1.9172138  -1.0026166 -0.99589003 0.89653355 1.6351057 1.6351057  0.56421632  0.56421632
 48 1.9684019  -1.0044729 -0.99630978 0.89563299 1.6351057 1.6351057 0.66659241 0.66659241
 30 1.7064219  -1.0037943 -0.99615395  0.8958551 1.6351057 1.6351057 0.14263251 0.14263251
  2 1.7929111  -1.0040431 -0.99659425 0.89550962 1.6351057 1.6351057 0.31561082 0.31561082
 10  2.770322  -1.0097692 -0.98963703 0.89076534 1.6351057 1.6351057  2.2704328  2.2704328
 26 3.0973565  -1.0096288  -0.9895235 0.89122489 1.6351057 1.6351057  2.9245016  2.9245016
 42 2.5914151  -1.0083241 -0.98676115 0.89191025 1.6351057 1.6351057  1.9126189  1.9126189
 56 2.9025092  -1.0077185 -0.98689704 0.89277113 1.6351057 1.6351057  2.5348071  2.5348071
 46 2.4867205  -1.0079147 -0.98865727 0.89059578 1.6351057 1.6351057  1.7032297  1.7032297
 45 2.3181219  -1.0077605  -0.9876223 0.89191183 1.6351057 1.6351057  1.3660324  1.3660324
 15 3.0724584  -1.0087956 -0.98897671  0.8922413 1.6351057 1.6351057  2.8747054  2.8747054
 15 2.5388435  -1.0092241 -0.99014034 0.89118187 1.6351057 1.6351057  1.8074757  1.8074757
  1 2.1595837  -1.0091319 -0.98998009 0.89085738 1.6351057 1.6351057  1.0489562  1.0489562
110  2.354349  -1.0093796 -0.99022934 0.89073203 1.6351057 1.6351057  1.4384866  1.4384866
  4 3.5277772  -1.0070537 -0.98979835 0.89442046 1.6351057 1.6351057  3.7853432  3.7853432
166 2.0378047  -1.0035221 -0.99317092 0.89641826 1.6351057 1.6351057 0.80539799 0.80539799
 12 2.2158337 -0.99949578 -0.99823145  0.8998576 1.6351057 1.6351057   1.161456   1.161456
 79  1.950222  -0.9907136  -1.0113469 0.91013637 1.6351057 1.6351057 0.63023268 0.63023268
 13  2.605247 -0.99225591  -1.0095641 0.90711735 1.6351057 1.6351057  1.9402827  1.9402827
  6  2.359307 -0.99121014  -1.0131439   0.909581 1.6351057 1.6351057  1.4484027  1.4484027
  8 2.5652279 -0.99188777  -1.0129055 0.90829276 1.6351057 1.6351057  1.8602445  1.8602445
11 2.3012908 -0.98935015  -1.0122806 0.91093962 1.6351057 1.6351057  1.3323703  1.3323703
26 6.2258113 -0.99503562  -1.0141969 0.90347151 1.6351057 1.6351057  9.1814113  9.1814113
31 2.9758537 -0.99319865  -1.0108239 0.90866081 1.6351057 1.6351057  2.6814961  2.6814961
 4 2.8045803 -0.99361712  -1.0093835  0.9083376 1.6351057 1.6351057  2.3389494  2.3389494
55 2.0016182  -0.9926313  -1.0067505 0.90832901 1.6351057 1.6351057 0.73302516 0.73302516
19 1.9938045 -0.99246752  -1.0070102 0.90832416 1.6351057 1.6351057 0.71739772 0.71739772
10 1.9997535 -0.99251874  -1.0069039 0.90827574 1.6351057 1.6351057 0.72929565 0.72929565
25 2.8590661 -0.99766143  -1.0042235 0.90410058 1.6351057 1.6351057   2.447921   2.447921
39 2.6386302 -0.99759781  -1.0035739 0.90410577 1.6351057 1.6351057   2.007049   2.007049
32 2.6460947 -0.99761176   -1.003571 0.90409502 1.6351057 1.6351057   2.021978   2.021978
 2 2.0320345 -0.99757752  -1.0036899 0.90350349 1.6351057 1.6351057 0.79385775 0.79385775
29 1.7240637 -0.99689504  -1.0037139 0.90375518 1.6351057 1.6351057 0.17791606 0.17791606
 7 2.9899829  -1.0127819 -0.98393195 0.88513607 1.6351057 1.6351057  2.7097545  2.7097545
 2 1.8404634  -1.0059913 -0.99201313  0.8932648 1.6351057 1.6351057 0.41071541 0.41071541
 4 1.8455855 -0.99297911  -1.0084161 0.90738812 1.6351057 1.6351057 0.42095962 0.42095962
 1 1.8600698 -0.99292239  -1.0085125 0.90740833 1.6351057 1.6351057 0.44992827 0.44992827
 8 1.7729403  -1.0007596 -0.99826562 0.89873849 1.6351057 1.6351057 0.27566921 0.27566921
 6 1.7772404 -0.99841186   -1.001077 0.90128381 1.6351057 1.6351057 0.28426951 0.28426951
 2 3.7009939 -0.99245048   -1.013695 0.90922754 1.6351057 1.6351057  4.1317765  4.1317765
 1 2.8306396  -1.0018436   -1.002075  0.8969908 1.6351057 1.6351057  2.3910679  2.3910679
 2  3.515665 -0.99503869  -1.0104875 0.90387047 1.6351057 1.6351057  3.7611187  3.7611187
 1 3.6973742 -0.99644764  -1.0080666 0.90190798 1.6351057 1.6351057  4.1245371  4.1245371
 1 3.4821367  -1.0134862 -0.98730412 0.88438319 1.6351057 1.6351057   3.694062   3.694062
 6 3.4201953    -1.00504  -0.9886317 0.89558619 1.6351057 1.6351057  3.5701792  3.5701792
 1 6.3445629 -0.99772322 -0.99358952  0.9020509 1.6351057 1.6351057  9.4189144  9.4189144
 1 6.6751473  -1.0006032  -0.9895608  0.8993134 1.6351057 1.6351057  10.080083  10.080083
 1 2.8223962  -1.0144499 -0.98073075 0.88390572 1.6351057 1.6351057  2.3745811  2.3745811
 6 2.3419146  -1.0035572 -0.99541706 0.89742177 1.6351057 1.6351057  1.4136178  1.4136178
 3 2.1684548  -1.0058125 -0.99562631 0.89404202 1.6351057 1.6351057  1.0666983  1.0666983
11   2.47958 -0.99269898  -1.0093299 0.90672423 1.6351057 1.6351057  1.6889487  1.6889487
 5 3.0226054  -1.0057443 -0.99482901 0.89212353 1.6351057 1.6351057  2.7749995  2.7749995
 1 3.0087109  -1.0042723 -0.99579614 0.89363519 1.6351057 1.6351057  2.7472105  2.7472105
 1 1.8891627  -1.0058728 -0.99161209 0.89344879 1.6351057 1.6351057 0.50811416 0.50811416
 4 1.8580784  -0.9924653  -1.0092578  0.9084612 1.6351057 1.6351057 0.44594543 0.44594543
 4 2.9441695  -1.0181893 -0.97714869 0.88020995 1.6351057 1.6351057  2.6181276  2.6181276
 1 4.6427628    -1.01557  -0.9781115 0.88563223 1.6351057 1.6351057  6.0153143  6.0153143
 1 5.4592687 -0.98956328   -1.004756 0.91324949 1.6351057 1.6351057  7.6483261  7.6483261
 2 3.8874405     -1.0177 -0.97421759 0.88066299 1.6351057 1.6351057  4.5046697  4.5046697
 8 3.7387715  -1.0080337 -0.98940049 0.88942499 1.6351057 1.6351057  4.2073317  4.2073317
 3 3.9639102  -1.0045377 -0.98802378 0.89578675 1.6351057 1.6351057  4.6576091  4.6576091
1 3.3370864  -1.0124087 -0.98075676 0.88781521 1.6351057 1.6351057  3.4039614  3.4039614
2 3.6255086   -1.012805  -0.9798544 0.88751548 1.6351057 1.6351057  3.9808059  3.9808059
3 3.4129798  -1.0146214 -0.97807503 0.88538471 1.6351057 1.6351057  3.5557484  3.5557484
4 2.9467083   -1.009562 -0.98472454 0.89077709 1.6351057 1.6351057  2.6232053  2.6232053
1 1.7252633  -1.0050416 -0.99426875 0.89460564 1.6351057 1.6351057 0.18031519 0.18031519
1   2.46338 -0.98561295  -1.0151134 0.91625602 1.6351057 1.6351057  1.6565486  1.6565486
4  2.520062 -0.98456979  -1.0180875 0.91755423 1.6351057 1.6351057  1.7699127  1.7699127
7 2.5032509 -0.98474818  -1.0178677 0.91736229 1.6351057 1.6351057  1.7362904  1.7362904
2 2.3014986 -0.99222446  -1.0067426 0.90937634 1.6351057 1.6351057  1.3327858  1.3327858
2  2.792024 -0.98960721   -1.009318 0.91066262 1.6351057 1.6351057  2.3138367  2.3138367
5 2.8708616 -0.98957114  -1.0093254 0.91062496 1.6351057 1.6351057  2.4715118  2.4715118
7 2.2712256 -0.99082095  -1.0081507  0.9100769 1.6351057 1.6351057  1.2722399  1.2722399
5 2.5125177 -0.99278026  -1.0055006 0.90732684 1.6351057 1.6351057  1.7548242  1.7548242
3 2.5057583 -0.99305415  -1.0051575 0.90702755 1.6351057 1.6351057  1.7413053  1.7413053
2 2.2305628 -0.99048536  -1.0118849 0.91124257 1.6351057 1.6351057  1.1909142  1.1909142
5 2.2743508 -0.99508983  -1.0088827  0.9054981 1.6351057 1.6351057  1.2784903  1.2784903
5 2.8998721  -1.0134692 -0.98154128 0.88678845 1.6351057 1.6351057  2.5295328  2.5295328
4 1.7954238  -0.9945317   -1.007188 0.90569445 1.6351057 1.6351057 0.32063626 0.32063626
6 1.7658307 -0.99390875  -1.0071744 0.90658014 1.6351057 1.6351057 0.26144999 0.26144999
6  1.765794 -0.99391385  -1.0071759 0.90657254 1.6351057 1.6351057 0.26137659 0.26137659
11 1.8322807  -0.9927884 -1.0080728 0.90776222 1.6351057 1.6351057 0.39435014 0.39435014
 5 2.9979631 -0.98336331 -1.0204412 0.91759959 1.6351057 1.6351057  2.7257148  2.7257148
 4 2.9042992 -0.98383674 -1.0204308 0.91724772 1.6351057 1.6351057  2.5383871  2.5383871
 4  3.238469 -0.98368454 -1.0218748 0.91740838 1.6351057 1.6351057  3.2067267  3.2067267
 3 3.1024504 -0.98548602 -1.0201243 0.91540843 1.6351057 1.6351057  2.9346895  2.9346895
 3 1.8724032  -0.9919073 -1.0097799 0.90876355 1.6351057 1.6351057 0.47459502 0.47459502
 1 1.8642452 -0.99189935 -1.0095331 0.90881174 1.6351057 1.6351057 0.45827901 0.45827901
 2  1.691102 -0.99637918 -1.0043151 0.90411794 1.6351057 1.6351057 0.11199277 0.11199277
 1 2.6677798 -0.99495663 -1.0099733  0.9048345 1.6351057 1.6351057  2.0653482  2.0653482
 3 2.6915005  -1.0017495 -1.0019195 0.89714541 1.6351057 1.6351057  2.1127896  2.1127896
 2 2.6933965 -0.99884044 -1.0054749 0.90166705 1.6351057 1.6351057  2.1165818  2.1165818
 5 2.7238592 -0.98761059 -1.0166261 0.91442416 1.6351057 1.6351057  2.1775071  2.1775071
 5 2.4537559  -0.9909032 -1.0124823 0.91084142 1.6351057 1.6351057  1.6373006  1.6373006
 3 3.4434999 -0.98062788  -1.025002 0.92126914 1.6351057 1.6351057  3.6167885  3.6167885
 2 3.1999954 -0.98190501 -1.0232995 0.91973471 1.6351057 1.6351057  3.1297795  3.1297795
 4 3.1101099 -0.99003962 -1.0104825 0.91273798 1.6351057 1.6351057  2.9500084  2.9500084
 2 3.0034877 -0.99412477 -1.0076464 0.90814849 1.6351057 1.6351057  2.7367641  2.7367641
 1 3.5143048 -0.98761988 -1.0155886 0.91546929 1.6351057 1.6351057  3.7583983  3.7583983
 1 3.5045435 -0.98750566 -1.0153499 0.91564071 1.6351057 1.6351057  3.7388758  3.7388758
 2 3.9456917 -0.99215106 -1.0106169 0.91080151 1.6351057 1.6351057   4.621172   4.621172
 5 3.9510374  -0.9922833  -1.0103566 0.91067639 1.6351057 1.6351057  4.6318636  4.6318636
 1 3.0087182  -1.0088161 -0.98490019  0.8903738 1.6351057 1.6351057   2.747225   2.747225
 5 2.8690237  -1.0137593 -0.98059623 0.88481843 1.6351057 1.6351057  2.4678362  2.4678362
 1 3.4286199 -0.99255013  -1.0056741 0.90671256 1.6351057 1.6351057  3.5870284  3.5870284
 1 3.2569606  -0.9922806  -1.0063798 0.90703823 1.6351057 1.6351057  3.2437098  3.2437098
 1 1.8141925  -1.0062126 -0.99298925 0.89299434 1.6351057 1.6351057 0.35817365 0.35817365
 1 1.8577066  -1.0070825 -0.99168844 0.89204156 1.6351057 1.6351057 0.44520195 0.44520195
 1 2.1882248  -1.0082967 -0.99099255  0.8902746 1.6351057 1.6351057  1.1062383  1.1062383
 2 2.2586841  -1.0106492 -0.98859341 0.88800445 1.6351057 1.6351057  1.2471569  1.2471569
 1  2.576022  -1.0003639  -1.0038272 0.89937891 1.6351057 1.6351057  1.8818327  1.8818327
 2 2.8813181 -0.99836126   -1.006724 0.90118022 1.6351057 1.6351057  2.4924249  2.4924249
11 2.7462655 -0.98618143  -1.0144047 0.91453169 1.6351057 1.6351057  2.2223197  2.2223197
 6 3.0004061 -0.99000706  -1.0080573 0.91223491 1.6351057 1.6351057   2.730601   2.730601
 2 2.6138136 -0.99733193  -1.0035089 0.90441454 1.6351057 1.6351057  1.9574159  1.9574159
 2 2.2049158  -1.0110807 -0.98724639 0.88872564 1.6351057 1.6351057  1.1396203  1.1396203
 2 2.3290285   -1.011769 -0.98612786 0.88816829 1.6351057 1.6351057  1.3878458  1.3878458
 3 3.1691025  -1.0160707 -0.98290196 0.88380183 1.6351057 1.6351057  3.0679936  3.0679936
 2 2.6033113  -1.0004685  -1.0030024  0.8984168 1.6351057 1.6351057  1.9364113  1.9364113
 5 2.9120721  -0.9813075  -1.0202014 0.92097539 1.6351057 1.6351057  2.5539329  2.5539329
 2 2.9748221 -0.98056408  -1.0213921 0.92183234 1.6351057 1.6351057  2.6794329  2.6794329
3 3.1808071 -0.97981116   -1.021447 0.92262418 1.6351057 1.6351057   3.0914029   3.0914029
2 2.9325444  -0.9911647  -1.0063625 0.91074894 1.6351057 1.6351057   2.5948775   2.5948775
2 2.2490517 -0.99052154  -1.0086101 0.91048738 1.6351057 1.6351057    1.227892    1.227892
2 1.7416726  -1.0000889 -0.99998957 0.90040128 1.6351057 1.6351057  0.21313394  0.21313394
2 1.7319518  -1.0000492 -0.99997838 0.90042537 1.6351057 1.6351057  0.19369237  0.19369237
1 1.6683477 -0.99817125  -1.0021397 0.90222251 1.6351057 1.6351057 0.066484096 0.066484096
1  4.708837  -0.9870052  -1.0215276 0.91468733 1.6351057 1.6351057   6.1474627   6.1474627
2 5.2879999 -0.99314543  -1.0161115 0.90719152 1.6351057 1.6351057   7.3057884   7.3057884
6 3.7793946  -1.0000365  -1.0062171 0.90009844 1.6351057 1.6351057   4.2885779   4.2885779
1 3.2477671 -0.99293799  -1.0116484 0.90899558 1.6351057 1.6351057   3.2253228   3.2253228
6 2.2392309   -1.002588 -0.99777554 0.89828767 1.6351057 1.6351057   1.2082505   1.2082505
4 2.6930923  -0.9910696  -1.0126471 0.90856135 1.6351057 1.6351057   2.1159732   2.1159732
2 2.5855351 -0.99122364  -1.0122405  0.9084568 1.6351057 1.6351057   1.9008589   1.9008589
5 2.9889636  -1.0067552  -0.9967119 0.89271869 1.6351057 1.6351057    2.707716    2.707716
3 2.0726909   -1.001581  -1.0003951 0.89877817 1.6351057 1.6351057   0.8751705   0.8751705
6 2.0871988  -1.0078426 -0.99218326 0.89099287 1.6351057 1.6351057  0.90418619  0.90418619
3 1.9864741  -1.0047188 -0.99497356 0.89411149 1.6351057 1.6351057  0.70273694  0.70273694
1 2.3957471  -1.0013383  -0.9976127 0.89729645 1.6351057 1.6351057   1.5212828   1.5212828
2 2.6067866 -0.98557914  -1.0146121 0.91581689 1.6351057 1.6351057   1.9433618   1.9433618
5 2.3114676   -0.998065  -1.0018097 0.90088534 1.6351057 1.6351057   1.3527239   1.3527239
3 1.7846572  -1.0066697   -0.992161 0.89280514 1.6351057 1.6351057  0.2991031  0.2991031
1 1.7612883  -1.0038904 -0.99639538 0.89552206 1.6351057 1.6351057 0.25236518 0.25236518
2 1.6994026   -1.001245 -0.99953139 0.89871802 1.6351057 1.6351057 0.12859381 0.12859381
7 2.0278952 -0.99248014  -1.0096548 0.90758699 1.6351057 1.6351057 0.78557904 0.78557904
1 4.5721863  -1.0211611 -0.97386271 0.87610631 1.6351057 1.6351057  5.8741612  5.8741612
4 4.1832269  -1.0166674  -0.9744122 0.88191525 1.6351057 1.6351057  5.0962426  5.0962426
4  4.919367  -1.0184084 -0.97164535 0.87988731 1.6351057 1.6351057  6.5685226  6.5685226
2 4.8747785   -1.017114 -0.97307776 0.88124264 1.6351057 1.6351057  6.4793457  6.4793457
1 2.4939278  -1.0022701 -0.99797709 0.89889933 1.6351057 1.6351057  1.7176443  1.7176443
3 2.2944838 -0.99812951   -1.005641  0.9015536 1.6351057 1.6351057  1.3187563  1.3187563
2 4.5862205  -1.0012648  -1.0055456  0.8972569 1.6351057 1.6351057  5.9022297  5.9022297
3  5.521534  -1.0138127 -0.98174917 0.88284477 1.6351057 1.6351057  7.7728566  7.7728566
9 3.3787296  -1.0140916 -0.97897035 0.88607993 1.6351057 1.6351057  3.4872478  3.4872478
3 2.3022539 -0.98742973  -1.0153505 0.91435674 1.6351057 1.6351057  1.3342964  1.3342964
4 3.3951736 -0.99218261  -1.0104085 0.90660858 1.6351057 1.6351057  3.5201359  3.5201359
1 5.4287058 -0.99740668 -0.99609283 0.90152147 1.6351057 1.6351057  7.5872004  7.5872004
1 5.0802674 -0.98781085  -1.0068088 0.91339423 1.6351057 1.6351057  6.8903234  6.8903234
2 4.8233668  -1.0133297  -0.9789037 0.88438748 1.6351057 1.6351057  6.3765223  6.3765223
2 3.2110131  -1.0039733 -0.99863924 0.89404604 1.6351057 1.6351057  3.1518149  3.1518149
8 3.3274293 -0.99836346  -1.0073314 0.90082247 1.6351057 1.6351057  3.3846473  3.3846473
 1 3.4191281  -1.0068565 -0.99308359 0.89070548 1.6351057 1.6351057  3.5680449  3.5680449
 4 2.8100006 -0.99716348   -1.003008 0.90145691 1.6351057 1.6351057  2.3497899  2.3497899
 5 2.6096803 -0.98652908   -1.017915 0.91449665 1.6351057 1.6351057  1.9491493  1.9491493
 2 2.0176386 -0.99120846  -1.0099212 0.91024826 1.6351057 1.6351057 0.76506597 0.76506597
11 2.0426613 -0.99279693  -1.0072291 0.90862597 1.6351057 1.6351057 0.81511133 0.81511133
 8 2.3663339 -0.98590376  -1.0171168  0.9155989 1.6351057 1.6351057  1.4624565  1.4624565
 1 2.9600481  -1.0180001  -0.9800686 0.88127927 1.6351057 1.6351057  2.6498849  2.6498849
11 3.2546197   -1.017597 -0.98183123 0.88163154 1.6351057 1.6351057  3.2390281  3.2390281
 2 1.8938988    -1.00571 -0.99231033 0.89441131 1.6351057 1.6351057 0.51758619 0.51758619
 5 1.9475062  -1.0030233 -0.99421203 0.89713454 1.6351057 1.6351057 0.62480109 0.62480109
 3 2.8978897  -1.0039817 -0.99040903 0.89598991 1.6351057 1.6351057  2.5255681  2.5255681
 3 2.9053587  -0.9841924  -1.0174726 0.91869696 1.6351057 1.6351057  2.5405061  2.5405061
 1 1.8900354 -0.99454787  -1.0058058 0.90659498 1.6351057 1.6351057 0.50985944 0.50985944
 2 1.8736991  -1.0069328 -0.99213881 0.89293099 1.6351057 1.6351057 0.47718686 0.47718686
 8 1.9058621  -1.0048248 -0.99613203 0.89454187 1.6351057 1.6351057 0.54151286 0.54151286
 2 5.3706695  -1.0114287 -0.99426433 0.88727229 1.6351057 1.6351057  7.4711277  7.4711277
15 5.3775242   -1.011265 -0.99449309 0.88764494 1.6351057 1.6351057  7.4848371  7.4848371
 1 3.7591983  -1.0097824 -0.99380063 0.88853953 1.6351057 1.6351057  4.2481853  4.2481853
 3  3.791498  -1.0097724 -0.99385329 0.88853231 1.6351057 1.6351057  4.3127847  4.3127847
13  3.845198   -1.004127  -1.0004239 0.89397701 1.6351057 1.6351057  4.4201846  4.4201846
 6 2.9057415 -0.99879888 -0.99829229 0.90015064 1.6351057 1.6351057  2.5412718  2.5412718
 8 2.9242884  -1.0002829 -0.99665162  0.8984836 1.6351057 1.6351057  2.5783655  2.5783655
 3 4.6704465   -1.014887 -0.97937719 0.88231898 1.6351057 1.6351057  6.0706816  6.0706816
 3 1.8654946  -1.0046453 -0.99337009 0.89552842 1.6351057 1.6351057 0.46077782 0.46077782
 4 2.9132365  -1.0171779 -0.98094648 0.88231835 1.6351057 1.6351057  2.5562617  2.5562617
 3 4.4034627  -1.0178527  -0.9822436 0.88238704 1.6351057 1.6351057  5.5367141  5.5367141
 8 3.8976737 -0.99462582  -1.0109752 0.90400963 1.6351057 1.6351057  4.5251361  4.5251361
11 2.0429933 -0.99477174  -1.0076077 0.90493573 1.6351057 1.6351057 0.81577534 0.81577534
 3 3.0223245 -0.98424456  -1.0199245 0.91649764 1.6351057 1.6351057  2.7744377  2.7744377
 4 3.3181777 -0.98525986  -1.0181958  0.9148374 1.6351057 1.6351057  3.3661441  3.3661441
 8 2.8255255 -0.99500981  -1.0076727 0.90687799 1.6351057 1.6351057  2.3808397  2.3808397
 6 3.5346699  -1.0029032 -0.99064203 0.89759845 1.6351057 1.6351057  3.7991286  3.7991286
 2 3.8592733  -1.0132645 -0.98159498 0.88776352 1.6351057 1.6351057  4.4483354  4.4483354
 4 5.1364351  -1.0324635 -0.95827007 0.86615365 1.6351057 1.6351057   7.002659   7.002659
 3 3.1730433  -1.0180819 -0.97522951 0.88057609 1.6351057 1.6351057  3.0758753  3.0758753
 1 3.3211796  -1.0175825 -0.97558558 0.88088434 1.6351057 1.6351057  3.3721479  3.3721479
 3 2.6855846 -0.98559573  -1.0141231 0.91595558 1.6351057 1.6351057  2.1009578  2.1009578
 9  2.537899 -0.98854366  -1.0155726 0.91317707 1.6351057 1.6351057  1.8055867  1.8055867
 1   2.49163 -0.99075324  -1.0131666 0.91084152 1.6351057 1.6351057  1.7130488  1.7130488
 2 1.7865284 -0.99541403  -1.0065339 0.90509363 1.6351057 1.6351057 0.30284541 0.30284541
 2 2.3373433 -0.99059595  -1.0135297 0.91050252 1.6351057 1.6351057 1.4044753 1.4044753
 2 3.4105206 -0.98814242  -1.0180624 0.91200406 1.6351057 1.6351057 3.5508299 3.5508299
 1 2.5405515 -0.99647252  -1.0058989 0.90243778 1.6351057 1.6351057 1.8108917 1.8108917
 5 2.7747903  -1.0023177 -0.99842064 0.89585941 1.6351057 1.6351057 2.2793693 2.2793693
 4 3.6116891  -1.0245294  -0.9686608 0.87440681 1.6351057 1.6351057 3.9531668 3.9531668
 1 5.6894473  -1.0318176 -0.95611271 0.86792406 1.6351057 1.6351057 8.1086832 8.1086832
 3 6.5983186  -1.0292737 -0.95663507 0.86980707 1.6351057 1.6351057 9.9264259 9.9264259
 4  7.425465  -1.0406597 -0.94977867 0.85977282 1.6351057 1.6351057 11.580719 11.580719
 2 7.1251964    -1.03775 -0.95271924 0.86293872 1.6351057 1.6351057 10.980181 10.980181
 1 5.5186542  -1.0321388 -0.95695629 0.86782072 1.6351057 1.6351057 7.7670971 7.7670971
 2 3.5328712  -1.0190644 -0.98038899 0.87995675 1.6351057 1.6351057 3.7955311 3.7955311
 5 2.3557265  -1.0091245 -0.98793072 0.88938018 1.6351057 1.6351057 1.4412416 1.4412416
 3 3.5500208  -1.0029493 -0.99768753 0.89469633 1.6351057 1.6351057 3.8298302 3.8298302
12 3.0450136 -0.99333152  -1.0072264 0.90560761 1.6351057 1.6351057  2.819816  2.819816
 6 3.1274954 -0.99602829  -1.0086696 0.90288076 1.6351057 1.6351057 2.9847795 2.9847795
 1 4.1817395  -1.0254735 -0.96792007 0.87449641 1.6351057 1.6351057 5.0932677 5.0932677
 1 6.1535671  -1.0153897 -0.98106883 0.88658492 1.6351057 1.6351057 9.0369228 9.0369228
 6  6.324803  -1.0115736 -0.98414209 0.89078541 1.6351057 1.6351057 9.3793946 9.3793946
 1 4.5934008  -1.0075361 -0.99013871 0.89447027 1.6351057 1.6351057 5.9165903 5.9165903
 3 3.2618536 -0.98990593  -1.0107084 0.91299884 1.6351057 1.6351057 3.2534958 3.2534958
4 4.2794972  -1.0048357 -0.98975873 0.89691941 1.6351057 1.6351057  5.288783  5.288783
3 3.6459908 -0.99154159  -1.0048452 0.91070526 1.6351057 1.6351057 4.0217703 4.0217703
1 6.5627099  -1.0144754 -0.97440882 0.88652304 1.6351057 1.6351057 9.8552085 9.8552085
1 6.9174942  -1.0185965 -0.97230398 0.88314914 1.6351057 1.6351057 10.564777 10.564777
1 6.2348859  -1.0226063 -0.96766776 0.87858228 1.6351057 1.6351057 9.1995604 9.1995604
1 5.2452365  -1.0172568 -0.97321158 0.88352785 1.6351057 1.6351057 7.2202616 7.2202616
3 5.5385145  -1.0078321 -0.99910012 0.89132172 1.6351057 1.6351057 7.8068176 7.8068176
1 3.3347636  -1.0023445   -1.002919 0.89705756 1.6351057 1.6351057 3.3993158 3.3993158
3 3.3563918 -0.98450512  -1.0216432 0.91746714 1.6351057 1.6351057 3.4425722 3.4425722
7 4.6142113 -0.98303377  -1.0134242 0.91893348 1.6351057 1.6351057 5.9582112 5.9582112
1 4.6069162 -0.98335862  -1.0129666 0.91867278 1.6351057 1.6351057 5.9436211 5.9436211
9  2.162035 -0.99292069  -1.0056867 0.90810539 1.6351057 1.6351057 1.0538586 1.0538586
2 3.5813721 -0.99502613  -1.0002136  0.9065151 1.6351057 1.6351057 3.8925329 3.8925329
1 3.6513109 -0.98868678  -1.0077273 0.91326616 1.6351057 1.6351057 4.0324106 4.0324106
1 3.1166478 -0.98819044   -1.009771 0.91407738 1.6351057 1.6351057 2.9630844 2.9630844
2 3.1877603 -0.98736942  -1.0105914 0.91493789 1.6351057 1.6351057 3.1053094 3.1053094
1 2.5932079  -0.9891695   -1.009293 0.91224983 1.6351057 1.6351057 1.9162045 1.9162045
2 2.5954227 -0.98916053  -1.0092979 0.91225374 1.6351057 1.6351057 1.9206341 1.9206341
1 2.8471719 -0.99011198  -1.0074198 0.91137166 1.6351057 1.6351057 2.4241325 2.4241325
5 2.1683347 -0.99120104  -1.0080021 0.90999673 1.6351057 1.6351057 1.0664581 1.0664581
 2 2.1254176 -0.99724196  -1.0005649 0.90363879 1.6351057 1.6351057  0.9806239  0.9806239
 2 2.0643669 -0.99753932  -1.0005555 0.90337061 1.6351057 1.6351057 0.85852242 0.85852242
 3 2.5008569  -1.0137283 -0.98555115 0.88526788 1.6351057 1.6351057  1.7315025  1.7315025
 2 3.1731101 -0.98598665  -1.0130902 0.91480327 1.6351057 1.6351057  3.0760088  3.0760088
 5  3.182502 -0.98677746  -1.0119143 0.91394155 1.6351057 1.6351057  3.0947926  3.0947926
 3 3.4093598 -0.98581595  -1.0133798 0.91470416 1.6351057 1.6351057  3.5485082  3.5485082
 5 3.2875597 -0.98917259  -1.0108277 0.91042078 1.6351057 1.6351057  3.3049081  3.3049081
 7 2.2753795 -0.99533027  -1.0044508 0.90405598 1.6351057 1.6351057  1.2805476  1.2805476
 4  2.201296 -0.99591933  -1.0039733 0.90343617 1.6351057 1.6351057  1.1323807  1.1323807
 7  3.208404  -1.0126787 -0.98220148 0.88538737 1.6351057 1.6351057  3.1465967  3.1465967
 3 2.6152654  -1.0062214 -0.98973808 0.89246914 1.6351057 1.6351057  1.9603194  1.9603194
 3 1.9802147 -0.99884763 -0.99883159 0.90125877 1.6351057 1.6351057 0.69021802 0.69021802
 1 2.2454185 -0.98929593  -1.0136052 0.91116396 1.6351057 1.6351057  1.2206256  1.2206256
 1 2.3411252 -0.99293992  -1.0098384 0.90665776 1.6351057 1.6351057   1.412039   1.412039
14 2.3618194 -0.99274569  -1.0100274 0.90685454 1.6351057 1.6351057  1.4534275  1.4534275
 2 4.4940387 -0.97721375   -1.024781 0.92413986 1.6351057 1.6351057  5.7178661  5.7178661
 1 2.4533216  -1.0131695 -0.98439954 0.88672348 1.6351057 1.6351057  1.6364318  1.6364318
11 2.5393856   -1.016521 -0.98035054  0.8825042 1.6351057 1.6351057  1.8085599  1.8085599
 4 2.5523138  -1.0132307  -0.9845559 0.88676377 1.6351057 1.6351057  1.8344164  1.8344164
 5 2.5158283  -1.0142277  -0.9841166 0.88535724 1.6351057 1.6351057  1.7614454  1.7614454
 1 1.8790936  -1.0013972 -0.99843219 0.89923065 1.6351057 1.6351057 0.48797594 0.48797594
 2 2.0407037  -1.0029389  -0.9948371 0.89765525 1.6351057 1.6351057 0.81119599 0.81119599
 9  2.675552 -0.98819289  -1.0163067 0.91358792 1.6351057 1.6351057  2.0808927  2.0808927
 6 3.0202456  -1.0096998   -0.991721 0.89050792 1.6351057 1.6351057  2.7702799  2.7702799
 8 5.5637385  -1.0101345 -0.99507864 0.89021595 1.6351057 1.6351057  7.8572656  7.8572656
 5 2.7848565  -1.0079712 -0.99472515 0.89125179 1.6351057 1.6351057  2.2995017  2.2995017
 5 5.7755536  -1.0327705 -0.96160453 0.86539812 1.6351057 1.6351057  8.2808958  8.2808958
 3 4.3378561  -1.0261896 -0.97065686 0.87281644 1.6351057 1.6351057  5.4055008  5.4055008
 2 4.5154074  -1.0169516 -0.98239463 0.88374346 1.6351057 1.6351057  5.7606036  5.7606036
 2 3.9812217  -1.0137957 -0.98542611 0.88706582 1.6351057 1.6351057   4.692232   4.692232
 2  5.770163  -1.0327044 -0.96170348  0.8671628 1.6351057 1.6351057  8.2701147  8.2701147
 3 5.0981469   -1.009623 -0.98846611  0.8923935 1.6351057 1.6351057  6.9260824  6.9260824
 2 4.9738044  -1.0095458 -0.98867915 0.89241746 1.6351057 1.6351057  6.6773975  6.6773975
10  4.100664  -1.0064262 -0.99064568 0.89543153 1.6351057 1.6351057  4.9311167  4.9311167
 6 5.0865615 -0.98920751  -1.0138031 0.91464223 1.6351057 1.6351057  6.9029117  6.9029117
 2 5.0613438 -0.99028836  -1.0126399 0.91343372 1.6351057 1.6351057  6.8524763  6.8524763
 1 4.4314635 -0.99438489  -1.0039295 0.90873348 1.6351057 1.6351057  5.5927157  5.5927157
 5 4.5268282  -1.0135313 -0.98505102 0.88776164 1.6351057 1.6351057  5.7834451  5.7834451
 2 4.3568973  -1.0140143 -0.98366161 0.88722939 1.6351057 1.6351057  5.4435834  5.4435834
 1 3.3898722  -1.0033259 -0.99052981 0.89730346 1.6351057 1.6351057   3.509533   3.509533
 6 4.6979096 -0.97486181  -1.0244465  0.9291978 1.6351057 1.6351057  6.1256078  6.1256078
 3 4.9973864 -0.97229442  -1.0275135 0.93198354 1.6351057 1.6351057  6.7245615  6.7245615
 2 5.3744053  -1.0092545 -0.98112989 0.89145687 1.6351057 1.6351057  7.4785992  7.4785992
 1  7.010046  -1.0100554 -0.97834111 0.89070318 1.6351057 1.6351057  10.749881  10.749881
 1 6.4378286  -1.0153909 -0.97266966  0.8833021 1.6351057 1.6351057  9.6054458  9.6054458
 6 6.7887007  -1.0172589 -0.97093716 0.88073797 1.6351057 1.6351057   10.30719   10.30719
 2 3.7937067 -0.99293301  -1.0021429 0.90844375 1.6351057 1.6351057  4.3172021  4.3172021
 6 3.1495519  -1.0012614 -0.99406792 0.89995968 1.6351057 1.6351057  3.0288924  3.0288924
 1 2.0182789  -1.0055815  -0.9922551 0.89334805 1.6351057 1.6351057 0.76634655 0.76634655
 4 2.1811778  -1.0071045 -0.99070423 0.89153721 1.6351057 1.6351057  1.0921442  1.0921442
 4 3.2844665 -0.98133822  -1.0237131  0.9213003 1.6351057 1.6351057  3.2987217  3.2987217
 1 3.1566131 -0.98149145  -1.0234867 0.92080389 1.6351057 1.6351057  3.0430149  3.0430149
 4 2.2743145 -0.98925137  -1.0105255 0.91165762 1.6351057 1.6351057  1.2784177  1.2784177
 1 2.0790378 -0.99229902  -1.0068839 0.90841885 1.6351057 1.6351057  0.8878643  0.8878643
 1 3.3315972 -0.99673452  -1.0019282 0.90180183 1.6351057 1.6351057  3.3929831  3.3929831
 4 2.5239493 -0.99892357  -1.0012474 0.89971957 1.6351057 1.6351057  1.7776872  1.7776872
 2 2.5206596 -0.99710798  -1.0022172 0.90185283 1.6351057 1.6351057  1.7711079  1.7711079
14  2.766167 -0.98455103   -1.015709 0.91786192 1.6351057 1.6351057  2.2621226  2.2621226
 3 2.6136524 -0.99095909  -1.0097705   0.911329 1.6351057 1.6351057  1.9570934  1.9570934
 1 2.7820608 -0.99385764  -1.0057975 0.90834546 1.6351057 1.6351057  2.2939102  2.2939102
 1 3.3731737 -0.99798415  -1.0080882 0.90162121 1.6351057 1.6351057  3.4761361  3.4761361
 1 3.2858237  -1.0045284 -0.99811745 0.89344068 1.6351057 1.6351057  3.3014361  3.3014361
 6 3.2704082  -1.0004185  -1.0028318 0.89775919 1.6351057 1.6351057  3.2706051  3.2706051
 3 3.2814336  -1.0008383  -1.0024267 0.89731856 1.6351057 1.6351057  3.2926558  3.2926558
 5 2.5081745 -0.99268531  -1.0099734 0.90674642 1.6351057 1.6351057  1.7461377  1.7461377
 2 2.1369537 -0.99329722  -1.0102972 0.90744929 1.6351057 1.6351057  1.0036962  1.0036962
12 4.3375177 -0.99986164  -1.0070222  0.8989422 1.6351057 1.6351057   5.404824   5.404824
 2 4.0855779 -0.98758264  -1.0201928 0.91382056 1.6351057 1.6351057  4.9009444  4.9009444
 2 2.4219501 -0.99476856  -1.0027382 0.90642354 1.6351057 1.6351057  1.5736888  1.5736888
 7 2.6182378  -1.0054657 -0.99023372 0.89341241 1.6351057 1.6351057  1.9662643  1.9662643
 2 3.2763988  -1.0186022 -0.97406739 0.88079677 1.6351057 1.6351057  3.2825864  3.2825864
 4 2.0080189 -0.99712358  -1.0055864 0.90347501 1.6351057 1.6351057 0.74582657 0.74582657
 2 2.0409986 -0.99694559  -1.0059069 0.90366979 1.6351057 1.6351057 0.81178583 0.81178583
 3 2.1619779  -1.0072534 -0.99213315 0.89302631 1.6351057 1.6351057  1.0537444  1.0537444
 2 2.0085467 -0.99424254  -1.0051525 0.90698261 1.6351057 1.6351057 0.74688202 0.74688202
 3 1.9381094  -1.0022322 -0.99720139 0.89677655 1.6351057 1.6351057 0.60600756 0.60600756
 5 2.0159313  -1.0077529 -0.99055002 0.89106353 1.6351057 1.6351057 0.76165132 0.76165132
 1 2.2317975   -1.010491 -0.98776305 0.88808445 1.6351057 1.6351057  1.1933836  1.1933836
 7 2.3495274 -0.99109513  -1.0103098 0.90876311 1.6351057 1.6351057  1.4288435  1.4288435
 8 2.1971913 -0.99501353   -1.008443 0.90475137 1.6351057 1.6351057  1.1241712  1.1241712
4 2.4067316 -0.99170037  -1.0125134 0.90844863 1.6351057 1.6351057   1.5432518   1.5432518
1 2.2636915  -1.0040064 -0.99471952 0.89685135 1.6351057 1.6351057   1.2571717   1.2571717
1 2.1257395  -1.0101325 -0.98616653 0.88946229 1.6351057 1.6351057  0.98126777  0.98126777
1  1.701728  -1.0042688 -0.99524472 0.89536633 1.6351057 1.6351057  0.13324463  0.13324463
7   2.25689 -0.99876385 -0.99980565 0.90037931 1.6351057 1.6351057   1.2435687   1.2435687
2 1.6773534  -1.0011808 -0.99928201 0.89885983 1.6351057 1.6351057 0.084495567 0.084495567
1 2.6619289   -1.014238 -0.98289885 0.88402244 1.6351057 1.6351057   2.0536465   2.0536465
1 4.8145545   -1.027428 -0.96351343 0.87268781 1.6351057 1.6351057   6.3588976   6.3588976
2 3.5124643  -1.0020615 -0.99766422  0.8998707 1.6351057 1.6351057   3.7547174   3.7547174
7 2.0183982  -1.0037102 -0.99654024 0.89676603 1.6351057 1.6351057  0.76658506  0.76658506
2 1.9311672  -1.0037022 -0.99729956 0.89639271 1.6351057 1.6351057  0.59212302  0.59212302
7 2.2918289 -0.98701594  -1.0146895 0.91400114 1.6351057 1.6351057   1.3134465   1.3134465
1 2.7135415 -0.98527911  -1.0169545 0.91545905 1.6351057 1.6351057   2.1568718   2.1568718
4 2.2850542 -0.99429661   -1.004982 0.90537844 1.6351057 1.6351057    1.299897    1.299897
4 2.7709901 -0.99613838 -0.99998933  0.9046375 1.6351057 1.6351057   2.2717689   2.2717689
8 2.1432201  -1.0028458 -0.99364214 0.89732624 1.6351057 1.6351057   1.0162288   1.0162288
1 2.2724716  -1.0050364 -0.99089817 0.89437185 1.6351057 1.6351057   1.2747319   1.2747319
1  2.286168    -1.00477 -0.99114002  0.8946709 1.6351057 1.6351057   1.3021248   1.3021248
8 2.3869008  -1.0005171 -0.99693442 0.89856592 1.6351057 1.6351057   1.5035903   1.5035903
2 4.8116581 -0.98733367   -1.013222 0.91673213 1.6351057 1.6351057   6.3531049   6.3531049
1 4.6264278 -0.98888208  -1.0131602 0.91487998 1.6351057 1.6351057 5.9826443 5.9826443
2 5.8020759  -0.9981033  -1.0034588 0.90517186 1.6351057 1.6351057 8.3339405 8.3339405
2 4.4567904  -1.0008491  -1.0004449 0.90155746 1.6351057 1.6351057 5.6433694 5.6433694
1 4.8812198  -1.0043576 -0.99541189 0.89800248 1.6351057 1.6351057 6.4922282 6.4922282
6 4.6073756  -1.0068917 -0.99286786 0.89506729 1.6351057 1.6351057 5.9445399 5.9445399
6  3.265899  -1.0122129 -0.98472525 0.88861273 1.6351057 1.6351057 3.2615867 3.2615867
1 3.2455108  -1.0163186 -0.97626118 0.88303016 1.6351057 1.6351057 3.2208103 3.2208103
2 4.6715028  -1.0164508 -0.97511441 0.88430401 1.6351057 1.6351057 6.0727943 6.0727943
3 3.9877912  -1.0003949 -0.99568629 0.90173717 1.6351057 1.6351057 4.7053711 4.7053711
2 3.9973726  -1.0004148 -0.99566232 0.90172124 1.6351057 1.6351057 4.7245339 4.7245339
2  4.325715 -0.99814637 -0.99746576 0.90421435 1.6351057 1.6351057 5.3812186 5.3812186
2 4.5161965  -1.0010797 -0.99304273 0.90083945 1.6351057 1.6351057 5.7621816 5.7621816
1  2.137216  -1.0116242 -0.98623065 0.88727044 1.6351057 1.6351057 1.0042207 1.0042207
2 8.4030342  -1.0370363 -0.95453378 0.86012378 1.6351057 1.6351057 13.535857 13.535857
1 8.9869021  -1.0378069 -0.95797087 0.86279277 1.6351057 1.6351057 14.703593 14.703593
1 4.8107865  -1.0303334 -0.96330871 0.86927466 1.6351057 1.6351057 6.3513617 6.3513617
2 4.5341811  -1.0279021 -0.96648863 0.87188317 1.6351057 1.6351057  5.798151  5.798151
3  4.360026  -1.0267564 -0.96828626 0.87297729 1.6351057 1.6351057 5.4498407 5.4498407
3 4.3967944  -1.0276191 -0.96740458 0.87190039 1.6351057 1.6351057 5.5233775 5.5233775
3 4.3704348  -1.0274194 -0.96765285 0.87211442 1.6351057 1.6351057 5.4706582 5.4706582
 6 4.3757681  -1.0274326 -0.96762365 0.87211033 1.6351057 1.6351057  5.4813248  5.4813248
 3 4.4606907  -1.0280693 -0.96695777  0.8713794 1.6351057 1.6351057  5.6511701  5.6511701
11 3.0709542  -1.0189498  -0.9753441 0.88073463 1.6351057 1.6351057   2.871697   2.871697
 2 2.9989643  -1.0180103 -0.97617472 0.88167549 1.6351057 1.6351057  2.7277172  2.7277172
 8 2.9254062   -1.001167  -1.0010908 0.90011753 1.6351057 1.6351057   2.580601   2.580601
 2 1.8397455  -0.9943882  -1.0078209 0.90625546 1.6351057 1.6351057 0.40927964 0.40927964
17 2.7350131  -1.0137527 -0.98473733 0.88443861 1.6351057 1.6351057  2.1998148  2.1998148
 1 1.6756097 -0.99909982  -1.0018791 0.90084435 1.6351057 1.6351057 0.08100817 0.08100817
 2 2.9877479 -0.99550885  -1.0091926  0.9035862 1.6351057 1.6351057  2.7052845  2.7052845
 1  3.651468  -1.0066121  -0.9965426 0.89125337 1.6351057 1.6351057  4.0327247  4.0327247
 1  2.569545  -1.0097267 -0.99144804 0.88893632 1.6351057 1.6351057  1.8688787  1.8688787
 1 2.4441873  -1.0088364 -0.99248707 0.89001672 1.6351057 1.6351057  1.6181634  1.6181634
 4 2.5954282  -1.0084011 -0.99350525 0.89041875 1.6351057 1.6351057  1.9206452  1.9206452
12 2.5010795  -1.0054467 -0.99669278 0.89321087 1.6351057 1.6351057  1.7319478  1.7319478
 4 2.6669382 -0.99069732  -1.0078633 0.90961015 1.6351057 1.6351057  2.0636651  2.0636651
 1 1.8417209 -0.99647432  -1.0055309 0.90337381 1.6351057 1.6351057 0.41323054 0.41323054
 3 7.3193811 -0.98151791  -1.0257687  0.9173911 1.6351057 1.6351057  11.368551  11.368551
 3 3.6178189  -1.0166553 -0.97909388 0.88096049 1.6351057 1.6351057  3.9654265  3.9654265
 3  2.226608 -0.99699591  -1.0061006 0.90384918 1.6351057 1.6351057  1.1830047  1.1830047
 3 3.1052312 -0.98512495  -1.0197005 0.91733287 1.6351057 1.6351057   2.940251   2.940251
7 2.9989311  -1.0115284 -0.98754082 0.88899689 1.6351057 1.6351057 2.7276509 2.7276509
2 3.3938134  -1.0133514 -0.98534418 0.88727291 1.6351057 1.6351057 3.5174156 3.5174156
5 2.7806774   -1.016046 -0.98156724 0.88370889 1.6351057 1.6351057 2.2911435 2.2911435
6 2.7787329  -1.0157743 -0.98181485 0.88404559 1.6351057 1.6351057 2.2872544 2.2872544
1 4.1610754  -1.0223863  -0.9693658 0.87577453 1.6351057 1.6351057 5.0519395 5.0519395
9 4.2651707  -1.0229309 -0.96885147 0.87514021 1.6351057 1.6351057   5.26013   5.26013
1 4.6618917  -1.0188179 -0.98307387 0.87981628 1.6351057 1.6351057 6.0535721 6.0535721
2 4.9312113  -1.0193229 -0.98267632 0.87902872 1.6351057 1.6351057 6.5922112 6.5922112
3  4.950101  -1.0134198 -0.99003756 0.88669221 1.6351057 1.6351057 6.6299907 6.6299907
1 7.3328699  -1.0235715 -0.97867641 0.87641949 1.6351057 1.6351057 11.395528 11.395528
5 5.6561828  -1.0299624 -0.96118565 0.87059831 1.6351057 1.6351057 8.0421542 8.0421542
1 6.5215883  -1.0365183 -0.95072131 0.86361574 1.6351057 1.6351057 9.7729652 9.7729652
4  6.923526   -1.040263 -0.94713587 0.85864551 1.6351057 1.6351057 10.576841 10.576841
7 7.4457251  -1.0429367  -0.9444431 0.85614455 1.6351057 1.6351057 11.621239 11.621239
3 7.3475301 -0.98607909  -1.0072179  0.9176135 1.6351057 1.6351057 11.424849 11.424849
3 8.4078867 -0.99521773  -1.0056503 0.90935552 1.6351057 1.6351057 13.545562 13.545562
3 9.1363436 -0.95941522  -1.0469003 0.94901537 1.6351057 1.6351057 15.002476 15.002476
1 8.1729612 -0.98239148  -1.0190634 0.92364349 1.6351057 1.6351057 13.075711 13.075711
1 6.8121245 -0.98151362  -1.0206171 0.92407462 1.6351057 1.6351057 10.354038 10.354038
2 4.1263914 -0.99715037  -1.0037839 0.90555002 1.6351057 1.6351057 4.9825715 4.9825715
 1 2.6451119 -0.98674029  -1.0139409 0.91572361 1.6351057 1.6351057   2.0200125   2.0200125
 8 2.7542648 -0.98542015  -1.0194049 0.91595741 1.6351057 1.6351057   2.2383183   2.2383183
 2 2.6425499 -0.98455803   -1.019541 0.91708176 1.6351057 1.6351057   2.0148885   2.0148885
10 2.0238447  -1.0009486 -0.99622296 0.89934541 1.6351057 1.6351057  0.77747809  0.77747809
 2 2.4205476  -0.9946354  -1.0033322 0.90530279 1.6351057 1.6351057   1.5708838   1.5708838
14 2.4208252 -0.99474652  -1.0031834 0.90518419 1.6351057 1.6351057   1.5714391   1.5714391
 4 1.6441899 -0.99845459  -1.0018354  0.9016324 1.6351057 1.6351057 0.018168497 0.018168497
 5 1.9612206  -1.0081341 -0.99137978 0.89152677 1.6351057 1.6351057  0.65222992  0.65222992
 5 2.1170751  -1.0106732 -0.98856747 0.88856348 1.6351057 1.6351057  0.96393889  0.96393889
 1 4.1031205 -0.98822163   -1.009713 0.91506479 1.6351057 1.6351057   4.9360297   4.9360297
 2 3.9173127 -0.97846792  -1.0212087 0.92507583 1.6351057 1.6351057   4.5644141   4.5644141
 2 3.8912973 -0.97627866  -1.0283286 0.92736735 1.6351057 1.6351057   4.5123833   4.5123833
 4 3.0539836 -0.99339371  -1.0074029 0.90550725 1.6351057 1.6351057   2.8377559   2.8377559
 1  3.607143  -1.0017428 -0.99778221 0.89598749 1.6351057 1.6351057   3.9440747   3.9440747
 1 2.8698938 -0.99991747 -0.99923597 0.89846107 1.6351057 1.6351057   2.4695762   2.4695762
10 2.7105765  -0.9979409  -1.0062934 0.90118093 1.6351057 1.6351057   2.1509416   2.1509416
 6 2.4857513 -0.99709317  -1.0055849 0.90185518 1.6351057 1.6351057   1.7012913   1.7012913
 6 1.9188986 -0.99774757  -1.0048615 0.90215404 1.6351057 1.6351057  0.56758591  0.56758591
 3 1.6918103 -0.99957814  -1.0007154 0.90008694 1.6351057 1.6351057  0.11340923  0.11340923
 4 1.9062204  -0.9911514  -1.0103864 0.90967161 1.6351057 1.6351057  0.54222948  0.54222948
11  1.913519 -0.99105813  -1.0104981 0.90975372 1.6351057 1.6351057 0.55682669 0.55682669
 9 1.8647436 -0.99347218  -1.0063476 0.90725902 1.6351057 1.6351057 0.45927584 0.45927584
 1 2.5617042 -0.99392318  -1.0033564 0.90730623 1.6351057 1.6351057   1.853197   1.853197
 3 2.2941811  -0.9931598  -1.0048965 0.90776821 1.6351057 1.6351057  1.3181509  1.3181509
 2 2.3191206 -0.98691151   -1.013742  0.9146007 1.6351057 1.6351057    1.36803    1.36803
 1 4.8197877  -0.9955564  -1.0037652 0.90769292 1.6351057 1.6351057  6.3693642  6.3693642
 2 3.5007985 -0.99879788  -1.0017857 0.90341482 1.6351057 1.6351057  3.7313858  3.7313858
 1 3.4466239  -1.0056556 -0.99262454 0.89592771 1.6351057 1.6351057  3.6230365  3.6230365
 2 3.4283638  -1.0051083 -0.99309017 0.89651825 1.6351057 1.6351057  3.5865162  3.5865162
 3 3.6167908 -0.99871976  -1.0016947 0.90357974 1.6351057 1.6351057  3.9633704  3.9633704
 5 3.6355643 -0.99907837  -1.0014351 0.90318597 1.6351057 1.6351057  4.0009173  4.0009173
 1 3.1959147  -0.9886447  -1.0126992 0.91430285 1.6351057 1.6351057  3.1216181  3.1216181
 3 4.1657935 -0.98654857  -1.0151263 0.91722028 1.6351057 1.6351057  5.0613758  5.0613758
 2 7.1388127 -0.98087615  -1.0191112 0.92491418 1.6351057 1.6351057  11.007414  11.007414
 3 3.7191357 -0.97800818   -1.022592 0.92553477 1.6351057 1.6351057  4.1680601  4.1680601
 1 3.2099362 -0.99440206  -1.0015427 0.90582418 1.6351057 1.6351057  3.1496611  3.1496611
 2 3.5304771  -1.0126161 -0.97976453 0.88736661 1.6351057 1.6351057  3.7907428  3.7907428
 8 3.0213772  -1.0193438 -0.97449763 0.87993884 1.6351057 1.6351057   2.772543   2.772543
 2 2.8812156  -1.0186893 -0.97569112 0.88025162 1.6351057 1.6351057    2.49222    2.49222
 1 2.8875246  -1.0173239 -0.97653218 0.88170062 1.6351057 1.6351057  2.5048379  2.5048379
5 2.7321022   -1.014643 -0.97940562 0.88457411 1.6351057 1.6351057  2.1939931  2.1939931
1 2.8138972  -1.0154978 -0.97839032 0.88355772 1.6351057 1.6351057  2.3575831  2.3575831
2  1.990901  -1.0030881 -0.99383551 0.89688794 1.6351057 1.6351057 0.71159066 0.71159066
2 2.9877291  -1.0089955 -0.99337443  0.8908126 1.6351057 1.6351057  2.7052469  2.7052469
4 2.4628159  -1.0083116 -0.98702519 0.89069852 1.6351057 1.6351057  1.6554204  1.6554204
2  1.952074   -1.000995 -0.99637545 0.89896848 1.6351057 1.6351057  0.6339366  0.6339366
2 2.0415396 -0.99490736  -1.0037852 0.90613112 1.6351057 1.6351057 0.81286789 0.81286789
3 2.2016477 -0.99152233  -1.0094142 0.90848533 1.6351057 1.6351057  1.1330841  1.1330841
1 2.1994892 -0.99333864  -1.0074633 0.90632901 1.6351057 1.6351057  1.1287672  1.1287672
2 1.7853571  -1.0028363 -0.99517334 0.89683801 1.6351057 1.6351057 0.30050291 0.30050291
2 2.0295743 -0.99650758  -1.0015963 0.90371447 1.6351057 1.6351057 0.78893736 0.78893736
7 2.5842071 -0.98835935  -1.0146632 0.91179319 1.6351057 1.6351057  1.8982029  1.8982029
1 5.0617617  -1.0165785 -0.98518118   0.880724 1.6351057 1.6351057  6.8533122  6.8533122
2 4.8973388  -1.0242355 -0.97260173 0.87319177 1.6351057 1.6351057  6.5244663  6.5244663
1 4.4718028 -0.99832907 -0.99604253 0.90063139 1.6351057 1.6351057  5.6733943  5.6733943
3 4.5264713 -0.99957645 -0.99369569  0.8997826 1.6351057 1.6351057  5.7827314  5.7827314
2 5.5688916  -1.0003874 -0.99275016  0.8980786 1.6351057 1.6351057  7.8675718  7.8675718
3 3.5474833  -1.0014039  -0.9932128 0.89764246 1.6351057 1.6351057  3.8247552  3.8247552
2 3.5382122 -0.98628965  -1.0152976 0.91347889 1.6351057 1.6351057  3.8062131  3.8062131
3 3.3965619 -0.97835169  -1.0235777  0.9239882 1.6351057 1.6351057  3.5229125  3.5229125
 4  3.459223 -0.97745984  -1.0246184 0.92531107 1.6351057 1.6351057  3.6482346  3.6482346
 3 2.7199567 -0.98438678  -1.0157593 0.91753941 1.6351057 1.6351057  2.1697021  2.1697021
10 2.5278588 -0.98559583   -1.014854 0.91640433 1.6351057 1.6351057  1.7855062  1.7855062
 2 3.1072515 -0.97947946   -1.023437 0.92294489 1.6351057 1.6351057  2.9442916  2.9442916
 2 3.0132087  -0.9840142   -1.015397 0.91837985 1.6351057 1.6351057  2.7562061  2.7562061
 5 3.0217804 -0.99329866  -1.0058422 0.90909447 1.6351057 1.6351057  2.7733495  2.7733495
 1 2.0560639  -1.0073048 -0.99339295 0.89191104 1.6351057 1.6351057 0.84191658 0.84191658
 1 2.1383737  -1.0068292 -0.99160931 0.89179713 1.6351057 1.6351057  1.0065361  1.0065361
 3 2.3532889 -0.98793346  -1.0148031  0.9126434 1.6351057 1.6351057  1.4363665  1.4363665
 1 2.2031128 -0.99304608  -1.0055032 0.90746333 1.6351057 1.6351057  1.1360143  1.1360143
 2 2.6298255 -0.99225901  -1.0062007 0.90773027 1.6351057 1.6351057  1.9894397  1.9894397
 3 2.4193694 -0.99370319  -1.0044963 0.90635002 1.6351057 1.6351057  1.5685275  1.5685275
 5 4.2096698 -0.98154032  -1.0228472 0.91875083 1.6351057 1.6351057  5.1491283  5.1491283
 1 2.7165042 -0.98939009  -1.0103355 0.91073789 1.6351057 1.6351057  2.1627971  2.1627971
 6 3.6106901 -0.97983663  -1.0225802 0.92145747 1.6351057 1.6351057  3.9511689  3.9511689
 2 5.7088465 -0.98197522  -1.0241402 0.91746888 1.6351057 1.6351057  8.1474816  8.1474816
 7 5.7180895  -0.9818066  -1.0244407 0.91768391 1.6351057 1.6351057  8.1659676  8.1659676
 2 4.3479207 -0.98759817   -1.016645 0.91138854 1.6351057 1.6351057    5.42563    5.42563
 1 4.2181256 -0.98818382  -1.0161467 0.91079127 1.6351057 1.6351057  5.1660398  5.1660398
 5 2.6100742 -0.99795662  -1.0034341 0.90068791 1.6351057 1.6351057  1.9499371  1.9499371
 3 3.5015673  -1.0003608  -1.0007699 0.89748302 1.6351057 1.6351057  3.7329232  3.7329232
 8 2.3078139 -0.99027621  -1.0116559 0.90978069 1.6351057 1.6351057  1.3454165  1.3454165
10 2.4659521  -1.0114861 -0.98445179 0.88860079 1.6351057 1.6351057  1.6616929  1.6616929
 1 1.7752058  -1.0001846  -0.9990168 0.89933367 1.6351057 1.6351057 0.28020038 0.28020038
 1 1.9669463  -1.0006781 -0.99697058 0.89897758 1.6351057 1.6351057 0.66368137 0.66368137
 1 2.8227902  -1.0189929 -0.97614323  0.8800558 1.6351057 1.6351057   2.375369   2.375369
 1 2.7120621  -1.0152606 -0.98062456 0.88467041 1.6351057 1.6351057  2.1539129  2.1539129
 3 3.2477787  -1.0169551 -0.97765494 0.88113066 1.6351057 1.6351057   3.225346   3.225346
 1 3.4159121  -1.0226069 -0.97196884 0.87586554 1.6351057 1.6351057  3.5616129  3.5616129
 4  3.640356  -1.0231261   -0.969101  0.8757665 1.6351057 1.6351057  4.0105007  4.0105007
 1  2.670161  -1.0167778 -0.98092132 0.88202777 1.6351057 1.6351057  2.0701106  2.0701106
 3 3.1973207  -1.0193323 -0.97875729 0.87925837 1.6351057 1.6351057    3.12443    3.12443
 1 2.4728391 -0.99656642   -1.004276 0.90234686 1.6351057 1.6351057  1.6754668  1.6754668
 1 2.3438654 -0.98732827  -1.0132166 0.91378149 1.6351057 1.6351057  1.4175195  1.4175195
 6 2.4198992 -0.98545121  -1.0165124 0.91584024 1.6351057 1.6351057   1.569587   1.569587
 3 3.2044036 -0.98330769  -1.0180715 0.91751556 1.6351057 1.6351057  3.1385959  3.1385959
 6  1.856958 -0.99676076  -1.0034085 0.90422136 1.6351057 1.6351057 0.44370463 0.44370463
 6 2.2308069  -1.0063334  -0.9936636 0.89219289 1.6351057 1.6351057  1.1914024  1.1914024
12 2.0242099   -1.004789 -0.99565104  0.8940574 1.6351057 1.6351057  0.7782084  0.7782084
 1 1.7693113 -0.99993651 -0.99870443 0.90044465 1.6351057 1.6351057  0.2684112  0.2684112
2 1.7841554 -0.99921564 -0.99933572 0.90075244 1.6351057 1.6351057 0.29809942 0.29809942
9 1.8429998 -0.99327062  -1.0071363 0.90717769 1.6351057 1.6351057 0.41578834 0.41578834
5 2.7789727 -0.98793524  -1.0106546 0.91314676 1.6351057 1.6351057   2.287734   2.287734
2 2.8571763 -0.98693536  -1.0119571 0.91414151 1.6351057 1.6351057  2.4441412  2.4441412
2 3.4717281 -0.98055781  -1.0196992 0.92124371 1.6351057 1.6351057  3.6732449  3.6732449
3 5.8784161 -0.97888368  -1.0169909 0.92379176 1.6351057 1.6351057  8.4866208  8.4866208
1 5.4204849  -1.0124528 -0.97903019 0.88887016 1.6351057 1.6351057  7.5707585  7.5707585
7 5.2400813  -1.0070733  -0.9862821 0.89483577 1.6351057 1.6351057  7.2099513  7.2099513
1  6.530504  -1.0117705 -0.98318414 0.88464679 1.6351057 1.6351057  9.7907967  9.7907967
2  5.928304  -1.0094863 -0.98651943 0.88710619 1.6351057 1.6351057  8.5863966  8.5863966
7 5.7847034   -1.010314 -0.98591584 0.88626667 1.6351057 1.6351057  8.2991955  8.2991955
3 2.0954405 -0.99018534  -1.0115197 0.91025597 1.6351057 1.6351057 0.92066969 0.92066969
3 1.9527277 -0.99137316   -1.010203 0.90910272 1.6351057 1.6351057 0.63524409 0.63524409
2 2.6400879 -0.99828253   -1.000893 0.90344108 1.6351057 1.6351057  2.0099645  2.0099645
1 2.7807124  -1.0169896 -0.98032301 0.88258583 1.6351057 1.6351057  2.2912135  2.2912135
1 3.3223416  -1.0186282 -0.97817453 0.88139468 1.6351057 1.6351057  3.3744718  3.3744718
4 2.3640894  -1.0130091 -0.98463115 0.88676178 1.6351057 1.6351057  1.4579675  1.4579675
7 2.1196695  -1.0065529  -0.9904537 0.89371656 1.6351057 1.6351057 0.96912775 0.96912775
4 2.0102574  -1.0099411 -0.98717481 0.88958684 1.6351057 1.6351057  0.7503035  0.7503035
5 1.9120021  -1.0061242 -0.99428761 0.89311876 1.6351057 1.6351057 0.55379297 0.55379297
1 1.9556837  -1.0062361 -0.99431531 0.89293866 1.6351057 1.6351057 0.64115616 0.64115616
3 2.1988833  -1.0075225 -0.99342392 0.89139892 1.6351057 1.6351057  1.1275553  1.1275553
2 2.5405116 -0.98450169  -1.0184759 0.91758911 1.6351057 1.6351057  1.8108119  1.8108119
1 6.6447068  -0.9731489  -1.0336417 0.92799316 1.6351057 1.6351057  10.019202  10.019202
2 4.2621333 -0.99243038  -1.0031684 0.90731796 1.6351057 1.6351057  5.2540553  5.2540553
1 3.7967305 -0.99437185  -1.0006181 0.90721989 1.6351057 1.6351057  4.3232498  4.3232498
7  3.098763 -0.98923805  -1.0082292 0.91162127 1.6351057 1.6351057  2.9273147  2.9273147
2 2.4456048  -0.9931528  -1.0045244 0.90797377 1.6351057 1.6351057  1.6209982  1.6209982
1 3.1067586  -1.0035069  -0.9929251 0.89790045 1.6351057 1.6351057   2.943306   2.943306
1 3.5959721  -1.0016884 -0.99437098 0.90011011 1.6351057 1.6351057  3.9217328  3.9217328
2 3.7416132  -1.0047056 -0.99000832  0.8967225 1.6351057 1.6351057  4.2130151  4.2130151
1 5.8317576  -1.0045639 -0.98697161 0.89712842 1.6351057 1.6351057  8.3933038  8.3933038
2 6.0830449  -1.0154769 -0.97411573 0.88554487 1.6351057 1.6351057  8.8958785  8.8958785
1 5.2804661  -1.0208932  -0.9685043 0.87944478 1.6351057 1.6351057   7.290721   7.290721
1 3.5843612  -1.0114449 -0.98429696 0.88962803 1.6351057 1.6351057  3.8985111  3.8985111
3 3.0483032  -0.9856827  -1.0141562 0.91715076 1.6351057 1.6351057   2.826395   2.826395
2 3.1730582 -0.98272704  -1.0201635 0.92044822 1.6351057 1.6351057  3.0759052  3.0759052
6 2.9159644 -0.98567552  -1.0169916 0.91712348 1.6351057 1.6351057  2.5617176  2.5617176
1 2.9461405 -0.98558695   -1.017184 0.91723509 1.6351057 1.6351057  2.6220698  2.6220698
2 2.0232896 -0.99680212  -1.0045712 0.90432703 1.6351057 1.6351057 0.77636782 0.77636782
 9  4.414172  -1.0061991  -0.9949785 0.89555335 1.6351057 1.6351057 5.5581326 5.5581326
 1 3.3852145   -1.018034 -0.97504634 0.88190398 1.6351057 1.6351057 3.5002177 3.5002177
 1 2.7228585  -1.0091166 -0.98548752 0.89105463 1.6351057 1.6351057 2.1755058 2.1755058
 6 2.8166769  -1.0082394 -0.98642571 0.89214041 1.6351057 1.6351057 2.3631425 2.3631425
 4 3.8302588  -1.0028891 -0.99114398 0.89840888 1.6351057 1.6351057 4.3903062 4.3903062
 1 5.6729669  -1.0109711 -0.97871843 0.88960277 1.6351057 1.6351057 8.0757225 8.0757225
 5 5.0615471  -1.0139589 -0.97648972 0.88666591 1.6351057 1.6351057  6.852883  6.852883
 3 6.5449863  -1.0158298 -0.97569494 0.88596467 1.6351057 1.6351057 9.8197613 9.8197613
 1 6.7152697  -1.0163794 -0.97334716 0.88505833 1.6351057 1.6351057 10.160328 10.160328
 2 6.4369377  -1.0254321  -0.9623887 0.87246565 1.6351057 1.6351057 9.6036641 9.6036641
 3 5.0032208  -1.0089195 -0.98193584 0.88994655 1.6351057 1.6351057 6.7362302 6.7362302
 7 5.0286715  -1.0089064 -0.98193442 0.88994543 1.6351057 1.6351057 6.7871316 6.7871316
 4 5.3777474  -1.0275878 -0.96233187 0.87280185 1.6351057 1.6351057 7.4852835 7.4852835
10 3.2050863  -1.0180734 -0.98073497 0.88129919 1.6351057 1.6351057 3.1399613 3.1399613
 1 3.0386759  -1.0134012 -0.98768112  0.8858511 1.6351057 1.6351057 2.8071405 2.8071405
 2 3.3848163  -1.0140094 -0.98699299 0.88413469 1.6351057 1.6351057 3.4994214 3.4994214
 2 6.9368405  -1.0226531 -0.96398346 0.87573636 1.6351057 1.6351057  10.60347  10.60347
 6 5.8624306  -1.0209874 -0.97818558 0.87579975 1.6351057 1.6351057 8.4546498 8.4546498
 2 5.8426127 -0.99980044  -0.9912339 0.90060427 1.6351057 1.6351057 8.4150141 8.4150141
 3 3.5662965 -0.99746896 -0.99723416 0.90242411 1.6351057 1.6351057 3.8623816 3.8623816
 4 3.7364221  -1.0145421 -0.98108151 0.88297989 1.6351057 1.6351057  4.2026329  4.2026329
 2 1.9718714  -1.0040397 -0.99596075 0.89483583 1.6351057 1.6351057 0.67353152 0.67353152
 5 3.5272297 -0.99020226  -1.0097945 0.91284494 1.6351057 1.6351057  3.7842481  3.7842481
 5 2.6322863 -0.98672283  -1.0135605 0.91564624 1.6351057 1.6351057  1.9943612  1.9943612
 4 2.1403901  -0.9906579  -1.0110466 0.91101852 1.6351057 1.6351057  1.0105689  1.0105689
 1 3.4451128 -0.98315311  -1.0231324 0.91876013 1.6351057 1.6351057  3.6200144  3.6200144
 3 3.2716766 -0.97898097  -1.0249204 0.92328112 1.6351057 1.6351057  3.2731418  3.2731418
10 2.9043406 -0.98175921  -1.0219281  0.9207031 1.6351057 1.6351057  2.5384699  2.5384699
 7 2.3647908 -0.98601706  -1.0166562  0.9158242 1.6351057 1.6351057  1.4593703  1.4593703
 3 3.8959868 -0.99767883   -1.007871 0.90367837 1.6351057 1.6351057  4.5217622  4.5217622
 3 3.7833599 -0.99859124  -1.0064131  0.9027868 1.6351057 1.6351057  4.2965084  4.2965084
 1 5.1158233  -1.0032366  -1.0043062 0.89582243 1.6351057 1.6351057  6.9614352  6.9614352
 4 4.3849202  -1.0051469   -1.001055  0.8939837 1.6351057 1.6351057   5.499629   5.499629
 5 3.1342575  -1.0140251 -0.98707693 0.88480315 1.6351057 1.6351057  2.9983036  2.9983036
 5 3.5803873   -1.013835 -0.98824918 0.88535871 1.6351057 1.6351057  3.8905633  3.8905633
 4 7.3455688  -1.0042612 -0.98490218 0.89489198 1.6351057 1.6351057  11.420926  11.420926
 3 7.0895428 -0.98659128   -1.005912 0.91538051 1.6351057 1.6351057  10.908874  10.908874
 1 7.1828831 -0.99090339  -1.0006604 0.91112777 1.6351057 1.6351057  11.095555  11.095555
 3  3.556898 -0.98255036  -1.0217123 0.92077241 1.6351057 1.6351057  3.8435847  3.8435847
 2 3.3563135 -0.98737256  -1.0117933 0.91561285 1.6351057 1.6351057  3.4424156  3.4424156
 3 3.4411389 -0.98862357  -1.0105962 0.91439017 1.6351057 1.6351057 3.6120665 3.6120665
 3 3.4788289 -0.98849734  -1.0106239 0.91453794 1.6351057 1.6351057 3.6874464 3.6874464
 7  2.935388 -0.98942777  -1.0103264 0.91318269 1.6351057 1.6351057 2.6005646 2.6005646
 5 3.3372789  -1.0201715 -0.97761152 0.87918353 1.6351057 1.6351057 3.4043465 3.4043465
 2 3.8653707  -1.0244464  -0.9721623  0.8742221 1.6351057 1.6351057 4.4605301 4.4605301
 1 3.1708149  -1.0216781 -0.97305521 0.87751163 1.6351057 1.6351057 3.0714185 3.0714185
 9 2.3292574  -1.0093908 -0.98664576 0.88942861 1.6351057 1.6351057 1.3883034 1.3883034
18 2.5248444  -1.0122669 -0.98280271 0.88657767 1.6351057 1.6351057 1.7794775 1.7794775
 8 2.6277797   -1.011733 -0.98335598 0.88692724 1.6351057 1.6351057 1.9853481 1.9853481
 1 3.7116598  -1.0085771 -0.98532335 0.89243563 1.6351057 1.6351057 4.1531082 4.1531082
 5 3.7699855  -1.0137417 -0.98726798 0.88649358 1.6351057 1.6351057 4.2697597 4.2697597
 4 3.5215558  -0.9910584  -1.0048718 0.91004884 1.6351057 1.6351057 3.7729002 3.7729002
 5 3.3794102  -1.0045337 -0.99426287 0.89318186 1.6351057 1.6351057 3.4886091 3.4886091
12 2.5199108  -1.0018244 -0.99990659 0.89666529 1.6351057 1.6351057 1.7696103 1.7696103
 3 5.1420019 -0.98066289   -1.023337 0.92403286 1.6351057 1.6351057 7.0137925 7.0137925
 6 2.8090762 -0.99360887  -1.0107754 0.90573771 1.6351057 1.6351057 2.3479411 2.3479411
 2 2.9886704 -0.99386081  -1.0104668 0.90525141 1.6351057 1.6351057 2.7071295 2.7071295
 2 3.7897682 -0.98235439  -1.0196261 0.91810349 1.6351057 1.6351057  4.309325  4.309325
 2 5.7206802 -0.97672613  -1.0325693 0.92605987 1.6351057 1.6351057 8.1711492 8.1711492
 3 5.2008858 -0.99600906  -1.0128169 0.90416699 1.6351057 1.6351057 7.1315602 7.1315602
 2 5.2568492 -0.99573737  -1.0132103 0.90436662 1.6351057 1.6351057    7.243487    7.243487
 2  4.234549 -0.97788691  -1.0289074 0.92507927 1.6351057 1.6351057   5.1988866   5.1988866
 1 1.7031926 -0.99911065  -1.0012372 0.90134674 1.6351057 1.6351057   0.1361739   0.1361739
 1 1.9162145 -0.99793917  -1.0013524 0.90301869 1.6351057 1.6351057  0.56221758  0.56221758
 6 1.9036394 -0.99766297  -1.0016254  0.9032841 1.6351057 1.6351057  0.53706746  0.53706746
11 2.3857508  -0.9941441  -1.0033784 0.90652442 1.6351057 1.6351057   1.5012903   1.5012903
 3 2.0549252  -1.0025527 -0.99425697 0.89718564 1.6351057 1.6351057  0.83963917  0.83963917
 5 1.8613371   -1.001668 -0.99845807 0.89886885 1.6351057 1.6351057  0.45246297  0.45246297
 6 1.6845923   -1.002238 -0.99770671 0.89780411 1.6351057 1.6351057 0.098973279 0.098973279
 4 2.0328563   -1.003781 -0.99642809 0.89502615 1.6351057 1.6351057  0.79550127  0.79550127
 3 1.7977431  -1.0026803 -0.99828631 0.89727042 1.6351057 1.6351057  0.32527487  0.32527487
 9 2.6020671 -0.98428181  -1.0194473 0.91741214 1.6351057 1.6351057   1.9339229   1.9339229
 7  3.315196 -0.98247857  -1.0167011 0.92013276 1.6351057 1.6351057   3.3601807   3.3601807
13  3.343811  -1.0224179 -0.97361153 0.87665942 1.6351057 1.6351057   3.4174107   3.4174107
 1 4.2665326  -1.0130119 -0.97813536 0.88713508 1.6351057 1.6351057   5.2628538   5.2628538
 6 4.2852129  -1.0122974  -0.9795227 0.88609774 1.6351057 1.6351057   5.3002144   5.3002144
 2 4.7056367  -1.0133107 -0.97720972 0.88694013 1.6351057 1.6351057   6.1410621   6.1410621
 1 3.1647293  -1.0108524 -0.98273773 0.88789081 1.6351057 1.6351057   3.0592473   3.0592473
 3 2.9382301  -1.0153432 -0.97889964 0.88317837 1.6351057 1.6351057    2.606249    2.606249
 6 2.6899275  -1.0151867 -0.97923251 0.88376177 1.6351057 1.6351057   2.1096436   2.1096436
 2 2.7306929  -1.0157704 -0.97846566  0.8835983 1.6351057 1.6351057  2.1911744  2.1911744
 5 4.6109953   -1.020144 -0.97070625 0.88021247 1.6351057 1.6351057  5.9517793  5.9517793
 3 2.9781599 -0.99610817 -0.99974844 0.90410489 1.6351057 1.6351057  2.6861084  2.6861084
10 4.7144809 -0.97938347  -1.0192781 0.92212399 1.6351057 1.6351057  6.1587505  6.1587505
 3  4.706507 -0.98434842  -1.0129001 0.91932084 1.6351057 1.6351057  6.1428027  6.1428027
 1 3.5559425  -1.0224433 -0.96991839  0.8768368 1.6351057 1.6351057  3.8416736  3.8416736
 1 4.3471082  -1.0217569 -0.96856954 0.87692915 1.6351057 1.6351057   5.424005   5.424005
 3 3.7898899  -1.0147891 -0.98098112 0.88268106 1.6351057 1.6351057  4.3095684  4.3095684
 1  2.046821  -1.0037267 -0.99438227 0.89522216 1.6351057 1.6351057 0.82343062 0.82343062
 7 1.8748507 -0.99979166 -0.99882793 0.89974214 1.6351057 1.6351057 0.47949003 0.47949003
 6  1.914182  -1.0005748 -0.99701601 0.89959085 1.6351057 1.6351057 0.55815271 0.55815271
 2 2.0612626 -0.99310148  -1.0067107  0.9083186 1.6351057 1.6351057 0.85231387 0.85231387
 8 3.9653718   -1.023174 -0.97191852  0.8768818 1.6351057 1.6351057  4.6605323  4.6605323
 8 3.2480291   -1.013082 -0.98576557 0.88461607 1.6351057 1.6351057  3.2258468  3.2258468
 3 2.6519643  -1.0083873 -0.99202989 0.88978749 1.6351057 1.6351057  2.0337173  2.0337173
 4 2.9263531 -0.99497173  -1.0105772 0.90486424 1.6351057 1.6351057  2.5824949  2.5824949
 2 3.2227097 -0.99386886  -1.0123715 0.90612743 1.6351057 1.6351057   3.175208   3.175208
 1 3.9859658 -0.98936279  -1.0181782 0.91078655 1.6351057 1.6351057  4.7017203  4.7017203
 1 4.1195173 -0.97474668   -1.028986 0.92777706 1.6351057 1.6351057  4.9688232  4.9688232
 2 3.5496558 -0.98304924  -1.0227803 0.91782067 1.6351057 1.6351057  3.8291002  3.8291002
 1 2.5156362  -1.0005197  -1.0018284 0.90046494 1.6351057 1.6351057   1.761061   1.761061
 4 2.0460519   -1.003388 -0.99785872 0.89690035 1.6351057 1.6351057 0.82189244 0.82189244
 7 1.8462945  -1.0012413 -0.99735644  0.8992862 1.6351057 1.6351057 0.42237762 0.42237762
 1 2.0695212  -1.0078365 -0.98933485 0.89109327 1.6351057 1.6351057 0.86883108 0.86883108
 3 2.0539422  -1.0075222 -0.99152738 0.89120795 1.6351057 1.6351057 0.83767301 0.83767301
 9 2.3680582  -1.0074296 -0.98837124 0.89279796 1.6351057 1.6351057   1.465905   1.465905
 2 3.3856524  -1.0022547 -0.99419297 0.89943784 1.6351057 1.6351057  3.5010936  3.5010936
 2 3.4308862 -0.98339154  -1.0151026 0.91911039 1.6351057 1.6351057  3.5915611  3.5915611
 5 2.9994209  -0.9858297  -1.0128691 0.91563351 1.6351057 1.6351057  2.7286305  2.7286305
 1 2.6589964 -0.98713875  -1.0135128 0.91339459 1.6351057 1.6351057  2.0477816  2.0477816
 2 2.4808323 -0.98977207  -1.0101731 0.91048457 1.6351057 1.6351057  1.6914533  1.6914533
 4 2.9043596 -0.98684062  -1.0164662 0.91329744 1.6351057 1.6351057  2.5385078  2.5385078
 2 5.9915254 -0.97152679  -1.0334955 0.93035797 1.6351057 1.6351057  8.7128394  8.7128394
 2 7.2390345 -0.96664769  -1.0399242 0.93622772 1.6351057 1.6351057  11.207858  11.207858
 1 4.2934804 -0.97484356  -1.0255083 0.92900777 1.6351057 1.6351057  5.3167494  5.3167494
 6 3.4568636 -0.99958611 -0.99456586 0.90074765 1.6351057 1.6351057  3.6435159  3.6435159
10 3.3118947  -1.0003847 -0.99391068 0.89963245 1.6351057 1.6351057  3.3535781  3.3535781
 7 4.7534002 -0.98949724  -1.0062258 0.91051197 1.6351057 1.6351057  6.2365891  6.2365891
 6 5.1779398  -0.9862535   -1.008603 0.91519781 1.6351057 1.6351057  7.0856683  7.0856683
 2 1.9540817  -0.9976892  -1.0003806 0.90246097 1.6351057 1.6351057 0.63795202 0.63795202
 4 2.0512582 -0.99510622  -1.0042018 0.90473047 1.6351057 1.6351057  0.8323051  0.8323051
 6 2.0434065 -0.99413526  -1.0060108 0.90569273 1.6351057 1.6351057 0.81660159 0.81660159
 1  2.807326 -0.98289198  -1.0179957 0.91895376 1.6351057 1.6351057  2.3444406  2.3444406
 1 3.3836072 -0.98071533  -1.0191857 0.92147282 1.6351057 1.6351057  3.4970031  3.4970031
 1 3.7338131 -0.98034515  -1.0195165 0.92133648 1.6351057 1.6351057  4.1974148  4.1974148
 2 3.2961189 -0.98487301  -1.0137289 0.91643659 1.6351057 1.6351057  3.3220266  3.3220266
 2 3.2885311  -1.0000595 -0.99428434 0.90020833 1.6351057 1.6351057  3.3068508  3.3068508
 1 3.1185523 -0.99819211 -0.99683771 0.90247297 1.6351057 1.6351057  2.9668932  2.9668932
 1 5.1732402  -1.0317348 -0.96245908 0.86681099 1.6351057 1.6351057  7.0762692  7.0762692
 5 5.1915433  -1.0311292 -0.96364339 0.86730464 1.6351057 1.6351057  7.1128753  7.1128753
 2 4.2579195  -1.0166341 -0.98530115 0.88159385 1.6351057 1.6351057  5.2456276  5.2456276
 6 2.4353323   -1.003932 -0.99911054 0.89568493 1.6351057 1.6351057  1.6004532  1.6004532
 1  2.369325 -0.99715591  -1.0061747 0.90377149 1.6351057 1.6351057  1.4684387  1.4684387
 3 2.6095197 -0.99632038  -1.0077742 0.90467335 1.6351057 1.6351057   1.948828   1.948828
 3 2.6769133 -0.99025805  -1.0129867 0.91185385 1.6351057 1.6351057  2.0836152  2.0836152
 1 3.6085327 -0.98363379  -1.0211267  0.9195223 1.6351057 1.6351057  3.9468541  3.9468541
 5  4.422839 -0.98245757  -1.0251143  0.9202028 1.6351057 1.6351057  5.5754667  5.5754667
 2 3.1786248 -0.99017391   -1.014543 0.91197726 1.6351057 1.6351057  3.0870383  3.0870383
13 2.2541333 -0.99982233 -0.99941277 0.90142631 1.6351057 1.6351057  1.2380552  1.2380552
 2 2.0983812  -1.0052572 -0.99536341 0.89498609 1.6351057 1.6351057 0.92655118 0.92655118
 4 2.0831095  -1.0051496 -0.99569691 0.89500968 1.6351057 1.6351057  0.8960077  0.8960077
 5 1.8258527  -0.9932091  -1.0073137 0.90730978 1.6351057 1.6351057 0.38149411 0.38149411
 1 2.7674301  -0.9961818  -1.0089937 0.90408147 1.6351057 1.6351057  2.2646488  2.2646488
 1 3.8028372 -0.99072296   -1.016159 0.90895822 1.6351057 1.6351057   4.335463   4.335463
 1 4.0073949 -0.98846222  -1.0188374 0.91152609 1.6351057 1.6351057  4.7445784  4.7445784
 6 4.2157434 -0.98792036  -1.0200806 0.91255859 1.6351057 1.6351057  5.1612755  5.1612755
 1 3.0757757 -0.99261244  -1.0134763 0.90779242 1.6351057 1.6351057  2.8813402  2.8813402
 7 3.9465969 -0.99911294  -1.0077042 0.90063399 1.6351057 1.6351057  4.6229825  4.6229825
 1 3.2972797 -0.98544835   -1.020156 0.91508072 1.6351057 1.6351057  3.3243482  3.3243482
 3 2.3712838 -0.99300199   -1.011129 0.90699281 1.6351057 1.6351057  1.4723563  1.4723563
11 2.3155599 -0.99140478  -1.0116861 0.90852867 1.6351057 1.6351057  1.3609084  1.3609084
 1  2.278411  -0.9929959  -1.0103427 0.90680652 1.6351057 1.6351057  1.2866106  1.2866106
 1 2.3606484 -0.99269757  -1.0107466  0.9070499 1.6351057 1.6351057  1.4510855  1.4510855
 6 2.9473361 -0.99184041  -1.0065872 0.90790667 1.6351057 1.6351057   2.624461   2.624461
 2 2.3364926  -1.0018507 -0.99920903 0.89673926 1.6351057 1.6351057  1.4027739  1.4027739
 3 1.9882367 -0.99782343  -1.0037787 0.90150616 1.6351057 1.6351057 0.70626202 0.70626202
 2 1.8739187   -0.992575  -1.0076676 0.90825299 1.6351057 1.6351057 0.47762616 0.47762616
 4 1.7840021 -0.99907151 -0.99999157 0.90152095 1.6351057 1.6351057  0.2977928  0.2977928
 2 2.0840926  -1.0042091 -0.99385226 0.89639099 1.6351057 1.6351057 0.89797386 0.89797386
 1 3.9061288 -0.99927955 -0.99544364 0.90243523 1.6351057 1.6351057  4.5420462  4.5420462
 6 3.1929637  -1.0043259 -0.99161582 0.89700561 1.6351057 1.6351057  3.1157161  3.1157161
 3 3.0734516 -0.99984933 -0.99651886 0.90170731 1.6351057 1.6351057  2.8766918  2.8766918
 1 3.9658586  -1.0098559 -0.98979391 0.89144539 1.6351057 1.6351057   4.661506   4.661506
 2 4.9245988 -0.98865288  -1.0169711  0.9146378 1.6351057 1.6351057  6.5789863  6.5789863
 2 5.1501816 -0.99728143 -0.99982525 0.90583423 1.6351057 1.6351057  7.0301519  7.0301519
 1 5.0625328  -0.9726384  -1.0267944 0.93146414 1.6351057 1.6351057  6.8548542  6.8548542
 8 3.9904902  -0.9898289  -1.0079642 0.91326335 1.6351057 1.6351057  4.7107691  4.7107691
 2 3.8366297 -0.98965085   -1.008533 0.91342439 1.6351057 1.6351057  4.4030481  4.4030481
 2 3.4722795  -1.0214153 -0.97598416 0.87706215 1.6351057 1.6351057  3.6743476  3.6743476
 1 2.9292684  -1.0098289 -0.98378411 0.88969947 1.6351057 1.6351057  2.5883255  2.5883255
 1 2.5005497 -0.98639486  -1.0144929 0.91456293 1.6351057 1.6351057   1.730888   1.730888
 2 2.7054616 -0.98762377  -1.0131558 0.91269309 1.6351057 1.6351057  2.1407119  2.1407119
 1 2.4832347 -0.99519201  -1.0056519 0.90389018 1.6351057 1.6351057   1.696258   1.696258
 1 2.0630249  -1.0046388 -0.99283778 0.89438385 1.6351057 1.6351057 0.85583856 0.85583856
 1 2.2927357  -1.0074059 -0.98918367 0.89296249 1.6351057 1.6351057    1.31526    1.31526
 1 2.4786039  -1.0137192 -0.98179335 0.88599475 1.6351057 1.6351057  1.6869965  1.6869965
14 2.6739025  -1.0136431 -0.98590642  0.8859198 1.6351057 1.6351057  2.0775936  2.0775936
 4 4.4381162  -1.0270614 -0.96846028 0.87254925 1.6351057 1.6351057   5.606021   5.606021
 5 4.8422763  -0.9917638   -1.009429 0.91184844 1.6351057 1.6351057  6.4143412  6.4143412
 5 4.7698658 -0.99764821  -1.0030421 0.90532249 1.6351057 1.6351057  6.2695204  6.2695204
1 6.2862974  -0.9976457  -1.0019406 0.90599197 1.6351057 1.6351057  9.3023834  9.3023834
1 5.0818745  -1.0239598 -0.96729042 0.87667328 1.6351057 1.6351057  6.8935376  6.8935376
1 5.5627574  -1.0307691 -0.96133306 0.86964913 1.6351057 1.6351057  7.8553034  7.8553034
2 5.4046492  -1.0266584 -0.96552563 0.87407312 1.6351057 1.6351057  7.5390871  7.5390871
2 3.7329162  -1.0245931 -0.97015353 0.87489811 1.6351057 1.6351057  4.1956211  4.1956211
6 4.5790212  -1.0240976 -0.97364746 0.87572862 1.6351057 1.6351057  5.8878312  5.8878312
2 4.5946468  -1.0279847 -0.96773785 0.87041132 1.6351057 1.6351057  5.9190823  5.9190823
4 4.3632901   -1.024316 -0.97058966  0.8733732 1.6351057 1.6351057  5.4563688  5.4563688
1 4.0452556  -1.0265614 -0.96857956 0.87211124 1.6351057 1.6351057  4.8202999  4.8202999
3  3.600339  -1.0111973 -0.98279324 0.88963503 1.6351057 1.6351057  3.9304668  3.9304668
5 2.6139963 -0.98353978  -1.0184299 0.91871053 1.6351057 1.6351057  1.9577814  1.9577814
1 2.5839643 -0.98743725  -1.0131813 0.91493569 1.6351057 1.6351057  1.8977172  1.8977172
1 1.9976316  -1.0029281 -0.99842575 0.89731439 1.6351057 1.6351057 0.72505178 0.72505178
5 1.8971196  -1.0012024   -1.000393 0.89904427 1.6351057 1.6351057 0.52402782 0.52402782
5 2.0793797  -1.0081701 -0.99221149 0.89095728 1.6351057 1.6351057 0.88854806 0.88854806
2 2.4432819 -0.99069895  -1.0092245 0.91135235 1.6351057 1.6351057  1.6163525  1.6163525
4 4.6604205 -0.97603718  -1.0304719 0.92786286 1.6351057 1.6351057  6.0506298  6.0506298
6 2.7324924  -1.0032321 -0.99552812 0.89811021 1.6351057 1.6351057  2.1947734  2.1947734
3 3.4412721  -1.0085805 -0.98418214 0.89129421 1.6351057 1.6351057  3.6123328  3.6123328
9 2.0225976 -0.99429016  -1.0057979 0.90555208 1.6351057 1.6351057 0.77498385 0.77498385
 3 2.9101913   -1.014832 -0.98079278  0.8833387 1.6351057 1.6351057  2.5501714  2.5501714
 1 3.0721068  -1.0089592 -0.99394552 0.88986515 1.6351057 1.6351057  2.8740022  2.8740022
 1 2.7318269 -0.99807619  -1.0064781 0.90121588 1.6351057 1.6351057  2.1934425  2.1934425
 1 1.9480967  -0.9979022  -1.0009118 0.90173608 1.6351057 1.6351057 0.62598205 0.62598205
 5 2.0577943 -0.99534781  -1.0037393 0.90589352 1.6351057 1.6351057 0.84537719 0.84537719
 1 2.3293246 -0.99879423 -0.99858419 0.90228479 1.6351057 1.6351057  1.3884379  1.3884379
 5 2.6402663  -1.0166451 -0.98092717  0.8821427 1.6351057 1.6351057  2.0103213  2.0103213
 3 5.4160809  -1.0341932 -0.95697262 0.86449508 1.6351057 1.6351057  7.5619506  7.5619506
 2 5.1124229  -1.0332772 -0.95769604 0.86583973 1.6351057 1.6351057  6.9546346  6.9546346
 1 6.4746938  -1.0370325 -0.95652211 0.86210486 1.6351057 1.6351057  9.6791762  9.6791762
12 3.6452269 -0.97896932  -1.0212939 0.92328392 1.6351057 1.6351057  4.0202426  4.0202426
 5 3.2658015 -0.99151028  -1.0047444  0.9096315 1.6351057 1.6351057  3.2613916  3.2613916
 6 1.8037985 -0.99919334  -1.0026474 0.90057323 1.6351057 1.6351057 0.33738567 0.33738567
 6 1.9343626 -0.99669579  -1.0047246 0.90281595 1.6351057 1.6351057 0.59851385 0.59851385
 4 2.2405998   -1.011213 -0.98545791 0.88755352 1.6351057 1.6351057  1.2109882  1.2109882
 5 2.1342121  -1.0089187 -0.99037151 0.88977686 1.6351057 1.6351057 0.99821294 0.99821294
 2 1.9831018 -0.99860515  -1.0003878 0.90238397 1.6351057 1.6351057  0.6959922  0.6959922
 4  2.405389  -1.0080005  -0.9883754 0.89065553 1.6351057 1.6351057  1.5405666  1.5405666
 2 2.4903512  -1.0124888 -0.98354374 0.88605484 1.6351057 1.6351057  1.7104911  1.7104911
 1 2.4630128  -1.0133143 -0.98364293 0.88515295 1.6351057 1.6351057  1.6558144  1.6558144
 3 2.4191564  -1.0129212 -0.98412629 0.88557649 1.6351057 1.6351057  1.5681014  1.5681014
 7 2.3862732  -1.0137233 -0.98343062 0.88597382 1.6351057 1.6351057  1.5023352  1.5023352
 4 3.1432849  -1.0179086 -0.98108026 0.88120006 1.6351057 1.6351057  3.0163585  3.0163585
10 3.6705091  -1.0170258 -0.98256643 0.88082045 1.6351057 1.6351057  4.0708069  4.0708069
 2 2.3055953  -1.0130075 -0.98328707 0.88661675 1.6351057 1.6351057  1.3409792  1.3409792
 1  3.866421  -1.0252112 -0.97027361 0.87330956 1.6351057 1.6351057  4.4626308  4.4626308
 1 3.8745549    -1.02551 -0.96973225 0.87306454 1.6351057 1.6351057  4.4788986  4.4788986
 5 4.6701147  -1.0297327 -0.96475582 0.86891462 1.6351057 1.6351057  6.0700181  6.0700181
 1 3.9073961  -1.0263023 -0.96771032 0.87301374 1.6351057 1.6351057   4.544581   4.544581
 2 4.9702342  -1.0006226  -1.0051035 0.90093245 1.6351057 1.6351057  6.6702572  6.6702572
 1  4.593997  -1.0004567  -1.0054347 0.90079075 1.6351057 1.6351057  5.9177827  5.9177827
13 2.4579876  -1.0039054 -0.99601688  0.8970747 1.6351057 1.6351057  1.6457638  1.6457638
 1 2.5014167  -1.0074715  -0.9883033 0.89295409 1.6351057 1.6351057  1.7326221  1.7326221
 3 2.6177033  -1.0060323 -0.98979937  0.8946367 1.6351057 1.6351057  1.9651952  1.9651952
 3 2.9267974  -1.0073446 -0.98687922 0.89175476 1.6351057 1.6351057  2.5833834  2.5833834
 1 2.7449086  -1.0183405 -0.97714049 0.88058869 1.6351057 1.6351057   2.219606   2.219606
 8 2.6871384  -1.0112906 -0.98571014 0.88916748 1.6351057 1.6351057  2.1040655  2.1040655
 9  4.064607  -1.0059545 -0.99002505 0.89169572 1.6351057 1.6351057  4.8590027  4.8590027
 1 3.1440222  -1.0128772 -0.98872936 0.88589441 1.6351057 1.6351057  3.0178331  3.0178331
 4 1.9544425 -0.99216712  -1.0085234  0.9081794 1.6351057 1.6351057 0.63867371 0.63867371
 2  3.066836 -0.99298119  -1.0078548 0.90596966 1.6351057 1.6351057  2.8634607  2.8634607
 2 2.3581406 -0.99408163  -1.0059467 0.90538342 1.6351057 1.6351057    1.44607    1.44607
10 2.5732386  -0.9898599  -1.0144168 0.91030024 1.6351057 1.6351057   1.876266   1.876266
 6 2.6126775  -1.0021056  -1.0011797 0.89671579 1.6351057 1.6351057  1.9551437  1.9551437
 3 2.8197745  -1.0082567 -0.99399526 0.89030658 1.6351057 1.6351057  2.3693378  2.3693378
 4  4.300477  -1.0142259 -0.98391328 0.88283406 1.6351057 1.6351057  5.3307427  5.3307427
 3 4.3217379  -1.0189117 -0.97436905  0.8786479 1.6351057 1.6351057  5.3732645  5.3732645
 3 5.3245489  -1.0279932 -0.96995376 0.87111983 1.6351057 1.6351057  7.3788865  7.3788865
 1 5.1166662  -1.0246707 -0.97332834 0.87540667 1.6351057 1.6351057  6.9631212  6.9631212
 9 6.1044244  -1.0217112 -0.96563712 0.87803498 1.6351057 1.6351057  8.9386374  8.9386374
 4 5.5164369  -1.0236444 -0.96667517   0.873943 1.6351057 1.6351057  7.7626625  7.7626625
 4 5.1342348   -1.020186 -0.97141526 0.87727458 1.6351057 1.6351057  6.9982583  6.9982583
 2 5.0351718  -1.0223024 -0.96815971 0.87556226 1.6351057 1.6351057  6.8001322  6.8001322
12 2.0271975 -0.99696335  -1.0020349 0.90416978 1.6351057 1.6351057  0.7841837  0.7841837
 2 2.3194326  -1.0027417 -0.99372518 0.89786962 1.6351057 1.6351057  1.3686538  1.3686538
 4 3.2103393 -0.99172319  -1.0047587 0.90893967 1.6351057 1.6351057  3.1504672  3.1504672
 1 2.4756052 -0.99125232  -1.0076474 0.90901889 1.6351057 1.6351057  1.6809991  1.6809991
 1 2.6662563 -0.98397219  -1.0168179 0.91777929 1.6351057 1.6351057  2.0623013  2.0623013
 3 3.3736348  -1.0107582 -0.98692425 0.89027463 1.6351057 1.6351057  3.4770583  3.4770583
 3 2.0082485  -1.0094677 -0.98938263 0.88952348 1.6351057 1.6351057 0.74628574 0.74628574
 2 2.1924908 -0.99657088  -1.0071662  0.9035058 1.6351057 1.6351057 1.1147703 1.1147703
 1 2.4273085  -1.0004611  -1.0032514 0.89894841 1.6351057 1.6351057 1.5844056 1.5844056
 4 2.5726251  -1.0088726 -0.98798377  0.8894444 1.6351057 1.6351057 1.8750388 1.8750388
12 3.1356449 -0.98897568  -1.0169398 0.91130052 1.6351057 1.6351057 3.0010784 3.0010784
 1 3.2927134  -1.0032392 -0.99910749 0.89467982 1.6351057 1.6351057 3.3152156 3.3152156
 1 4.0155644  -1.0218839 -0.97679784 0.87641247 1.6351057 1.6351057 4.7609175 4.7609175
 6 2.9884397  -1.0172385 -0.97625306 0.88217304 1.6351057 1.6351057  2.706668  2.706668
 8 3.0661162  -1.0043586   -0.992748 0.89705085 1.6351057 1.6351057 2.8620211 2.8620211
 2 4.1864654  -1.0006525 -0.99914036 0.90177836 1.6351057 1.6351057 5.1027196 5.1027196
 1    3.6876  -1.0035267  -0.9951316 0.89839521 1.6351057 1.6351057 4.1049887 4.1049887
 1 5.4145294 -0.98632144  -1.0222387 0.91323638 1.6351057 1.6351057 7.5588475 7.5588475
 1 5.3994559 -0.98665298  -1.0219216 0.91287638 1.6351057 1.6351057 7.5287006 7.5287006
 5 3.4375688 -0.99454104  -1.0120645 0.90570571 1.6351057 1.6351057 3.6049264 3.6049264
 1  2.871116 -0.99818308  -1.0069147 0.90198319 1.6351057 1.6351057 2.4720206 2.4720206
 1 2.8941061 -0.99921086  -1.0057694 0.90087415 1.6351057 1.6351057 2.5180008 2.5180008
 3 2.2448318  -1.0016359  -1.0013926 0.89777945 1.6351057 1.6351057 1.2194523 1.2194523
 2 3.5883421 -0.99854355  -1.0058445 0.90295011 1.6351057 1.6351057  3.906473  3.906473
