#weight  minuslogpost  log10_alpha    log10_rs         vw  minuslogprior  minuslogprior__0       chi2  chi2__lisa_likelihood
    198     1.8832411  -0.99951034  -1.0004807 0.90130796      1.6351057         1.6351057 0.49627091             0.49627091
     14     1.7575063  -0.99949041  -1.0003851 0.90110107      1.6351057         1.6351057 0.24480133             0.24480133
      2     2.4807291  -0.99818272 -0.99814534 0.90231157      1.6351057         1.6351057  1.6912469              1.6912469
      3      3.414496  -0.99747627  -0.9982904  0.9018168      1.6351057         1.6351057  3.5587808              3.5587808
     27      2.989402   -1.0031098 -0.99401582 0.89833911      1.6351057         1.6351057  2.7085926              2.7085926
      4     2.7342805   -1.0029985 -0.99410939 0.89825056      1.6351057         1.6351057  2.1983498              2.1983498
      4     3.1814658   -1.0035177  -1.0010982 0.89549899      1.6351057         1.6351057  3.0927204              3.0927204
     19     2.8740479  -0.99623282 -0.99974262 0.90405649      1.6351057         1.6351057  2.4778846              2.4778846
     10     3.1656205  -0.99586673 -0.99959011 0.90457183      1.6351057         1.6351057  3.0610297              3.0610297
      7     2.3158165  -0.99861608  -1.0032846 0.90027535      1.6351057         1.6351057  1.3614218              1.3614218
     15     3.9607922  -0.99657094    -1.00008 0.90210626      1.6351057         1.6351057  4.6513731              4.6513731
     30     4.7785774  -0.99548728 -0.99847216 0.90410322      1.6351057         1.6351057  6.2869435              6.2869435
     20     2.6667637  -0.98815213  -1.0136911 0.91194043      1.6351057         1.6351057  2.0633161              2.0633161
     20     3.0416021  -0.98937173  -1.0153965 0.91269889      1.6351057         1.6351057  2.8129929              2.8129929
     33     3.1289739  -0.98946181  -1.0155924 0.91256786      1.6351057         1.6351057  2.9877364              2.9877364
    112      3.092734  -0.99254922  -1.0120109 0.90667038      1.6351057         1.6351057  2.9152567              2.9152567
      7     3.7369658  -0.99263451  -1.0125525 0.90619246      1.6351057         1.6351057  4.2037203              4.2037203
     11     4.4707959  -0.99123721  -1.0074782 0.90750211      1.6351057         1.6351057  5.6713805              5.6713805
     19     6.6634028  -0.98888815  -1.0194066 0.91433783      1.6351057         1.6351057  10.056594              10.056594
     41      5.827738  -0.98774136  -1.0147038 0.91667618      1.6351057         1.6351057  8.3852647              8.3852647
 4 4.3530631 -0.98405216  -1.014354 0.91643198 1.6351057 1.6351057  5.4359148  5.4359148
37 2.0808713 -0.99436421 -1.0086062 0.90549994 1.6351057 1.6351057 0.89153124 0.89153124
70  3.499587 -0.99307719 -1.0039138 0.90927482 1.6351057 1.6351057  3.7289626  3.7289626
37  4.030396 -0.99143652 -1.0035944 0.90965304 1.6351057 1.6351057  4.7905806  4.7905806
 4 5.7592411 -0.99122634 -1.0019417 0.90937048 1.6351057 1.6351057  8.2482709  8.2482709
13 5.9919373 -0.99117151 -1.0015035 0.91063306 1.6351057 1.6351057  8.7136633  8.7136633
49 4.9310583 -0.99244986 -1.0028968 0.91046028 1.6351057 1.6351057  6.5919052  6.5919052
16 5.0019397 -0.99326683 -1.0024354 0.90977557 1.6351057 1.6351057   6.733668   6.733668
30  3.035505 -0.99306761 -1.0036268 0.90858933 1.6351057 1.6351057  2.8007986  2.8007986
24  3.015532 -0.99335427 -1.0036896 0.90850373 1.6351057 1.6351057  2.7608527  2.7608527
30 2.4410181 -0.99418486 -1.0049569 0.90536839 1.6351057 1.6351057  1.6118249  1.6118249
11 1.9212804 -0.99703742 -1.0056903 0.90314822 1.6351057 1.6351057 0.57234948 0.57234948
18 1.9049105 -0.99708385 -1.0053823 0.90337929 1.6351057 1.6351057  0.5396097  0.5396097
11  3.394914 -0.98667243  -1.019843 0.91490215 1.6351057 1.6351057  3.5196167  3.5196167
11 2.9125033 -0.98762737 -1.0105405  0.9141509 1.6351057 1.6351057  2.5547953  2.5547953
 6 2.8898607 -0.98768777 -1.0105387 0.91413187 1.6351057 1.6351057  2.5095101  2.5095101
25 3.2837195 -0.99272527 -1.0089924  0.9098909 1.6351057 1.6351057  3.2972276  3.2972276
30 2.9828318 -0.99553181 -1.0101623 0.90446355 1.6351057 1.6351057  2.6954523  2.6954523
 4 3.1059073 -0.99485899 -1.0105191 0.90446176 1.6351057 1.6351057  2.9416033  2.9416033
87 2.0417438 -0.99167629 -1.0082298 0.90887386 1.6351057 1.6351057 0.81327638 0.81327638
 23 3.0071498 -0.98315545  -1.0218411 0.91891628 1.6351057 1.6351057 2.7440883 2.7440883
  7 3.0616694 -0.98267814  -1.0224286 0.91905071 1.6351057 1.6351057 2.8531276 2.8531276
 30 3.5897864  -0.9807067  -1.0229877 0.92030111 1.6351057 1.6351057 3.9093615 3.9093615
 23 4.0509217  -0.9810903  -1.0226132 0.91940128 1.6351057 1.6351057 4.8316322 4.8316322
  1 3.0637491 -0.98689434  -1.0155848 0.91599881 1.6351057 1.6351057 2.8572869 2.8572869
 20 4.4194535 -0.98904259  -1.0191795  0.9122378 1.6351057 1.6351057 5.5686957 5.5686957
 10 2.7151065  -1.0142506   -0.984137 0.88400972 1.6351057 1.6351057 2.1600018 2.1600018
  4 3.3507946  -1.0140422 -0.98232808 0.88364805 1.6351057 1.6351057 3.4313779 3.4313779
 93 2.5558863  -1.0151696 -0.98327588 0.88367161 1.6351057 1.6351057 1.8415613 1.8415613
  6 2.4158228  -1.0142127 -0.98307671 0.88442769 1.6351057 1.6351057 1.5614343 1.5614343
 21 2.3546716  -1.0135215  -0.9843116 0.88516541 1.6351057 1.6351057 1.4391319 1.4391319
104 2.3373135  -1.0133946  -0.9852393 0.88563919 1.6351057 1.6351057 1.4044156 1.4044156
  6 2.1948796  -1.0127489 -0.98439047 0.88623598 1.6351057 1.6351057 1.1195478 1.1195478
 23 2.7475315  -1.0148423 -0.98214955 0.88519099 1.6351057 1.6351057 2.2248517 2.2248517
 40 2.7856626  -1.0161331  -0.9827817 0.88286024 1.6351057 1.6351057 2.3011139 2.3011139
 17 3.0272047  -1.0136586 -0.98130022 0.88453118 1.6351057 1.6351057  2.784198  2.784198
106 2.4110113  -1.0148448 -0.98136935 0.88459229 1.6351057 1.6351057 1.5518113 1.5518113
  1 3.2698104  -1.0097467 -0.98384437 0.88897139 1.6351057 1.6351057 3.2694095 3.2694095
 11 5.3346835  -1.0091854 -0.98386562  0.8883059 1.6351057 1.6351057 7.3991557 7.3991557
 43 2.4010351  -1.0113029 -0.98834895 0.88841756 1.6351057 1.6351057  1.531859  1.531859
 30 2.3701129  -1.0112237 -0.98840491 0.88846837 1.6351057 1.6351057  1.4700144  1.4700144
107  2.301206   -1.010475 -0.98878088 0.88942414 1.6351057 1.6351057  1.3322006  1.3322006
 12 2.5992505  -1.0108604 -0.98985811 0.88880492 1.6351057 1.6351057  1.9282897  1.9282897
  2 2.4959731  -1.0107507 -0.98998274 0.88867033 1.6351057 1.6351057  1.7217349  1.7217349
 48 2.1367356  -1.0085837  -0.9899938 0.89004657 1.6351057 1.6351057  1.0032599  1.0032599
  3 3.0104009  -1.0136407 -0.98416015 0.88676261 1.6351057 1.6351057  2.7505904  2.7505904
 14 2.8961589   -1.013727 -0.98406574 0.88656188 1.6351057 1.6351057  2.5221065  2.5221065
151 3.1942718  -1.0140821 -0.98368383 0.88641527 1.6351057 1.6351057  3.1183323  3.1183323
  1 4.3793044   -1.005386 -0.99456533 0.89661486 1.6351057 1.6351057  5.4883974  5.4883974
  9 2.3085173 -0.99252803   -1.006692 0.90917078 1.6351057 1.6351057  1.3468233  1.3468233
  6  2.008117 -0.99124681  -1.0114898 0.90977459 1.6351057 1.6351057 0.74602269 0.74602269
  6  2.556645 -0.98687139  -1.0171851 0.91494972 1.6351057 1.6351057  1.8430787  1.8430787
  3  2.964221 -0.99945627   -1.003041 0.90203165 1.6351057 1.6351057  2.6582307  2.6582307
  1 2.9548873 -0.99644595  -1.0062003 0.90538279 1.6351057 1.6351057  2.6395633  2.6395633
  1 2.4306069 -0.99809878  -1.0023663 0.90344613 1.6351057 1.6351057  1.5910025  1.5910025
  2 3.3687888  -1.0009392 -0.99741111 0.90103465 1.6351057 1.6351057  3.4673664  3.4673664
  1 3.5704152 -0.99292174  -1.0035117 0.90928324 1.6351057 1.6351057   3.870619   3.870619
  1  4.477232 -0.99476827  -1.0075479 0.90822802 1.6351057 1.6351057  5.6842528  5.6842528
  8 3.3021534  -1.0062724 -0.99542704 0.89469527 1.6351057 1.6351057  3.3340955  3.3340955
  1 3.3729987   -1.006431 -0.99158976  0.8950356 1.6351057 1.6351057  3.4757861  3.4757861
 1 2.4240179 -0.99440613  -1.0053193 0.90743749 1.6351057 1.6351057  1.5778246  1.5778246
 4 1.8826035  -1.0007598 -0.99713673  0.8989612 1.6351057 1.6351057 0.49499571 0.49499571
10 2.1082131   -1.005483 -0.99409519 0.89316822 1.6351057 1.6351057 0.94621485 0.94621485
 1  2.059999 -0.98975931  -1.0121652  0.9116902 1.6351057 1.6351057 0.84978663 0.84978663
 4 2.4627035 -0.99452297  -1.0050486 0.90734038 1.6351057 1.6351057  1.6551958  1.6551958
 2 2.5536303 -0.98793395  -1.0146485 0.91433801 1.6351057 1.6351057  1.8370493  1.8370493
 5 2.5733844 -0.98372365  -1.0180039 0.91815989 1.6351057 1.6351057  1.8765576  1.8765576
 3 2.8027115  -1.0005019 -0.99518147 0.90045401 1.6351057 1.6351057  2.3352116  2.3352116
 1 3.9760567 -0.97503142  -1.0278552 0.92764772 1.6351057 1.6351057  4.6819021  4.6819021
 3 3.9755928 -0.97503214  -1.0278553 0.92764748 1.6351057 1.6351057  4.6809743  4.6809743
 6 5.1110225 -0.98492264  -1.0161151 0.91953678 1.6351057 1.6351057  6.9518337  6.9518337
 2 4.4716865 -0.98682033  -1.0135935 0.91710719 1.6351057 1.6351057  5.6731617  5.6731617
 1 3.7779803 -0.99316708  -1.0031114 0.90917182 1.6351057 1.6351057  4.2857493  4.2857493
 6 2.7564181  -1.0041511 -0.99290995 0.89702932 1.6351057 1.6351057  2.2426248  2.2426248
 3 3.4765744  -1.0118582 -0.98733852 0.88565288 1.6351057 1.6351057  3.6829374  3.6829374
 7 2.7352895  -1.0110787 -0.98834955 0.88701064 1.6351057 1.6351057  2.2003677  2.2003677
 3 3.9862983  -1.0130808 -0.98913449 0.88476844 1.6351057 1.6351057  4.7023853  4.7023853
11 5.4694436  -1.0209169 -0.98093133 0.87709423 1.6351057 1.6351057  7.6686759  7.6686759
 4 4.8468081   -1.023812  -0.9743495 0.87383495 1.6351057 1.6351057  6.4234049  6.4234049
 1 4.2935911  -1.0204439 -0.97999938 0.87837713 1.6351057 1.6351057  5.3169708  5.3169708
 1 6.7095807  -1.0251452 -0.96533361 0.87620623 1.6351057 1.6351057   10.14895   10.14895
 2 6.8103614  -1.0375178 -0.95210962 0.86302113 1.6351057 1.6351057  10.350511  10.350511
 1 6.8037113  -1.0382768 -0.95154689 0.86213994 1.6351057 1.6351057  10.337211  10.337211
 1 7.3707014  -1.0381534 -0.95205069 0.86266009 1.6351057 1.6351057  11.471191  11.471191
 1 7.7588191  -1.0409121 -0.95147164 0.85920763 1.6351057 1.6351057  12.247427  12.247427
 9 4.6347794  -1.0181256 -0.98003674  0.8827073 1.6351057 1.6351057  5.9993475  5.9993475
 3 3.7886825  -1.0149361 -0.98714592 0.88403498 1.6351057 1.6351057  4.3071538  4.3071538
 2 2.5627686  -1.0088053 -0.99293415 0.89069506 1.6351057 1.6351057  1.8553259  1.8553259
 1  2.521175  -1.0062475 -0.99632128 0.89328902 1.6351057 1.6351057  1.7721387  1.7721387
 2  2.494143  -1.0066203 -0.99580327 0.89276753 1.6351057 1.6351057  1.7180747  1.7180747
12 2.1217459 -0.99000415  -1.0101355 0.91084319 1.6351057 1.6351057 0.97328041 0.97328041
 5 1.6982059 -0.99623529  -1.0044433 0.90430374 1.6351057 1.6351057 0.12620051 0.12620051
 3 1.8459057  -1.0006519  -1.0011999 0.89903778 1.6351057 1.6351057  0.4216001  0.4216001
 1 2.2382473  -1.0025253  -1.0000331 0.89658952 1.6351057 1.6351057  1.2062834  1.2062834
 3 2.4681963  -1.0033065 -0.99915767 0.89540687 1.6351057 1.6351057  1.6661813  1.6661813
 3 3.0529356  -0.9886784  -1.0093645 0.91199018 1.6351057 1.6351057  2.8356598  2.8356598
 3 2.6751332 -0.98832331   -1.010236 0.91332444 1.6351057 1.6351057   2.080055   2.080055
 2 2.8867534 -0.99030568  -1.0150552 0.90981759 1.6351057 1.6351057  2.5032954  2.5032954
 6 2.3256829  -1.0007726  -1.0023593 0.89840353 1.6351057 1.6351057  1.3811544  1.3811544
 1 2.1870896   -1.006121 -0.99464934 0.89258903 1.6351057 1.6351057  1.1039679  1.1039679
 3 1.9339311 -0.99661997  -1.0047202 0.90289591 1.6351057 1.6351057 0.59765097 0.59765097
 3 2.8015789 -0.99466625  -1.0090398 0.90439291 1.6351057 1.6351057  2.3329465  2.3329465
 4  2.600947  -1.0073819 -0.99391372 0.89288529 1.6351057 1.6351057  1.9316828  1.9316828
 3 2.6260222  -1.0067907 -0.99432256 0.89368076 1.6351057 1.6351057  1.9818331  1.9818331
 2  2.119423  -1.0075186 -0.99084576 0.89113138 1.6351057 1.6351057 0.96863462 0.96863462
 1 1.9670255  -1.0066614 -0.99133125 0.89228461 1.6351057 1.6351057  0.6638396  0.6638396
 1 2.1344619  -1.0073926 -0.98997849 0.89138741 1.6351057 1.6351057 0.99871248 0.99871248
 2 2.1515023  -1.0081362 -0.98910093 0.89062795 1.6351057 1.6351057  1.0327933  1.0327933
 1 1.9334692  -1.0074453 -0.99203811 0.89157548 1.6351057 1.6351057 0.59672699 0.59672699
 2 1.7594673  -1.0043219 -0.99469097 0.89572351 1.6351057 1.6351057 0.24872327 0.24872327
 1 3.3477405  -1.0061444 -0.98712356 0.89346991 1.6351057 1.6351057  3.4252696  3.4252696
 3 3.7065537 -0.99912838 -0.99663184 0.89962256 1.6351057 1.6351057  4.1428961  4.1428961
 1 6.7028861 -0.97349452  -1.0237387 0.92921978 1.6351057 1.6351057  10.135561  10.135561
10 6.9873972 -0.96228071  -1.0416513 0.94464968 1.6351057 1.6351057  10.704583  10.704583
 2 3.5575022 -0.97738451  -1.0240195 0.92582455 1.6351057 1.6351057  3.8447931  3.8447931
 3 3.3111254 -0.97982351   -1.024293 0.92323577 1.6351057 1.6351057  3.3520394  3.3520394
 1 3.0962551  -0.9849434  -1.0154487 0.91805787 1.6351057 1.6351057  2.9222988  2.9222988
 3 4.0315003 -0.98019707  -1.0203885 0.92387595 1.6351057 1.6351057  4.7927894  4.7927894
 1 2.4420414 -0.99213012  -1.0071946 0.90779689 1.6351057 1.6351057  1.6138714  1.6138714
 2 2.1064765  -1.0034252 -0.99869865  0.8958504 1.6351057 1.6351057 0.94274173 0.94274173
19 2.2473791  -1.0028383  -0.9998444 0.89639652 1.6351057 1.6351057  1.2245469  1.2245469
10 1.9087847  -0.9989085 -0.99908947 0.90110588 1.6351057 1.6351057 0.54735804 0.54735804
 1 2.4740188 -0.99941919  -1.0045172 0.89997627 1.6351057 1.6351057  1.6778263  1.6778263
 4  2.988239 -0.99253503  -1.0126886 0.90705379 1.6351057 1.6351057  2.7062667  2.7062667
 3 2.8944359  -1.0135073 -0.98718805  0.8856815 1.6351057 1.6351057  2.5186605  2.5186605
 2 2.5240652  -1.0029843 -0.99352455 0.89596017 1.6351057 1.6351057   1.777919   1.777919
 3 2.4245141  -1.0006583 -0.99675993  0.8983735 1.6351057 1.6351057   1.578817   1.578817
 2   2.22453 -0.99010665  -1.0136455 0.91082558 1.6351057 1.6351057  1.1788487  1.1788487
 2 3.3762747 -0.99787617 -0.99795193 0.90383436 1.6351057 1.6351057  3.4823381  3.4823381
 2 3.5458207 -0.99918695 -0.99688226 0.90270477 1.6351057 1.6351057  3.8214301  3.8214301
 1 2.4739853 -0.99408574  -1.0064472  0.9078498 1.6351057 1.6351057  1.6777593  1.6777593
 3 2.8337009 -0.99303858  -1.0075721 0.90928941 1.6351057 1.6351057  2.3971905  2.3971905
 1 2.3184189 -0.99285913   -1.008455 0.90897596 1.6351057 1.6351057  1.3666264  1.3666264
 7 2.5023005 -0.99170593  -1.0073642 0.91023356 1.6351057 1.6351057  1.7343897  1.7343897
 1 1.9333382 -0.99251777  -1.0072849  0.9083184 1.6351057 1.6351057 0.59646513 0.59646513
 2 3.3540161  -1.0131727 -0.97930596 0.88602968 1.6351057 1.6351057  3.4378209  3.4378209
 6 1.9161967  -1.0038509  -0.9954417 0.89657824 1.6351057 1.6351057 0.56218214 0.56218214
 6 1.8130069  -1.0016554 -0.99880516 0.89873487 1.6351057 1.6351057 0.35580245 0.35580245
 4 1.9018273  -1.0026319 -0.99855237 0.89753954 1.6351057 1.6351057  0.5334433  0.5334433
 4 2.4295183 -0.98790965  -1.0147251 0.91253328 1.6351057 1.6351057  1.5888253  1.5888253
4 2.4113844 -0.98859971  -1.0140229  0.9117017 1.6351057 1.6351057  1.5525574  1.5525574
3 5.0279376 -0.98072007  -1.0276321  0.9202547 1.6351057 1.6351057  6.7856639  6.7856639
1 4.8568075  -1.0063429 -0.99609747 0.89065008 1.6351057 1.6351057  6.4434037  6.4434037
1 3.6902231  -1.0027949 -0.99630086   0.894842 1.6351057 1.6351057  4.1102349  4.1102349
2 2.1726535   -1.006968 -0.98952335 0.89320631 1.6351057 1.6351057  1.0750956  1.0750956
1  2.309447  -1.0135734 -0.98279392 0.88593307 1.6351057 1.6351057  1.3486827  1.3486827
3 3.9613089   -1.020614  -0.9772619 0.87714441 1.6351057 1.6351057  4.6524064  4.6524064
3 3.8071772  -1.0115449 -0.99154907 0.88674542 1.6351057 1.6351057  4.3441431  4.3441431
2  3.925011  -1.0031578  -1.0021064 0.89517675 1.6351057 1.6351057  4.5798107  4.5798107
1 2.7035781 -0.98391509  -1.0200544 0.91811209 1.6351057 1.6351057   2.136945   2.136945
1 3.0394518  -1.0203175 -0.97407482 0.87894983 1.6351057 1.6351057  2.8086922  2.8086922
3 4.4940273   -1.013975 -0.97688453     0.8863 1.6351057 1.6351057  5.7178433  5.7178433
1  3.417208  -1.0197319 -0.97469835  0.8783601 1.6351057 1.6351057  3.5642046  3.5642046
2 3.5450905  -1.0208816 -0.97343503  0.8771897 1.6351057 1.6351057  3.8199696  3.8199696
3 3.8883516 -0.99320811  -1.0039075 0.90948269 1.6351057 1.6351057  4.5064919  4.5064919
2 2.0314254 -0.99355667  -1.0074474 0.90787844 1.6351057 1.6351057 0.79263944 0.79263944
7 1.7478705 -0.99690943  -1.0045301 0.90362341 1.6351057 1.6351057 0.22552975 0.22552975
2 1.8946636 -0.99233363  -1.0099714 0.90833731 1.6351057 1.6351057 0.51911595 0.51911595
1 2.3095277 -0.98979256  -1.0136339 0.91176616 1.6351057 1.6351057  1.3488441  1.3488441
3 2.5890366   -1.000999 -0.99810297 0.90044411 1.6351057 1.6351057  1.9078618  1.9078618
1 1.8194522 -0.99478071  -1.0058952 0.90620235 1.6351057 1.6351057 0.36869318 0.36869318
7 2.1523028  -1.0036716 -0.99864779  0.8959571 1.6351057 1.6351057  1.0343943  1.0343943
1 2.5569676  -1.0126238 -0.98219865 0.88711896 1.6351057 1.6351057  1.8437239  1.8437239
4 2.7377291  -1.0166095 -0.97776537 0.88243094 1.6351057 1.6351057   2.205247   2.205247
2  2.574491  -1.0136647 -0.98219154 0.88629906 1.6351057 1.6351057  1.8787707  1.8787707
7 2.5388282  -1.0138473 -0.98205535 0.88604212 1.6351057 1.6351057  1.8074452  1.8074452
4 3.3203578  -1.0220898 -0.97380478 0.87650882 1.6351057 1.6351057  3.3705042  3.3705042
3 2.2278531  -1.0067283 -0.99163933  0.8937926 1.6351057 1.6351057  1.1854948  1.1854948
5 2.0462566   -1.011126 -0.98666203 0.88820401 1.6351057 1.6351057 0.82230189 0.82230189
4   3.24833  -1.0172802 -0.98172153 0.88093178 1.6351057 1.6351057  3.2264488  3.2264488
7 3.1400761 -0.99899562  -1.0062023 0.90010566 1.6351057 1.6351057  3.0099409  3.0099409
3 2.4884946  -1.0066387 -0.99202632 0.89414612 1.6351057 1.6351057   1.706778   1.706778
5 2.1255752    -1.01098 -0.98781002  0.8885214 1.6351057 1.6351057  0.9809391  0.9809391
2 3.3534715  -1.0155008 -0.98523901 0.88297505 1.6351057 1.6351057  3.4367317  3.4367317
3 3.6517334  -1.0178927 -0.98213661 0.88036363 1.6351057 1.6351057  4.0332554  4.0332554
2 2.6102173 -0.99879989  -1.0053532 0.90043891 1.6351057 1.6351057  1.9502233  1.9502233
4 3.0791382  -1.0048763 -0.99900611 0.89384344 1.6351057 1.6351057  2.8880651  2.8880651
3 3.0753232  -1.0047681 -0.99914063  0.8939642 1.6351057 1.6351057  2.8804351  2.8804351
3 3.0086678  -1.0046987 -0.99923412  0.8941827 1.6351057 1.6351057  2.7471244  2.7471244
1 2.9986116  -1.0058289 -0.99714105 0.89255925 1.6351057 1.6351057  2.7270118  2.7270118
 5 2.9332925  -1.0053092 -0.99306086 0.89267891 1.6351057 1.6351057  2.5963736  2.5963736
 5 1.7604709  -1.0001217  -1.0013983 0.89984444 1.6351057 1.6351057 0.25073045 0.25073045
 1 3.1031936 -0.98226627  -1.0211305 0.92074153 1.6351057 1.6351057  2.9361758  2.9361758
 1 3.0468639 -0.98460111  -1.0162113  0.9184028 1.6351057 1.6351057  2.8235165  2.8235165
 2  3.923485  -1.0151374 -0.98410998 0.88224364 1.6351057 1.6351057  4.5767587  4.5767587
 4 5.1887063  -1.0044315   -1.001687 0.89329939 1.6351057 1.6351057  7.1072012  7.1072012
 3 4.9870027  -1.0287181 -0.96465776 0.86911056 1.6351057 1.6351057  6.7037942  6.7037942
 2 2.9955141  -1.0201467 -0.97514446 0.87856118 1.6351057 1.6351057   2.720817   2.720817
 1 3.0303536  -1.0199062 -0.97559421 0.87862517 1.6351057 1.6351057  2.7904959  2.7904959
10 4.0576869  -1.0262244 -0.96733787 0.87210628 1.6351057 1.6351057  4.8451626  4.8451626
 1 3.2305359 -0.98208022  -1.0227996 0.91919978 1.6351057 1.6351057  3.1908605  3.1908605
 1 3.5933502 -0.98198646  -1.0219432 0.91867632 1.6351057 1.6351057  3.9164892  3.9164892
 1 2.2050682 -0.99641516  -1.0033916 0.90287397 1.6351057 1.6351057   1.139925   1.139925
 7 2.9625113  -0.9919727  -1.0060313 0.90789782 1.6351057 1.6351057  2.6548113  2.6548113
 1  3.318887 -0.98330798  -1.0154198  0.9189201 1.6351057 1.6351057  3.3675626  3.3675626
 1 3.0304166 -0.98005181  -1.0224716 0.92226319 1.6351057 1.6351057  2.7906219  2.7906219
 4 3.6220372 -0.97874607  -1.0240615 0.92287093 1.6351057 1.6351057  3.9738632  3.9738632
 1 2.7781222    -1.01046  -0.9835458 0.88930474 1.6351057 1.6351057  2.2860332  2.2860332
 2 3.0770046  -1.0066722 -0.98736705 0.89373723 1.6351057 1.6351057  2.8837978  2.8837978
12 2.0043039  -0.9960835  -1.0021289 0.90443924 1.6351057 1.6351057 0.73839642 0.73839642
 1    2.6001  -1.0131263 -0.98394696 0.88700043 1.6351057 1.6351057  1.9299887  1.9299887
 4 2.8799749  -1.0081066 -0.98933805 0.89285951 1.6351057 1.6351057  2.4897386  2.4897386
 2 2.4867534  -1.0139348 -0.98176137 0.88476904 1.6351057 1.6351057  1.7032955  1.7032955
 2 2.4660631    -1.01346 -0.98179627 0.88545806 1.6351057 1.6351057  1.6619148  1.6619148
 1 3.0636341 -0.98223762  -1.0196457  0.9190109 1.6351057 1.6351057  2.8570568  2.8570568
 5 1.7222225 -0.99662111  -1.0041776 0.90401371 1.6351057 1.6351057 0.17423378 0.17423378
 3  2.473668  -1.0099493 -0.98486699 0.88941265 1.6351057 1.6351057  1.6771247  1.6771247
 1 4.3016083 -0.97925161  -1.0250274 0.92154448 1.6351057 1.6351057  5.3330052  5.3330052
 2 2.4609755  -0.9895365  -1.0111057 0.91062911 1.6351057 1.6351057  1.6517397  1.6517397
 3 2.6204243 -0.98904002   -1.011473 0.91108106 1.6351057 1.6351057  1.9706373  1.9706373
 5 2.9170247  -1.0163625 -0.98171395 0.88188495 1.6351057 1.6351057   2.563838   2.563838
 5 3.5201598  -1.0202068 -0.97616317 0.87772773 1.6351057 1.6351057  3.7701084  3.7701084
 1  2.704936  -1.0068518 -0.98814541 0.89211976 1.6351057 1.6351057  2.1396607  2.1396607
 1 2.3748535 -0.99777894  -1.0013461 0.90125831 1.6351057 1.6351057  1.4794957  1.4794957
 4 3.1949823  -1.0007863 -0.99765044 0.89738655 1.6351057 1.6351057  3.1197533  3.1197533
 5 3.1181925  -1.0012574 -0.99694756 0.89695375 1.6351057 1.6351057  2.9661736  2.9661736
11 1.7541348  -1.0003545 -0.99807315 0.89974279 1.6351057 1.6351057 0.23805818 0.23805818
10 1.8622473  -1.0058223 -0.99159225 0.89393619 1.6351057 1.6351057 0.45428337 0.45428337
17 2.0591004 -0.99035345  -1.0107333 0.91018927 1.6351057 1.6351057 0.84798955 0.84798955
 4 2.8339217  -1.0045961 -0.99017755 0.89468335 1.6351057 1.6351057  2.3976322  2.3976322
 2 3.1963386 -0.99880597 -0.99620385 0.90100931 1.6351057 1.6351057  3.1224659  3.1224659
 9  2.521696 -0.99264651  -1.0051137 0.90873727 1.6351057 1.6351057  1.7731807  1.7731807
 1  2.236537 -0.99568864  -1.0019346 0.90517726 1.6351057 1.6351057  1.2028627  1.2028627
 2 2.3969072 -0.99961002 -0.99735602 0.90139333 1.6351057 1.6351057   1.523603   1.523603
 1  2.473067  -1.0155626   -0.981665 0.88327316 1.6351057 1.6351057  1.6759226  1.6759226
 1 2.2906275  -1.0129115 -0.98544336 0.88590622 1.6351057 1.6351057  1.3110438  1.3110438
 8 2.9038802  -0.9938065  -1.0118487 0.90631099 1.6351057 1.6351057  2.5375491  2.5375491
 3 2.3390494  -1.0143967 -0.98281064 0.88493587 1.6351057 1.6351057  1.4078875  1.4078875
 5 1.6993017  -1.0018085  -0.9987376 0.89816593 1.6351057 1.6351057 0.12839211 0.12839211
 3 1.7497332  -1.0041939 -0.99585098 0.89563955 1.6351057 1.6351057 0.22925504 0.22925504
 1 2.0175954  -1.0103814 -0.98817032  0.8889588 1.6351057 1.6351057 0.76497941 0.76497941
12 1.9744931   -1.009705 -0.98837208 0.88987691 1.6351057 1.6351057 0.67877491 0.67877491
 1 1.7671653  -1.0017619  -0.9971733 0.89860361 1.6351057 1.6351057  0.2641192  0.2641192
 1 1.9326333  -0.9994512  -1.0022597 0.89987754 1.6351057 1.6351057 0.59505532 0.59505532
10 2.6106211 -0.99083063  -1.0142403  0.9098596 1.6351057 1.6351057  1.9510309  1.9510309
 8 2.9423488 -0.98867321   -1.017026 0.91259854 1.6351057 1.6351057  2.6144864  2.6144864
 9  4.944981 -0.98482622  -1.0230105 0.91503386 1.6351057 1.6351057  6.6197507  6.6197507
 2 3.7461119 -0.99327135  -1.0138607 0.90664873 1.6351057 1.6351057  4.2220124  4.2220124
 4 2.6911779  -1.0029367 -0.99764795 0.89526722 1.6351057 1.6351057  2.1121446  2.1121446
 1 2.7378142 -0.99720696  -1.0065645 0.90172595 1.6351057 1.6351057   2.205417   2.205417
2 3.1628216  -1.0118448 -0.98805869 0.88858843 1.6351057 1.6351057  3.0554319  3.0554319
3 3.8469117  -1.0118809 -0.98633025 0.88927828 1.6351057 1.6351057  4.4236121  4.4236121
1 3.6864526  -1.0127737 -0.98589368 0.88813044 1.6351057 1.6351057   4.102694   4.102694
3 2.5906191  -1.0112592 -0.98663548 0.88908227 1.6351057 1.6351057  1.9110269  1.9110269
1 2.8836656  -1.0090428 -0.98925101 0.89180879 1.6351057 1.6351057  2.4971199  2.4971199
2 3.9460468  -1.0091066 -0.98323142 0.88973199 1.6351057 1.6351057  4.6218822  4.6218822
5 3.7877215  -0.9999586 -0.99398717 0.89963172 1.6351057 1.6351057  4.3052316  4.3052316
3 3.2295759  -1.0009012 -0.99469724 0.89802353 1.6351057 1.6351057  3.1889404  3.1889404
1 2.5318022 -0.99879287 -0.99732362 0.90134554 1.6351057 1.6351057  1.7933932  1.7933932
1 1.8813462 -0.99443411  -1.0068261 0.90550372 1.6351057 1.6351057 0.49248117 0.49248117
1 2.1183005  -1.0114291 -0.98691706 0.88755327 1.6351057 1.6351057 0.96638969 0.96638969
1 2.0227558  -1.0102065 -0.98844198 0.88925132 1.6351057 1.6351057 0.77530027 0.77530027
1 2.6564642    -1.00967 -0.98491338 0.89033848 1.6351057 1.6351057  2.0427171  2.0427171
2 2.9768805  -1.0023966 -0.99366255 0.89634062 1.6351057 1.6351057  2.6835497  2.6835497
2 2.8427178 -0.98588986   -1.015263 0.91465168 1.6351057 1.6351057  2.4152242  2.4152242
4 1.8374997  -0.9937982  -1.0067441 0.90721947 1.6351057 1.6351057 0.40478807 0.40478807
1  2.180359 -0.99936885  -1.0008364 0.90182613 1.6351057 1.6351057  1.0905067  1.0905067
3 2.7983816   -1.005667 -0.99273588 0.89548576 1.6351057 1.6351057  2.3265519  2.3265519
8 2.9094961 -0.99172314  -1.0085482 0.90762112 1.6351057 1.6351057  2.5487808  2.5487808
1 4.2230398 -0.99095858  -1.0048571 0.91159066 1.6351057 1.6351057  5.1758682  5.1758682
 3 3.9553984 -0.98936966  -1.0071331 0.91094812 1.6351057 1.6351057   4.6405855   4.6405855
20 3.1073901 -0.97993132  -1.0228077 0.92211096 1.6351057 1.6351057   2.9445689   2.9445689
 4 2.9767844 -0.98051004  -1.0215234 0.92196461 1.6351057 1.6351057   2.6833574   2.6833574
 3 5.1462156 -0.98532314  -1.0150771 0.91910474 1.6351057 1.6351057     7.02222     7.02222
 3 4.6800429 -0.97094993  -1.0319303 0.93364189 1.6351057 1.6351057   6.0898745   6.0898745
 1 2.6542062 -0.99552245  -1.0040102 0.90352002 1.6351057 1.6351057   2.0382012   2.0382012
 2 2.6489954  -0.9966256  -1.0020103 0.90243547 1.6351057 1.6351057   2.0277795   2.0277795
 1 2.6567429 -0.98491489  -1.0182452 0.91604143 1.6351057 1.6351057   2.0432744   2.0432744
 2  3.699442 -0.98194803  -1.0225049  0.9186747 1.6351057 1.6351057   4.1286726   4.1286726
 1 2.8899091 -0.98497395  -1.0192077 0.91576692 1.6351057 1.6351057   2.5096069   2.5096069
 3 2.2221432 -0.99283569  -1.0091659 0.90685369 1.6351057 1.6351057   1.1740751   1.1740751
 1 1.6636542  -1.0019599  -0.9971269 0.89791988 1.6351057 1.6351057 0.057096993 0.057096993
 1 2.4564978  -1.0113107 -0.98802777 0.88711467 1.6351057 1.6351057   1.6427844   1.6427844
 7 1.9232042  -1.0051838 -0.99577362 0.89425163 1.6351057 1.6351057  0.57619703  0.57619703
 8 1.9192143  -1.0034516 -0.99807255 0.89614045 1.6351057 1.6351057  0.56821722  0.56821722
 2 1.7513686  -1.0042054 -0.99600864  0.8953119 1.6351057 1.6351057  0.23252596  0.23252596
 4 1.8920641  -1.0072868 -0.99222007 0.89241079 1.6351057 1.6351057  0.51391693  0.51391693
 6 1.9838649  -1.0072593 -0.99286344 0.89246221 1.6351057 1.6351057  0.69751853  0.69751853
 3 1.8126494  -1.0006869   -1.001007 0.89904483 1.6351057 1.6351057  0.35508751  0.35508751
 5 2.5974244  -1.0012101  -1.0028641 0.89849178 1.6351057 1.6351057   1.9246375   1.9246375
1 2.9181158 -0.99146973  -1.0143303 0.90910498 1.6351057 1.6351057  2.5660203  2.5660203
5 3.2096616  -1.0086696 -0.99419438 0.88973116 1.6351057 1.6351057  3.1491119  3.1491119
1 3.0321292  -1.0081814 -0.99469387 0.89043629 1.6351057 1.6351057  2.7940471  2.7940471
2 2.5085731  -1.0080657  -0.9939112  0.8911514 1.6351057 1.6351057  1.7469349  1.7469349
2 2.5011312   -1.000908  -1.0029525 0.89901217 1.6351057 1.6351057  1.7320511  1.7320511
1  2.003803  -1.0027874 -0.99592932  0.8978869 1.6351057 1.6351057  0.7373946  0.7373946
4 1.8254582   -0.998818 -0.99968572 0.90110161 1.6351057 1.6351057 0.38070501 0.38070501
3 1.7547263  -1.0041207 -0.99519657  0.8951701 1.6351057 1.6351057 0.23924135 0.23924135
5 3.7272166  -1.0120653   -0.984928 0.88533051 1.6351057 1.6351057  4.1842218  4.1842218
2 3.7396816    -1.01128 -0.98175322 0.88936527 1.6351057 1.6351057  4.2091519  4.2091519
2 1.7857811  -1.0038507  -0.9965754 0.89605259 1.6351057 1.6351057 0.30135093 0.30135093
6 1.9048319  -1.0053266 -0.99520684 0.89451812 1.6351057 1.6351057 0.53945251 0.53945251
3 2.2202682  -1.0009476  -1.0000355 0.90001353 1.6351057 1.6351057   1.170325   1.170325
5 1.9619992 -0.99528328  -1.0060925 0.90436904 1.6351057 1.6351057 0.65378711 0.65378711
9 2.4230305 -0.99378062  -1.0066002 0.90812858 1.6351057 1.6351057  1.5758496  1.5758496
4 1.9047872 -0.99566028  -1.0047941 0.90547128 1.6351057 1.6351057 0.53936309 0.53936309
4 2.1123889 -0.99415896  -1.0053645  0.9072858 1.6351057 1.6351057  0.9545664  0.9545664
2 2.0271239 -0.99536721  -1.0041746 0.90591374 1.6351057 1.6351057 0.78403649 0.78403649
1 1.7784576 -0.99944299 -0.99942014 0.90029066 1.6351057 1.6351057 0.28670384 0.28670384
3 2.3903424 -0.99350906  -1.0045583 0.90673912 1.6351057 1.6351057  1.5104736  1.5104736
3 3.0526016 -0.99933313 -0.99568893 0.90062413 1.6351057 1.6351057  2.8349919  2.8349919
1 2.9470579 -0.99942346 -0.99587789 0.90038772 1.6351057 1.6351057  2.6239044  2.6239044
4 2.0025539 -0.99246487  -1.0078641 0.90891982 1.6351057 1.6351057 0.73489639 0.73489639
3 1.8061928  -1.0064431 -0.99149393 0.89313123 1.6351057 1.6351057 0.34217426 0.34217426
1 3.0718838 -0.98583763  -1.0154146 0.91445963 1.6351057 1.6351057  2.8735562  2.8735562
2 3.0979238 -0.98585804  -1.0149555  0.9144881 1.6351057 1.6351057  2.9256363  2.9256363
1  3.003266 -0.98618709  -1.0147328 0.91414708 1.6351057 1.6351057  2.7363207  2.7363207
4 2.9573916 -0.99514785  -1.0010293 0.90611514 1.6351057 1.6351057  2.6445719  2.6445719
6 2.6416315 -0.99697953  -1.0007381  0.9046381 1.6351057 1.6351057  2.0130517  2.0130517
2 2.1114708  -0.9882618  -1.0136255 0.91292457 1.6351057 1.6351057 0.95273034 0.95273034
1 3.7176101 -0.98658085  -1.0164355 0.91293106 1.6351057 1.6351057  4.1650089  4.1650089
2 4.7003474  -0.9921963  -1.0150088 0.90660709 1.6351057 1.6351057  6.1304835  6.1304835
5 4.2718478 -0.99763232 -0.99747496 0.90456233 1.6351057 1.6351057  5.2734843  5.2734843
7 3.3723153   -1.004007 -0.98957545 0.89568401 1.6351057 1.6351057  3.4744193  3.4744193
2 3.6047979 -0.99271973  -1.0026518  0.9084231 1.6351057 1.6351057  3.9393846  3.9393846
1 2.1672489 -0.99678706  -1.0018471 0.90448639 1.6351057 1.6351057  1.0642866  1.0642866
7 1.7480176  -1.0046029 -0.99363032 0.89502236 1.6351057 1.6351057 0.22582389 0.22582389
1 1.8349962  -1.0038065 -0.99487041 0.89648246 1.6351057 1.6351057 0.39978115 0.39978115
3 1.7364083 -0.99772966  -1.0019326 0.90288592 1.6351057 1.6351057  0.2026053  0.2026053
1 1.7321657  -1.0047211 -0.99490143 0.89502094 1.6351057 1.6351057 0.19412004 0.19412004
2 1.7321892  -1.0047963 -0.99477826 0.89493682 1.6351057 1.6351057   0.1941671   0.1941671
6 2.0872994  -0.9899874  -1.0127298 0.91066574 1.6351057 1.6351057  0.90438742  0.90438742
9 2.3531559 -0.99280068  -1.0053641 0.90849441 1.6351057 1.6351057   1.4361004   1.4361004
2 2.4372767 -0.99485546  -1.0024517 0.90619006 1.6351057 1.6351057   1.6043421   1.6043421
2 2.1431651 -0.99618431   -1.001547 0.90451041 1.6351057 1.6351057   1.0161189   1.0161189
2 2.5094603 -0.99203232  -1.0082406 0.90761069 1.6351057 1.6351057   1.7487092   1.7487092
3 1.9624089  -1.0059978 -0.99089686 0.89384579 1.6351057 1.6351057  0.65460647  0.65460647
4 1.9504442 -0.99598152  -1.0024828 0.90447845 1.6351057 1.6351057  0.63067712  0.63067712
2 2.5249049  -0.9842095   -1.017844 0.91789092 1.6351057 1.6351057   1.7795985   1.7795985
3 2.6090503 -0.99290541  -1.0047573 0.90740005 1.6351057 1.6351057   1.9478894   1.9478894
4 2.4807177 -0.99526942   -1.002054 0.90481979 1.6351057 1.6351057    1.691224    1.691224
2 1.6660038   -1.001209 -0.99918727  0.8987739 1.6351057 1.6351057 0.061796267 0.061796267
2 1.8248901  -1.0044169 -0.99588079 0.89553972 1.6351057 1.6351057  0.37956885  0.37956885
3 1.8680011  -1.0052558 -0.99370495 0.89491338 1.6351057 1.6351057  0.46579081  0.46579081
1 1.8457984 -0.99648648   -1.004486 0.90318727 1.6351057 1.6351057  0.42138547  0.42138547
1 1.8563607  -1.0001023  -1.0001444 0.89915341 1.6351057 1.6351057  0.44251009  0.44251009
2 1.6773756  -1.0014336 -0.99783033   0.898236 1.6351057 1.6351057 0.084539956 0.084539956
5 1.7706366 -0.99754665  -1.0021665 0.90318131 1.6351057 1.6351057  0.27106191  0.27106191
7 1.8032348  -1.0007351 -0.99964701 0.89977492 1.6351057 1.6351057  0.33625825  0.33625825
2 1.7931624 -0.99649205  -1.0048335 0.90332053 1.6351057 1.6351057   0.3161135   0.3161135
 1 3.5214593 -0.97865481  -1.0258526  0.9232824 1.6351057 1.6351057  3.7727073  3.7727073
 2 2.3151656 -0.99522315  -1.0023516 0.90506854 1.6351057 1.6351057  1.3601199  1.3601199
 2 2.7308453  -1.0005361 -0.99891254 0.89784788 1.6351057 1.6351057  2.1914792  2.1914792
 2 5.9697381 -0.99743227 -0.99485289 0.90187315 1.6351057 1.6351057  8.6692649  8.6692649
 2 3.1766827 -0.98410948  -1.0206438 0.91660085 1.6351057 1.6351057   3.083154   3.083154
11 2.4475214 -0.99069187  -1.0118758 0.91128099 1.6351057 1.6351057  1.6248315  1.6248315
 4 2.4651049 -0.99232217  -1.0098588 0.90960786 1.6351057 1.6351057  1.6599985  1.6599985
 8 1.9618037 -0.99581438  -1.0040781 0.90538402 1.6351057 1.6351057 0.65339605 0.65339605
 9 1.9855645 -0.99855913  -1.0016585 0.90248375 1.6351057 1.6351057  0.7009177  0.7009177
 3 2.5835831 -0.99424664  -1.0106532  0.9058219 1.6351057 1.6351057  1.8969549  1.8969549
 7 1.7989726  -1.0005668  -1.0010294 0.89946129 1.6351057 1.6351057 0.32773397 0.32773397
 2 1.8223973  -1.0043915  -0.9962642  0.8953153 1.6351057 1.6351057 0.37458324 0.37458324
 7 2.0272183  -0.9989516  -1.0036856 0.90142317 1.6351057 1.6351057 0.78422521 0.78422521
 6 3.1147326 -0.99305024  -1.0130792 0.90744746 1.6351057 1.6351057  2.9592539  2.9592539
 3    4.0159 -0.98357978  -1.0239494 0.91781281 1.6351057 1.6351057  4.7615888  4.7615888
 1  5.288048 -0.98664723  -1.0208221 0.91250931 1.6351057 1.6351057  7.3058848  7.3058848
 3 4.3403809 -0.98846972  -1.0181653 0.91083417 1.6351057 1.6351057  5.4105504  5.4105504
 4 5.1992523 -0.98018529  -1.0243557  0.9197882 1.6351057 1.6351057  7.1282932  7.1282932
 2 5.3065451 -0.97787595  -1.0265802 0.92259035 1.6351057 1.6351057   7.342879   7.342879
 4 2.4001999 -0.98873543   -1.015022 0.91179197 1.6351057 1.6351057  1.5301885  1.5301885
4  3.323165 -0.97831565   -1.025479 0.92429759 1.6351057 1.6351057  3.3761186  3.3761186
3 2.7096828 -0.99618256  -1.0004736 0.90509014 1.6351057 1.6351057  2.1491544  2.1491544
5 2.2167805  -1.0082369 -0.99046314 0.89027496 1.6351057 1.6351057  1.1633496  1.1633496
2 2.4693382   -1.010197 -0.98593788 0.88835765 1.6351057 1.6351057  1.6684652  1.6684652
2 2.3579055  -1.0135364 -0.98203918 0.88567154 1.6351057 1.6351057  1.4455997  1.4455997
4 2.0939542  -1.0047826 -0.99196842 0.89546514 1.6351057 1.6351057 0.91769705 0.91769705
1 2.0667803  -1.0075575 -0.99212902 0.89121356 1.6351057 1.6351057  0.8633493  0.8633493
1 3.4618534   -1.004409 -0.99965431 0.89607895 1.6351057 1.6351057  3.6534955  3.6534955
1 3.8277488  -1.0107083  -0.9921728 0.88937396 1.6351057 1.6351057  4.3852863  4.3852863
1 5.2784934  -1.0021836  -1.0020588 0.89983036 1.6351057 1.6351057  7.2867754  7.2867754
5 5.9072596 -0.98915991  -1.0053673 0.91416247 1.6351057 1.6351057  8.5443078  8.5443078
2 5.9657316 -0.98657214  -1.0118405  0.9179885 1.6351057 1.6351057   8.661252   8.661252
3 4.8301833  -1.0277994 -0.96873496 0.87166367 1.6351057 1.6351057  6.3901552  6.3901552
2 3.8605006  -1.0098461 -0.99145166 0.88757929 1.6351057 1.6351057    4.45079    4.45079
2 3.4584067  -1.0109498 -0.98972982 0.88669844 1.6351057 1.6351057  3.6466021  3.6466021
2 3.2840407  -1.0151114 -0.98512397 0.88305164 1.6351057 1.6351057  3.2978701  3.2978701
6 3.0528703  -1.0131147 -0.98775613  0.8852568 1.6351057 1.6351057  2.8355292  2.8355292
1 2.3933629  -1.0059685  -0.9962833 0.89308399 1.6351057 1.6351057  1.5165144  1.5165144
8 2.5262708  -0.9935234  -1.0054742 0.90610861 1.6351057 1.6351057  1.7823303  1.7823303
5  2.631756 -0.99871923  -1.0030317 0.89985752 1.6351057 1.6351057  1.9933008  1.9933008
1 3.2624796  -1.0114289 -0.98133437 0.88813154 1.6351057 1.6351057 3.2547478 3.2547478
7 3.3886854  -1.0109526 -0.98160727 0.88852931 1.6351057 1.6351057 3.5071595 3.5071595
1 3.7131602  -1.0153527 -0.97625138  0.8837859 1.6351057 1.6351057 4.1561091 4.1561091
5 3.0900991  -1.0161517 -0.97695367 0.88338252 1.6351057 1.6351057 2.9099868 2.9099868
8 2.9862068    -1.01836 -0.97538747 0.88101912 1.6351057 1.6351057 2.7022024 2.7022024
4 2.5905151  -1.0051281 -0.99311411 0.89314128 1.6351057 1.6351057 1.9108189 1.9108189
1 2.4397941   -1.005729 -0.99268455 0.89261888 1.6351057 1.6351057 1.6093769 1.6093769
1 2.9725006 -0.99438073  -1.0086534 0.90445666 1.6351057 1.6351057 2.6747899 2.6747899
3 2.8368691 -0.98507475  -1.0175667  0.9155435 1.6351057 1.6351057 2.4035268 2.4035268
3 3.0899294 -0.97966621  -1.0225517 0.92282946 1.6351057 1.6351057 2.9096475 2.9096475
5  2.907085 -0.99315182   -1.011788 0.90822148 1.6351057 1.6351057 2.5439588 2.5439588
2 2.8981327 -0.99202976  -1.0132267  0.9092645 1.6351057 1.6351057 2.5260542 2.5260542
2 3.1918284  -1.0098257 -0.99245228 0.88845143 1.6351057 1.6351057 3.1134454 3.1134454
1 4.4052012  -1.0139048 -0.98936961 0.88432048 1.6351057 1.6351057 5.5401911 5.5401911
4 5.3048061  -1.0216792 -0.97890793 0.87595035 1.6351057 1.6351057 7.3394009 7.3394009
1 4.6657451  -1.0200542 -0.98087806 0.87801614 1.6351057 1.6351057 6.0612789 6.0612789
1 2.4135883  -1.0150523  -0.9818135 0.88378568 1.6351057 1.6351057 1.5569654 1.5569654
8 3.3042195  -1.0199843 -0.97734771 0.87829803 1.6351057 1.6351057 3.3382276 3.3382276
3 4.1984948  -1.0246635 -0.97026214 0.87321365 1.6351057 1.6351057 5.1267784 5.1267784
2 4.7043196  -1.0280731  -0.9669935 0.87001414 1.6351057 1.6351057 6.1384278 6.1384278
 7 2.8025427  -1.0174478 -0.97708297 0.88200471 1.6351057 1.6351057   2.334874   2.334874
 2 5.1184371  -1.0073085 -0.98324804 0.89226005 1.6351057 1.6351057  6.9666629  6.9666629
 1 5.6351989  -1.0343523 -0.95434837 0.86457733 1.6351057 1.6351057  8.0001864  8.0001864
 4 5.2904896  -1.0320584 -0.95685579 0.86740188 1.6351057 1.6351057  7.3107678  7.3107678
 5 5.4322879  -1.0122764 -0.97735941 0.88661079 1.6351057 1.6351057  7.5943645  7.5943645
 1 5.5654071  -1.0042681 -0.98732676 0.89437895 1.6351057 1.6351057  7.8606029  7.8606029
 3 3.8405647  -1.0037831  -0.9892278 0.89570489 1.6351057 1.6351057  4.4109181  4.4109181
 2  2.297212 -0.98790436  -1.0153787 0.91367665 1.6351057 1.6351057  1.3242128  1.3242128
 2 2.2111198 -0.99087571   -1.011988 0.91066567 1.6351057 1.6351057  1.1520284  1.1520284
 1 2.1275818 -0.99812671  -1.0039357 0.90282634 1.6351057 1.6351057 0.98495224 0.98495224
 2 2.2512303 -0.99729733  -1.0064727 0.90298747 1.6351057 1.6351057  1.2322493  1.2322493
 7 2.2416491  -1.0004001  -1.0029249 0.89949566 1.6351057 1.6351057  1.2130869  1.2130869
 1 2.7002966 -0.99463707  -1.0079023 0.90721702 1.6351057 1.6351057  2.1303819  2.1303819
 2 2.4967123 -0.98859353  -1.0107601 0.91227273 1.6351057 1.6351057  1.7232134  1.7232134
 1 2.6476046 -0.98642652  -1.0141064 0.91437185 1.6351057 1.6351057  2.0249979  2.0249979
 7 2.4383745 -0.99148396  -1.0069065 0.90911489 1.6351057 1.6351057  1.6065377  1.6065377
 6 2.2829545  -1.0027792 -0.99362469 0.89661063 1.6351057 1.6351057  1.2956978  1.2956978
10 2.1510873   -1.001813 -0.99513731 0.89765235 1.6351057 1.6351057  1.0319632  1.0319632
 1 2.4554125  -1.0053931 -0.99096813 0.89341269 1.6351057 1.6351057  1.6406136  1.6406136
 3 2.3590542  -1.0114369 -0.98514526 0.88715322 1.6351057 1.6351057   1.447897   1.447897
 9 2.5999147  -1.0128879 -0.98623465  0.8869505 1.6351057 1.6351057  1.9296181  1.9296181
10 1.9132788   -1.008546 -0.99056141 0.89085506 1.6351057 1.6351057 0.55634628 0.55634628
 1 2.0628964  -1.0090886  -0.9903795  0.8898245 1.6351057 1.6351057 0.85558155 0.85558155
 4 2.7285348  -1.0007873 -0.99534043 0.89842816 1.6351057 1.6351057  2.1868584  2.1868584
 1 3.3761058  -1.0034163 -0.99751799 0.89815209 1.6351057 1.6351057  3.4820003  3.4820003
 5 4.1837351   -1.023059 -0.97509495 0.87641593 1.6351057 1.6351057  5.0972589  5.0972589
 1 3.5384977  -1.0090728 -0.99264133 0.88861951 1.6351057 1.6351057  3.8067841  3.8067841
 1 3.3579792  -1.0092598 -0.99169951 0.88843513 1.6351057 1.6351057  3.4457472  3.4457472
 4 3.4837887 -0.98067519  -1.0244422 0.92073465 1.6351057 1.6351057  3.6973661  3.6973661
 3 3.5615876  -0.9801997  -1.0247102  0.9211798 1.6351057 1.6351057   3.852964   3.852964
 9 2.9140382   -0.982051  -1.0215811  0.9195162 1.6351057 1.6351057  2.5578651  2.5578651
 1 3.4298922 -0.98066375   -1.023636 0.92061142 1.6351057 1.6351057   3.589573   3.589573
 5 2.1442912  -0.9968839  -1.0059524 0.90255948 1.6351057 1.6351057  1.0183711  1.0183711
 4 2.0192548 -0.99044195  -1.0100136   0.910786 1.6351057 1.6351057 0.76829834 0.76829834
 3 1.8301958  -1.0017413 -0.99796687 0.89877343 1.6351057 1.6351057 0.39018037 0.39018037
 2 1.9802092 -0.99108679  -1.0113813 0.90955769 1.6351057 1.6351057 0.69020702 0.69020702
 1 2.0520929 -0.99242464  -1.0107116 0.90793109 1.6351057 1.6351057 0.83397454 0.83397454
 6   1.84338 -0.99578248  -1.0063389 0.90419146 1.6351057 1.6351057 0.41654861 0.41654861
 7 3.0621516  -0.9828624  -1.0221207 0.91858391 1.6351057 1.6351057   2.854092   2.854092
 2 2.8736521 -0.98267708  -1.0178571 0.91946235 1.6351057 1.6351057  2.4770929  2.4770929
1 3.2663917 -0.97975446  -1.0213695 0.92245404 1.6351057 1.6351057  3.2625721  3.2625721
3 3.7626335 -0.98009725  -1.0191266 0.92210051 1.6351057 1.6351057  4.2550556  4.2550556
4 4.1036866 -0.98688261  -1.0147359 0.91239861 1.6351057 1.6351057   4.937162   4.937162
4 2.8917814  -0.9825509  -1.0199174 0.91878833 1.6351057 1.6351057  2.5133515  2.5133515
2 2.9194026 -0.98194269  -1.0215185  0.9196232 1.6351057 1.6351057   2.568594   2.568594
3 2.6789533 -0.99245315  -1.0068581 0.90970914 1.6351057 1.6351057  2.0876953  2.0876953
1  2.171676 -0.99625168   -1.002355 0.90503619 1.6351057 1.6351057  1.0731407  1.0731407
1 3.3386141  -1.0059049 -0.99743209 0.89453812 1.6351057 1.6351057  3.4070169  3.4070169
3 4.2439867  -1.0179591 -0.98160373 0.88231835 1.6351057 1.6351057   5.217762   5.217762
3 5.1108697  -1.0245311 -0.97440049 0.87516565 1.6351057 1.6351057  6.9515282  6.9515282
1 2.9700346    -1.01731 -0.97764438 0.88103587 1.6351057 1.6351057  2.6698579  2.6698579
4 3.0838483 -0.99225565  -1.0042275 0.90851528 1.6351057 1.6351057  2.8974852  2.8974852
1 3.2920668 -0.98913646  -1.0078236 0.91193416 1.6351057 1.6351057  3.3139223  3.3139223
2 2.4570451 -0.98738251  -1.0162688 0.91443241 1.6351057 1.6351057  1.6438788  1.6438788
7 2.2694216 -0.98980774  -1.0135549  0.9116916 1.6351057 1.6351057  1.2686318  1.2686318
2 2.0263631 -0.99455644  -1.0049383 0.90673057 1.6351057 1.6351057 0.78251497 0.78251497
4 6.9418687 -0.97528332  -1.0268261   0.931074 1.6351057 1.6351057  10.613526  10.613526
3 7.7858742 -0.96960611  -1.0341313 0.93769124 1.6351057 1.6351057  12.301537  12.301537
4 8.7852666  -0.9775742  -1.0285077 0.92880822 1.6351057 1.6351057  14.300322  14.300322
1 3.4043836  -0.9945732  -1.0073025 0.90790956 1.6351057 1.6351057  3.5385558  3.5385558
 4 3.2012855 -0.98538127  -1.0154174 0.91776357 1.6351057 1.6351057  3.1323597  3.1323597
 3 3.7791176 -0.98545917  -1.0199665 0.91746546 1.6351057 1.6351057  4.2880239  4.2880239
 2 2.7820118 -0.99515626  -1.0075152 0.90668055 1.6351057 1.6351057  2.2938124  2.2938124
 4 2.7577018 -0.98705965  -1.0155574 0.91549878 1.6351057 1.6351057  2.2451923  2.2451923
 8 3.3985541 -0.98619086  -1.0175151 0.91684509 1.6351057 1.6351057  3.5268969  3.5268969
 1 3.4530827 -0.98587212  -1.0189622 0.91692834 1.6351057 1.6351057  3.6359541  3.6359541
 1  3.708842   -1.012647 -0.98399923 0.88478495 1.6351057 1.6351057  4.1474727  4.1474727
 2 3.0180062  -1.0148628 -0.97846098 0.88477724 1.6351057 1.6351057  2.7658011  2.7658011
 2 3.0204298  -1.0149461  -0.9783689 0.88468665 1.6351057 1.6351057  2.7706484  2.7706484
 3 2.3641434  -1.0045885 -0.99166106 0.89448091 1.6351057 1.6351057  1.4580755  1.4580755
 2 2.7318325 -0.98872969  -1.0096055 0.91237936 1.6351057 1.6351057  2.1934538  2.1934538
 1 2.0876833  -0.9893433  -1.0112862 0.91173864 1.6351057 1.6351057 0.90515521 0.90515521
10 2.6127061 -0.99134602   -1.009797   0.908211 1.6351057 1.6351057  1.9552009  1.9552009
 1 2.0129021 -0.99281744  -1.0064485 0.90815907 1.6351057 1.6351057  0.7555929  0.7555929
 4  1.949604  -0.9947372  -1.0077888 0.90521916 1.6351057 1.6351057 0.62899663 0.62899663
 3 1.9578011 -0.99343019  -1.0087726  0.9066193 1.6351057 1.6351057  0.6453909  0.6453909
 1 3.1182113 -0.98952088  -1.0157631 0.91237019 1.6351057 1.6351057  2.9662112  2.9662112
 1  4.807202  -1.0058507  -1.0005705 0.89382378 1.6351057 1.6351057  6.3441926  6.3441926
 1 4.8364464  -1.0070163 -0.99913474 0.89260247 1.6351057 1.6351057  6.4026815  6.4026815
 2 1.9495672  -1.0006045 -0.99851711 0.90020899 1.6351057 1.6351057 0.62892311 0.62892311
 3 1.8665989   -1.003521 -0.99704396 0.89664027 1.6351057 1.6351057 0.46298641 0.46298641
 3 1.8765714   -1.004344 -0.99629586  0.8956291 1.6351057 1.6351057 0.48293157 0.48293157
 2 3.2554914  -1.0177411 -0.98176022 0.88110596 1.6351057 1.6351057  3.2407714  3.2407714
 2 3.3815602  -1.0191319  -0.9782978 0.88073192 1.6351057 1.6351057  3.4929091  3.4929091
 1 3.4726538  -1.0198196  -0.9784744 0.87966446 1.6351057 1.6351057  3.6750963  3.6750963
 2  2.465164  -1.0153696 -0.98162145 0.88339387 1.6351057 1.6351057  1.6601167  1.6601167
12 3.8154401  -1.0237502 -0.97214811 0.87445344 1.6351057 1.6351057  4.3606689  4.3606689
 1 3.1934602  -1.0088775 -0.99396906 0.88957801 1.6351057 1.6351057  3.1167091  3.1167091
11 3.2288218   -1.009046  -0.9938047 0.88938897 1.6351057 1.6351057  3.1874323  3.1874323
 7 2.6765864  -1.0093662 -0.98532982  0.8907666 1.6351057 1.6351057  2.0829615  2.0829615
 1 3.5473597   -1.008255 -0.99184133 0.89293795 1.6351057 1.6351057  3.8245081  3.8245081
 2  2.855909  -1.0015126  -1.0028765 0.89853817 1.6351057 1.6351057  2.4416067  2.4416067
 1 4.6726017 -0.97266527  -1.0317223 0.93002028 1.6351057 1.6351057  6.0749921  6.0749921
 4 4.7778919  -0.9711822  -1.0311168 0.93365851 1.6351057 1.6351057  6.2855724  6.2855724
 5 4.0851469 -0.97911201  -1.0196008 0.92351151 1.6351057 1.6351057  4.9000826  4.9000826
 2 4.6889331 -0.97921808  -1.0182142 0.92370059 1.6351057 1.6351057  6.1076549  6.1076549
 1 5.8566535 -0.98108153  -1.0146653 0.92062294 1.6351057 1.6351057  8.4430956  8.4430956
 1 4.9120502 -0.97762366  -1.0216878 0.92400944 1.6351057 1.6351057   6.553889   6.553889
 7 3.6393715 -0.99780522 -0.99909252 0.90080684 1.6351057 1.6351057  4.0085317  4.0085317
 2 1.9360182  -1.0083708 -0.99021544 0.89064279 1.6351057 1.6351057 0.60182515 0.60182515
 8 2.1084049  -1.0055561 -0.99306689 0.89312638 1.6351057 1.6351057 0.94659856 0.94659856
 2 2.1996344 -0.99681819  -1.0017805  0.9044914 1.6351057 1.6351057  1.1290575  1.1290575
 4 2.3289482  -1.0001234 -0.99773199 0.90103766 1.6351057 1.6351057   1.387685   1.387685
 4 2.3261146   -1.000149 -0.99769926 0.90100628 1.6351057 1.6351057  1.3820179  1.3820179
 1 2.1477488 -0.99757463  -1.0018707 0.90374208 1.6351057 1.6351057  1.0252863  1.0252863
 1 4.1249051 -0.98149985  -1.0188615 0.91922742 1.6351057 1.6351057  4.9795989  4.9795989
 1 2.9403243 -0.99994887 -0.99788075 0.89860518 1.6351057 1.6351057  2.6104372  2.6104372
 2 3.1979293  -1.0020152 -0.99349878 0.89680141 1.6351057 1.6351057  3.1256472  3.1256472
 2 3.1706243 -0.99929725 -0.99676311 0.89973995 1.6351057 1.6351057  3.0710372  3.0710372
 2 2.4320394 -0.99989477  -0.9978518 0.89912977 1.6351057 1.6351057  1.5938675  1.5938675
 2  2.523011  -1.0102486 -0.98659266 0.88808764 1.6351057 1.6351057  1.7758106  1.7758106
 3 4.5149254 -0.99579999  -1.0045448 0.90201144 1.6351057 1.6351057  5.7596394  5.7596394
 3 3.5386112  -1.0228593 -0.97099304 0.87678614 1.6351057 1.6351057  3.8070111  3.8070111
 2 3.5877406  -1.0106696  -0.9832125 0.88750784 1.6351057 1.6351057  3.9052699  3.9052699
 2  3.130638 -0.99547646  -1.0084004 0.90324995 1.6351057 1.6351057  2.9910646  2.9910646
 3  2.750025 -0.99385211   -1.005867 0.90534381 1.6351057 1.6351057  2.2298387  2.2298387
 9 2.3886713  -0.9934494  -1.0069152 0.90604178 1.6351057 1.6351057  1.5071312  1.5071312
 3 2.3349994  -1.0076726 -0.99276174 0.89083491 1.6351057 1.6351057  1.3997876  1.3997876
 1 3.2570944  -1.0054259 -0.99538401 0.89230502 1.6351057 1.6351057  3.2439774  3.2439774
12 3.2125841 -0.99023686  -1.0084596 0.90953081 1.6351057 1.6351057   3.154957   3.154957
 2 2.1672639 -0.98909092  -1.0129908 0.91150023 1.6351057 1.6351057  1.0643164  1.0643164
 3 2.7724762  -1.0107079 -0.98975252 0.88938538 1.6351057 1.6351057   2.274741   2.274741
 1 2.7519881  -1.0166522  -0.9778419 0.88221172 1.6351057 1.6351057  2.2337648  2.2337648
12 3.1785573  -1.0070033 -0.99141283 0.89073733 1.6351057 1.6351057  3.0869033  3.0869033
 3  3.544507 -0.99401217  -1.0097911 0.90826056 1.6351057 1.6351057  3.8188027  3.8188027
 2  2.791319  -1.0096076 -0.99144585  0.8905149 1.6351057 1.6351057  2.3124268  2.3124268
 6 2.8543289  -1.0118802 -0.98847027  0.8880898 1.6351057 1.6351057  2.4384465  2.4384465
 5 4.3464446 -0.99214101  -1.0117171 0.91083922 1.6351057 1.6351057  5.4226779  5.4226779
 4 2.6891123  -0.9944957  -1.0101884 0.90652263 1.6351057 1.6351057  2.1080133  2.1080133
 2  1.949174 -0.99495909  -1.0054391 0.90481971 1.6351057 1.6351057 0.62813667 0.62813667
 1 2.1077649  -0.9962494  -1.0026637 0.90339858 1.6351057 1.6351057 0.94531842 0.94531842
 1 3.0684134  -1.0074389 -0.99074377 0.89037426 1.6351057 1.6351057  2.8666154  2.8666154
 3 2.8534128  -1.0148371 -0.98190922 0.88326427 1.6351057 1.6351057  2.4366143  2.4366143
 1 3.9137572  -1.0208246 -0.97502273 0.87948054 1.6351057 1.6351057  4.5573031  4.5573031
 1 4.2910494  -1.0267523  -0.9682968 0.87288958 1.6351057 1.6351057  5.3118875  5.3118875
 4 4.1984484   -1.026497 -0.96863424 0.87306673 1.6351057 1.6351057  5.1266855  5.1266855
 1 2.5341346  -1.0008852  -1.0024793 0.89961018 1.6351057 1.6351057  1.7980579  1.7980579
 6 2.9344518 -0.98073369  -1.0223247 0.92155492 1.6351057 1.6351057  2.5986923  2.5986923
 8 3.5369474  -1.0120538 -0.99065197 0.88660324 1.6351057 1.6351057  3.8036834  3.8036834
 2 3.2576165  -1.0114686 -0.99091504 0.88724735 1.6351057 1.6351057  3.2450217  3.2450217
 3 1.9810714 -0.99368241  -1.0093653 0.90684168 1.6351057 1.6351057 0.69193153 0.69193153
 3 2.9169946  -1.0055277 -0.99574022 0.89248888 1.6351057 1.6351057  2.5637779  2.5637779
 1 2.2888278  -1.0037672 -0.99584864 0.89473802 1.6351057 1.6351057  1.3074443  1.3074443
 3 3.3618615  -1.0154796  -0.9815264 0.88220285 1.6351057 1.6351057  3.4535116  3.4535116
 1 3.0664422 -0.99138807  -1.0075236 0.90819039 1.6351057 1.6351057  2.8626731  2.8626731
12 2.0744966   -1.000346 -0.99764884 0.90049867 1.6351057 1.6351057 0.87878196 0.87878196
 2 2.3033085  -1.0083273 -0.99070508 0.89201429 1.6351057 1.6351057  1.3364057  1.3364057
 5 2.7632118  -1.0053203 -0.99429298 0.89577247 1.6351057 1.6351057  2.2562122  2.2562122
 2 3.2723135   -1.012315 -0.98466986 0.88850423 1.6351057 1.6351057  3.2744157  3.2744157
 6 3.7497168  -1.0189015 -0.98048421 0.87916986 1.6351057 1.6351057  4.2292224  4.2292224
 1 3.8316966  -1.0233036 -0.97142592 0.87472458 1.6351057 1.6351057   4.393182   4.393182
 3 3.6386084  -1.0210936 -0.97384225 0.87684375 1.6351057 1.6351057  4.0070055  4.0070055
 2 2.0140386   -1.000972 -0.99733959 0.89825449 1.6351057 1.6351057 0.75786594 0.75786594
 2 2.3214117 -0.99773593  -1.0014251 0.90135317 1.6351057 1.6351057  1.3726122  1.3726122
 2 2.3684386 -0.99719296  -1.0017379 0.90197617 1.6351057 1.6351057   1.466666   1.466666
 1 2.4234017 -0.99740787  -1.0011202 0.90177085 1.6351057 1.6351057  1.5765922  1.5765922
 1  2.122285 -0.99114893  -1.0082395 0.90988955 1.6351057 1.6351057 0.97435872 0.97435872
 1 2.4854282 -0.98834369  -1.0107825 0.91300029 1.6351057 1.6351057   1.700645   1.700645
 1 3.4632012 -0.98424246  -1.0165757 0.91618324 1.6351057 1.6351057  3.6561912  3.6561912
 4 3.4475195 -0.98997039  -1.0084942 0.90973589 1.6351057 1.6351057  3.6248276  3.6248276
 3 3.4021623 -0.99193283  -1.0049653 0.90802978 1.6351057 1.6351057 3.5341133 3.5341133
 6 2.6622781 -0.98386124  -1.0199977 0.91791303 1.6351057 1.6351057 2.0543448 2.0543448
 4 2.9439703  -0.9826862  -1.0179584 0.92000038 1.6351057 1.6351057 2.6177292 2.6177292
 2   4.92657  -0.9707487  -1.0319983 0.93432713 1.6351057 1.6351057 6.5829288 6.5829288
 2 5.1939846 -0.97496503  -1.0287907 0.93029649 1.6351057 1.6351057  7.117758  7.117758
 4 5.0682425  -1.0086748 -0.98579355 0.89326817 1.6351057 1.6351057 6.8662737 6.8662737
 3 5.5465018 -0.99378341   -1.002778 0.90971457 1.6351057 1.6351057 7.8227924 7.8227924
 4 6.4167965 -0.96482717  -1.0360858 0.94056939 1.6351057 1.6351057 9.5633817 9.5633817
 2 4.7304231 -0.97131204  -1.0300862 0.93291879 1.6351057 1.6351057 6.1906349 6.1906349
 4 5.5992342 -0.98212577  -1.0147867 0.92217915 1.6351057 1.6351057 7.9282572 7.9282572
 2 5.0113503 -0.98410808  -1.0128092 0.91968861 1.6351057 1.6351057 6.7524893 6.7524893
 5 5.9123657 -0.99458306  -1.0003334 0.90868552 1.6351057 1.6351057 8.5545201 8.5545201
 1 4.9774526  -0.9937868  -1.0011421 0.90895668 1.6351057 1.6351057 6.6846939 6.6846939
10 4.5358932 -0.99431497 -0.99946729 0.90620147 1.6351057 1.6351057 5.8015751 5.8015751
 2 5.8366247 -0.98770055  -1.0064423 0.91302668 1.6351057 1.6351057 8.4030382 8.4030382
 3   4.06513 -0.98726524  -1.0203517  0.9131165 1.6351057 1.6351057 4.8600487 4.8600487
 5 3.0590742   -1.014047 -0.98601385 0.88414175 1.6351057 1.6351057  2.847937  2.847937
 2 4.8533619   -1.006134 -0.99969223 0.89416095 1.6351057 1.6351057 6.4365125 6.4365125
 2 6.3095257  -1.0231939 -0.97836949 0.87649594 1.6351057 1.6351057 9.3488401 9.3488401
 3 7.0243788  -1.0235245 -0.97872592 0.87622063 1.6351057 1.6351057 10.778546 10.778546
 2 6.3999549   -1.009822 -0.99657997 0.89045346 1.6351057 1.6351057  9.5296985  9.5296985
 2 5.3651859 -0.97989613  -1.0173022 0.92434742 1.6351057 1.6351057  7.4601605  7.4601605
 4  5.223536 -0.99009992  -1.0054938 0.91318025 1.6351057 1.6351057  7.1768608  7.1768608
 5 4.9183911  -1.0019004 -0.99137325 0.89995705 1.6351057 1.6351057  6.5665708  6.5665708
 1 2.8748712  -1.0169056 -0.97726904 0.88269524 1.6351057 1.6351057  2.4795311  2.4795311
 3 2.6802923   -1.014988 -0.98018916 0.88483915 1.6351057 1.6351057  2.0903732  2.0903732
 1 4.0257672   -1.023331 -0.97418788 0.87489821 1.6351057 1.6351057  4.7813231  4.7813231
 1 3.8447887  -1.0226808 -0.97506417 0.87573648 1.6351057 1.6351057  4.4193662  4.4193662
 2  2.561758  -1.0161383 -0.98153572 0.88281508 1.6351057 1.6351057  1.8533046  1.8533046
 5 2.6472576  -1.0163893 -0.97996148  0.8821617 1.6351057 1.6351057  2.0243038  2.0243038
 1 2.3301091  -1.0094978 -0.98853293 0.89079534 1.6351057 1.6351057   1.390007   1.390007
 5 2.1111569  -1.0075506 -0.99006936 0.89269992 1.6351057 1.6351057 0.95210251 0.95210251
 3 2.3082774  -1.0072324 -0.99145586 0.89117568 1.6351057 1.6351057  1.3463436  1.3463436
 9 2.0882171  -1.0073521 -0.99111398 0.89133465 1.6351057 1.6351057 0.90622291 0.90622291
 4 2.1023109  -1.0101507 -0.98764835 0.88864507 1.6351057 1.6351057  0.9344104  0.9344104
 4 2.2702523  -1.0078253 -0.98818983 0.89228742 1.6351057 1.6351057  1.2702932  1.2702932
 2 2.0800783  -1.0081883 -0.98861707 0.89178478 1.6351057 1.6351057 0.88994536 0.88994536
 3 1.9448589  -1.0057634 -0.99116385 0.89400302 1.6351057 1.6351057 0.61950656 0.61950656
13 1.9675547  -1.0059523 -0.99089233 0.89386407 1.6351057 1.6351057 0.66489801 0.66489801
21   1.75701 -0.99959337 -0.99914764 0.90078307 1.6351057 1.6351057 0.24380866 0.24380866
 2 2.1756852 -0.99684532  -1.0019085  0.9044626 1.6351057 1.6351057   1.081159   1.081159
 4 2.7082513  -1.0166704 -0.98068727 0.88284581 1.6351057 1.6351057  2.1462913  2.1462913
 9 2.7778036  -1.0146676 -0.98139493 0.88544071 1.6351057 1.6351057  2.2853958  2.2853958
 2 3.2115679  -1.0054203  -0.9910651 0.89594276 1.6351057 1.6351057  3.1529245  3.1529245
 5 4.1665244  -1.0080883  -0.9878135 0.88936788 1.6351057 1.6351057  5.0628374  5.0628374
 4 3.4205478  -1.0069767 -0.98897011 0.89098317 1.6351057 1.6351057  3.5708843  3.5708843
 2 1.9846848  -1.0068028  -0.9936114 0.89230598 1.6351057 1.6351057  0.6991582  0.6991582
 2 3.4184415  -1.0124005 -0.98858009 0.88545865 1.6351057 1.6351057  3.5666717  3.5666717
 1 3.2888357  -1.0114027 -0.98982096  0.8865456 1.6351057 1.6351057  3.3074601  3.3074601
 1 2.4896009  -1.0067958 -0.98966583 0.89383845 1.6351057 1.6351057  1.7089906  1.7089906
 8 2.3036385 -0.98796627  -1.0153346 0.91285455 1.6351057 1.6351057  1.3370657  1.3370657
 9 2.0786574 -0.99117904  -1.0111318 0.90908188 1.6351057 1.6351057 0.88710346 0.88710346
 2 2.1887363 -0.99067547  -1.0130036 0.91021374 1.6351057 1.6351057  1.1072613  1.1072613
16 2.0332133 -0.99786664  -1.0008825 0.90319221 1.6351057 1.6351057 0.79621532 0.79621532
13 2.0608306 -0.99853277 -0.99984122 0.90245904 1.6351057 1.6351057 0.85144986 0.85144986
 3 6.5947498 -0.97313365  -1.0268803 0.92850713 1.6351057 1.6351057  9.9192883  9.9192883
 4 7.3192371  -1.0106758 -0.97747383 0.89023093 1.6351057 1.6351057  11.368263  11.368263
 5 5.2523945  -1.0228505 -0.96561685 0.87604625 1.6351057 1.6351057  7.2345777  7.2345777
 2 4.5226541  -1.0146652 -0.97560521 0.88497401 1.6351057 1.6351057  5.7750969  5.7750969
 1 3.8092128  -1.0178562 -0.97498795 0.88249341 1.6351057 1.6351057  4.3482143  4.3482143
 1 2.5983295  -1.0169703 -0.97859986 0.88217288 1.6351057 1.6351057  1.9264477  1.9264477
 5 2.5400584  -1.0027257 -0.99266386 0.89710465 1.6351057 1.6351057  1.8099056  1.8099056
 1 2.5964416   -1.000989 -0.99473972 0.89962682 1.6351057 1.6351057  1.9226719  1.9226719
11 2.0955353  -1.0029684  -0.9939057 0.89739672 1.6351057 1.6351057 0.92085933 0.92085933
 1 2.8469988  -1.0088444 -0.98813891 0.88921251 1.6351057 1.6351057  2.4237862  2.4237862
 2 2.4625944  -1.0022942  -0.9991394 0.89619411 1.6351057 1.6351057  1.6549775  1.6549775
 1 2.3852173  -1.0020385    -0.99933 0.89652747 1.6351057 1.6351057  1.5002234  1.5002234
 4 2.9494344  -1.0112748  -0.9870914 0.88657456 1.6351057 1.6351057  2.6286576  2.6286576
 6 3.2371964  -1.0006996  -0.9991664 0.89730348 1.6351057 1.6351057  3.2041815  3.2041815
 2 3.1272377 -0.99486871  -1.0062971 0.90375289 1.6351057 1.6351057   2.984264   2.984264
 8 3.0769604 -0.99588723  -1.0051314 0.90264732 1.6351057 1.6351057  2.8837094  2.8837094
 4 2.9906404 -0.99944442 -0.99615623 0.90002001 1.6351057 1.6351057  2.7110696  2.7110696
 2 3.3774531 -0.99877808 -0.99644283 0.90060341 1.6351057 1.6351057  3.4846949  3.4846949
 1 4.3937902  -1.0170207 -0.98337573 0.88042532 1.6351057 1.6351057  5.5173691  5.5173691
 8 4.5935881  -1.0274005 -0.96923861 0.87128903 1.6351057 1.6351057  5.9169649  5.9169649
 1 4.2361843   -1.010811 -0.98560171 0.88639985 1.6351057 1.6351057  5.2021574  5.2021574
 2  4.563766 -0.99588826  -1.0091065   0.902065 1.6351057 1.6351057  5.8573207  5.8573207
 5 3.1532583  -1.0003693  -1.0033339 0.89801054 1.6351057 1.6351057  3.0363053  3.0363053
 5 3.7743623  -1.0030077  -1.0027993 0.89619616 1.6351057 1.6351057  4.2785132  4.2785132
 3 3.0735295 -0.99564209  -1.0083743 0.90314795 1.6351057 1.6351057  2.8768477  2.8768477
1 3.3263531 -0.99225015 -1.0112216 0.90663023 1.6351057 1.6351057   3.382495   3.382495
2  3.447818 -0.98743299 -1.0170922 0.91223233 1.6351057 1.6351057  3.6254247  3.6254247
1 3.5500552  -0.9777039 -1.0251827 0.92444674 1.6351057 1.6351057   3.829899   3.829899
9 3.0506304 -0.99151362 -1.0113359 0.91090163 1.6351057 1.6351057  2.8310495  2.8310495
3 2.6412719  -0.9970663 -1.0051002 0.90453675 1.6351057 1.6351057  2.0123325  2.0123325
6 2.2063707 -0.99616458 -1.0052675 0.90524645 1.6351057 1.6351057  1.1425302  1.1425302
9 1.8512675 -0.99995699 -1.0018419 0.90028534 1.6351057 1.6351057 0.43232366 0.43232366
2 1.9569703  -1.0002414  -1.001697 0.90015232 1.6351057 1.6351057 0.64372937 0.64372937
2 2.4323159  -0.9954055 -1.0052847 0.90637745 1.6351057 1.6351057  1.5944205  1.5944205
3 3.3026077 -0.98675296 -1.0149001 0.91641173 1.6351057 1.6351057   3.335004   3.335004
1 5.5964096 -0.97161225 -1.0277666 0.93177152 1.6351057 1.6351057  7.9226078  7.9226078
1 5.5463788 -0.97179117 -1.0277366  0.9314642 1.6351057 1.6351057  7.8225463  7.8225463
1  5.092929 -0.98676651 -1.0079276  0.9150099 1.6351057 1.6351057  6.9156467  6.9156467
2 2.8341467 -0.98316648 -1.0175668  0.9193596 1.6351057 1.6351057  2.3980821  2.3980821
1 1.9933808 -0.99050317 -1.0100553 0.91059212 1.6351057 1.6351057 0.71655026 0.71655026
1 5.0981946 -0.99044445  -1.004995 0.90921419 1.6351057 1.6351057  6.9261778  6.9261778
2 5.3939696 -0.99131691   -1.00615 0.90724698 1.6351057 1.6351057  7.5177279  7.5177279
1 4.8682978 -0.98340101 -1.0148678 0.91693309 1.6351057 1.6351057  6.4663843  6.4663843
7 1.7856401 -0.99516954  -1.006475 0.90494132 1.6351057 1.6351057 0.30106885 0.30106885
2 3.6038649 -0.99153365 -1.0094049 0.90728732 1.6351057 1.6351057  3.9375184  3.9375184
 2 3.6403698 -0.99151282  -1.0094294 0.90728936 1.6351057 1.6351057  4.0105283  4.0105283
 2 1.8228219 -0.99611951   -1.005486 0.90371237 1.6351057 1.6351057 0.37543255 0.37543255
 7 1.9574272 -0.99445906  -1.0079128 0.90546393 1.6351057 1.6351057 0.64464306 0.64464306
 4 1.9944034 -0.99076239  -1.0117338  0.9099507 1.6351057 1.6351057 0.71859545 0.71859545
 2 3.0671494 -0.98860748  -1.0088959 0.91312317 1.6351057 1.6351057  2.8640876  2.8640876
 1 2.6040121 -0.98923868  -1.0092157 0.91232704 1.6351057 1.6351057  1.9378129  1.9378129
 1 2.4539413 -0.99523305  -1.0019295 0.90576876 1.6351057 1.6351057  1.6376713  1.6376713
 2 2.4357336 -0.99501818  -1.0021564 0.90583413 1.6351057 1.6351057  1.6012558  1.6012558
 3 2.3598951   -1.001707 -0.99425845 0.89832903 1.6351057 1.6351057  1.4495789  1.4495789
 1 2.4646095 -0.99939645 -0.99671973 0.90085286 1.6351057 1.6351057  1.6590077  1.6590077
 2  2.239333 -0.99789709 -0.99927857 0.90285231 1.6351057 1.6351057  1.2084547  1.2084547
17 2.2418447 -0.99155367  -1.0097548 0.90835443 1.6351057 1.6351057   1.213478   1.213478
 8 2.4725271  -0.9878059  -1.0158262 0.91275764 1.6351057 1.6351057  1.6748428  1.6748428
 3 5.1951414 -0.98436243  -1.0140585  0.9154739 1.6351057 1.6351057  7.1200714  7.1200714
 1 5.2315156 -0.98344765  -1.0159261 0.91631886 1.6351057 1.6351057  7.1928198  7.1928198
 8 2.1298353 -0.99314462  -1.0069116 0.90677643 1.6351057 1.6351057 0.98945918 0.98945918
 4 2.0537555 -0.99275224  -1.0077931 0.90727359 1.6351057 1.6351057 0.83729965 0.83729965
 1 1.9098187 -0.99456356  -1.0053658  0.9054702 1.6351057 1.6351057 0.54942615 0.54942615
 3 3.3101016 -0.98581972  -1.0124998 0.91528778 1.6351057 1.6351057  3.3499918  3.3499918
 4 2.5673176 -0.99704757  -1.0037886 0.90172978 1.6351057 1.6351057  1.8644238  1.8644238
 1 2.6557178 -0.99146148  -1.0116018 0.90804729 1.6351057 1.6351057  2.0412243  2.0412243
 3 2.5418389 -0.98933037    -1.01504 0.91104394 1.6351057 1.6351057  1.8134664  1.8134664
 4 2.5888735 -0.99557716  -1.0092934 0.90458097 1.6351057 1.6351057  1.9075356  1.9075356
 8 1.9871575 -0.99896123  -1.0034108 0.90149095 1.6351057 1.6351057 0.70410377 0.70410377
 2  2.458979 -0.99507495  -1.0086757 0.90607173 1.6351057 1.6351057  1.6477466  1.6477466
 2  3.348203 -0.98142808  -1.0238142 0.92002849 1.6351057 1.6351057  3.4261946  3.4261946
 1 3.2606182 -0.98179453  -1.0234933 0.91976775 1.6351057 1.6351057  3.2510251  3.2510251
 4 2.5569167  -1.0013027  -1.0023597 0.89780539 1.6351057 1.6351057  1.8436222  1.8436222
 4  3.857936  -1.0057787 -0.99268342  0.8916313 1.6351057 1.6351057  4.4456606  4.4456606
 2 5.1265419  -1.0036162 -0.99620496 0.89326583 1.6351057 1.6351057  6.9828726  6.9828726
 2 4.5807181 -0.99859662  -1.0005306 0.89898939 1.6351057 1.6351057  5.8912248  5.8912248
 2 3.4698492 -0.99733263  -1.0054145 0.90472412 1.6351057 1.6351057  3.6694871  3.6694871
10 3.3983105 -0.99558078  -1.0075347 0.90656675 1.6351057 1.6351057  3.5264097  3.5264097
 1  4.271326  -1.0266363 -0.96889722 0.87286305 1.6351057 1.6351057  5.2724407  5.2724407
 6 5.1372679 -0.97582887  -1.0269854 0.92536109 1.6351057 1.6351057  7.0043245  7.0043245
 4 4.4478248  -0.9805914  -1.0225646 0.91974655 1.6351057 1.6351057  5.6254383  5.6254383
 2 2.6160722 -0.98766895  -1.0120829 0.91307436 1.6351057 1.6351057  1.9619331  1.9619331
 3 2.3791949 -0.99815072  -1.0057736 0.90141866 1.6351057 1.6351057  1.4881785  1.4881785
 1 2.5939384 -0.99892089  -1.0053107 0.90042176 1.6351057 1.6351057  1.9176654  1.9176654
 3 2.5751352 -0.99914067  -1.0049974 0.90017226 1.6351057 1.6351057  1.8800591  1.8800591
1 5.0008548  -1.0140105 -0.98978257 0.88573547 1.6351057 1.6351057  6.7314982  6.7314982
1  6.451265 -0.99622695  -1.0109953  0.9062332 1.6351057 1.6351057  9.6323188  9.6323188
3 4.1004002  -1.0056041 -0.99924504 0.89477426 1.6351057 1.6351057  4.9305891  4.9305891
1 4.6742992  -1.0042224  -1.0007838 0.89683233 1.6351057 1.6351057  6.0783872  6.0783872
1 2.9408207 -0.98425691  -1.0197516 0.91832564 1.6351057 1.6351057  2.6114301  2.6114301
8 2.5835028 -0.98943255  -1.0121222 0.91290205 1.6351057 1.6351057  1.8967942  1.8967942
4  3.074379 -0.98045701  -1.0229263 0.92237532 1.6351057 1.6351057  2.8785467  2.8785467
2 3.5849936 -0.99424774   -1.001407 0.90757133 1.6351057 1.6351057  3.8997758  3.8997758
1 3.5166754 -0.99385853  -1.0019193 0.90793255 1.6351057 1.6351057  3.7631395  3.7631395
2 3.0133222 -0.99751615 -0.99834115 0.90377803 1.6351057 1.6351057  2.7564331  2.7564331
2 3.8268456 -0.99628302 -0.99988178 0.90597053 1.6351057 1.6351057  4.3834799  4.3834799
3 5.1650908  -1.0065176 -0.98907499 0.89574445 1.6351057 1.6351057  7.0599704  7.0599704
1 3.3818523 -0.99274916  -1.0094563 0.90987326 1.6351057 1.6351057  3.4934933  3.4934933
3 2.1289533 -0.99645383  -1.0030861 0.90296621 1.6351057 1.6351057 0.98769528 0.98769528
7  2.199709  -1.0026231 -0.99437286 0.89659829 1.6351057 1.6351057  1.1292067  1.1292067
1 3.6322193 -0.99355583  -1.0016983 0.90786673 1.6351057 1.6351057  3.9942273  3.9942273
5 4.1512731  -1.0086697 -0.98678966 0.89292394 1.6351057 1.6351057   5.032335   5.032335
1  2.968419   -1.007569 -0.98944931 0.89349707 1.6351057 1.6351057  2.6666268  2.6666268
2 1.7964993  -1.0055484 -0.99279928 0.89375375 1.6351057 1.6351057 0.32278732 0.32278732
3 2.0676412  -1.0091883 -0.98792406 0.88976112 1.6351057 1.6351057 0.86507106 0.86507106
 5 2.0459957  -1.0079286  -0.9894452 0.89098865 1.6351057 1.6351057  0.82178001  0.82178001
 1 2.4919363  -1.0110351 -0.98441505 0.88901046 1.6351057 1.6351057   1.7136613   1.7136613
 2 2.5588907  -1.0108724 -0.98421456 0.88916273 1.6351057 1.6351057     1.84757     1.84757
13 2.5784153  -1.0155802 -0.98255999 0.88318831 1.6351057 1.6351057   1.8866193   1.8866193
 1 2.0475664  -1.0096677 -0.98744405 0.88935596 1.6351057 1.6351057  0.82492143  0.82492143
 2 2.0765195  -1.0100357 -0.98711149 0.88891934 1.6351057 1.6351057  0.88282759  0.88282759
 1 2.4622798  -1.0153514 -0.98167371 0.88406807 1.6351057 1.6351057   1.6543482   1.6543482
 4 2.4895068 -0.98467317  -1.0179336 0.91675558 1.6351057 1.6351057   1.7088022   1.7088022
 3 3.2727418 -0.99146704  -1.0112726 0.90751356 1.6351057 1.6351057   3.2752724   3.2752724
 2 3.3328882  -1.0121687 -0.98899043 0.88580114 1.6351057 1.6351057   3.3955651   3.3955651
 3 5.2646717  -1.0169261 -0.98307502  0.8799104 1.6351057 1.6351057   7.2591321   7.2591321
 3 4.2652528 -0.98720798  -1.0129652 0.91211186 1.6351057 1.6351057   5.2602944   5.2602944
 5 3.3224236 -0.97956867  -1.0218355 0.92246292 1.6351057 1.6351057   3.3746359   3.3746359
 7 2.6532675 -0.98476952  -1.0163836 0.91641242 1.6351057 1.6351057   2.0363236   2.0363236
 6 2.2716386 -0.99935682  -1.0008952 0.89946252 1.6351057 1.6351057   1.2730659   1.2730659
 2 2.2711995  -1.0001493 -0.99994505  0.8986041 1.6351057 1.6351057   1.2721877   1.2721877
 1 1.6563671 -0.99990495  -1.0007334 0.90012005 1.6351057 1.6351057 0.042522958 0.042522958
 4 2.5572288  -1.0069902 -0.99132837 0.89121163 1.6351057 1.6351057   1.8442463   1.8442463
 7 2.4282708 -0.99061362  -1.0109339 0.90923979 1.6351057 1.6351057   1.5863303   1.5863303
 2 2.4258154 -0.98708356    -1.01502 0.91358313 1.6351057 1.6351057   1.5814195   1.5814195
 2 8.6392676 -0.98525039  -1.0171396 0.91239656 1.6351057 1.6351057  14.008324  14.008324
 2  9.154262 -0.97188625   -1.035719 0.92842341 1.6351057 1.6351057  15.038313  15.038313
 1 3.7602143 -0.98515055  -1.0202782 0.91486042 1.6351057 1.6351057  4.2502174  4.2502174
 1 4.4729164  -0.9852369  -1.0230112 0.91655696 1.6351057 1.6351057  5.6756214  5.6756214
 1 3.0519451 -0.99603044  -1.0085392  0.9052939 1.6351057 1.6351057  2.8336789  2.8336789
 1  4.085331  -1.0047737  -1.0008942 0.89506486 1.6351057 1.6351057  4.9004507  4.9004507
11 1.8312891  -1.0032716 -0.99787409 0.89638167 1.6351057 1.6351057 0.39236681 0.39236681
 1 3.4574868  -1.0159521 -0.98424995 0.88377653 1.6351057 1.6351057  3.6447623  3.6447623
 1  2.761222  -1.0030165  -1.0001133 0.89749059 1.6351057 1.6351057  2.2522326  2.2522326
 1 2.7684165  -1.0035751 -0.99970586  0.8967317 1.6351057 1.6351057  2.2666217  2.2666217
 3 2.0153792  -1.0034411 -0.99819461 0.89656283 1.6351057 1.6351057 0.76054715 0.76054715
 2 2.5897884  -1.0111587 -0.98736703 0.88912956 1.6351057 1.6351057  1.9093654  1.9093654
 2 2.1739717  -1.0115981 -0.98611052  0.8881007 1.6351057 1.6351057  1.0777321  1.0777321
 2 3.0362816  -1.0179746 -0.97545286 0.88097033 1.6351057 1.6351057  2.8023519  2.8023519
 1 3.6123551  -1.0073849 -0.98590425 0.89329487 1.6351057 1.6351057  3.9544988  3.9544988
 2 4.6904332  -1.0170903 -0.97621969 0.88399993 1.6351057 1.6351057   6.110655   6.110655
 4 3.5106353  -1.0181737 -0.97727418 0.88218024 1.6351057 1.6351057  3.7510593  3.7510593
 1  3.961006 -0.98029231  -1.0184508 0.92302772 1.6351057 1.6351057  4.6518007  4.6518007
 2 3.9861263 -0.97450731  -1.0297654 0.92869455 1.6351057 1.6351057  4.7020412  4.7020412
 1 4.2785257 -0.98246828  -1.0203224 0.91754989 1.6351057 1.6351057  5.2868401  5.2868401
 2 3.7250049 -0.98490479  -1.0175813 0.91495792 1.6351057 1.6351057  4.1797984  4.1797984
 1 4.3674514 -0.97542721  -1.0253252 0.92705118 1.6351057 1.6351057  5.4646915  5.4646915
 2 4.4853319 -0.97547822  -1.0249987 0.92693631 1.6351057 1.6351057  5.7004524  5.7004524
 1 5.3278725  -0.9852572  -1.0130293 0.91906632 1.6351057 1.6351057  7.3855336  7.3855336
 2 3.8991054  -1.0262228 -0.96797425 0.87307657 1.6351057 1.6351057  4.5279994  4.5279994
 4  4.050293  -1.0055072  -1.0000167 0.89325634 1.6351057 1.6351057  4.8303747  4.8303747
 6 4.3342168  -1.0110901 -0.99217287 0.88661665 1.6351057 1.6351057  5.3982222  5.3982222
 1 6.5937873 -0.99856514  -1.0099526 0.90291819 1.6351057 1.6351057  9.9173632  9.9173632
 4 6.6323745 -0.99842465  -1.0101893 0.90304987 1.6351057 1.6351057  9.9945377  9.9945377
 3 5.4757252  -1.0059439 -0.99953185 0.89509502 1.6351057 1.6351057  7.6812391  7.6812391
 1  3.143364  -1.0077274 -0.99579807 0.89141922 1.6351057 1.6351057  3.0165166  3.0165166
 3 3.3934169  -1.0091452 -0.99439055 0.88983783 1.6351057 1.6351057  3.5166224  3.5166224
 4 2.3348479 -0.99580392  -1.0072099 0.90350081 1.6351057 1.6351057  1.3994844  1.3994844
 1 2.0806747  -0.9959156  -1.0071738 0.90479134 1.6351057 1.6351057 0.89113814 0.89113814
 3 2.1515876  -0.9910301    -1.01227 0.91015549 1.6351057 1.6351057  1.0329639  1.0329639
11  3.312534 -0.99197117  -1.0142552 0.90784342 1.6351057 1.6351057  3.3548567  3.3548567
 1 1.8570713 -0.99364568   -1.006342 0.90728714 1.6351057 1.6351057 0.44393122 0.44393122
 2 2.7275003 -0.98777469  -1.0124547 0.91473104 1.6351057 1.6351057  2.1847893  2.1847893
 5 3.9941891 -0.97565956  -1.0296988 0.92737988 1.6351057 1.6351057   4.718167   4.718167
 3 4.4613928 -0.99428186  -1.0106232 0.90385129 1.6351057 1.6351057  5.6525743  5.6525743
 1 4.3686736  -1.0031392 -0.99048438 0.89543822 1.6351057 1.6351057  5.4671358  5.4671358
 3 5.1801201 -0.98784846  -1.0089724 0.91589796 1.6351057 1.6351057   7.090029   7.090029
 4 4.1136808 -0.99436223  -1.0031191 0.90847948 1.6351057 1.6351057  4.9571502  4.9571502
 1 3.3201475  -1.0067612 -0.99178451   0.894626 1.6351057 1.6351057  3.3700836  3.3700836
 2 1.7598241  -1.0009462 -0.99961588 0.89940312 1.6351057 1.6351057  0.2494368  0.2494368
 3 1.9664231  -1.0071347  -0.9908717 0.89180533 1.6351057 1.6351057 0.66263483 0.66263483
 4 2.0556822  -1.0058075  -0.9915583 0.89317636 1.6351057 1.6351057 0.84115311 0.84115311
 2 3.2944483 -0.99491732  -1.0042533 0.90381217 1.6351057 1.6351057  3.3186852  3.3186852
 4 2.3173819 -0.99862802  -1.0004884 0.90035418 1.6351057 1.6351057  1.3645525  1.3645525
13 2.7184258  -0.9997458 -0.99875177 0.89886294 1.6351057 1.6351057  2.1666403  2.1666403
 3 2.3847911 -0.99524863  -1.0021885 0.90497424 1.6351057 1.6351057  1.4993709  1.4993709
 7 1.8197589  -1.0017755 -0.99678136 0.89864971 1.6351057 1.6351057 0.36930644 0.36930644
12 1.6941741 -0.99996494 -0.99901539 0.90019968 1.6351057 1.6351057 0.11813693 0.11813693
 2  1.789004  -0.9980944  -1.0026872  0.9014865 1.6351057 1.6351057 0.30779678 0.30779678
 2 1.7756336 -0.99781036  -1.0032016 0.90184689 1.6351057 1.6351057 0.28105585 0.28105585
 5 3.7214318 -0.99568259  -1.0062144 0.90247161 1.6351057 1.6351057  4.1726522  4.1726522
 7 1.6642692   -0.997868  -1.0020024 0.90238622 1.6351057 1.6351057 0.05832712 0.05832712
 2 2.7816147 -0.99069454  -1.0070093  0.9100277 1.6351057 1.6351057  2.2930182  2.2930182
 1 2.5253345 -0.99224463  -1.0056756 0.90826181 1.6351057 1.6351057  1.7804576  1.7804576
 1 2.7250453 -0.98291928  -1.0193385 0.91957011 1.6351057 1.6351057  2.1798793  2.1798793
 6 3.4545111 -0.99328427   -1.005701 0.90940769 1.6351057 1.6351057 3.6388108 3.6388108
 1 3.9116359 -0.98894335  -1.0099829  0.9143535 1.6351057 1.6351057 4.5530604 4.5530604
 2 3.4969094  -1.0233872 -0.96997164 0.87535536 1.6351057 1.6351057 3.7236075 3.7236075
 2 3.5016341  -1.0211864 -0.97166765 0.87733419 1.6351057 1.6351057 3.7330568 3.7330568
 2 2.5277757 -0.99159864  -1.0087758 0.91055551 1.6351057 1.6351057 1.7853401 1.7853401
 4 2.5224528 -0.98891157  -1.0125603 0.91338456 1.6351057 1.6351057 1.7746943 1.7746943
 1 2.7945835 -0.98640657  -1.0125105 0.91524704 1.6351057 1.6351057 2.3189557 2.3189557
 7 2.7968792 -0.98627128  -1.0126969 0.91538436 1.6351057 1.6351057  2.323547  2.323547
 3 2.5355276  -1.0027083  -1.0009037 0.89683188 1.6351057 1.6351057 1.8008439 1.8008439
 1 2.4246485  -1.0032048 -0.99990115 0.89599807 1.6351057 1.6351057 1.5790857 1.5790857
 1 2.4806851  -1.0036399 -0.99948575 0.89550591 1.6351057 1.6351057 1.6911589 1.6911589
 3 2.3095749  -1.0074694 -0.99408407 0.89162196 1.6351057 1.6351057 1.3489384 1.3489384
 3 2.7985639  -1.0166947 -0.97792631 0.88198352 1.6351057 1.6351057 2.3269164 2.3269164
10 3.4138712  -1.0151413 -0.97711066 0.88443084 1.6351057 1.6351057 3.5575312 3.5575312
 1 3.8994606 -0.97917653  -1.0198826 0.92360051 1.6351057 1.6351057 4.5287099 4.5287099
 6 3.3137886 -0.98028266  -1.0230356 0.92302093 1.6351057 1.6351057 3.3573658 3.3573658
 2  3.469121   -1.002837  -1.0024815 0.89690139 1.6351057 1.6351057 3.6680306 3.6680306
 5 4.2136632  -1.0039017  -1.0016868 0.89647548 1.6351057 1.6351057  5.157115  5.157115
 1 4.8738225  -0.9956886  -1.0125107 0.90504893 1.6351057 1.6351057 6.4774337 6.4774337
 5 6.1591346 -0.97325257   -1.035845  0.9305341 1.6351057 1.6351057 9.0480578 9.0480578
 2 5.1702822 -0.98272611  -1.0223568 0.92155562 1.6351057 1.6351057  7.0703531  7.0703531
 1 5.1494285 -0.98267766  -1.0225436 0.92156457 1.6351057 1.6351057  7.0286456  7.0286456
 2 4.4025422  -0.9876198  -1.0162648 0.91592017 1.6351057 1.6351057  5.5348731  5.5348731
17 1.9659305 -0.99848772  -1.0035281 0.90091117 1.6351057 1.6351057 0.66164967 0.66164967
 1 2.3659053 -0.98811033  -1.0146587 0.91239924 1.6351057 1.6351057  1.4615992  1.4615992
 4 2.7532829 -0.99774829 -0.99848982 0.90339463 1.6351057 1.6351057  2.2363544  2.2363544
 1  2.774898 -0.98455923  -1.0158305 0.91676008 1.6351057 1.6351057  2.2795846  2.2795846
 1 4.2633531 -0.97346996  -1.0299409 0.92945746 1.6351057 1.6351057   5.256495   5.256495
 1 5.8179949 -0.99972541  -1.0058795 0.90248778 1.6351057 1.6351057  8.3657784  8.3657784
 1 5.8675647  -0.9979613  -1.0096348 0.90370243 1.6351057 1.6351057  8.4649182  8.4649182
 4 5.0784431 -0.99450174  -1.0064899 0.90893124 1.6351057 1.6351057   6.886675   6.886675
 4 4.1087849 -0.98542959  -1.0160736 0.91841221 1.6351057 1.6351057  4.9473585  4.9473585
 4 2.0369637  -1.0023824 -0.99847773 0.89651674 1.6351057 1.6351057 0.80371617 0.80371617
 1 3.6024782  -1.0045676  -0.9896038  0.8941471 1.6351057 1.6351057  3.9347451  3.9347451
 6 5.1392321 -0.99307599  -1.0013434 0.90957001 1.6351057 1.6351057  7.0082529  7.0082529
 3 2.8830532  -1.0174041 -0.98061277    0.88114 1.6351057 1.6351057   2.495895   2.495895
 1  2.828329  -1.0183609 -0.97845821 0.88029715 1.6351057 1.6351057  2.3864467  2.3864467
 1 2.6172306  -1.0138818  -0.9828248 0.88443551 1.6351057 1.6351057    1.96425    1.96425
 1 3.8444054  -1.0187322 -0.98057259  0.8791576 1.6351057 1.6351057  4.4185996  4.4185996
 7 3.1974688  -1.0148207 -0.98549377 0.88343862 1.6351057 1.6351057  3.1247263  3.1247263
 2 2.1131464  -1.0108788 -0.98598627 0.88877068 1.6351057 1.6351057 0.95608149 0.95608149
 3 1.7328428 -0.99758471  -1.0036471 0.90291192 1.6351057 1.6351057 0.19547434 0.19547434
 2 1.8330277  -1.0026623  -0.9981445 0.89749752 1.6351057 1.6351057 0.39584404 0.39584404
11 2.1496686  -0.9945207  -1.0036055 0.90611736 1.6351057 1.6351057  1.0291258  1.0291258
 7 1.7545289 -0.99557749    -1.00585 0.90506682 1.6351057 1.6351057 0.23884655 0.23884655
