#weight  minuslogpost  log10_alpha   log10_rs         vw  minuslogprior  minuslogprior__0      chi2  chi2__lisa_likelihood
     66     3.8304233  -0.99232107 -1.0061133 0.90665641      1.6351057         1.6351057 4.3906354              4.3906354
     24     3.3381243   -0.9935287 -1.0023757 0.90804278      1.6351057         1.6351057 3.4060372              3.4060372
     10     2.9472346  -0.99127203 -1.0077322 0.91115313      1.6351057         1.6351057 2.6242579              2.6242579
     28     2.4575791  -0.99071177 -1.0085567 0.90957118      1.6351057         1.6351057 1.6449468              1.6449468
     38     3.9919072  -0.99271285 -1.0125788 0.90957135      1.6351057         1.6351057 4.7136032              4.7136032
     67     2.7875555  -0.99057572 -1.0141606 0.90931956      1.6351057         1.6351057 2.3048997              2.3048997
     88     3.1094182  -0.99070717 -1.0131277 0.90859911      1.6351057         1.6351057 2.9486251              2.9486251
     39     2.8815665  -0.99192304 -1.0125549  0.9075693      1.6351057         1.6351057 2.4929216              2.4929216
      9     2.5062606  -0.98496443 -1.0166397 0.91722903      1.6351057         1.6351057 1.7423099              1.7423099
    143     2.5154108  -0.98524042 -1.0180594 0.91596236      1.6351057         1.6351057 1.7606103              1.7606103
     22     2.8773498  -0.98381543 -1.0190977 0.91710978      1.6351057         1.6351057 2.4844883              2.4844883
     37     2.4467888  -0.98588036 -1.0177125 0.91549508      1.6351057         1.6351057 1.6233662              1.6233662
     46      3.412413  -0.98612155  -1.019735 0.91421448      1.6351057         1.6351057 3.5546147              3.5546147
      3     3.3683816  -0.98615452 -1.0197186 0.91424576      1.6351057         1.6351057 3.4665519              3.4665519
      1     3.4579635  -0.98601946 -1.0191116 0.91403022      1.6351057         1.6351057 3.6457156              3.6457156
      2     3.9913691  -0.98466964 -1.0190499 0.91504981      1.6351057         1.6351057 4.7125269              4.7125269
     34     3.0002873  -0.98461452 -1.0192951 0.91601093      1.6351057         1.6351057 2.7303633              2.7303633
     15     2.3766527  -0.99160541 -1.0103329 0.91032138      1.6351057         1.6351057 1.4830941              1.4830941
     24     3.3614437  -0.99219026  -1.010529 0.91040256      1.6351057         1.6351057 3.4526761              3.4526761
     26      3.650646  -0.99008935 -1.0104431 0.91306339      1.6351057         1.6351057 4.0310807              4.0310807
 59 2.6071364 -0.99000313 -1.0098167 0.91225058 1.6351057 1.6351057 1.9440615 1.9440615
 20 4.1662248 -0.98322807 -1.0145892 0.91799522 1.6351057 1.6351057 5.0622382 5.0622382
 45 4.4448472 -0.98273598 -1.0157079 0.91803513 1.6351057 1.6351057 5.6194831 5.6194831
 33 3.6120737  -0.9831387 -1.0150274 0.91887244 1.6351057 1.6351057 3.9539362 3.9539362
 38 4.6122394 -0.98319981 -1.0144912 0.92057396 1.6351057 1.6351057 5.9542674 5.9542674
  7  4.770958 -0.98291517 -1.0143711  0.9180993 1.6351057 1.6351057 6.2717046 6.2717046
  4 3.9616735 -0.98366895 -1.0137158 0.91904326 1.6351057 1.6351057 4.6531357 4.6531357
 41 3.1452414 -0.98468792  -1.014147 0.91776126 1.6351057 1.6351057 3.0202715 3.0202715
 91   2.54648  -0.9861137 -1.0180668  0.9151452 1.6351057 1.6351057 1.8227487 1.8227487
  3 3.7565082 -0.98412412 -1.0191906 0.91586796 1.6351057 1.6351057 4.2428051 4.2428051
 24 3.9354213 -0.98507674 -1.0205814 0.91793298 1.6351057 1.6351057 4.6006312 4.6006312
 26 2.8003702 -0.98386131 -1.0164141 0.91784129 1.6351057 1.6351057 2.3305291 2.3305291
 10 3.0010733  -0.9840407 -1.0159847 0.91870902 1.6351057 1.6351057 2.7319354 2.7319354
 33 2.9947835 -0.98388844 -1.0156449 0.91851994 1.6351057 1.6351057 2.7193556 2.7193556
 17 3.1222114 -0.98388688 -1.0156185 0.91883992 1.6351057 1.6351057 2.9742114 2.9742114
107 3.1748793 -0.98151924 -1.0196335  0.9216345 1.6351057 1.6351057 3.0795474 3.0795474
 64  3.363797 -0.98175685 -1.0209348 0.91918806 1.6351057 1.6351057 3.4573828 3.4573828
 16 3.7758138 -0.97786929   -1.02759 0.92522904 1.6351057 1.6351057 4.2814163 4.2814163
 44 4.0360701  -0.9783944 -1.0275689 0.92495033 1.6351057 1.6351057 4.8019288 4.8019288
  4 4.1435693 -0.97846145 -1.0278706 0.92481519 1.6351057 1.6351057 5.0169273 5.0169273
 6 5.0408797  -0.9807706  -1.0211532 0.92404062 1.6351057 1.6351057   6.811548   6.811548
 5 5.1384751 -0.97922878  -1.0229946 0.92577093 1.6351057 1.6351057  7.0067389  7.0067389
 1 5.6498898 -0.98000995  -1.0218114 0.92521139 1.6351057 1.6351057  8.0295683  8.0295683
 2 5.3272364 -0.99180839  -1.0157254 0.91054255 1.6351057 1.6351057  7.3842615  7.3842615
 1 2.8120876  -1.0177967 -0.97799648 0.88071673 1.6351057 1.6351057  2.3539639  2.3539639
 1 3.0467591  -1.0202329 -0.97545422 0.87835073 1.6351057 1.6351057  2.8233069  2.8233069
19 2.8717367  -1.0190072 -0.97557487 0.88010773 1.6351057 1.6351057  2.4732621  2.4732621
 2 2.5346395  -1.0149035 -0.98119166  0.8836932 1.6351057 1.6351057  1.7990676  1.7990676
 3 2.5698164  -1.0063787 -0.98913751 0.89255104 1.6351057 1.6351057  1.8694214  1.8694214
 1  2.944671 -0.99926693 -0.99875612 0.89932609 1.6351057 1.6351057  2.6191307  2.6191307
 2 2.5240793 -0.99268322  -1.0060543 0.90722258 1.6351057 1.6351057  1.7779472  1.7779472
 5  2.626292 -0.99734122  -1.0037847 0.90135016 1.6351057 1.6351057  1.9823727  1.9823727
 4 2.9440575 -0.98473341  -1.0201415 0.91624754 1.6351057 1.6351057  2.6179037  2.6179037
 5  2.165169  -1.0021469 -0.99805386 0.89872616 1.6351057 1.6351057  1.0601267  1.0601267
 1 2.0330656  -1.0011453  -0.9991521 0.89968076 1.6351057 1.6351057 0.79591998 0.79591998
 4 2.0506362  -1.0019176   -0.999525 0.89856868 1.6351057 1.6351057 0.83106098 0.83106098
 1 2.3506106 -0.99413782  -1.0059761 0.90766671 1.6351057 1.6351057    1.43101    1.43101
 3 1.9749528 -0.99174594  -1.0102608  0.9085896 1.6351057 1.6351057 0.67969435 0.67969435
 1 2.1849244 -0.99825148  -1.0038843 0.90085369 1.6351057 1.6351057  1.0996374  1.0996374
 6 3.5262378  -1.0050704 -0.99922131 0.89518497 1.6351057 1.6351057  3.7822643  3.7822643
 3 3.9084414  -1.0029927  -1.0022923 0.89749617 1.6351057 1.6351057 4.5466715 4.5466715
 2 3.4898795  -1.0196567 -0.97926301 0.87894037 1.6351057 1.6351057 3.7095476 3.7095476
 2 3.8746545  -1.0205598 -0.97870271 0.87783273 1.6351057 1.6351057 4.4790977 4.4790977
 3  3.111517  -1.0110139 -0.99110735 0.88757045 1.6351057 1.6351057 2.9528226 2.9528226
 1 4.3583534  -1.0161315  -0.9864081 0.88241818 1.6351057 1.6351057 5.4464954 5.4464954
 1 4.5820458  -1.0199496 -0.98122091 0.87852653 1.6351057 1.6351057 5.8938803 5.8938803
 1 4.5719263  -1.0146639 -0.98712339 0.88570315 1.6351057 1.6351057 5.8736412 5.8736412
 4 2.9157783  -1.0041692 -0.99170855 0.89691793 1.6351057 1.6351057 2.5613452 2.5613452
 4 2.7759015 -0.99125011  -1.0061785 0.91022076 1.6351057 1.6351057 2.2815917 2.2815917
 1 2.1844581 -0.98895447  -1.0131503 0.91276192 1.6351057 1.6351057 1.0987049 1.0987049
 3  2.518837  -1.0107318 -0.98874554 0.88936266 1.6351057 1.6351057 1.7674627 1.7674627
 1 3.8266337  -1.0095285  -0.9828512 0.88936955 1.6351057 1.6351057 4.3830561 4.3830561
 7 4.1531809  -1.0003674 -0.99413491 0.89839594 1.6351057 1.6351057 5.0361504 5.0361504
 1 2.1955662  -1.0030498 -0.99491901 0.89777799 1.6351057 1.6351057 1.1209211 1.1209211
 2 2.2090379  -1.0026445  -1.0001246 0.89691575 1.6351057 1.6351057 1.1478646 1.1478646
13 2.3188072   -1.010009 -0.99056452 0.88908902 1.6351057 1.6351057 1.3674031 1.3674031
 2 2.1108816 -0.99838885  -1.0038932 0.90084145 1.6351057 1.6351057 0.9515519 0.9515519
 1 2.4209771  -0.9974167  -1.0058849 0.90173284 1.6351057 1.6351057 1.5717429 1.5717429
11 2.8320313  -1.0053014 -0.99826334 0.89381044 1.6351057 1.6351057 2.3938512 2.3938512
 4 2.7542026  -1.0063808 -0.99675046 0.89287989 1.6351057 1.6351057 2.2381939 2.2381939
2 2.1107402  -1.0071983 -0.99364818 0.89245422 1.6351057 1.6351057  0.9512691  0.9512691
1 2.4794615  -1.0104391 -0.99030197 0.88908102 1.6351057 1.6351057  1.6887117  1.6887117
4 2.5057549   -1.016224  -0.9799298 0.88275812 1.6351057 1.6351057  1.7412985  1.7412985
5 3.5063582 -0.99441132  -1.0016383 0.90531394 1.6351057 1.6351057  3.7425051  3.7425051
3 3.3071753  -1.0084847 -0.98791468 0.88935654 1.6351057 1.6351057  3.3441393  3.3441393
6 2.2073101  -1.0021777 -0.99726355 0.89651478 1.6351057 1.6351057  1.1444088  1.1444088
2 1.8674922  -1.0023461 -0.99745631 0.89674517 1.6351057 1.6351057 0.46477299 0.46477299
1 4.1866727   -1.017647 -0.98129515 0.87972987 1.6351057 1.6351057   5.103134   5.103134
3 3.4377149  -1.0234474 -0.97171366 0.87566424 1.6351057 1.6351057  3.6052185  3.6052185
3 3.4456301  -1.0237007 -0.97106575 0.87526607 1.6351057 1.6351057  3.6210489  3.6210489
2 2.2647897  -1.0110258 -0.98482799  0.8886828 1.6351057 1.6351057  1.2593682  1.2593682
9 2.2326455  -1.0126851 -0.98481954 0.88689055 1.6351057 1.6351057  1.1950797  1.1950797
1 2.3045985  -1.0101141 -0.98709011 0.89006524 1.6351057 1.6351057  1.3389856  1.3389856
1 2.5453286  -1.0039892 -0.99743242 0.89677279 1.6351057 1.6351057  1.8204459  1.8204459
8 2.4643455 -0.99994219  -1.0026823 0.90097954 1.6351057 1.6351057  1.6584797  1.6584797
3 2.3073412  -1.0069052 -0.99037389 0.89363887 1.6351057 1.6351057  1.3444711  1.3444711
2 2.4176067  -1.0029758 -0.99402179 0.89794185 1.6351057 1.6351057  1.5650021  1.5650021
5 1.9384901  -1.0073158 -0.99268189 0.89187096 1.6351057 1.6351057 0.60676885 0.60676885
5 2.3541547  -1.0139868 -0.98425646 0.88512442 1.6351057 1.6351057   1.438098   1.438098
1 2.7441357 -0.99148265  -1.0099823 0.90790994 1.6351057 1.6351057  2.2180602  2.2180602
11 2.6064314 -0.99403295    -1.00735 0.90508027 1.6351057 1.6351057  1.9426515  1.9426515
 1 2.1460762 -0.99240407  -1.0091802 0.90745719 1.6351057 1.6351057   1.021941   1.021941
 3  2.147365   -0.992387  -1.0092088 0.90747558 1.6351057 1.6351057  1.0245186  1.0245186
 2 1.9280796 -0.99386143  -1.0069312 0.90611782 1.6351057 1.6351057  0.5859479  0.5859479
 4 4.3046083 -0.97881263  -1.0208004 0.92286649 1.6351057 1.6351057  5.3390054  5.3390054
 7 3.4639968 -0.97896094  -1.0216785  0.9235352 1.6351057 1.6351057  3.6577823  3.6577823
 2 2.4268317  -1.0098959 -0.98563194 0.89016025 1.6351057 1.6351057  1.5834521  1.5834521
 1  2.179487 -0.99489021   -1.003904 0.90648096 1.6351057 1.6351057  1.0887627  1.0887627
 1 2.3093013 -0.99503344   -1.003835 0.90653871 1.6351057 1.6351057  1.3483913  1.3483913
 3 1.9361938 -0.99597615  -1.0053504 0.90510652 1.6351057 1.6351057 0.60217633 0.60217633
 1 1.9937061 -0.99647989  -1.0047997 0.90465442 1.6351057 1.6351057  0.7172008  0.7172008
 3 3.1088588 -0.99177992  -1.0081628 0.91084716 1.6351057 1.6351057  2.9475064  2.9475064
 4 2.4911473 -0.99858019  -1.0036284 0.90268801 1.6351057 1.6351057  1.7120833  1.7120833
 3 3.6399277 -0.99546039  -1.0035661 0.90717662 1.6351057 1.6351057   4.009644   4.009644
 1 2.8461105 -0.99510758  -1.0054296 0.90705227 1.6351057 1.6351057  2.4220097  2.4220097
 3 2.6699551  -0.9851276  -1.0154928 0.91728257 1.6351057 1.6351057  2.0696989  2.0696989
 6 3.8739902 -0.99201687  -1.0082969 0.91109603 1.6351057 1.6351057   4.477769   4.477769
 6  2.562327  -1.0055744 -0.99509982 0.89267186 1.6351057 1.6351057  1.8544428  1.8544428
 2 3.3233511  -1.0140491 -0.98510224 0.88367903 1.6351057 1.6351057  3.3764909  3.3764909
 2 3.7791144   -1.013453  -0.9857175 0.88391968 1.6351057 1.6351057  4.2880174  4.2880174
 6 3.0817866  -1.0100036 -0.99045432 0.88785757 1.6351057 1.6351057  2.8933619  2.8933619
 1 3.4477491  -1.0081463 -0.98727703 0.88983705 1.6351057 1.6351057  3.6252868  3.6252868
15 3.5702605  -1.0084006 -0.98702413 0.88948302 1.6351057 1.6351057  3.8703096  3.8703096
10 2.7054947  -1.0169667 -0.98012601 0.88251272 1.6351057 1.6351057  2.1407781  2.1407781
 1 2.7743591  -1.0152938  -0.9841009 0.88378158 1.6351057 1.6351057  2.2785068  2.2785068
 3 2.6043674  -1.0133315 -0.98656849 0.88585059 1.6351057 1.6351057  1.9385235  1.9385235
 4 2.2553318  -1.0117903 -0.98513366 0.88692493 1.6351057 1.6351057  1.2404523  1.2404523
 1 4.5802308  -1.0233837 -0.97440686 0.87431034 1.6351057 1.6351057  5.8902502  5.8902502
 1 3.4056899  -1.0119062 -0.99067696 0.88699595 1.6351057 1.6351057  3.5411685  3.5411685
 1 2.0694322  -1.0029593 -0.99419878  0.8974936 1.6351057 1.6351057 0.86865315 0.86865315
 1   2.40336  -1.0055924 -0.99095516 0.89504283 1.6351057 1.6351057  1.5365087  1.5365087
 9 2.8756924 -0.99490314  -1.0045166 0.90728443 1.6351057 1.6351057  2.4811734  2.4811734
 4 2.2075599  -1.0017433  -1.0003373 0.89718235 1.6351057 1.6351057  1.1449085  1.1449085
 6 2.2576339  -1.0018494  -1.0004234 0.89706548 1.6351057 1.6351057  1.2450565  1.2450565
 5 4.6638076 -0.98794195  -1.0207542 0.91318552 1.6351057 1.6351057  6.0574038  6.0574038
 9 3.5931734 -0.99888315   -1.006797 0.89990696 1.6351057 1.6351057  3.9161355  3.9161355
 5 4.3702933 -0.99742614  -1.0091897 0.90108785 1.6351057 1.6351057  5.4703754  5.4703754
 1 4.3713697 -0.99692375  -1.0096608 0.90158542 1.6351057 1.6351057  5.4725281  5.4725281
 3 3.7166547 -0.99099893  -1.0158567 0.90876025 1.6351057 1.6351057  4.1630981  4.1630981
 2 3.2378564 -0.99250739  -1.0130897 0.90694722 1.6351057 1.6351057  3.2055015  3.2055015
 2 2.4234938 -0.98814674  -1.0115103 0.91290322 1.6351057 1.6351057  1.5767762  1.5767762
 1 2.4997822  -1.0019876 -0.99924108  0.8990658 1.6351057 1.6351057   1.729353   1.729353
 6 2.4677488  -1.0023924 -0.99877284 0.89858989 1.6351057 1.6351057  1.6652863  1.6652863
 3 1.8413983 -0.99795847  -1.0020335 0.90291734 1.6351057 1.6351057 0.41258524 0.41258524
10 2.0884693  -1.0041568 -0.99426523 0.89648141 1.6351057 1.6351057 0.90672728 0.90672728
 1 2.9465048 -0.99339924  -1.0106841 0.90574199 1.6351057 1.6351057  2.6227983  2.6227983
 1 8.9742819 -0.96689087  -1.0441128 0.93638267 1.6351057 1.6351057  14.678352  14.678352
 1 8.9710851 -0.96664127  -1.0442646 0.93665891 1.6351057 1.6351057  14.671959  14.671959
 1 5.4246295 -0.98107089  -1.0248013 0.92334144 1.6351057 1.6351057  7.5790477  7.5790477
 1 6.4211623 -0.96371691  -1.0389735 0.94149414 1.6351057 1.6351057  9.5721133  9.5721133
 1 5.4548375  -0.9682541  -1.0339406 0.93577233 1.6351057 1.6351057  7.6394637  7.6394637
 1 6.0592452 -0.98585923  -1.0089101 0.91771873 1.6351057 1.6351057  8.8482792  8.8482792
 3 5.7057628 -0.98596881  -1.0096421 0.91777359 1.6351057 1.6351057  8.1413143  8.1413143
 2 4.0886521  -0.9807417  -1.0238888 0.91986346 1.6351057 1.6351057  4.9070928  4.9070928
 1 3.4259111 -0.99392605   -1.012673 0.90655742 1.6351057 1.6351057  3.5816108  3.5816108
 3 3.4728732 -0.97943548  -1.0217528 0.92404818 1.6351057 1.6351057   3.675535   3.675535
10 3.5755489 -0.97895434  -1.0258275 0.92426729 1.6351057 1.6351057  3.8808864  3.8808864
 1  3.676268 -0.99236183  -1.0083577 0.91059738 1.6351057 1.6351057  4.0823246  4.0823246
 2 2.6381479  -1.0028182 -0.99248711 0.89675157 1.6351057 1.6351057  2.0060845  2.0060845
 1 3.2729567  -1.0128485 -0.98141182 0.88533678 1.6351057 1.6351057  3.2757022  3.2757022
3 5.7645908  -1.0152475  -0.9746375 0.88271888 1.6351057 1.6351057  8.2589703  8.2589703
1 4.9185965  -1.0173025 -0.97366763 0.88059527 1.6351057 1.6351057  6.5669817  6.5669817
2 4.0273124  -1.0155003  -0.9770088 0.88254917 1.6351057 1.6351057  4.7844135  4.7844135
2 4.2370538 -0.99844432 -0.99478522 0.90226245 1.6351057 1.6351057  5.2038964  5.2038964
1 4.1852466 -0.99724364 -0.99631914 0.90367135 1.6351057 1.6351057  5.1002818  5.1002818
1 4.2375531 -0.99613001 -0.99756234 0.90479025 1.6351057 1.6351057  5.2048948  5.2048948
1 4.6351399  -1.0091088 -0.98188334 0.89012085 1.6351057 1.6351057  6.0000684  6.0000684
1 3.3950677  -1.0103579 -0.98960032 0.88722228 1.6351057 1.6351057  3.5199241  3.5199241
3 4.6368697  -1.0241384 -0.97490467 0.87474598 1.6351057 1.6351057  6.0035281  6.0035281
1  2.753887  -1.0156205 -0.98282703  0.8839588 1.6351057 1.6351057  2.2375626  2.2375626
5   2.02275  -1.0065065 -0.99219531 0.89376373 1.6351057 1.6351057 0.77528867 0.77528867
8 2.0503672 -0.99693619  -1.0027593 0.90431644 1.6351057 1.6351057 0.83052315 0.83052315
2 2.1812544 -0.99158924  -1.0084397 0.91008229 1.6351057 1.6351057  1.0922975  1.0922975
1 2.2261019 -0.99276738  -1.0067304 0.90886988 1.6351057 1.6351057  1.1819924  1.1819924
3 5.0648074   -1.013529 -0.98462974  0.8831574 1.6351057 1.6351057  6.8594035  6.8594035
2 6.0622794 -0.99212405  -1.0038773 0.90641069 1.6351057 1.6351057  8.8543474  8.8543474
2 5.9463622  -0.9895187  -1.0072202 0.90933149 1.6351057 1.6351057  8.6225131  8.6225131
1 5.3852813 -0.99207032  -1.0013613 0.90839138 1.6351057 1.6351057  7.5003513  7.5003513
1 3.1218533 -0.98811342  -1.0094833 0.91310193 1.6351057 1.6351057  2.9734953  2.9734953
2 3.4797729 -0.99741234 -0.99776874 0.90408232 1.6351057 1.6351057  3.6893344  3.6893344
7 3.3218191 -0.99994073 -0.99478631 0.90111945 1.6351057 1.6351057  3.3734268  3.3734268
1 4.6400533  -1.0208974 -0.97925528 0.87875293 1.6351057 1.6351057  6.0098952  6.0098952
4 9.5117264  -1.0410971 -0.94933448 0.86047388 1.6351057 1.6351057  15.753241  15.753241
3 9.6149023  -1.0470719 -0.94293826 0.85376785 1.6351057 1.6351057  15.959593  15.959593
3 9.2865519  -1.0469461 -0.94350176 0.85340796 1.6351057 1.6351057  15.302892  15.302892
8 8.1373983  -1.0357262 -0.95237231 0.86563325 1.6351057 1.6351057  13.004585  13.004585
3 4.0539352  -1.0195769 -0.97892852 0.88055238 1.6351057 1.6351057  4.8376591  4.8376591
2 7.3571254 -0.98043718  -1.0237084 0.92532665 1.6351057 1.6351057   11.44404   11.44404
1 3.7995564 -0.99569215  -1.0107213 0.90537427 1.6351057 1.6351057  4.3289015  4.3289015
7 2.0023133  -1.0016776 -0.99553672 0.89801442 1.6351057 1.6351057 0.73441527 0.73441527
2 2.4394447 -0.98951805  -1.0109987 0.91070644 1.6351057 1.6351057   1.608678   1.608678
4 3.1864253 -0.98227784  -1.0173683 0.91977358 1.6351057 1.6351057  3.1026393  3.1026393
3 3.2678036 -0.98194352  -1.0175302 0.92045244 1.6351057 1.6351057  3.2653958  3.2653958
9 3.4696319  -0.9906905  -1.0060752  0.9096273 1.6351057 1.6351057  3.6690525  3.6690525
5 8.3477639  -0.9831942  -1.0103674 0.92140693 1.6351057 1.6351057  13.425317  13.425317
3 5.5448814  -1.0242176 -0.96382498  0.8755696 1.6351057 1.6351057  7.8195515  7.8195515
4 2.5541218  -1.0129044 -0.98496211   0.887141 1.6351057 1.6351057  1.8380322  1.8380322
2 2.2486664 -0.99451804  -1.0040066 0.90544163 1.6351057 1.6351057  1.2271216  1.2271216
2 3.5341716 -0.98039933   -1.024512 0.92095455 1.6351057 1.6351057  3.7981319  3.7981319
4 5.1798058 -0.97812355  -1.0271184 0.92240503 1.6351057 1.6351057  7.0894003  7.0894003
 1 4.4706244 -0.98032024  -1.0245641 0.92011642 1.6351057 1.6351057  5.6710374  5.6710374
 9 4.3045959 -0.99108357  -1.0159329  0.9108572 1.6351057 1.6351057  5.3389805  5.3389805
 1  4.153435 -0.99125637  -1.0154119 0.91072713 1.6351057 1.6351057  5.0366586  5.0366586
 1 4.5837733  -1.0130446 -0.98866372 0.88418167 1.6351057 1.6351057  5.8973353  5.8973353
 2  4.674361   -1.013649 -0.98800446 0.88355742 1.6351057 1.6351057  6.0785107  6.0785107
 1 3.8632508  -1.0117866 -0.99077188  0.8861444 1.6351057 1.6351057  4.4562904  4.4562904
15 2.3346898 -0.98908252  -1.0126384 0.91121605 1.6351057 1.6351057  1.3991682  1.3991682
 1 3.6548339 -0.98984404  -1.0105509 0.90929954 1.6351057 1.6351057  4.0394566  4.0394566
 3 3.2564366  -0.9934054  -1.0072765  0.9053682 1.6351057 1.6351057  3.2426619  3.2426619
 3 4.3282964  -1.0089141 -0.98381425 0.88934094 1.6351057 1.6351057  5.3863815  5.3863815
 1 4.0092024  -1.0217988 -0.97716396 0.87672329 1.6351057 1.6351057  4.7481934  4.7481934
 1 4.0066677  -1.0214945 -0.97763022  0.8770004 1.6351057 1.6351057  4.7431241  4.7431241
 5 2.9152927  -1.0069947 -0.99445196 0.89361713 1.6351057 1.6351057   2.560374   2.560374
 1 2.3791542  -1.0084637 -0.99230374 0.89147435 1.6351057 1.6351057   1.488097   1.488097
 1  1.938719  -1.0000802  -1.0003177 0.90072918 1.6351057 1.6351057 0.60722664 0.60722664
 1 3.3557387  -1.0220803 -0.97397518 0.87725515 1.6351057 1.6351057   3.441266   3.441266
 6 3.3507309  -1.0220621   -0.973963 0.87727926 1.6351057 1.6351057  3.4312504  3.4312504
 1 4.5367619  -1.0281018 -0.96369386 0.87175293 1.6351057 1.6351057  5.8033125  5.8033125
 2 4.7250899  -1.0177956 -0.97465161 0.88314706 1.6351057 1.6351057  6.1799685  6.1799685
 4 4.6823049  -1.0079985 -0.98555981 0.89360738 1.6351057 1.6351057  6.0943985  6.0943985
2 6.3562388  -1.0179104 -0.97746598 0.88395996 1.6351057 1.6351057  9.4422662  9.4422662
1 5.9002073  -1.0159858 -0.97934619 0.88585809 1.6351057 1.6351057  8.5302033  8.5302033
3 4.3536496  -1.0239981  -0.9708293 0.87628106 1.6351057 1.6351057  5.4370878  5.4370878
7  4.428611  -1.0261277 -0.96768337 0.87396561 1.6351057 1.6351057  5.5870106  5.5870106
4 2.5858714  -1.0155491 -0.98236098 0.88389665 1.6351057 1.6351057  1.9015316  1.9015316
3 2.6688803  -0.9990151  -1.0036307 0.90224221 1.6351057 1.6351057  2.0675494  2.0675494
1 2.2200777 -0.99330167  -1.0094174  0.9081201 1.6351057 1.6351057  1.1699442  1.1699442
1 2.3443638  -1.0120513 -0.98434075  0.8866245 1.6351057 1.6351057  1.4185164  1.4185164
1 2.2154624  -1.0117192 -0.98528248 0.88705983 1.6351057 1.6351057  1.1607135  1.1607135
4 2.0025731 -0.99650727  -1.0033382 0.90301442 1.6351057 1.6351057 0.73493485 0.73493485
7 1.8208093    -1.00276 -0.99516764 0.89739182 1.6351057 1.6351057 0.37140738 0.37140738
3 2.7899338  -1.0071642  -0.9871216 0.89284764 1.6351057 1.6351057  2.3096563  2.3096563
1  2.728627  -1.0081791 -0.98618372 0.89109625 1.6351057 1.6351057  2.1870426  2.1870426
1 2.7756094   -1.005816 -0.99751167 0.89336019 1.6351057 1.6351057  2.2810075  2.2810075
2 3.0637314  -1.0094676 -0.99329254 0.88944326 1.6351057 1.6351057  2.8572515  2.8572515
6 4.6103763 -0.98655074  -1.0219042 0.91511031 1.6351057 1.6351057  5.9505413  5.9505413
4 4.5673592 -0.97614342  -1.0289587 0.92825416 1.6351057 1.6351057  5.8645072  5.8645072
4  3.472648 -0.98124383  -1.0243507 0.92141413 1.6351057 1.6351057  3.6750846  3.6750846
2 4.2927038  -1.0069411 -0.99421293 0.89465765 1.6351057 1.6351057  5.3151962  5.3151962
3 4.3251109  -1.0170157 -0.97331438 0.88240627 1.6351057 1.6351057  5.3800105  5.3800105
 2 4.2634003  -1.0257465 -0.96500424 0.87372367 1.6351057 1.6351057  5.2565894  5.2565894
 3 3.6935569  -1.0096971 -0.99194633 0.88789678 1.6351057 1.6351057  4.1169025  4.1169025
 3 3.1120946  -1.0088091 -0.99238119 0.88910166 1.6351057 1.6351057  2.9539778  2.9539778
 5 1.7999577  -1.0058397 -0.99328083 0.89403728 1.6351057 1.6351057 0.32970401 0.32970401
 2 1.8637551  -1.0075475 -0.99077025  0.8922087 1.6351057 1.6351057 0.45729891 0.45729891
18 2.1275102  -1.0049287 -0.99309285 0.89565672 1.6351057 1.6351057 0.98480912 0.98480912
 3 2.0005899  -1.0086057 -0.98983055 0.89129696 1.6351057 1.6351057 0.73096848 0.73096848
 1 2.0296578  -1.0038519 -0.99497874 0.89675198 1.6351057 1.6351057 0.78910425 0.78910425
 2 1.9817214  -1.0062792 -0.99317077 0.89387892 1.6351057 1.6351057 0.69323156 0.69323156
 3 2.3093284  -1.0055872 -0.99220686 0.89298033 1.6351057 1.6351057  1.3484456  1.3484456
 1 2.0078206  -1.0067557 -0.99195067 0.89345542 1.6351057 1.6351057 0.74542988 0.74542988
 2 2.0986046 -0.99694879  -1.0007131 0.90357224 1.6351057 1.6351057 0.92699792 0.92699792
 4 1.9859378 -0.99470207   -1.003992 0.90589244 1.6351057 1.6351057 0.70166424 0.70166424
 4 2.4500463 -0.99856985 -0.99811821 0.90235829 1.6351057 1.6351057  1.6298813  1.6298813
 3 2.2388599 -0.99197673  -1.0080854 0.90804364 1.6351057 1.6351057  1.2075084  1.2075084
 2 2.3253345 -0.99100371   -1.008878 0.90917606 1.6351057 1.6351057  1.3804578  1.3804578
 2 1.9895707 -0.99141722  -1.0100412 0.90894622 1.6351057 1.6351057 0.70893013 0.70893013
 1 1.9911031 -0.99141963  -1.0100449 0.90893906 1.6351057 1.6351057 0.71199479 0.71199479
 5 2.1479405  -0.9901854  -1.0112676 0.91016503 1.6351057 1.6351057  1.0256697  1.0256697
 2 2.8760647 -0.98434349  -1.0172944 0.91651828 1.6351057 1.6351057   2.481918   2.481918
1 2.4810452 -0.98811333  -1.0123702 0.91244026 1.6351057 1.6351057   1.6918791   1.6918791
8 2.2080092 -0.99879451  -1.0043535 0.90167574 1.6351057 1.6351057    1.145807    1.145807
2  3.699508 -0.98870109  -1.0174996 0.91098987 1.6351057 1.6351057   4.1288046   4.1288046
1 3.4537963 -0.98725534  -1.0194738 0.91351989 1.6351057 1.6351057   3.6373813   3.6373813
1 2.4024427 -0.98601851  -1.0147472 0.91564959 1.6351057 1.6351057   1.5346742   1.5346742
2 2.3384057  -1.0121049 -0.98399379 0.88771715 1.6351057 1.6351057   1.4066001   1.4066001
3 1.6632978 -0.99714183  -1.0034289 0.90313688 1.6351057 1.6351057 0.056384247 0.056384247
5 5.0384612 -0.97957839   -1.027988 0.92122526 1.6351057 1.6351057   6.8067111   6.8067111
4 5.0139632 -0.98034871  -1.0275158 0.92042534 1.6351057 1.6351057    6.757715    6.757715
1 4.8498617 -0.98044966  -1.0273422 0.92044503 1.6351057 1.6351057   6.4295122   6.4295122
1   3.26454 -0.99418744  -1.0118695 0.90542284 1.6351057 1.6351057   3.2588687   3.2588687
1 2.0471862  -0.9996104 -0.99766112  0.9006931 1.6351057 1.6351057  0.82416111  0.82416111
2 4.9783254  -1.0268309 -0.96691675 0.87073356 1.6351057 1.6351057   6.6864395   6.6864395
2 5.1357248  -1.0129007 -0.98835077 0.88828404 1.6351057 1.6351057   7.0012383   7.0012383
9  4.585905 -0.98774011  -1.0208224  0.9135008 1.6351057 1.6351057   5.9015987   5.9015987
2 2.7191448 -0.99239273  -1.0117381 0.90925185 1.6351057 1.6351057   2.1680784   2.1680784
2  3.230939 -0.98399921  -1.0163837  0.9191614 1.6351057 1.6351057   3.1916668   3.1916668
2 3.8043441 -0.98740891  -1.0135883 0.91202077 1.6351057 1.6351057   4.3384769   4.3384769
8 4.3530632 -0.99446989  -1.0120317 0.90413953 1.6351057 1.6351057   5.4359151   5.4359151
3 5.5695575 -0.99253649  -1.0145184 0.90561122 1.6351057 1.6351057   7.8689037   7.8689037
4 4.4342085 -0.99590793  -1.0117516 0.90475579 1.6351057 1.6351057  5.5982057  5.5982057
3 3.9262313 -0.99322724  -1.0055387 0.90546266 1.6351057 1.6351057  4.5822512  4.5822512
2  3.780017 -0.99571635  -1.0024907 0.90278695 1.6351057 1.6351057  4.2898227  4.2898227
1 4.0232112  -1.0240251 -0.97159058  0.8758561 1.6351057 1.6351057   4.776211   4.776211
2 4.4341554  -1.0189206 -0.97601046 0.88198155 1.6351057 1.6351057  5.5980995  5.5980995
7 4.4382434  -1.0187183 -0.97629536 0.88220425 1.6351057 1.6351057  5.6062754  5.6062754
9 5.7831993  -1.0196429 -0.96976446 0.87820826 1.6351057 1.6351057  8.2961873  8.2961873
1 2.8431467  -1.0181441 -0.97673594 0.88135945 1.6351057 1.6351057  2.4160822  2.4160822
1 2.4036302  -1.0139808 -0.98460507 0.88515999 1.6351057 1.6351057   1.537049   1.537049
1 2.2851239  -1.0104921 -0.98725899 0.88802038 1.6351057 1.6351057  1.3000366  1.3000366
1 2.1022518  -1.0088528  -0.9890951 0.88987036 1.6351057 1.6351057 0.93429235 0.93429235
3 2.0940424  -0.9893445   -1.012502 0.91219018 1.6351057 1.6351057 0.91787355 0.91787355
1 2.2213316  -0.9993864 -0.99737231 0.90092264 1.6351057 1.6351057  1.1724519  1.1724519
4 3.2304592  -1.0165436  -0.9782321 0.88371667 1.6351057 1.6351057  3.1907071  3.1907071
3 3.0894299   -1.017519 -0.97772069 0.88251592 1.6351057 1.6351057  2.9086484  2.9086484
2 3.2252959  -1.0154357 -0.97941709 0.88493983 1.6351057 1.6351057  3.1803805  3.1803805
1  3.073942  -1.0031645 -0.99401124 0.89834833 1.6351057 1.6351057  2.8776727  2.8776727
2 3.0016552  -1.0032822 -0.99421888 0.89820153 1.6351057 1.6351057  2.7330991  2.7330991
4 2.4042558  -0.9913738  -1.0129498 0.90970737 1.6351057 1.6351057  1.5383002  1.5383002
3  2.227747  -1.0056949 -0.99033451 0.89441351 1.6351057 1.6351057  1.1852827  1.1852827
1 2.4333674   -1.014906 -0.98114661 0.88394984 1.6351057 1.6351057  1.5965235  1.5965235
3  6.102475   -1.010648 -0.99171619 0.89103624 1.6351057 1.6351057  8.9347387  8.9347387
3 4.2220829 -0.97990449  -1.0197761 0.92144681 1.6351057 1.6351057  5.1739544  5.1739544
4 5.7676071 -0.98136607  -1.0284784 0.91989636 1.6351057 1.6351057  8.2650029  8.2650029
1 5.4169239 -0.98957553  -1.0094996 0.90892303 1.6351057 1.6351057  7.5636366  7.5636366
2 5.2904523 -0.98419393  -1.0118748 0.91669481 1.6351057 1.6351057  7.3106933  7.3106933
3 2.9990371  -1.0174417 -0.97625887 0.88213634 1.6351057 1.6351057  2.7278629  2.7278629
2 4.4166989  -0.9959588 -0.99772596 0.90422471 1.6351057 1.6351057  5.5631864  5.5631864
1  1.970326  -1.0000824 -0.99791008 0.89947362 1.6351057 1.6351057 0.67044076 0.67044076
4 1.9391259 -0.99901305 -0.99919373 0.90070332 1.6351057 1.6351057 0.60804056 0.60804056
9 2.1293259 -0.99879513 -0.99872969 0.90095084 1.6351057 1.6351057 0.98844051 0.98844051
1 2.5125935  -1.0064059 -0.98920808 0.89255334 1.6351057 1.6351057  1.7549757  1.7549757
2 2.5515321  -1.0045131 -0.99122432 0.89456021 1.6351057 1.6351057   1.832853   1.832853
3 2.5090512 -0.99809575 -0.99876983 0.90303129 1.6351057 1.6351057  1.7478912  1.7478912
1 3.0493638 -0.98078115  -1.0206496 0.92127817 1.6351057 1.6351057  2.8285163  2.8285163
1 1.9746065 -0.99109282  -1.0100486 0.91024184 1.6351057 1.6351057 0.67900166 0.67900166
5 2.3732518 -0.98962639   -1.011486 0.91245852 1.6351057 1.6351057  1.4762924  1.4762924
5 3.2079226  -1.0056478 -0.99185678 0.89577811 1.6351057 1.6351057  3.1456339  3.1456339
1  3.477356  -1.0062731 -0.99150831 0.89527034 1.6351057 1.6351057  3.6845006  3.6845006
2 3.4431617 -0.99425207  -1.0017474 0.90760324 1.6351057 1.6351057  3.6161122  3.6161122
 2 2.6775888  -1.0061724 -0.98952411 0.89255691 1.6351057 1.6351057 2.0849663 2.0849663
12 3.7635434  -1.0003126  -1.0005963 0.89739089 1.6351057 1.6351057 4.2568756 4.2568756
 1 4.2029863  -0.9866196  -1.0191887 0.91284706 1.6351057 1.6351057 5.1357612 5.1357612
 2 2.8390862 -0.98889283  -1.0156615 0.91114536 1.6351057 1.6351057 2.4079612 2.4079612
 1 6.1632404   -1.005092  -0.9994225 0.89162775 1.6351057 1.6351057 9.0562695 9.0562695
 1  6.071451  -1.0151687 -0.98508024 0.88122449 1.6351057 1.6351057 8.8726906 8.8726906
 1 4.1274662  -1.0136229   -0.985119 0.88352815 1.6351057 1.6351057 4.9847211 4.9847211
 2 3.7601365 -0.98703751  -1.0196488 0.91310122 1.6351057 1.6351057 4.2500618 4.2500618
 1 3.7002955 -0.99830051  -1.0082709 0.90133885 1.6351057 1.6351057 4.1303797 4.1303797
 4 2.9557011  -1.0045437 -0.99418994 0.89682894 1.6351057 1.6351057 2.6411908 2.6411908
 2 3.0662161  -1.0045014 -0.99459175 0.89693684 1.6351057 1.6351057 2.8622209 2.8622209
 4 2.8523768  -1.0189038 -0.97790288 0.88007543 1.6351057 1.6351057 2.4345423 2.4345423
 3 2.6065987  -1.0120031 -0.98861179 0.88699556 1.6351057 1.6351057  1.942986  1.942986
 2 2.4487705  -1.0131456 -0.98583519 0.88551403 1.6351057 1.6351057 1.6273296 1.6273296
 5 2.1522368  -1.0112388  -0.9852389 0.88833672 1.6351057 1.6351057 1.0342623 1.0342623
 1 2.4825553  -1.0110387 -0.98377848 0.88859154 1.6351057 1.6351057 1.6948994 1.6948994
 3 4.9540649 -0.97182389  -1.0289478 0.93303177 1.6351057 1.6351057 6.6379185 6.6379185
 4 5.7885705 -0.96815735   -1.032367 0.93729975 1.6351057 1.6351057 8.3069296 8.3069296
 4 5.9520978 -0.96742183  -1.0337666 0.93851016 1.6351057 1.6351057 8.6339843 8.6339843
 2 5.8839847  -0.9669496  -1.0342892 0.93873737 1.6351057 1.6351057  8.497758  8.497758
 3 5.9836767 -0.96643325  -1.0348393  0.9393118 1.6351057 1.6351057   8.6971421   8.6971421
 4 2.3096615  -1.0010573  -1.0009635 0.89972318 1.6351057 1.6351057   1.3491117   1.3491117
 5 2.5682976 -0.99615067  -1.0073529 0.90510246 1.6351057 1.6351057   1.8663839   1.8663839
 3  2.006082 -0.99782217  -1.0010775  0.9017026 1.6351057 1.6351057  0.74195271  0.74195271
 7 1.9551714  -1.0022413 -0.99527057 0.89725532 1.6351057 1.6351057  0.64013148  0.64013148
 3 1.7993719 -0.99974262 -0.99894837 0.89995493 1.6351057 1.6351057  0.32853251  0.32853251
 4 1.7207438  -1.0037718 -0.99592578 0.89564555 1.6351057 1.6351057  0.17127637  0.17127637
 6  1.716222  -1.0013613 -0.99890385 0.89887527 1.6351057 1.6351057   0.1622326   0.1622326
 7 1.8987711  -1.0070869 -0.99178823 0.89192323 1.6351057 1.6351057  0.52733094  0.52733094
 6 1.8371157  -1.0037514 -0.99380213 0.89606618 1.6351057 1.6351057  0.40402012  0.40402012
 3 3.5425324 -0.99492026  -1.0019799 0.90737723 1.6351057 1.6351057   3.8148534   3.8148534
 2 3.8701162 -0.98263726  -1.0239983  0.9199511 1.6351057 1.6351057    4.470021    4.470021
 2 2.0376464  -1.0030261 -0.99595523 0.89767624 1.6351057 1.6351057  0.80508141  0.80508141
 1 1.9395276  -1.0036285 -0.99619971 0.89681358 1.6351057 1.6351057  0.60884381  0.60884381
 1 1.7511065  -1.0034794 -0.99604443 0.89664752 1.6351057 1.6351057  0.23200178  0.23200178
 2 1.7164071 -0.99857094  -1.0019975  0.9019461 1.6351057 1.6351057  0.16260291  0.16260291
11 1.6837507  -1.0012043 -0.99766245 0.89878807 1.6351057 1.6351057 0.097290129 0.097290129
 2  1.732695  -1.0033027 -0.99523488 0.89671995 1.6351057 1.6351057  0.19517871  0.19517871
 1 1.7743991  -1.0051145 -0.99291754  0.8946238 1.6351057 1.6351057  0.27858697  0.27858697
 5 1.8169767   -1.006669 -0.99121378 0.89284905 1.6351057 1.6351057  0.36374217  0.36374217
3  2.941998 -0.99879491 -0.99641735 0.90164291 1.6351057 1.6351057 2.6137846 2.6137846
1 2.5830039 -0.99789052 -0.99826071 0.90244188 1.6351057 1.6351057 1.8957965 1.8957965
3 2.5969414 -0.99793236  -1.0065141 0.90244277 1.6351057 1.6351057 1.9236714 1.9236714
3 3.4947637 -0.97702547  -1.0258581 0.92573423 1.6351057 1.6351057  3.719316  3.719316
2 4.5160376  -0.9830986  -1.0136489 0.91995447 1.6351057 1.6351057 5.7618639 5.7618639
4  5.183132 -0.98336365  -1.0138761 0.92071162 1.6351057 1.6351057 7.0960528 7.0960528
1 6.0132857 -0.97390718  -1.0240047 0.93119006 1.6351057 1.6351057   8.75636   8.75636
3 5.6098528 -0.97121744    -1.02775 0.93295995 1.6351057 1.6351057 7.9494943 7.9494943
5 5.5102735 -0.98315476  -1.0119846 0.91971579 1.6351057 1.6351057 7.7503356 7.7503356
4 5.6260584 -0.97906057  -1.0210966 0.92617315 1.6351057 1.6351057 7.9819055 7.9819055
7 2.9513295  -1.0042578  -0.9924647 0.89408022 1.6351057 1.6351057 2.6324476 2.6324476
4 2.6371647 -0.98684861  -1.0136147 0.91385409 1.6351057 1.6351057 2.0041181 2.0041181
4 3.0950359 -0.98388044  -1.0171006 0.91698169 1.6351057 1.6351057 2.9198604 2.9198604
1 4.9345643 -0.97156688  -1.0346209 0.93204752 1.6351057 1.6351057 6.5989172 6.5989172
1 4.3571314  -0.9740524  -1.0316246 0.92950585 1.6351057 1.6351057 5.4440515 5.4440515
6 3.3565196 -0.98227833  -1.0234889 0.91998875 1.6351057 1.6351057 3.4428279 3.4428279
4  3.837955 -0.98592813  -1.0204575 0.91655559 1.6351057 1.6351057 4.4056986 4.4056986
1 3.7491657 -0.98675685  -1.0194495 0.91564848 1.6351057 1.6351057   4.22812   4.22812
1 3.4270311 -0.98511739  -1.0214334 0.91641041 1.6351057 1.6351057  3.583851  3.583851
4 4.0409263 -0.98065442   -1.026514 0.92143173 1.6351057 1.6351057 4.8116414 4.8116414
 1 4.4451851 -0.97914067  -1.0282691 0.92251996 1.6351057 1.6351057  5.6201588  5.6201588
 1  2.046115 -0.99109348  -1.0118642 0.90951941 1.6351057 1.6351057  0.8220186  0.8220186
12  1.841198 -0.99365217  -1.0083486 0.90667523 1.6351057 1.6351057  0.4121846  0.4121846
 2 2.4404677 -0.98852319  -1.0141089 0.91175423 1.6351057 1.6351057  1.6107242  1.6107242
 2 4.0818176  -1.0024835  -1.0001678 0.89501454 1.6351057 1.6351057  4.8934239  4.8934239
 2 3.5372638 -0.99986314  -1.0048908 0.89853084 1.6351057 1.6351057  3.8043164  3.8043164
 1 3.5069088  -1.0054303 -0.99484779  0.8921264 1.6351057 1.6351057  3.7436064  3.7436064
 4 3.9408115 -0.98771924  -1.0138268  0.9115061 1.6351057 1.6351057  4.6114117  4.6114117
 1 2.2416273  -1.0003796 -0.99855109 0.90079699 1.6351057 1.6351057  1.2130433  1.2130433
 3 2.4103554  -1.0009299 -0.99863139 0.90036245 1.6351057 1.6351057  1.5504996  1.5504996
 3 1.9852773 -0.99534899  -1.0073513 0.90451178 1.6351057 1.6351057 0.70034321 0.70034321
 1 2.0390257  -1.0069066 -0.99389412 0.89258378 1.6351057 1.6351057 0.80784013 0.80784013
 1  2.084766  -1.0068756 -0.98967538 0.89312593 1.6351057 1.6351057 0.89932067 0.89932067
 1 2.7628201  -1.0134834 -0.98173332 0.88492609 1.6351057 1.6351057  2.2554289  2.2554289
 4 2.2321726    -1.01073 -0.98539221 0.88823571 1.6351057 1.6351057  1.1941338  1.1941338
 2 1.7458062   -1.005231 -0.99320494 0.89449088 1.6351057 1.6351057 0.22140105 0.22140105
 1 1.6898367  -1.0012213 -0.99948862 0.89851852 1.6351057 1.6351057 0.10946214 0.10946214
 1 2.3363656  -1.0079121 -0.99214088 0.89053748 1.6351057 1.6351057  1.4025199  1.4025199
 1 2.3081317  -1.0070755 -0.99290123  0.8913697 1.6351057 1.6351057  1.3460521  1.3460521
 3 1.8973449  -1.0035825 -0.99677477 0.89545663 1.6351057 1.6351057 0.52447839 0.52447839
3 2.9470719 -0.99235471  -1.0044334  0.9090864 1.6351057 1.6351057  2.6239324  2.6239324
1 2.7120951 -0.99619209  -1.0008482 0.90529673 1.6351057 1.6351057   2.153979   2.153979
2  2.488161 -0.98498101  -1.0183842 0.91671837 1.6351057 1.6351057  1.7061107  1.7061107
5 2.0846093 -0.99298004  -1.0102369 0.90720158 1.6351057 1.6351057  0.8990072  0.8990072
3 2.8898081 -0.99068313  -1.0148407 0.91050923 1.6351057 1.6351057   2.509405   2.509405
1 2.1917144  -1.0009672  -1.0018627 0.89832278 1.6351057 1.6351057  1.1132176  1.1132176
3 1.9960696   -1.009259 -0.98902408 0.89050529 1.6351057 1.6351057 0.72192783 0.72192783
1 2.1992846 -0.99883518 -0.99945699 0.90232246 1.6351057 1.6351057  1.1283578  1.1283578
1 2.1058831 -0.99487113  -1.0057575 0.90660414 1.6351057 1.6351057 0.94155496 0.94155496
6 1.8596082 -0.99259198  -1.0084212 0.90845712 1.6351057 1.6351057 0.44900516 0.44900516
2 1.7492999  -1.0024576 -0.99730003 0.89779294 1.6351057 1.6351057 0.22838846 0.22838846
7 1.7233998 -0.99863439   -1.001583 0.90193282 1.6351057 1.6351057 0.17658818 0.17658818
1   3.29596 -0.98085487  -1.0192469 0.92200456 1.6351057 1.6351057  3.3217088  3.3217088
1 3.2452609 -0.98125967  -1.0187722 0.92151528 1.6351057 1.6351057  3.2203105  3.2203105
1 3.7933953 -0.97806357  -1.0218565 0.92481608 1.6351057 1.6351057  4.3165793  4.3165793
9  3.911355 -0.97583173  -1.0255641  0.9269867 1.6351057 1.6351057  4.5524988  4.5524988
6 2.3114887  -1.0105899 -0.98780977 0.88947731 1.6351057 1.6351057  1.3527661  1.3527661
1 2.0925283  -1.0107216  -0.9882343 0.88864327 1.6351057 1.6351057 0.91484528 0.91484528
3 2.0435282  -1.0100525 -0.98896105 0.88939974 1.6351057 1.6351057 0.81684515 0.81684515
6 2.0612532  -1.0105707 -0.98818988 0.88884092 1.6351057 1.6351057 0.85229509 0.85229509
 2 2.2909565  -1.0058629   -0.990497 0.89454336 1.6351057 1.6351057  1.3117016  1.3117016
 5 2.1574389 -0.98950799  -1.0106826 0.91141091 1.6351057 1.6351057  1.0446664  1.0446664
 3  2.148906 -0.99944918 -0.99826946 0.90001864 1.6351057 1.6351057  1.0276006  1.0276006
 3 2.6619019  -1.0051341 -0.99444468 0.89299093 1.6351057 1.6351057  2.0535924  2.0535924
 3 2.1585448 -0.99409807  -1.0077275 0.90546683 1.6351057 1.6351057  1.0468783  1.0468783
 4 3.3363813 -0.99283554  -1.0121518 0.90624607 1.6351057 1.6351057  3.4025513  3.4025513
 5 3.9643662  -0.9952172  -1.0101752 0.90325881 1.6351057 1.6351057   4.658521   4.658521
 1 2.2767443  -1.0129094 -0.98559642 0.88603445 1.6351057 1.6351057  1.2832773  1.2832773
 4 3.5134962 -0.98787384  -1.0140155 0.91534388 1.6351057 1.6351057   3.756781   3.756781
 2 4.4769211  -0.9964235  -1.0017096 0.90653262 1.6351057 1.6351057  5.6836309  5.6836309
 4  4.082323 -0.98811291  -1.0082695 0.91452477 1.6351057 1.6351057  4.8944347  4.8944347
 1 2.0209419 -0.99916682 -0.99846389 0.90069558 1.6351057 1.6351057 0.77167256 0.77167256
12 2.0211136 -0.99919061 -0.99843358 0.90067078 1.6351057 1.6351057  0.7720159  0.7720159
 3 2.0858716  -1.0000358 -0.99927314 0.89899672 1.6351057 1.6351057 0.90153189 0.90153189
 3 2.9204756  -0.9901449  -1.0141099 0.90950197 1.6351057 1.6351057  2.5707398  2.5707398
 3 2.6714409 -0.99139126  -1.0131138 0.90845653 1.6351057 1.6351057  2.0726705  2.0726705
14 2.3998826 -0.99256924  -1.0055767 0.90792517 1.6351057 1.6351057  1.5295538  1.5295538
 1  3.529299 -0.99483179  -1.0005349 0.90527917 1.6351057 1.6351057  3.7883867  3.7883867
 3 3.1422866  -1.0080303 -0.98565824  0.8910415 1.6351057 1.6351057   3.014362   3.014362
 1  2.285748  -1.0049295 -0.99676647 0.89384516 1.6351057 1.6351057  1.3012846  1.3012846
1  2.909746  -0.9838264   -1.021042 0.91762689 1.6351057 1.6351057  2.5492807  2.5492807
2 2.2283647 -0.98945962  -1.0127615 0.91232756 1.6351057 1.6351057  1.1865181  1.1865181
2 2.1851322   -1.009769 -0.99009188 0.88910361 1.6351057 1.6351057  1.1000532  1.1000532
3 3.1520515  -1.0059453 -0.98791006 0.89441245 1.6351057 1.6351057  3.0338916  3.0338916
2 2.4564445  -1.0064154 -0.98888575 0.89371537 1.6351057 1.6351057  1.6426777  1.6426777
4 2.6821026 -0.99457406  -1.0023387 0.90670364 1.6351057 1.6351057  2.0939939  2.0939939
3 2.8413328 -0.98284887  -1.0183955 0.91871949 1.6351057 1.6351057  2.4124542  2.4124542
1 3.4526674  -1.0001903 -0.99520468 0.90137673 1.6351057 1.6351057  3.6351234  3.6351234
5 3.5594139  -1.0013528 -0.99731342 0.90070327 1.6351057 1.6351057  3.8486165  3.8486165
7 2.6057016 -0.99610839  -1.0007873 0.90513356 1.6351057 1.6351057   1.941192   1.941192
3 2.5354584  -1.0130897  -0.9816246 0.88602555 1.6351057 1.6351057  1.8007055  1.8007055
2 2.5575496  -1.0130179 -0.98203043 0.88577123 1.6351057 1.6351057  1.8448879  1.8448879
2 1.6871207 -0.99730448  -1.0033251 0.90318274 1.6351057 1.6351057 0.10403017 0.10403017
3 1.8569476 -0.99219792  -1.0095811 0.90858064 1.6351057 1.6351057 0.44368391 0.44368391
3 1.8504399 -0.99212837  -1.0093896 0.90861041 1.6351057 1.6351057 0.43066847 0.43066847
2 1.8502663 -0.99218797  -1.0093819 0.90850914 1.6351057 1.6351057 0.43032128 0.43032128
1 1.8430849  -1.0068464 -0.99085073 0.89259191 1.6351057 1.6351057  0.4159585  0.4159585
3 2.0086013  -1.0091993 -0.98769342 0.89005216 1.6351057 1.6351057 0.74699128 0.74699128
5 2.1688056  -1.0096779 -0.98626224 0.88983815 1.6351057 1.6351057  1.0673999  1.0673999
3 2.8757505 -0.99617075  -1.0030846 0.90591054 1.6351057 1.6351057  2.4812897  2.4812897
 2 2.8537866   -1.009472 -0.98506737 0.89085909 1.6351057 1.6351057  2.4373618  2.4373618
 1 2.6584615 -0.99227378  -1.0124919 0.90893738 1.6351057 1.6351057  2.0467117  2.0467117
 1 3.5210876  -1.0006211  -1.0039425 0.89770788 1.6351057 1.6351057   3.771964   3.771964
 1 2.6519083  -1.0115247 -0.98937962 0.88779823 1.6351057 1.6351057  2.0336053  2.0336053
 5 2.5100372  -1.0133679 -0.98182363 0.88546342 1.6351057 1.6351057  1.7498631  1.7498631
 2 2.1226462  -1.0084155 -0.98797671 0.89071137 1.6351057 1.6351057 0.97508115 0.97508115
10 1.9339589  -1.0078933 -0.98920595 0.89168219 1.6351057 1.6351057 0.59770647 0.59770647
 4 6.1932593  -1.0108363 -0.98287747 0.88597981 1.6351057 1.6351057  9.1163072  9.1163072
 3 3.0395199 -0.99616342 -0.99944892 0.90426918 1.6351057 1.6351057  2.8088285  2.8088285
 3  2.795032 -0.99288933  -1.0063412 0.90654226 1.6351057 1.6351057  2.3198526  2.3198526
 4 1.8639193  -1.0018712  -0.9993056 0.89836522 1.6351057 1.6351057 0.45762721 0.45762721
 7 1.9603673  -1.0060015 -0.99459455 0.89377264 1.6351057 1.6351057 0.65052326 0.65052326
 2 2.5569943  -1.0002112  -1.0037497 0.90000323 1.6351057 1.6351057  1.8437773  1.8437773
11 2.7857615  -1.0032466  -1.0007716  0.8963777 1.6351057 1.6351057  2.3013117  2.3013117
 5 2.5232223 -0.99872977  -1.0019104 0.90281584 1.6351057 1.6351057  1.7762333  1.7762333
 4 2.3366505  -0.9923076  -1.0086343 0.90960426 1.6351057 1.6351057  1.4030897  1.4030897
 7 2.6851904 -0.98906232   -1.012864  0.9133752 1.6351057 1.6351057  2.1001696  2.1001696
 5 2.2858503   -1.013031 -0.98501331 0.88648062 1.6351057 1.6351057  1.3014893  1.3014893
 2 2.2893966  -1.0130527 -0.98500538 0.88645744 1.6351057 1.6351057   1.308582   1.308582
 1 2.2811755  -1.0129797 -0.98507639  0.8865329 1.6351057 1.6351057  1.2921396  1.2921396
 2 2.7010164  -1.0117896 -0.98515013 0.88862247 1.6351057 1.6351057 2.1318215 2.1318215
 1 2.7580374  -1.0158435 -0.98110293 0.88402804 1.6351057 1.6351057 2.2458635 2.2458635
20 3.1872606 -0.99574027  -1.0088561 0.90309682 1.6351057 1.6351057 3.1043099 3.1043099
 1 3.0641814 -0.99596735  -1.0083922 0.90289645 1.6351057 1.6351057 2.8581514 2.8581514
 2 3.0769277 -0.99592249  -1.0084203 0.90292775 1.6351057 1.6351057 2.8836441 2.8836441
 2 2.6161286  -1.0082075 -0.98741549 0.89227467 1.6351057 1.6351057  1.962046  1.962046
 1 2.6420274   -1.006937 -0.98883295 0.89369371 1.6351057 1.6351057 2.0138434 2.0138434
 2 2.5135621  -1.0077704 -0.98813768  0.8926929 1.6351057 1.6351057 1.7569128 1.7569128
 5 3.2178697  -1.0022855 -0.99226583 0.89702946 1.6351057 1.6351057 3.1655282 3.1655282
 4 2.5941819 -0.99665312  -0.9997408 0.90379294 1.6351057 1.6351057 1.9181525 1.9181525
 4  2.587928 -0.98979105  -1.0088116  0.9109357 1.6351057 1.6351057 1.9056448 1.9056448
 3  5.508358 -0.99407422  -1.0038762 0.90387567 1.6351057 1.6351057 7.7465046 7.7465046
 2 6.2680359  -1.0036224  -1.0051123 0.89572102 1.6351057 1.6351057 9.2658604 9.2658604
 3 6.5117048 -0.98564584  -1.0245697 0.91674774 1.6351057 1.6351057 9.7531982 9.7531982
 3 8.0189307 -0.98471969   -1.012128 0.92067997 1.6351057 1.6351057  12.76765  12.76765
 5 5.5476266 -0.98629881  -1.0125763 0.91813507 1.6351057 1.6351057 7.8250418 7.8250418
 1 5.0581444 -0.98478643  -1.0137551 0.91945867 1.6351057 1.6351057 6.8460774 6.8460774
 2 2.5854207  -1.0058856 -0.99135971 0.89503016 1.6351057 1.6351057 1.9006301 1.9006301
 1 3.7386308  -1.0138307 -0.98549956 0.88684842 1.6351057 1.6351057 4.2070502 4.2070502
 1 3.4131736  -1.0028575   -1.002301 0.89700729 1.6351057 1.6351057 3.5561358 3.5561358
 2 2.8471402  -1.0040849 -0.99981467 0.89559092 1.6351057 1.6351057  2.424069  2.424069
 5 2.8537327  -1.0042187 -0.99965813 0.89545324 1.6351057 1.6351057  2.437254  2.437254
 1 3.3489604  -1.0218028 -0.97194021 0.87677004 1.6351057 1.6351057 3.4277095 3.4277095
 1 5.1087793 -0.99044006  -1.0039597 0.90991626 1.6351057 1.6351057 6.9473472 6.9473472
 7  3.468481  -1.0076794 -0.99332632 0.88991438 1.6351057 1.6351057 3.6667508 3.6667508
 2 3.6641344  -1.0084602 -0.99243188 0.88900453 1.6351057 1.6351057 4.0580575 4.0580575
 1 4.2325633  -1.0137468 -0.98313387 0.88337633 1.6351057 1.6351057 5.1949153 5.1949153
 4 3.3123032 -0.98576225  -1.0121898 0.91649134 1.6351057 1.6351057 3.3543951 3.3543951
 8 6.6395496  -1.0106316 -0.97828803 0.88794501 1.6351057 1.6351057 10.008888 10.008888
 2 6.2119617  -1.0096688 -0.97973316 0.88907899 1.6351057 1.6351057  9.153712  9.153712
 3 4.7395355  -1.0000338  -0.9999966 0.89726267 1.6351057 1.6351057 6.2088596 6.2088596
 3 3.6643948 -0.99962525  -1.0000695 0.89824574 1.6351057 1.6351057 4.0585783 4.0585783
 4 3.7781001 -0.97617258  -1.0276317 0.92629779 1.6351057 1.6351057 4.2859888 4.2859888
 1 4.1693078 -0.97603446  -1.0296392 0.92627073 1.6351057 1.6351057 5.0684044 5.0684044
 1  1.960494  -1.0009058  -1.0003946 0.89822313 1.6351057 1.6351057 0.6507767 0.6507767
 3 3.1159746 -0.97953436  -1.0225555 0.92308512 1.6351057 1.6351057 2.9617379 2.9617379
11 3.0798301 -0.99675648  -1.0017018 0.90536959 1.6351057 1.6351057  2.889449  2.889449
 2 2.3300465 -0.99481973  -1.0044063  0.9068469 1.6351057 1.6351057 1.3898816 1.3898816
 3 3.0570765  -1.0039266 -0.99954703 0.89449381 1.6351057 1.6351057 2.8439417 2.8439417
 1 2.4109555 -0.99893118  -1.0000611  0.8999462 1.6351057 1.6351057 1.5516996 1.5516996
4 2.7833996   -1.008902   -0.986374 0.89163407 1.6351057 1.6351057   2.296588   2.296588
2  2.605748 -0.99887309  -1.0014006 0.90275389 1.6351057 1.6351057  1.9412846  1.9412846
4  1.904281  -1.0009501  -1.0003576 0.89948666 1.6351057 1.6351057 0.53835063 0.53835063
3 1.9860443  -1.0003079  -1.0004499 0.90048947 1.6351057 1.6351057 0.70187723 0.70187723
2 1.8207776 -0.99553592   -1.005202 0.90434817 1.6351057 1.6351057 0.37134386 0.37134386
2 2.4108532 -0.98703668  -1.0159527 0.91371814 1.6351057 1.6351057  1.5514951  1.5514951
1  2.387867 -0.98781318  -1.0122599 0.91320689 1.6351057 1.6351057  1.5055226  1.5055226
2 2.3600434 -0.98772892   -1.012607 0.91416837 1.6351057 1.6351057  1.4498755  1.4498755
1 1.8449018 -0.99994882 -0.99944204 0.90076536 1.6351057 1.6351057 0.41959224 0.41959224
1 1.7597148 -0.99936641  -1.0004925 0.90123991 1.6351057 1.6351057 0.24921836 0.24921836
2 2.2746958  -1.0094781 -0.99075377  0.8902428 1.6351057 1.6351057  1.2791804  1.2791804
5 2.4718467  -1.0148385  -0.9827504 0.88467418 1.6351057 1.6351057  1.6734821  1.6734821
1 3.1081032 -0.99564538  -1.0032856 0.90314492 1.6351057 1.6351057  2.9459951  2.9459951
1 3.8024522  -1.0009208 -0.99487992 0.89748069 1.6351057 1.6351057  4.3346931  4.3346931
3 2.2861274 -0.99182616  -1.0066937 0.90930654 1.6351057 1.6351057  1.3020435  1.3020435
3 2.9324757 -0.99556554  -1.0003449 0.90513025 1.6351057 1.6351057  2.5947401  2.5947401
1 3.2578765 -0.99902076 -0.99630369  0.9003803 1.6351057 1.6351057  3.2455417  3.2455417
2 3.5185609  -1.0109764 -0.98186136 0.88777837 1.6351057 1.6351057  3.7669106  3.7669106
5 5.3596551  -1.0257889 -0.96999802 0.87145901 1.6351057 1.6351057  7.4490989  7.4490989
6 3.8989009  -1.0244429 -0.96902979 0.87377086 1.6351057 1.6351057  4.5275905  4.5275905
1 2.5399286   -1.000022  -1.0017559 0.90120825 1.6351057 1.6351057 1.8096458 1.8096458
1 4.1318421  -1.0113677 -0.98726379 0.88996766 1.6351057 1.6351057 4.9934729 4.9934729
2 4.9208463  -1.0131527 -0.98748248 0.88803421 1.6351057 1.6351057 6.5714814 6.5714814
5 6.1480404 -0.99480136  -1.0106261   0.908328 1.6351057 1.6351057 9.0258695 9.0258695
2 6.2297317 -0.99535764  -1.0100073 0.90774719 1.6351057 1.6351057 9.1892521 9.1892521
2 6.2729923 -0.99678477  -1.0083201 0.90620966 1.6351057 1.6351057 9.2757734 9.2757734
6 8.7645584 -0.96206646  -1.0474866 0.94388654 1.6351057 1.6351057 14.258905 14.258905
1 8.7306337 -0.96287984  -1.0397233 0.94563803 1.6351057 1.6351057 14.191056 14.191056
9 7.9942397 -0.96406367  -1.0368121 0.94378707 1.6351057 1.6351057 12.718268 12.718268
1 11.155656 -0.94934845  -1.0556763 0.96069839 1.6351057 1.6351057   19.0411   19.0411
2 11.187875 -0.94923551  -1.0544866 0.96119019 1.6351057 1.6351057 19.105539 19.105539
1 9.5094487 -0.95504384  -1.0518493 0.95290662 1.6351057 1.6351057 15.748686 15.748686
2  7.866975 -0.99022738  -1.0027296 0.91358477 1.6351057 1.6351057 12.463739 12.463739
1 3.8239851  -0.9870898  -1.0094807 0.91511045 1.6351057 1.6351057 4.3777588 4.3777588
2 3.9743557 -0.98854357  -1.0073499 0.91342945 1.6351057 1.6351057 4.6785001 4.6785001
8 4.1548129 -0.98813382  -1.0075457 0.91380805 1.6351057 1.6351057 5.0394145 5.0394145
1 4.0307364 -0.99395528  -1.0017275 0.90558287 1.6351057 1.6351057 4.7912615 4.7912615
1 3.4353541 -0.98592508  -1.0149914 0.91409237 1.6351057 1.6351057 3.6004969 3.6004969
1 2.7369889  -1.0133427 -0.98627307 0.88502979 1.6351057 1.6351057 2.2037664 2.2037664
1 3.3433673  -1.0214784 -0.97471196 0.87690649 1.6351057 1.6351057 3.4165232 3.4165232
5 2.7997502   -1.009576  -0.9882846 0.89116849 1.6351057 1.6351057    2.329289    2.329289
1 2.9985348  -1.0174532  -0.9805713 0.88087777 1.6351057 1.6351057   2.7268583   2.7268583
5 2.1580002  -1.0090379 -0.98902415 0.88959292 1.6351057 1.6351057    1.045789    1.045789
1 1.9861601  -1.0041869 -0.99717962 0.89570759 1.6351057 1.6351057  0.70210896  0.70210896
1 2.0517845  -1.0020608  -1.0003422 0.89766304 1.6351057 1.6351057  0.83335763  0.83335763
5 1.8674317 -0.99552267  -1.0069647 0.90493942 1.6351057 1.6351057  0.46465213  0.46465213
1 1.8411071 -0.99587419  -1.0064656 0.90455833 1.6351057 1.6351057  0.41200278  0.41200278
2  2.189402  -1.0016721  -1.0012538 0.89790708 1.6351057 1.6351057   1.1085926   1.1085926
7 3.4187716 -0.99157632  -1.0151808 0.90900262 1.6351057 1.6351057   3.5673319   3.5673319
2 1.8665554  -1.0050333 -0.99547409 0.89421396 1.6351057 1.6351057  0.46289949  0.46289949
5 2.3140526   -1.008419 -0.99267658   0.890508 1.6351057 1.6351057   1.3578938   1.3578938
1 3.5497943  -1.0146142 -0.98492556 0.88574948 1.6351057 1.6351057   3.8293773   3.8293773
2 3.5614099  -1.0143072 -0.98534966 0.88608923 1.6351057 1.6351057   3.8526085   3.8526085
7  3.637916  -1.0086701 -0.99292055 0.89219022 1.6351057 1.6351057   4.0056206   4.0056206
8 3.5390958 -0.98381077  -1.0214039 0.91909529 1.6351057 1.6351057   3.8079803   3.8079803
1 3.4436746 -0.97900439  -1.0257711 0.92390382 1.6351057 1.6351057    3.617138    3.617138
4 1.6459806  -0.9983594   -1.001756 0.90181531 1.6351057 1.6351057 0.021749825 0.021749825
3 2.1063509  -1.0084795 -0.99089271  0.8902412 1.6351057 1.6351057  0.94249048  0.94249048
1 2.2773186 -0.99588477  -1.0017797 0.90419141 1.6351057 1.6351057   1.2844258   1.2844258
1 2.4792019 -0.99715984 -0.99938602   0.903259 1.6351057 1.6351057   1.6881925   1.6881925
 1  3.327516  -1.0015626 -0.99273677 0.89798388 1.6351057 1.6351057  3.3848206  3.3848206
 6 3.4357901  -1.0183996   -0.975325 0.87975318 1.6351057 1.6351057  3.6013689  3.6013689
 1 3.0052652  -1.0202802 -0.97531345 0.87899005 1.6351057 1.6351057   2.740319   2.740319
 8 3.9132403  -1.0266476 -0.96739374 0.87236263 1.6351057 1.6351057  4.5562693  4.5562693
 2 3.0661438  -1.0166528 -0.98220237 0.88296691 1.6351057 1.6351057  2.8620763  2.8620763
 1 3.5172147  -1.0180739 -0.98073846 0.88176954 1.6351057 1.6351057   3.764218   3.764218
 2   3.54367   -1.020946 -0.97403543 0.87906687 1.6351057 1.6351057  3.8171287  3.8171287
 1  5.430868  -1.0347504 -0.95682503 0.86434961 1.6351057 1.6351057  7.5915246  7.5915246
 1 5.5706021  -1.0311852 -0.95910521  0.8691359 1.6351057 1.6351057  7.8709928  7.8709928
10  5.716638  -1.0328153 -0.95662162 0.86735563 1.6351057 1.6351057  8.1630648  8.1630648
 2 9.2845856  -1.0331031 -0.95482036 0.86878006 1.6351057 1.6351057   15.29896   15.29896
 2 7.4589998  -1.0385662 -0.94955159 0.86228055 1.6351057 1.6351057  11.647788  11.647788
 9 6.6280708  -1.0286538 -0.96312399 0.87255373 1.6351057 1.6351057  9.9859304  9.9859304
 2  7.514929 -0.98888411  -1.0070003  0.9157549 1.6351057 1.6351057  11.759647  11.759647
 1 2.0116264  -1.0073265 -0.99019109 0.89276784 1.6351057 1.6351057 0.75304142 0.75304142
 6 2.2028524  -1.0084148 -0.98998156 0.89185344 1.6351057 1.6351057  1.1354936  1.1354936
 1 2.2121659  -0.9928729  -1.0061824 0.90861538 1.6351057 1.6351057  1.1541204  1.1541204
16  1.746299 -0.99575065  -1.0040867 0.90484467 1.6351057 1.6351057 0.22238659 0.22238659
 1 1.7968622 -0.99632874  -1.0047707 0.90347764 1.6351057 1.6351057 0.32351305 0.32351305
 1 1.9743863  -1.0044512 -0.99699988 0.89509476 1.6351057 1.6351057 0.67856123 0.67856123
 2 4.5580711 -0.97844168  -1.0269242 0.92247778 1.6351057 1.6351057  5.845931  5.845931
 1 3.9376512 -0.97675697  -1.0255677 0.92526866 1.6351057 1.6351057  4.605091  4.605091
 1 3.2192515 -0.98310868  -1.0175702 0.92008582 1.6351057 1.6351057 3.1682918 3.1682918
 1 3.5277343 -0.97981529  -1.0213751 0.92378078 1.6351057 1.6351057 3.7852573 3.7852573
 5 3.6662642 -0.97993232  -1.0204246 0.92367578 1.6351057 1.6351057  4.062317  4.062317
 1 3.5167974 -0.97906957  -1.0220067 0.92442256 1.6351057 1.6351057 3.7633835 3.7633835
 4  2.397716 -0.99282743   -1.006347 0.90898318 1.6351057 1.6351057 1.5252208 1.5252208
 1 2.6020305 -0.98560332  -1.0145262 0.91585036 1.6351057 1.6351057 1.9338496 1.9338496
 2 4.3451018 -0.97755297  -1.0212081 0.92544086 1.6351057 1.6351057 5.4199922 5.4199922
 4 4.2828788  -1.0226014 -0.96760839 0.87646552 1.6351057 1.6351057 5.2955464 5.2955464
 3 3.8032402  -1.0037983 -0.99240485 0.89414531 1.6351057 1.6351057 4.3362692 4.3362692
 1 3.6644717  -1.0059948 -0.98996388  0.8918861 1.6351057 1.6351057 4.0587322 4.0587322
 2 2.6107675 -0.98724674  -1.0122077 0.91479675 1.6351057 1.6351057 1.9513236 1.9513236
 2 2.2790316 -0.98957061  -1.0105522 0.91224689 1.6351057 1.6351057 1.2878519 1.2878519
 4 4.2731449  -1.0269518 -0.96523227 0.87280429 1.6351057 1.6351057 5.2760785 5.2760785
10 4.0678159  -1.0246369   -0.969795  0.8733577 1.6351057 1.6351057 4.8654204 4.8654204
 5 3.8001293  -1.0143781 -0.98614705 0.88593178 1.6351057 1.6351057 4.3300474 4.3300474
 6 3.6136543  -1.0024727  -1.0022868 0.89587962 1.6351057 1.6351057 3.9570974 3.9570974
 1  3.745395  -1.0014318  -1.0037251 0.89694981 1.6351057 1.6351057 4.2205786 4.2205786
 1 4.2582776 -0.97392998  -1.0297478 0.92875618 1.6351057 1.6351057  5.246344  5.246344
1 3.9696689 -0.97548883  -1.0278173 0.92693439 1.6351057 1.6351057 4.6691266 4.6691266
1 3.1998016  -0.9794292  -1.0244882  0.9228221 1.6351057 1.6351057 3.1293919 3.1293919
7 3.3654223 -0.98759731   -1.011498 0.91537422 1.6351057 1.6351057 3.4606332 3.4606332
3 3.0228816 -0.98190824  -1.0201825  0.9211082 1.6351057 1.6351057 2.7755518 2.7755518
1 3.9814514 -0.98809385  -1.0093935 0.91497028 1.6351057 1.6351057 4.6926914 4.6926914
1 4.7115838 -0.97866312  -1.0189676  0.9246764 1.6351057 1.6351057 6.1529563 6.1529563
5 4.2323273 -0.98299142  -1.0139807 0.91939266 1.6351057 1.6351057 5.1944434 5.1944434
4 4.6349239 -0.98576468   -1.009828 0.91654306 1.6351057 1.6351057 5.9996365 5.9996365
2 5.5103881 -0.98149326  -1.0140197 0.92117155 1.6351057 1.6351057 7.7505649 7.7505649
3 4.9536339  -0.9914365  -1.0025645 0.90921305 1.6351057 1.6351057 6.6370565 6.6370565
2 4.7420459 -0.99395741  -1.0054793 0.90409171 1.6351057 1.6351057 6.2138805 6.2138805
3 3.4905786   -1.019157 -0.97299005 0.87971398 1.6351057 1.6351057 3.7109458 3.7109458
2 3.6256849  -1.0024237 -0.99126216 0.89702917 1.6351057 1.6351057 3.9811585 3.9811585
1 3.3414836 -0.99715525 -0.99766941 0.90347903 1.6351057 1.6351057 3.4127559 3.4127559
5 3.9706969 -0.99867211 -0.99772515 0.89975206 1.6351057 1.6351057 4.6711825 4.6711825
5 4.7562431 -0.98611662  -1.0142637 0.91311772 1.6351057 1.6351057 6.2422748 6.2422748
7 3.0319993 -0.98410977  -1.0163105 0.91692388 1.6351057 1.6351057 2.7937872 2.7937872
1 2.3652493 -0.99809211 -0.99959531 0.90131865 1.6351057 1.6351057 1.4602873 1.4602873
5 2.9627197  -1.0008683 -0.99634828   0.897706 1.6351057 1.6351057  2.655228  2.655228
5 2.6962886 -0.99810753 -0.99990646 0.90084612 1.6351057 1.6351057 2.1223658 2.1223658
 2 3.0972847  -1.0066755 -0.99435182 0.89117223 1.6351057 1.6351057  2.9243581  2.9243581
11 2.3779258 -0.98711046   -1.013108 0.91458821 1.6351057 1.6351057  1.4856402  1.4856402
 5 2.9587367 -0.98261602  -1.0184677 0.92023192 1.6351057 1.6351057  2.6472621  2.6472621
 2 5.2158396 -0.97469997  -1.0243319 0.93009671 1.6351057 1.6351057  7.1614679  7.1614679
 4 5.2594983 -0.97496379  -1.0239524 0.92984908 1.6351057 1.6351057  7.2487853  7.2487853
 1 3.0419376 -0.98326307   -1.020245 0.91763132 1.6351057 1.6351057  2.8136639  2.8136639
 5 2.7492074  -1.0035927 -0.99952214 0.89678548 1.6351057 1.6351057  2.2282034  2.2282034
 7  2.781819  -1.0038643 -0.99908507 0.89658916 1.6351057 1.6351057  2.2934267  2.2934267
 1 3.4201406  -1.0037559 -0.99885186 0.89410908 1.6351057 1.6351057  3.5700698  3.5700698
 7 1.9893621  -1.0019628 -0.99574302 0.89739564 1.6351057 1.6351057 0.70851284 0.70851284
 3 2.5455452  -1.0083834 -0.98722749 0.89034623 1.6351057 1.6351057  1.8208791  1.8208791
 1 2.8206576  -1.0040827 -0.99637447 0.89397148 1.6351057 1.6351057  2.3711039  2.3711039
 8 2.1846798   -1.004472 -0.99757834 0.89467938 1.6351057 1.6351057  1.0991483  1.0991483
 7 2.0434721  -1.0021651 -0.99946629 0.89688991 1.6351057 1.6351057 0.81673279 0.81673279
 3 1.9534405  -1.0018591 -0.99977919 0.89737704 1.6351057 1.6351057 0.63666967 0.63666967
 5 2.4398476 -0.99947638   -1.004377 0.89993326 1.6351057 1.6351057  1.6094839  1.6094839
 3 3.1407816 -0.99055065  -1.0157078 0.91002345 1.6351057 1.6351057   3.011352   3.011352
 5 3.5803317 -0.98681132  -1.0199341 0.91492895 1.6351057 1.6351057   3.890452   3.890452
 1 3.5837062 -0.98680325  -1.0199575  0.9149267 1.6351057 1.6351057   3.897201   3.897201
 1 3.4308096 -0.99101721  -1.0153598 0.91035229 1.6351057 1.6351057  3.5914079  3.5914079
4 1.7381225 -0.99659982  -1.0050289  0.9037838 1.6351057 1.6351057 0.20603366 0.20603366
7 2.6796516  -0.9831421  -1.0182571 0.91904451 1.6351057 1.6351057  2.0890919  2.0890919
3 3.2402233 -0.98247859  -1.0169939 0.91942778 1.6351057 1.6351057  3.2102353  3.2102353
4 2.6808605  -1.0169637  -0.9788417 0.88167336 1.6351057 1.6351057  2.0915097  2.0915097
1 3.1119191  -1.0160035 -0.98173684 0.88193736 1.6351057 1.6351057  2.9536269  2.9536269
8 2.3163035  -1.0127948 -0.98287023 0.88635792 1.6351057 1.6351057  1.3623956  1.3623956
1  1.977539  -1.0050137 -0.99292258 0.89533468 1.6351057 1.6351057 0.68486661 0.68486661
9 2.7495199  -1.0178139 -0.97839334 0.88081715 1.6351057 1.6351057  2.2288285  2.2288285
2 3.3300568   -1.021547 -0.97332585  0.8768229 1.6351057 1.6351057  3.3899023  3.3899023
2 3.3338211  -1.0168424 -0.97744353 0.88342591 1.6351057 1.6351057  3.3974309  3.3974309
2 4.4994386  -1.0188839 -0.97420272 0.88195036 1.6351057 1.6351057  5.7286659  5.7286659
1 6.7973017  -1.0093228  -0.9818072 0.89270314 1.6351057 1.6351057  10.324392  10.324392
1 4.4287783  -0.9831698  -1.0169298 0.92100555 1.6351057 1.6351057  5.5873453  5.5873453
1 4.8936379 -0.97996226  -1.0206237 0.92058589 1.6351057 1.6351057  6.5170644  6.5170644
3  6.282044  -0.9759935   -1.020517 0.92671848 1.6351057 1.6351057  9.2938767  9.2938767
2 6.8285553 -0.97658439  -1.0191322 0.92595854 1.6351057 1.6351057  10.386899  10.386899
6 6.6469669 -0.98267581   -1.011184 0.92004209 1.6351057 1.6351057  10.023723  10.023723
1 6.5282499 -0.98675227  -1.0064421 0.91592761 1.6351057 1.6351057  9.7862885  9.7862885
1  6.675279  -1.0011674 -0.99004404 0.90091413 1.6351057 1.6351057  10.080347  10.080347
2 2.4724379   -1.008823 -0.98628561 0.89028605 1.6351057 1.6351057  1.6746645  1.6746645
 1 2.4669559  -1.0090211 -0.98607098  0.8900974 1.6351057 1.6351057  1.6637005  1.6637005
 2 2.7595381  -1.0102566 -0.98398097 0.88878004 1.6351057 1.6351057  2.2488649  2.2488649
 5 5.2821947  -1.0218754 -0.97703253 0.87858781 1.6351057 1.6351057  7.2941781  7.2941781
 9 5.7965116   -1.023199 -0.97610049 0.87721665 1.6351057 1.6351057  8.3228118  8.3228118
 1 7.2129448  -1.0288204 -0.97055254 0.87123455 1.6351057 1.6351057  11.155678  11.155678
 2 7.2409869  -1.0286583 -0.97101309 0.87130078 1.6351057 1.6351057  11.211763  11.211763
 2 2.8623081  -1.0040511  -0.9906982 0.89530897 1.6351057 1.6351057  2.4544049  2.4544049
 3 3.9456277   -1.002583 -0.99074791 0.89670015 1.6351057 1.6351057  4.6210441  4.6210441
 4 5.4594968  -1.0279175 -0.96006191 0.87166634 1.6351057 1.6351057  7.6487823  7.6487823
 3 5.3781556  -1.0265026 -0.96175099 0.87322668 1.6351057 1.6351057     7.4861     7.4861
 1 7.1687516  -1.0182679 -0.96854134  0.8820067 1.6351057 1.6351057  11.067292  11.067292
10 7.2205888  -1.0176101 -0.97000183 0.88040725 1.6351057 1.6351057  11.170966  11.170966
 2 3.7380626  -1.0157103 -0.97578077 0.88368121 1.6351057 1.6351057  4.2059138  4.2059138
14  2.820076  -1.0127284 -0.98733787 0.88710452 1.6351057 1.6351057  2.3699408  2.3699408
 2 1.7997925   -1.002941  -0.9979152 0.89702086 1.6351057 1.6351057 0.32937375 0.32937375
 4 2.2140097  -1.0018395 -0.99753957 0.89918004 1.6351057 1.6351057   1.157808   1.157808
 4 2.7717716 -0.99235935  -1.0110933 0.90958475 1.6351057 1.6351057  2.2733319  2.2733319
 2 3.8975163 -0.99392812  -1.0125556 0.90751066 1.6351057 1.6351057  4.5248213  4.5248213
 3 3.5089631  -1.0058478 -0.99813741 0.89440716 1.6351057 1.6351057  3.7477149  3.7477149
 2 3.0542468  -1.0088306 -0.98511243 0.89006324 1.6351057 1.6351057  2.8382824  2.8382824
3 3.0364853  -1.0090513 -0.98489947 0.88983621 1.6351057 1.6351057 2.8027594 2.8027594
9 3.6088595 -0.97895063  -1.0225033 0.92475628 1.6351057 1.6351057 3.9475076 3.9475076
5 3.2091759  -1.0021829  -1.0006132 0.89902172 1.6351057 1.6351057 3.1481404 3.1481404
3 3.3682136 -0.99693013  -1.0066744 0.90489667 1.6351057 1.6351057 3.4662158 3.4662158
2 3.5875397 -0.97714441  -1.0242652 0.92598499 1.6351057 1.6351057 3.9048682 3.9048682
2 2.9660645 -0.98444447  -1.0148072  0.9174099 1.6351057 1.6351057 2.6619176 2.6619176
3 2.6521335 -0.99398897  -1.0083991 0.90792334 1.6351057 1.6351057 2.0340558 2.0340558
6 3.0404733  -1.0026741 -0.99975353 0.89843609 1.6351057 1.6351057 2.8107353 2.8107353
3 3.7854445 -0.99253288  -1.0075898 0.91048098 1.6351057 1.6351057 4.3006777 4.3006777
3 5.0109839 -0.97578556  -1.0223833  0.9274996 1.6351057 1.6351057 6.7517564 6.7517564
5 4.7853163 -0.98123971  -1.0240218 0.92291647 1.6351057 1.6351057 6.3004213 6.3004213
6 3.0563098 -0.97998442  -1.0230909 0.92222752 1.6351057 1.6351057 2.8424082 2.8424082
2 3.3631126 -0.97792963  -1.0249951 0.92517873 1.6351057 1.6351057 3.4560138 3.4560138
2 3.3018559 -0.97848203  -1.0236661 0.92457393 1.6351057 1.6351057 3.3335004 3.3335004
6 2.9299957  -0.9952339  -1.0043999 0.90697944 1.6351057 1.6351057 2.5897802 2.5897802
3 2.4191547 -0.98984346   -1.011734 0.91227861 1.6351057 1.6351057  1.568098  1.568098
2 2.3901157 -0.99012558  -1.0113654 0.91195217 1.6351057 1.6351057 1.5100201 1.5100201
1 3.8814402  -1.0020287  -1.0018978 0.89930489 1.6351057 1.6351057 4.4926692 4.4926692
3 3.3191597  -1.0026277  -1.0024547 0.89719983 1.6351057 1.6351057 3.3681081 3.3681081
2 3.9179195  -1.0192743 -0.97757418 0.87825122 1.6351057 1.6351057 4.5656277 4.5656277
2 3.6597585  -1.0171632 -0.97868962 0.88043229 1.6351057 1.6351057  4.0493056  4.0493056
6 1.7750158  -1.0051787 -0.99300836 0.89427517 1.6351057 1.6351057 0.27982037 0.27982037
2 1.7791139 -0.99987401 -0.99938609 0.89966089 1.6351057 1.6351057 0.28801655 0.28801655
1 1.8147702 -0.99955002 -0.99978639 0.89993463 1.6351057 1.6351057 0.35932902 0.35932902
1 2.7591918 -0.98547991  -1.0192225 0.91563662 1.6351057 1.6351057  2.2481723  2.2481723
2 1.7758657 -0.99773884  -1.0020423 0.90200224 1.6351057 1.6351057 0.28152014 0.28152014
4 1.8626674 -0.99547925  -1.0037511 0.90475531 1.6351057 1.6351057 0.45512344 0.45512344
4 3.1950239 -0.99052091  -1.0061322 0.91068505 1.6351057 1.6351057  3.1198366  3.1198366
3 3.4334122  -1.0106707 -0.98201756 0.88934336 1.6351057 1.6351057   3.596613   3.596613
1 4.9011614  -1.0088649 -0.98308272 0.88935667 1.6351057 1.6351057  6.5321114  6.5321114
1 4.3536053 -0.99896765   -1.004794 0.89869131 1.6351057 1.6351057  5.4369994  5.4369994
4 3.8408355 -0.99142992  -1.0128021 0.90729626 1.6351057 1.6351057  4.4114597  4.4114597
3 1.8751051 -0.99444082  -1.0078385 0.90569469 1.6351057 1.6351057 0.47999886 0.47999886
2 1.9905132 -0.99773494  -1.0024626 0.90158132 1.6351057 1.6351057 0.71081516 0.71081516
6 1.9573305   -1.008795 -0.99054545  0.8904597 1.6351057 1.6351057 0.64444965 0.64444965
2  2.031369  -1.0097771 -0.98942349 0.88936805 1.6351057 1.6351057 0.79252669 0.79252669
2 2.8201739  -1.0133337 -0.98475679 0.88690465 1.6351057 1.6351057  2.3701365  2.3701365
1 3.5411423  -1.0184878 -0.97843239 0.87925882 1.6351057 1.6351057  3.8120732  3.8120732
7 3.3213166  -1.0113304 -0.98196275 0.88734122 1.6351057 1.6351057  3.3724219  3.3724219
1 3.3502699  -1.0118709 -0.98121138 0.88684777 1.6351057 1.6351057  3.4303284  3.4303284
 2 2.3307089 -0.99697102  -1.0003613 0.90406282 1.6351057 1.6351057  1.3912066  1.3912066
 1 1.9176853 -0.99204415  -1.0081517 0.90875246 1.6351057 1.6351057 0.56515926 0.56515926
 2 3.1520107 -0.98433412  -1.0191304 0.91865609 1.6351057 1.6351057    3.03381    3.03381
 2 3.2579194 -0.98119628   -1.022447 0.92197504 1.6351057 1.6351057  3.2456275  3.2456275
 2 3.9807365 -0.97822091  -1.0265048 0.92560361 1.6351057 1.6351057  4.6912618  4.6912618
 2 3.9772086 -0.97614848  -1.0279129 0.92782175 1.6351057 1.6351057  4.6842058  4.6842058
 1 4.0894155 -0.97475085  -1.0269022 0.92819567 1.6351057 1.6351057  4.9086198  4.9086198
 1 3.9947282   -0.987487  -1.0183245 0.91199634 1.6351057 1.6351057   4.719245   4.719245
10 3.1062252  -1.0131378 -0.98579381  0.8846835 1.6351057 1.6351057  2.9422391  2.9422391
 2 3.1623681  -1.0130128 -0.98662113 0.88483924 1.6351057 1.6351057   3.054525   3.054525
 4 2.9388034  -1.0182267 -0.97904671 0.88127595 1.6351057 1.6351057  2.6073955  2.6073955
 6 2.9173192 -0.99513869  -1.0037737 0.90702528 1.6351057 1.6351057  2.5644271  2.5644271
 5 1.9393143 -0.99388692  -1.0055934 0.90716379 1.6351057 1.6351057  0.6084173  0.6084173
 2 2.3271892 -0.99213261  -1.0067733 0.90813562 1.6351057 1.6351057  1.3841672  1.3841672
 3 3.5646556 -0.98925912  -1.0076708 0.91126766 1.6351057 1.6351057  3.8590999  3.8590999
10  4.180436  -1.0208719 -0.97472419 0.87659647 1.6351057 1.6351057  5.0906607  5.0906607
 3 2.9709241  -1.0174219 -0.97879752 0.88077951 1.6351057 1.6351057  2.6716369  2.6716369
10 3.2344349  -1.0119308 -0.98891984 0.88601809 1.6351057 1.6351057  3.1986585  3.1986585
 1 3.5658051  -1.0143451 -0.98568898 0.88335559 1.6351057 1.6351057  3.8613988  3.8613988
 3 7.9327523   -1.002385 -0.99855892 0.89357303 1.6351057 1.6351057  12.595293  12.595293
3 4.9417497  -1.0032577 -0.99930918  0.8937758 1.6351057 1.6351057  6.6132881  6.6132881
8 3.8983756 -0.98501279  -1.0220946 0.91562927 1.6351057 1.6351057  4.5265399  4.5265399
2 2.8841236  -1.0016936   -0.997695 0.89648697 1.6351057 1.6351057   2.498036   2.498036
1 3.3627136  -1.0007488 -0.99377026 0.90025407 1.6351057 1.6351057  3.4552158  3.4552158
3  3.086265 -0.99960525 -0.99559026 0.90142817 1.6351057 1.6351057  2.9023188  2.9023188
3 3.0891119 -0.99937388 -0.99585672 0.90167798 1.6351057 1.6351057  2.9080124  2.9080124
3 1.9151273   -1.006088 -0.99407246 0.89300281 1.6351057 1.6351057 0.56004337 0.56004337
6 2.4043758  -1.0089342 -0.98855284 0.88945109 1.6351057 1.6351057  1.5385403  1.5385403
9 2.2086715  -1.0028124 -0.99547892 0.89597818 1.6351057 1.6351057  1.1471317  1.1471317
4 1.9390193  -1.0011727 -0.99863439 0.89788759 1.6351057 1.6351057 0.60782729 0.60782729
3 2.6829019 -0.99630175  -1.0084727 0.90327081 1.6351057 1.6351057  2.0955924  2.0955924
2 2.0609261    -1.00634 -0.99374304  0.8924374 1.6351057 1.6351057 0.85164086 0.85164086
1 2.1302604  -1.0111729 -0.98636697 0.88852841 1.6351057 1.6351057 0.99030948 0.99030948
1  2.295727  -1.0132591 -0.98455387 0.88626117 1.6351057 1.6351057  1.3212426  1.3212426
3  2.690712   -1.002072 -0.99959483 0.89904113 1.6351057 1.6351057  2.1112127  2.1112127
9 2.4654517   -1.001821   -1.000081 0.89905463 1.6351057 1.6351057   1.660692   1.660692
3 3.1882175  -1.0008922   -1.004103 0.89936865 1.6351057 1.6351057  3.1062238  3.1062238
1 3.5639365  -1.0009011  -1.0046631 0.89941907 1.6351057 1.6351057  3.8576618  3.8576618
9 3.8810912  -1.0053459  -1.0000457 0.89361346 1.6351057 1.6351057   4.491971   4.491971
1 3.3758906 -0.98836602  -1.0177446 0.91173404 1.6351057 1.6351057  3.4815698  3.4815698
 7 2.8886391  -0.9893472  -1.0159109 0.91085948 1.6351057 1.6351057  2.5070668  2.5070668
 4 1.9297691 -0.99702211  -1.0021954 0.90398488 1.6351057 1.6351057 0.58932692 0.58932692
 3 1.7382543 -0.99563489  -1.0058986 0.90460566 1.6351057 1.6351057 0.20629732 0.20629732
 8 1.7112484 -0.99767152  -1.0024356  0.9021982 1.6351057 1.6351057 0.15228539 0.15228539
 1 3.3984205 -0.98479023  -1.0144567 0.91602674 1.6351057 1.6351057  3.5266298  3.5266298
 1 2.3220907  -1.0034014 -0.99262376 0.89609228 1.6351057 1.6351057    1.37397    1.37397
 2 2.2543427  -1.0032851  -0.9929008 0.89626507 1.6351057 1.6351057  1.2384741  1.2384741
 1 2.4258387   -1.009215  -0.9867369 0.88949473 1.6351057 1.6351057  1.5814662  1.5814662
 1 1.8193376  -1.0066559 -0.99197247 0.89256903 1.6351057 1.6351057 0.36846381 0.36846381
 3 2.2790533    -1.01296 -0.98369004 0.88666166 1.6351057 1.6351057  1.2878954  1.2878954
 1 2.4669956 -0.99528842  -1.0092697 0.90512574 1.6351057 1.6351057  1.6637799  1.6637799
 1 1.7863148 -0.99922607  -1.0016354 0.90134066 1.6351057 1.6351057 0.30241836 0.30241836
 3 2.6912486  -1.0143233 -0.98520457 0.88499398 1.6351057 1.6351057   2.112286   2.112286
10 2.6857845  -1.0143131 -0.98519965 0.88500561 1.6351057 1.6351057  2.1013578  2.1013578
 2 3.3189103  -1.0159422 -0.98469927 0.88291941 1.6351057 1.6351057  3.3676092  3.3676092
 5 2.9584601  -1.0152561 -0.98469475 0.88394257 1.6351057 1.6351057  2.6467088  2.6467088
 3 2.9088897  -1.0100884 -0.99214085 0.88897619 1.6351057 1.6351057   2.547568   2.547568
 6   3.14077  -1.0092289 -0.99368675 0.88951513 1.6351057 1.6351057  3.0113287  3.0113287
 1 5.7243651 -0.99078591  -1.0190426 0.91011793 1.6351057 1.6351057  8.1785189  8.1785189
 2 6.3026281 -0.99520739  -1.0145341 0.90569317 1.6351057 1.6351057  9.3350449  9.3350449
 3 5.5860769 -0.99019807  -1.0195807  0.9105688 1.6351057 1.6351057  7.9019425  7.9019425
 5 3.0592931 -0.99413995  -1.0118219 0.90601655 1.6351057 1.6351057  2.8483749  2.8483749
 1 3.3251622 -0.99252786   -1.014026 0.90781827 1.6351057 1.6351057  3.3801131  3.3801131
 1  3.816938 -0.99583902  -1.0112344 0.90424968 1.6351057 1.6351057  4.3636647  4.3636647
 1 2.9637931  -1.0150255 -0.98428184 0.88472011 1.6351057 1.6351057   2.657375   2.657375
 2 3.3293674  -1.0195496  -0.9787599 0.87893062 1.6351057 1.6351057  3.3885234  3.3885234
 1 2.0420656 -0.99401836  -1.0074314 0.90570913 1.6351057 1.6351057 0.81391998 0.81391998
 3 1.9061407 -0.99240994  -1.0078419 0.90817625 1.6351057 1.6351057 0.54207018 0.54207018
 3 1.8937233 -0.99329113  -1.0064253 0.90737881 1.6351057 1.6351057 0.51723523 0.51723523
 7 1.9041926 -0.99418898  -1.0054056 0.90682508 1.6351057 1.6351057 0.53817379 0.53817379
 4 1.9511008 -0.99396152  -1.0052079 0.90692431 1.6351057 1.6351057 0.63199021 0.63199021
 3 2.2357895  -1.0091739  -0.9889332 0.89104409 1.6351057 1.6351057  1.2013676  1.2013676
 2 3.3393385  -1.0071217 -0.99683654 0.89244243 1.6351057 1.6351057  3.4084657  3.4084657
 2 2.7660376 -0.99080887  -1.0139716 0.91074392 1.6351057 1.6351057  2.2618639  2.2618639
 4 1.8269287  -0.9930889  -1.0086366 0.90739254 1.6351057 1.6351057 0.38364609 0.38364609
 1  3.595251  -1.0105736 -0.98493891 0.89055499 1.6351057 1.6351057  3.9202906  3.9202906
 3 3.9583184  -1.0090383 -0.98435773  0.8919936 1.6351057 1.6351057  4.6464256  4.6464256
 3 3.6862482 -0.98559187  -1.0117824 0.91579293 1.6351057 1.6351057   4.102285   4.102285
11 2.5119555  -1.0006986  -1.0032669 0.89887059 1.6351057 1.6351057  1.7536997  1.7536997
 2 2.7531285  -1.0095124 -0.99231499 0.88916274 1.6351057 1.6351057  2.2360456  2.2360456
 2 1.8043077  -1.0069545 -0.99197368 0.89260898 1.6351057 1.6351057 0.33840416 0.33840416
 8 1.7271841 -0.99695573  -1.0043256 0.90300187 1.6351057 1.6351057  0.1841569  0.1841569
 3 2.3608431 -0.99530953  -1.0044248 0.90641165 1.6351057 1.6351057   1.451475   1.451475
 2  3.097783 -0.98728212  -1.0148285 0.91564784 1.6351057 1.6351057  2.9253546  2.9253546
 4 3.7529278 -0.99469447   -1.008253 0.90781914 1.6351057 1.6351057  4.2356443  4.2356443
 4 4.2629526  -0.9990034  -1.0014354 0.90360107 1.6351057 1.6351057  5.2556938  5.2556938
 2 4.3971109 -0.99293484  -1.0072803 0.91037093 1.6351057 1.6351057  5.5240104  5.5240104
 1 3.0923219  -1.0121565 -0.98896238 0.88768252 1.6351057 1.6351057  2.9144324  2.9144324
 2 3.1117432  -1.0090077 -0.98735616 0.88894906 1.6351057 1.6351057   2.953275   2.953275
 3 2.6174977  -1.0039142   -0.992105 0.89500967 1.6351057 1.6351057   1.964784   1.964784
 9 2.9212154  -1.0056878 -0.98918224 0.89321383 1.6351057 1.6351057  2.5722196  2.5722196
 2  2.576465  -1.0101109 -0.98472818 0.88987836 1.6351057 1.6351057  1.8827187  1.8827187
 3 2.5957378  -1.0155312 -0.97924771 0.88371626 1.6351057 1.6351057  1.9212643  1.9212643
 1 2.8220354  -1.0150611 -0.97887691 0.88452233 1.6351057 1.6351057  2.3738595  2.3738595
 1 4.1201737  -1.0093477 -0.98601297 0.88816172 1.6351057 1.6351057  4.9701361  4.9701361
 2 5.3357889   -1.015498 -0.97903833 0.88134045 1.6351057 1.6351057  7.4013664  7.4013664
 3 2.2409608  -1.0080869 -0.99112308 0.89040235 1.6351057 1.6351057  1.2117103  1.2117103
 3 2.1545642  -1.0082901 -0.99070337  0.8903107 1.6351057 1.6351057  1.0389172  1.0389172
17 1.6878572  -1.0009327 -0.99792744 0.89899112 1.6351057 1.6351057 0.10550299 0.10550299
 1 1.8013884  -1.0047249 -0.99326355 0.89471171 1.6351057 1.6351057  0.3325655  0.3325655
1 4.4950738 -0.99854241 -0.99460372 0.90127645 1.6351057 1.6351057 5.7199362 5.7199362
2 5.5113908  -1.0080003 -0.98199455 0.89224305 1.6351057 1.6351057 7.7525702 7.7525702
2 5.6664446  -0.9771534  -1.0196172 0.92685841 1.6351057 1.6351057 8.0626779 8.0626779
1 5.6033074 -0.97710639  -1.0197561 0.92687975 1.6351057 1.6351057 7.9364035 7.9364035
2 3.0626955  -1.0209687 -0.97451793 0.87807619 1.6351057 1.6351057 2.8551798 2.8551798
5 3.5614677  -1.0228114 -0.97112923 0.87553213 1.6351057 1.6351057 3.8527241 3.8527241
1 3.1383428   -1.021442 -0.97299485 0.87752878 1.6351057 1.6351057 3.0064742 3.0064742
3 3.7942567     -1.0072 -0.98551342  0.8933083 1.6351057 1.6351057 4.3183021 4.3183021
5  2.517771  -1.0014056 -0.99606789 0.89980818 1.6351057 1.6351057 1.7653306 1.7653306
7 2.8050439  -1.0074226 -0.98913484 0.89348479 1.6351057 1.6351057 2.3398764 2.3398764
1 2.8524965  -1.0068232 -0.98994962 0.89419494 1.6351057 1.6351057 2.4347817 2.4347817
4 3.4086931  -1.0208354 -0.97594576 0.87880833 1.6351057 1.6351057 3.5471748 3.5471748
1 3.5825751  -1.0142259 -0.98159693 0.88660484 1.6351057 1.6351057  3.894939  3.894939
1 4.3054532  -1.0081599  -0.9907357 0.89359462 1.6351057 1.6351057 5.3406951 5.3406951
3 4.2205293  -1.0080644 -0.99084539 0.89365718 1.6351057 1.6351057 5.1708473 5.1708473
1  3.936302 -0.98043176  -1.0217474 0.92363629 1.6351057 1.6351057 4.6023926 4.6023926
1 3.5018717 -0.97981133  -1.0250222 0.92178371 1.6351057 1.6351057 3.7335322 3.7335322
2 3.8833617 -0.98626851  -1.0114682 0.91431028 1.6351057 1.6351057 4.4965121 4.4965121
3 4.7173788 -0.99531515  -1.0062342 0.90782044 1.6351057 1.6351057 6.1645462 6.1645462
5 4.6397531  -1.0043613 -0.99819791 0.89746738 1.6351057 1.6351057 6.0092949 6.0092949
10 2.2465503 -0.99977171 -0.99874975 0.89925839 1.6351057 1.6351057 1.2228893 1.2228893
 9 2.1365297 -0.99259363  -1.0062602 0.90851943 1.6351057 1.6351057 1.0028482 1.0028482
 1 2.4559999 -0.98793073  -1.0119084  0.9140345 1.6351057 1.6351057 1.6417886 1.6417886
 2 3.5058048 -0.98717538  -1.0100789 0.91512965 1.6351057 1.6351057 3.7413983 3.7413983
