sed: can't read emacs: No such file or directory
I am doing vw0_7alpha0_1rs0_1_Bfore/ssmtools_vw0_7_al0_1_rs0_1_Bfore.yaml
I am doing vw0_7alpha0_1rs0_1_Bfore/ssmtools_vw0_7_al0_1_rs0_1_Bfore.yaml
I am doing vw0_7alpha0_1rs0_1_Bfore/ssmtools_vw0_7_al0_1_rs0_1_Bfore.yaml
I am doing vw0_7alpha0_1rs0_1_Bfore/ssmtools_vw0_7_al0_1_rs0_1_Bfore.yaml
I am doing vw0_7alpha0_1rs0_1_Bfore/ssmtools_vw0_7_al0_1_rs0_1_Bfore.yaml
I am doing vw0_7alpha0_1rs0_1_Bfore/ssmtools_vw0_7_al0_1_rs0_1_Bfore.yaml
I am doing vw0_7alpha0_1rs0_1_Bfore/ssmtools_vw0_7_al0_1_rs0_1_Bfore.yaml
I am doing vw0_7alpha0_1rs0_1_Bfore/ssmtools_vw0_7_al0_1_rs0_1_Bfore.yaml
I am doing vw0_7alpha0_1rs0_1_Bfore/ssmtools_vw0_7_al0_1_rs0_1_Bfore.yaml
I am doing vw0_7alpha0_1rs0_1_Bfore/ssmtools_vw0_7_al0_1_rs0_1_Bfore.yaml
I am doing vw0_7alpha0_1rs0_1_Bfore/ssmtools_vw0_7_al0_1_rs0_1_Bfore.yaml
I am doing vw0_7alpha0_1rs0_1_Bfore/ssmtools_vw0_7_al0_1_rs0_1_Bfore.yaml
I am doing vw0_7alpha0_1rs0_1_Bfore/ssmtools_vw0_7_al0_1_rs0_1_Bfore.yaml
I am doing vw0_7alpha0_1rs0_1_Bfore/ssmtools_vw0_7_al0_1_rs0_1_Bfore.yaml
I am doing vw0_7alpha0_1rs0_1_Bfore/ssmtools_vw0_7_al0_1_rs0_1_Bfore.yaml
I am doing vw0_7alpha0_1rs0_1_Bfore/ssmtools_vw0_7_al0_1_rs0_1_Bfore.yaml
I am doing vw0_7alpha0_1rs0_1_Bfore/ssmtools_vw0_7_al0_1_rs0_1_Bfore.yaml
I am doing vw0_7alpha0_1rs0_1_Bfore/ssmtools_vw0_7_al0_1_rs0_1_Bfore.yaml
I am doing vw0_7alpha0_1rs0_1_Bfore/ssmtools_vw0_7_al0_1_rs0_1_Bfore.yaml
I am doing vw0_7alpha0_1rs0_1_Bfore/ssmtools_vw0_7_al0_1_rs0_1_Bfore.yaml
I am doing vw0_7alpha0_1rs0_1_Bfore/ssmtools_vw0_7_al0_1_rs0_1_Bfore.yaml
I am doing vw0_7alpha0_1rs0_1_Bfore/ssmtools_vw0_7_al0_1_rs0_1_Bfore.yaml
I am doing vw0_7alpha0_1rs0_1_Bfore/ssmtools_vw0_7_al0_1_rs0_1_Bfore.yaml
I am doing vw0_7alpha0_1rs0_1_Bfore/ssmtools_vw0_7_al0_1_rs0_1_Bfore.yaml
I am doing vw0_7alpha0_1rs0_1_Bfore/ssmtools_vw0_7_al0_1_rs0_1_Bfore.yaml
I am doing vw0_7alpha0_1rs0_1_Bfore/ssmtools_vw0_7_al0_1_rs0_1_Bfore.yaml
I am doing vw0_7alpha0_1rs0_1_Bfore/ssmtools_vw0_7_al0_1_rs0_1_Bfore.yaml
I am doing vw0_7alpha0_1rs0_1_Bfore/ssmtools_vw0_7_al0_1_rs0_1_Bfore.yaml
I am doing vw0_7alpha0_1rs0_1_Bfore/ssmtools_vw0_7_al0_1_rs0_1_Bfore.yaml
I am doing vw0_7alpha0_1rs0_1_Bfore/ssmtools_vw0_7_al0_1_rs0_1_Bfore.yaml
I am doing vw0_7alpha0_1rs0_1_Bfore/ssmtools_vw0_7_al0_1_rs0_1_Bfore.yaml
I am doing vw0_7alpha0_1rs0_1_Bfore/ssmtools_vw0_7_al0_1_rs0_1_Bfore.yaml
I am doing vw0_7alpha0_1rs0_1_Bfore/ssmtools_vw0_7_al0_1_rs0_1_Bfore.yaml
I am doing vw0_7alpha0_1rs0_1_Bfore/ssmtools_vw0_7_al0_1_rs0_1_Bfore.yaml
I am doing vw0_7alpha0_1rs0_1_Bfore/ssmtools_vw0_7_al0_1_rs0_1_Bfore.yaml
I am doing vw0_7alpha0_1rs0_1_Bfore/ssmtools_vw0_7_al0_1_rs0_1_Bfore.yaml
I am doing vw0_7alpha0_1rs0_1_Bfore/ssmtools_vw0_7_al0_1_rs0_1_Bfore.yaml
I am doing vw0_7alpha0_1rs0_1_Bfore/ssmtools_vw0_7_al0_1_rs0_1_Bfore.yaml
I am doing vw0_7alpha0_1rs0_1_Bfore/ssmtools_vw0_7_al0_1_rs0_1_Bfore.yaml
I am doing vw0_7alpha0_1rs0_1_Bfore/ssmtools_vw0_7_al0_1_rs0_1_Bfore.yaml
 2020-05-21 14:56:17,363 [0 : output] Output to be read-from/written-into folder 'vw0_7alpha0_1rs0_1_Bfore/chains', with prefix 'chain'
 2020-05-21 14:56:17,368 [0 : output] Found existing products with the requested ouput prefix: 'vw0_7alpha0_1rs0_1_Bfore/chains/chain'
 2020-05-21 14:56:17,369 [0 : output] Deleting previous chain ('force' was requested).
 2020-05-21 14:56:17,453 [0 : run] Input info updated with defaults (dumped to YAML):
likelihood:
  lisa_likelihood:
    external: import_module('vw0_7alpha0_1rs0_1_Bfore.lisa_like_vw0_7_al0_1_rs0_1_Bfore').lisa
    params: []
    speed: -1
    stop_at_error: false
sampler:
  mcmc:
    Rminus1_cl_level: 0.95
    Rminus1_cl_stop: 0.2
    Rminus1_last: .inf
    Rminus1_single_split: 4
    Rminus1_stop: 0.01
    blocking: null
    blocks: null
    burn_in: 20d
    callback_every: null
    callback_function: null
    check_every: 40
    converged: null
    covmat: null
    covmat_params: null
    drag: false
    drag_limits:
    - 1
    - 10
    i_last_slow_block: null
    learn_proposal: true
    learn_proposal_Rminus1_max: 2.0
    learn_proposal_Rminus1_max_early: 30.0
    learn_proposal_Rminus1_min: 0.0
    max_samples: .inf
    max_tries: .inf
    mpi_size: null
    output_every: 20
    oversample: false
    oversampling_factors: null
    proposal_scale: 2.4
    seed: null
params:
  log10_A:
    latex: \log_{10}A
    prior:
      max: -10.5
      min: -8
    proposal: 0.012
    ref: -9.637673343361094
  log10_alpha:
    latex: \log_{10}\alpha
    prior:
      max: -0.2
      min: -2
    proposal: 0.012
    ref: -0.9978772748297836
  log10_rs:
    latex: \log_{10} r_s
    prior:
      max: 1
      min: -4
    proposal: 0.012
    ref: -1.0016827527519288
  slope:
    latex: $n$
    prior:
      max: 1
      min: 0.3
    proposal: 0.012
    ref: 0.6646554013256138
  vw:
    latex: v_w
    prior:
      max: 0.97
      min: 0.4
    proposal: 0.012
    ref: 0.7034256090054588
debug: true
debug_file: lisa.log
fiducial:
  A: 2.1052927715132637e-10
  alpha: 0.1
  rs: 0.1
  slope: 0.6666666666666666
  vw: 0.7
output: chain
modules: null
resume: false
force: true

 2020-05-21 14:56:19,449 [31 : lisa_likelihood] Initialised external likelihood.
 2020-05-21 14:56:19,463 [39 : lisa_likelihood] Initialised external likelihood.
 2020-05-21 14:56:19,600 [22 : lisa_likelihood] Initialised external likelihood.
 2020-05-21 14:56:19,637 [2 : lisa_likelihood] Initialised external likelihood.
 2020-05-21 14:56:19,639 [1 : lisa_likelihood] Initialised external likelihood.
 2020-05-21 14:56:19,642 [3 : lisa_likelihood] Initialised external likelihood.
 2020-05-21 14:56:19,643 [0 : lisa_likelihood] Initialised external likelihood.
 2020-05-21 14:56:20,504 [13 : lisa_likelihood] Initialised external likelihood.
 2020-05-21 14:56:20,505 [10 : lisa_likelihood] Initialised external likelihood.
 2020-05-21 14:56:20,583 [5 : lisa_likelihood] Initialised external likelihood.
 2020-05-21 14:56:20,586 [4 : lisa_likelihood] Initialised external likelihood.
 2020-05-21 14:56:20,588 [6 : lisa_likelihood] Initialised external likelihood.
 2020-05-21 14:56:44,744 [11 : lisa_likelihood] Initialised external likelihood.
 2020-05-21 14:56:44,746 [8 : lisa_likelihood] Initialised external likelihood.
 2020-05-21 14:56:44,748 [9 : lisa_likelihood] Initialised external likelihood.
 2020-05-21 14:56:44,754 [12 : lisa_likelihood] Initialised external likelihood.
 2020-05-21 14:56:44,755 [7 : lisa_likelihood] Initialised external likelihood.
 2020-05-21 14:56:44,773 [29 : lisa_likelihood] Initialised external likelihood.
 2020-05-21 14:56:44,777 [28 : lisa_likelihood] Initialised external likelihood.
 2020-05-21 14:56:44,779 [33 : lisa_likelihood] Initialised external likelihood.
 2020-05-21 14:56:44,784 [36 : lisa_likelihood] Initialised external likelihood.
 2020-05-21 14:56:44,789 [37 : lisa_likelihood] Initialised external likelihood.
 2020-05-21 14:56:44,795 [30 : lisa_likelihood] Initialised external likelihood.
 2020-05-21 14:56:44,794 [35 : lisa_likelihood] Initialised external likelihood.
 2020-05-21 14:56:44,790 [32 : lisa_likelihood] Initialised external likelihood.
 2020-05-21 14:56:44,791 [38 : lisa_likelihood] Initialised external likelihood.
 2020-05-21 14:56:44,795 [34 : lisa_likelihood] Initialised external likelihood.
 2020-05-21 14:56:45,876 [25 : lisa_likelihood] Initialised external likelihood.
 2020-05-21 14:56:45,878 [21 : lisa_likelihood] Initialised external likelihood.
 2020-05-21 14:56:45,880 [26 : lisa_likelihood] Initialised external likelihood.
 2020-05-21 14:56:45,881 [17 : lisa_likelihood] Initialised external likelihood.
 2020-05-21 14:56:45,882 [16 : lisa_likelihood] Initialised external likelihood.
 2020-05-21 14:56:45,883 [24 : lisa_likelihood] Initialised external likelihood.
 2020-05-21 14:56:45,888 [27 : lisa_likelihood] Initialised external likelihood.
 2020-05-21 14:56:45,894 [20 : lisa_likelihood] Initialised external likelihood.
 2020-05-21 14:56:45,891 [23 : lisa_likelihood] Initialised external likelihood.
 2020-05-21 14:56:45,916 [18 : lisa_likelihood] Initialised external likelihood.
 2020-05-21 14:56:45,942 [15 : lisa_likelihood] Initialised external likelihood.
 2020-05-21 14:56:45,951 [14 : lisa_likelihood] Initialised external likelihood.
 2020-05-21 14:56:45,987 [19 : lisa_likelihood] Initialised external likelihood.
 2020-05-21 14:56:46,003 [28 : mcmc] Covariance matrix not present. We will start learning the covariance of the proposal earlier: R-1 = 30 (was 2).
 2020-05-21 14:56:46,006 [1 : mcmc] Covariance matrix not present. We will start learning the covariance of the proposal earlier: R-1 = 30 (was 2).
 2020-05-21 14:56:46,004 [18 : mcmc] Covariance matrix not present. We will start learning the covariance of the proposal earlier: R-1 = 30 (was 2).
 2020-05-21 14:56:46,004 [0 : mcmc] Covariance matrix not present. We will start learning the covariance of the proposal earlier: R-1 = 30 (was 2).
 2020-05-21 14:56:46,007 [2 : mcmc] Covariance matrix not present. We will start learning the covariance of the proposal earlier: R-1 = 30 (was 2).
 2020-05-21 14:56:46,007 [13 : mcmc] Covariance matrix not present. We will start learning the covariance of the proposal earlier: R-1 = 30 (was 2).
 2020-05-21 14:56:46,004 [3 : mcmc] Covariance matrix not present. We will start learning the covariance of the proposal earlier: R-1 = 30 (was 2).
 2020-05-21 14:56:46,008 [8 : mcmc] Covariance matrix not present. We will start learning the covariance of the proposal earlier: R-1 = 30 (was 2).
 2020-05-21 14:56:46,006 [27 : mcmc] Covariance matrix not present. We will start learning the covariance of the proposal earlier: R-1 = 30 (was 2).
 2020-05-21 14:56:46,006 [37 : mcmc] Covariance matrix not present. We will start learning the covariance of the proposal earlier: R-1 = 30 (was 2).
 2020-05-21 14:56:46,011 [6 : mcmc] Covariance matrix not present. We will start learning the covariance of the proposal earlier: R-1 = 30 (was 2).
 2020-05-21 14:56:46,007 [20 : mcmc] Covariance matrix not present. We will start learning the covariance of the proposal earlier: R-1 = 30 (was 2).
 2020-05-21 14:56:46,016 [1 : mcmc] Initial point:
 2020-05-21 14:56:46,011 [5 : mcmc] Covariance matrix not present. We will start learning the covariance of the proposal earlier: R-1 = 30 (was 2).
 2020-05-21 14:56:46,008 [35 : mcmc] Covariance matrix not present. We will start learning the covariance of the proposal earlier: R-1 = 30 (was 2).
 2020-05-21 14:56:46,018 [3 : mcmc] Initial point:
 2020-05-21 14:56:46,021 [4 : mcmc] Covariance matrix not present. We will start learning the covariance of the proposal earlier: R-1 = 30 (was 2).
 2020-05-21 14:56:46,018 [0 : mcmc] Initial point:
 2020-05-21 14:56:46,017 [7 : mcmc] Covariance matrix not present. We will start learning the covariance of the proposal earlier: R-1 = 30 (was 2).
 2020-05-21 14:56:46,019 [2 : mcmc] Initial point:
 2020-05-21 14:56:46,017 [10 : mcmc] Covariance matrix not present. We will start learning the covariance of the proposal earlier: R-1 = 30 (was 2).
 2020-05-21 14:56:46,012 [25 : mcmc] Covariance matrix not present. We will start learning the covariance of the proposal earlier: R-1 = 30 (was 2).
 2020-05-21 14:56:46,013 [33 : mcmc] Covariance matrix not present. We will start learning the covariance of the proposal earlier: R-1 = 30 (was 2).
 2020-05-21 14:56:46,019 [11 : mcmc] Covariance matrix not present. We will start learning the covariance of the proposal earlier: R-1 = 30 (was 2).
 2020-05-21 14:56:46,018 [36 : mcmc] Covariance matrix not present. We will start learning the covariance of the proposal earlier: R-1 = 30 (was 2).
 2020-05-21 14:56:46,022 [9 : mcmc] Covariance matrix not present. We will start learning the covariance of the proposal earlier: R-1 = 30 (was 2).
 2020-05-21 14:56:46,019 [16 : mcmc] Covariance matrix not present. We will start learning the covariance of the proposal earlier: R-1 = 30 (was 2).
 2020-05-21 14:56:46,023 [29 : mcmc] Covariance matrix not present. We will start learning the covariance of the proposal earlier: R-1 = 30 (was 2).
 2020-05-21 14:56:46,022 [12 : mcmc] Covariance matrix not present. We will start learning the covariance of the proposal earlier: R-1 = 30 (was 2).
 2020-05-21 14:56:46,022 [19 : mcmc] Covariance matrix not present. We will start learning the covariance of the proposal earlier: R-1 = 30 (was 2).
 2020-05-21 14:56:46,024 [34 : mcmc] Covariance matrix not present. We will start learning the covariance of the proposal earlier: R-1 = 30 (was 2).
 2020-05-21 14:56:46,027 [13 : mcmc] Initial point:
 2020-05-21 14:56:46,025 [26 : mcmc] Covariance matrix not present. We will start learning the covariance of the proposal earlier: R-1 = 30 (was 2).
 2020-05-21 14:56:46,025 [28 : mcmc] Initial point:
 2020-05-21 14:56:46,028 [8 : mcmc] Initial point:
 2020-05-21 14:56:46,027 [17 : mcmc] Covariance matrix not present. We will start learning the covariance of the proposal earlier: R-1 = 30 (was 2).
 2020-05-21 14:56:46,029 [30 : mcmc] Covariance matrix not present. We will start learning the covariance of the proposal earlier: R-1 = 30 (was 2).
 2020-05-21 14:56:46,031 [6 : mcmc] Initial point:
 2020-05-21 14:56:46,030 [18 : mcmc] Initial point:
 2020-05-21 14:56:46,037 [35 : mcmc] Initial point:
 2020-05-21 14:56:46,033 [5 : mcmc] Initial point:
 2020-05-21 14:56:46,031 [23 : mcmc] Covariance matrix not present. We will start learning the covariance of the proposal earlier: R-1 = 30 (was 2).
 2020-05-21 14:56:46,030 [38 : mcmc] Covariance matrix not present. We will start learning the covariance of the proposal earlier: R-1 = 30 (was 2).
 2020-05-21 14:56:46,037 [7 : mcmc] Initial point:
 2020-05-21 14:56:46,032 [27 : mcmc] Initial point:
 2020-05-21 14:56:46,032 [37 : mcmc] Initial point:
 2020-05-21 14:56:46,036 [4 : mcmc] Initial point:
 2020-05-21 14:56:46,033 [24 : mcmc] Covariance matrix not present. We will start learning the covariance of the proposal earlier: R-1 = 30 (was 2).
 2020-05-21 14:56:46,037 [32 : mcmc] Covariance matrix not present. We will start learning the covariance of the proposal earlier: R-1 = 30 (was 2).
 2020-05-21 14:56:46,040 [10 : mcmc] Initial point:
 2020-05-21 14:56:46,036 [21 : mcmc] Covariance matrix not present. We will start learning the covariance of the proposal earlier: R-1 = 30 (was 2).
 2020-05-21 14:56:46,045 [39 : mcmc] Covariance matrix not present. We will start learning the covariance of the proposal earlier: R-1 = 30 (was 2).
 2020-05-21 14:56:46,042 [11 : mcmc] Initial point:
 2020-05-21 14:56:46,037 [20 : mcmc] Initial point:
 2020-05-21 14:56:46,045 [33 : mcmc] Initial point:
 2020-05-21 14:56:46,044 [9 : mcmc] Initial point:
 2020-05-21 14:56:46,040 [14 : mcmc] Covariance matrix not present. We will start learning the covariance of the proposal earlier: R-1 = 30 (was 2).
 2020-05-21 14:56:46,049 [34 : mcmc] Initial point:
 2020-05-21 14:56:46,045 [12 : mcmc] Initial point:
 2020-05-21 14:56:46,041 [15 : mcmc] Covariance matrix not present. We will start learning the covariance of the proposal earlier: R-1 = 30 (was 2).
 2020-05-21 14:56:46,050 [36 : mcmc] Initial point:
 2020-05-21 14:56:46,045 [22 : mcmc] Covariance matrix not present. We will start learning the covariance of the proposal earlier: R-1 = 30 (was 2).
 2020-05-21 14:56:46,043 [31 : mcmc] Covariance matrix not present. We will start learning the covariance of the proposal earlier: R-1 = 30 (was 2).
 2020-05-21 14:56:46,050 [25 : mcmc] Initial point:
 2020-05-21 14:56:46,053 [29 : mcmc] Initial point:
 2020-05-21 14:56:46,057 [16 : mcmc] Initial point:
 2020-05-21 14:56:46,057 [30 : mcmc] Initial point:
 2020-05-21 14:56:46,061 [19 : mcmc] Initial point:
 2020-05-21 14:56:46,061 [38 : mcmc] Initial point:
 2020-05-21 14:56:46,062 [17 : mcmc] Initial point:
 2020-05-21 14:56:46,065 [32 : mcmc] Initial point:
 2020-05-21 14:56:46,064 [26 : mcmc] Initial point:
 2020-05-21 14:56:46,068 [39 : mcmc] Initial point:
 2020-05-21 14:56:46,068 [23 : mcmc] Initial point:
 2020-05-21 14:56:46,074 [31 : mcmc] Initial point:
 2020-05-21 14:56:46,071 [24 : mcmc] Initial point:
 2020-05-21 14:56:46,073 [21 : mcmc] Initial point:
 2020-05-21 14:56:46,078 [14 : mcmc] Initial point:
 2020-05-21 14:56:46,080 [15 : mcmc] Initial point:
 2020-05-21 14:56:46,089 [22 : mcmc] Initial point:
 2020-05-21 14:56:46,383 [1 : prior] *WARNING* If stuck here, maybe it is not possible to sample from the reference pdf a point with non-null prior. Check that they are consistent.
 2020-05-21 14:56:46,390 [3 : prior] *WARNING* If stuck here, maybe it is not possible to sample from the reference pdf a point with non-null prior. Check that they are consistent.
 2020-05-21 14:56:46,392 [0 : prior] *WARNING* If stuck here, maybe it is not possible to sample from the reference pdf a point with non-null prior. Check that they are consistent.
 2020-05-21 14:56:46,403 [2 : prior] *WARNING* If stuck here, maybe it is not possible to sample from the reference pdf a point with non-null prior. Check that they are consistent.
 2020-05-21 14:56:46,905 [4 : prior] *WARNING* If stuck here, maybe it is not possible to sample from the reference pdf a point with non-null prior. Check that they are consistent.
 2020-05-21 14:56:46,922 [5 : prior] *WARNING* If stuck here, maybe it is not possible to sample from the reference pdf a point with non-null prior. Check that they are consistent.
 2020-05-21 14:56:46,923 [6 : prior] *WARNING* If stuck here, maybe it is not possible to sample from the reference pdf a point with non-null prior. Check that they are consistent.
 2020-05-21 14:56:46,926 [7 : prior] *WARNING* If stuck here, maybe it is not possible to sample from the reference pdf a point with non-null prior. Check that they are consistent.
 2020-05-21 14:56:46,930 [13 : prior] *WARNING* If stuck here, maybe it is not possible to sample from the reference pdf a point with non-null prior. Check that they are consistent.
 2020-05-21 14:56:46,943 [8 : prior] *WARNING* If stuck here, maybe it is not possible to sample from the reference pdf a point with non-null prior. Check that they are consistent.
 2020-05-21 14:56:46,945 [12 : prior] *WARNING* If stuck here, maybe it is not possible to sample from the reference pdf a point with non-null prior. Check that they are consistent.
 2020-05-21 14:56:46,950 [9 : prior] *WARNING* If stuck here, maybe it is not possible to sample from the reference pdf a point with non-null prior. Check that they are consistent.
 2020-05-21 14:56:46,960 [10 : prior] *WARNING* If stuck here, maybe it is not possible to sample from the reference pdf a point with non-null prior. Check that they are consistent.
 2020-05-21 14:56:46,978 [11 : prior] *WARNING* If stuck here, maybe it is not possible to sample from the reference pdf a point with non-null prior. Check that they are consistent.
 2020-05-21 14:56:47,084 [28 : prior] *WARNING* If stuck here, maybe it is not possible to sample from the reference pdf a point with non-null prior. Check that they are consistent.
 2020-05-21 14:56:47,084 [33 : prior] *WARNING* If stuck here, maybe it is not possible to sample from the reference pdf a point with non-null prior. Check that they are consistent.
 2020-05-21 14:56:47,089 [35 : prior] *WARNING* If stuck here, maybe it is not possible to sample from the reference pdf a point with non-null prior. Check that they are consistent.
 2020-05-21 14:56:47,100 [36 : prior] *WARNING* If stuck here, maybe it is not possible to sample from the reference pdf a point with non-null prior. Check that they are consistent.
 2020-05-21 14:56:47,103 [32 : prior] *WARNING* If stuck here, maybe it is not possible to sample from the reference pdf a point with non-null prior. Check that they are consistent.
 2020-05-21 14:56:47,103 [39 : prior] *WARNING* If stuck here, maybe it is not possible to sample from the reference pdf a point with non-null prior. Check that they are consistent.
 2020-05-21 14:56:47,106 [29 : prior] *WARNING* If stuck here, maybe it is not possible to sample from the reference pdf a point with non-null prior. Check that they are consistent.
 2020-05-21 14:56:47,117 [34 : prior] *WARNING* If stuck here, maybe it is not possible to sample from the reference pdf a point with non-null prior. Check that they are consistent.
 2020-05-21 14:56:47,129 [38 : prior] *WARNING* If stuck here, maybe it is not possible to sample from the reference pdf a point with non-null prior. Check that they are consistent.
 2020-05-21 14:56:47,129 [37 : prior] *WARNING* If stuck here, maybe it is not possible to sample from the reference pdf a point with non-null prior. Check that they are consistent.
 2020-05-21 14:56:47,171 [30 : prior] *WARNING* If stuck here, maybe it is not possible to sample from the reference pdf a point with non-null prior. Check that they are consistent.
 2020-05-21 14:56:47,231 [31 : prior] *WARNING* If stuck here, maybe it is not possible to sample from the reference pdf a point with non-null prior. Check that they are consistent.
 2020-05-21 14:56:47,422 [23 : prior] *WARNING* If stuck here, maybe it is not possible to sample from the reference pdf a point with non-null prior. Check that they are consistent.
 2020-05-21 14:56:47,428 [27 : prior] *WARNING* If stuck here, maybe it is not possible to sample from the reference pdf a point with non-null prior. Check that they are consistent.
 2020-05-21 14:56:47,436 [18 : prior] *WARNING* If stuck here, maybe it is not possible to sample from the reference pdf a point with non-null prior. Check that they are consistent.
 2020-05-21 14:56:47,452 [16 : prior] *WARNING* If stuck here, maybe it is not possible to sample from the reference pdf a point with non-null prior. Check that they are consistent.
 2020-05-21 14:56:47,453 [14 : prior] *WARNING* If stuck here, maybe it is not possible to sample from the reference pdf a point with non-null prior. Check that they are consistent.
 2020-05-21 14:56:47,460 [25 : prior] *WARNING* If stuck here, maybe it is not possible to sample from the reference pdf a point with non-null prior. Check that they are consistent.
 2020-05-21 14:56:47,461 [17 : prior] *WARNING* If stuck here, maybe it is not possible to sample from the reference pdf a point with non-null prior. Check that they are consistent.
 2020-05-21 14:56:47,463 [22 : prior] *WARNING* If stuck here, maybe it is not possible to sample from the reference pdf a point with non-null prior. Check that they are consistent.
 2020-05-21 14:56:47,469 [19 : prior] *WARNING* If stuck here, maybe it is not possible to sample from the reference pdf a point with non-null prior. Check that they are consistent.
 2020-05-21 14:56:47,470 [20 : prior] *WARNING* If stuck here, maybe it is not possible to sample from the reference pdf a point with non-null prior. Check that they are consistent.
 2020-05-21 14:56:47,471 [26 : prior] *WARNING* If stuck here, maybe it is not possible to sample from the reference pdf a point with non-null prior. Check that they are consistent.
 2020-05-21 14:56:47,473 [15 : prior] *WARNING* If stuck here, maybe it is not possible to sample from the reference pdf a point with non-null prior. Check that they are consistent.
 2020-05-21 14:56:47,479 [24 : prior] *WARNING* If stuck here, maybe it is not possible to sample from the reference pdf a point with non-null prior. Check that they are consistent.
 2020-05-21 14:56:47,638 [21 : prior] *WARNING* If stuck here, maybe it is not possible to sample from the reference pdf a point with non-null prior. Check that they are consistent.
srun: Job step aborted: Waiting up to 32 seconds for job step to finish.
slurmstepd: error: *** JOB 4811210 ON kac06 CANCELLED AT 2020-05-21T15:10:53 DUE TO TIME LIMIT ***
slurmstepd: error: *** STEP 4811210.1 ON kac06 CANCELLED AT 2020-05-21T15:10:53 DUE TO TIME LIMIT ***
