sed: can't read emacs: No such file or directory
I am doing vw0_7alpha0_1rs0_1_Bfore/ssmtools_vw0_7_al0_1_rs0_1_Bfore.yaml
I am doing vw0_7alpha0_1rs0_1_Bfore/ssmtools_vw0_7_al0_1_rs0_1_Bfore.yaml
I am doing vw0_7alpha0_1rs0_1_Bfore/ssmtools_vw0_7_al0_1_rs0_1_Bfore.yaml
I am doing vw0_7alpha0_1rs0_1_Bfore/ssmtools_vw0_7_al0_1_rs0_1_Bfore.yaml
I am doing vw0_7alpha0_1rs0_1_Bfore/ssmtools_vw0_7_al0_1_rs0_1_Bfore.yaml
I am doing vw0_7alpha0_1rs0_1_Bfore/ssmtools_vw0_7_al0_1_rs0_1_Bfore.yaml
I am doing vw0_7alpha0_1rs0_1_Bfore/ssmtools_vw0_7_al0_1_rs0_1_Bfore.yaml
I am doing vw0_7alpha0_1rs0_1_Bfore/ssmtools_vw0_7_al0_1_rs0_1_Bfore.yaml
I am doing vw0_7alpha0_1rs0_1_Bfore/ssmtools_vw0_7_al0_1_rs0_1_Bfore.yaml
I am doing vw0_7alpha0_1rs0_1_Bfore/ssmtools_vw0_7_al0_1_rs0_1_Bfore.yaml
I am doing vw0_7alpha0_1rs0_1_Bfore/ssmtools_vw0_7_al0_1_rs0_1_Bfore.yaml
I am doing vw0_7alpha0_1rs0_1_Bfore/ssmtools_vw0_7_al0_1_rs0_1_Bfore.yaml
I am doing vw0_7alpha0_1rs0_1_Bfore/ssmtools_vw0_7_al0_1_rs0_1_Bfore.yaml
I am doing vw0_7alpha0_1rs0_1_Bfore/ssmtools_vw0_7_al0_1_rs0_1_Bfore.yaml
I am doing vw0_7alpha0_1rs0_1_Bfore/ssmtools_vw0_7_al0_1_rs0_1_Bfore.yaml
I am doing vw0_7alpha0_1rs0_1_Bfore/ssmtools_vw0_7_al0_1_rs0_1_Bfore.yaml
I am doing vw0_7alpha0_1rs0_1_Bfore/ssmtools_vw0_7_al0_1_rs0_1_Bfore.yaml
I am doing vw0_7alpha0_1rs0_1_Bfore/ssmtools_vw0_7_al0_1_rs0_1_Bfore.yaml
I am doing vw0_7alpha0_1rs0_1_Bfore/ssmtools_vw0_7_al0_1_rs0_1_Bfore.yaml
I am doing vw0_7alpha0_1rs0_1_Bfore/ssmtools_vw0_7_al0_1_rs0_1_Bfore.yaml
I am doing vw0_7alpha0_1rs0_1_Bfore/ssmtools_vw0_7_al0_1_rs0_1_Bfore.yaml
I am doing vw0_7alpha0_1rs0_1_Bfore/ssmtools_vw0_7_al0_1_rs0_1_Bfore.yaml
I am doing vw0_7alpha0_1rs0_1_Bfore/ssmtools_vw0_7_al0_1_rs0_1_Bfore.yaml
I am doing vw0_7alpha0_1rs0_1_Bfore/ssmtools_vw0_7_al0_1_rs0_1_Bfore.yaml
I am doing vw0_7alpha0_1rs0_1_Bfore/ssmtools_vw0_7_al0_1_rs0_1_Bfore.yaml
I am doing vw0_7alpha0_1rs0_1_Bfore/ssmtools_vw0_7_al0_1_rs0_1_Bfore.yaml
I am doing vw0_7alpha0_1rs0_1_Bfore/ssmtools_vw0_7_al0_1_rs0_1_Bfore.yaml
I am doing vw0_7alpha0_1rs0_1_Bfore/ssmtools_vw0_7_al0_1_rs0_1_Bfore.yaml
I am doing vw0_7alpha0_1rs0_1_Bfore/ssmtools_vw0_7_al0_1_rs0_1_Bfore.yaml
I am doing vw0_7alpha0_1rs0_1_Bfore/ssmtools_vw0_7_al0_1_rs0_1_Bfore.yaml
I am doing vw0_7alpha0_1rs0_1_Bfore/ssmtools_vw0_7_al0_1_rs0_1_Bfore.yaml
I am doing vw0_7alpha0_1rs0_1_Bfore/ssmtools_vw0_7_al0_1_rs0_1_Bfore.yaml
I am doing vw0_7alpha0_1rs0_1_Bfore/ssmtools_vw0_7_al0_1_rs0_1_Bfore.yaml
I am doing vw0_7alpha0_1rs0_1_Bfore/ssmtools_vw0_7_al0_1_rs0_1_Bfore.yaml
I am doing vw0_7alpha0_1rs0_1_Bfore/ssmtools_vw0_7_al0_1_rs0_1_Bfore.yaml
I am doing vw0_7alpha0_1rs0_1_Bfore/ssmtools_vw0_7_al0_1_rs0_1_Bfore.yaml
I am doing vw0_7alpha0_1rs0_1_Bfore/ssmtools_vw0_7_al0_1_rs0_1_Bfore.yaml
I am doing vw0_7alpha0_1rs0_1_Bfore/ssmtools_vw0_7_al0_1_rs0_1_Bfore.yaml
I am doing vw0_7alpha0_1rs0_1_Bfore/ssmtools_vw0_7_al0_1_rs0_1_Bfore.yaml
I am doing vw0_7alpha0_1rs0_1_Bfore/ssmtools_vw0_7_al0_1_rs0_1_Bfore.yaml
 2020-05-21 14:39:58,673 [0 : output] Output to be read-from/written-into folder 'vw0_7alpha0_1rs0_1_Bfore/chains', with prefix 'chain'
 2020-05-21 14:39:58,679 [0 : output] Found existing products with the requested ouput prefix: 'vw0_7alpha0_1rs0_1_Bfore/chains/chain'
 2020-05-21 14:39:58,680 [0 : output] Deleting previous chain ('force' was requested).
 2020-05-21 14:39:58,772 [0 : run] Input info updated with defaults (dumped to YAML):
likelihood:
  lisa_likelihood:
    external: import_module('vw0_7alpha0_1rs0_1_Bfore.lisa_like_vw0_7_al0_1_rs0_1_Bfore').lisa
    params: []
    speed: -1
    stop_at_error: false
sampler:
  mcmc:
    Rminus1_cl_level: 0.95
    Rminus1_cl_stop: 0.2
    Rminus1_last: .inf
    Rminus1_single_split: 4
    Rminus1_stop: 0.01
    blocking: null
    blocks: null
    burn_in: 20d
    callback_every: null
    callback_function: null
    check_every: 40
    converged: null
    covmat: null
    covmat_params: null
    drag: false
    drag_limits:
    - 1
    - 10
    i_last_slow_block: null
    learn_proposal: true
    learn_proposal_Rminus1_max: 2.0
    learn_proposal_Rminus1_max_early: 30.0
    learn_proposal_Rminus1_min: 0.0
    max_samples: .inf
    max_tries: .inf
    mpi_size: null
    output_every: 20
    oversample: false
    oversampling_factors: null
    proposal_scale: 2.4
    seed: null
params:
  log10_A:
    latex: \log_{10}A
    prior:
      max: -10.5
      min: -8
    proposal: 0.012
    ref: -9.681716897469142
  log10_alpha:
    latex: \log_{10}\alpha
    prior:
      max: -0.2
      min: -2
    proposal: 0.012
    ref: -1.0014402971150318
  log10_rs:
    latex: \log_{10} r_s
    prior:
      max: 1
      min: -4
    proposal: 0.012
    ref: -1.0049252614032662
  slope:
    latex: $n$
    prior:
      max: 1
      min: 0.3
    proposal: 0.012
    ref: 0.666321639710827
  vw:
    latex: v_w
    prior:
      max: 0.97
      min: 0.4
    proposal: 0.012
    ref: 0.6978191659373025
debug: true
debug_file: lisa.log
fiducial:
  A: 2.1052927715132637e-10
  alpha: 0.1
  rs: 0.1
  slope: 0.6666666666666666
  vw: 0.7
output: chain
modules: null
resume: false
force: true

 2020-05-21 14:40:01,029 [16 : lisa_likelihood] Initialised external likelihood.
 2020-05-21 14:40:01,029 [18 : lisa_likelihood] Initialised external likelihood.
 2020-05-21 14:40:01,029 [17 : lisa_likelihood] Initialised external likelihood.
 2020-05-21 14:40:01,032 [14 : lisa_likelihood] Initialised external likelihood.
 2020-05-21 14:40:01,033 [15 : lisa_likelihood] Initialised external likelihood.
 2020-05-21 14:40:01,033 [13 : lisa_likelihood] Initialised external likelihood.
 2020-05-21 14:40:01,101 [11 : lisa_likelihood] Initialised external likelihood.
 2020-05-21 14:40:01,264 [22 : lisa_likelihood] Initialised external likelihood.
 2020-05-21 14:40:01,870 [0 : lisa_likelihood] Initialised external likelihood.
 2020-05-21 14:40:01,951 [12 : lisa_likelihood] Initialised external likelihood.
 2020-05-21 14:40:01,969 [19 : lisa_likelihood] Initialised external likelihood.
 2020-05-21 14:40:02,741 [9 : lisa_likelihood] Initialised external likelihood.
 2020-05-21 14:40:02,747 [10 : lisa_likelihood] Initialised external likelihood.
 2020-05-21 14:40:26,569 [21 : lisa_likelihood] Initialised external likelihood.
 2020-05-21 14:40:26,574 [20 : lisa_likelihood] Initialised external likelihood.
 2020-05-21 14:40:26,802 [2 : lisa_likelihood] Initialised external likelihood.
 2020-05-21 14:40:26,815 [4 : lisa_likelihood] Initialised external likelihood.
 2020-05-21 14:40:26,879 [8 : lisa_likelihood] Initialised external likelihood.
 2020-05-21 14:40:26,882 [7 : lisa_likelihood] Initialised external likelihood.
 2020-05-21 14:40:26,883 [3 : lisa_likelihood] Initialised external likelihood.
 2020-05-21 14:40:26,897 [1 : lisa_likelihood] Initialised external likelihood.
 2020-05-21 14:40:26,912 [5 : lisa_likelihood] Initialised external likelihood.
 2020-05-21 14:40:26,960 [6 : lisa_likelihood] Initialised external likelihood.
 2020-05-21 14:40:26,976 [20 : mcmc] Covariance matrix not present. We will start learning the covariance of the proposal earlier: R-1 = 30 (was 2).
 2020-05-21 14:40:26,978 [0 : mcmc] Covariance matrix not present. We will start learning the covariance of the proposal earlier: R-1 = 30 (was 2).
 2020-05-21 14:40:26,978 [22 : mcmc] Covariance matrix not present. We will start learning the covariance of the proposal earlier: R-1 = 30 (was 2).
 2020-05-21 14:40:26,979 [10 : mcmc] Covariance matrix not present. We will start learning the covariance of the proposal earlier: R-1 = 30 (was 2).
 2020-05-21 14:40:26,979 [11 : mcmc] Covariance matrix not present. We will start learning the covariance of the proposal earlier: R-1 = 30 (was 2).
 2020-05-21 14:40:26,978 [14 : mcmc] Covariance matrix not present. We will start learning the covariance of the proposal earlier: R-1 = 30 (was 2).
 2020-05-21 14:40:26,979 [21 : mcmc] Covariance matrix not present. We will start learning the covariance of the proposal earlier: R-1 = 30 (was 2).
 2020-05-21 14:40:26,982 [9 : mcmc] Covariance matrix not present. We will start learning the covariance of the proposal earlier: R-1 = 30 (was 2).
 2020-05-21 14:40:26,980 [18 : mcmc] Covariance matrix not present. We will start learning the covariance of the proposal earlier: R-1 = 30 (was 2).
 2020-05-21 14:40:26,987 [11 : mcmc] Initial point:
 2020-05-21 14:40:26,988 [16 : mcmc] Covariance matrix not present. We will start learning the covariance of the proposal earlier: R-1 = 30 (was 2).
 2020-05-21 14:40:26,983 [6 : mcmc] Covariance matrix not present. We will start learning the covariance of the proposal earlier: R-1 = 30 (was 2).
 2020-05-21 14:40:26,985 [15 : mcmc] Covariance matrix not present. We will start learning the covariance of the proposal earlier: R-1 = 30 (was 2).
 2020-05-21 14:40:26,991 [8 : mcmc] Covariance matrix not present. We will start learning the covariance of the proposal earlier: R-1 = 30 (was 2).
 2020-05-21 14:40:26,986 [1 : mcmc] Covariance matrix not present. We will start learning the covariance of the proposal earlier: R-1 = 30 (was 2).
 2020-05-21 14:40:26,985 [17 : mcmc] Covariance matrix not present. We will start learning the covariance of the proposal earlier: R-1 = 30 (was 2).
 2020-05-21 14:40:26,984 [3 : mcmc] Covariance matrix not present. We will start learning the covariance of the proposal earlier: R-1 = 30 (was 2).
 2020-05-21 14:40:26,996 [5 : mcmc] Covariance matrix not present. We will start learning the covariance of the proposal earlier: R-1 = 30 (was 2).
 2020-05-21 14:40:26,996 [4 : mcmc] Covariance matrix not present. We will start learning the covariance of the proposal earlier: R-1 = 30 (was 2).
 2020-05-21 14:40:26,996 [2 : mcmc] Covariance matrix not present. We will start learning the covariance of the proposal earlier: R-1 = 30 (was 2).
 2020-05-21 14:40:26,990 [13 : mcmc] Covariance matrix not present. We will start learning the covariance of the proposal earlier: R-1 = 30 (was 2).
 2020-05-21 14:40:27,003 [7 : mcmc] Covariance matrix not present. We will start learning the covariance of the proposal earlier: R-1 = 30 (was 2).
 2020-05-21 14:40:27,084 [0 : mcmc] Initial point:
 2020-05-21 14:40:27,002 [12 : mcmc] Covariance matrix not present. We will start learning the covariance of the proposal earlier: R-1 = 30 (was 2).
 2020-05-21 14:40:27,088 [14 : mcmc] Initial point:
 2020-05-21 14:40:27,112 [15 : mcmc] Initial point:
 2020-05-21 14:40:27,088 [18 : mcmc] Initial point:
 2020-05-21 14:40:27,101 [6 : mcmc] Initial point:
 2020-05-21 14:40:27,100 [8 : mcmc] Initial point:
 2020-05-21 14:40:27,115 [10 : mcmc] Initial point:
 2020-05-21 14:40:27,120 [3 : mcmc] Initial point:
 2020-05-21 14:40:27,115 [9 : mcmc] Initial point:
 2020-05-21 14:40:27,101 [16 : mcmc] Initial point:
 2020-05-21 14:40:27,120 [1 : mcmc] Initial point:
 2020-05-21 14:40:27,116 [17 : mcmc] Initial point:
 2020-05-21 14:40:27,127 [7 : mcmc] Initial point:
 2020-05-21 14:40:27,100 [19 : mcmc] Covariance matrix not present. We will start learning the covariance of the proposal earlier: R-1 = 30 (was 2).
 2020-05-21 14:40:27,127 [4 : mcmc] Initial point:
 2020-05-21 14:40:27,132 [13 : mcmc] Initial point:
 2020-05-21 14:40:27,129 [5 : mcmc] Initial point:
 2020-05-21 14:40:27,127 [2 : mcmc] Initial point:
 2020-05-21 14:40:27,150 [12 : mcmc] Initial point:
 2020-05-21 14:40:27,154 [21 : mcmc] Initial point:
 2020-05-21 14:40:27,155 [20 : mcmc] Initial point:
 2020-05-21 14:40:27,155 [19 : mcmc] Initial point:
 2020-05-21 14:40:27,172 [22 : mcmc] Initial point:
 2020-05-21 14:40:27,230 [11 : prior] *WARNING* If stuck here, maybe it is not possible to sample from the reference pdf a point with non-null prior. Check that they are consistent.
 2020-05-21 14:40:27,247 [0 : prior] *WARNING* If stuck here, maybe it is not possible to sample from the reference pdf a point with non-null prior. Check that they are consistent.
 2020-05-21 14:40:27,342 [22 : prior] *WARNING* If stuck here, maybe it is not possible to sample from the reference pdf a point with non-null prior. Check that they are consistent.
 2020-05-21 14:40:27,342 [9 : prior] *WARNING* If stuck here, maybe it is not possible to sample from the reference pdf a point with non-null prior. Check that they are consistent.
 2020-05-21 14:40:27,354 [10 : prior] *WARNING* If stuck here, maybe it is not possible to sample from the reference pdf a point with non-null prior. Check that they are consistent.
 2020-05-21 14:40:27,367 [21 : prior] *WARNING* If stuck here, maybe it is not possible to sample from the reference pdf a point with non-null prior. Check that they are consistent.
 2020-05-21 14:40:27,368 [20 : prior] *WARNING* If stuck here, maybe it is not possible to sample from the reference pdf a point with non-null prior. Check that they are consistent.
 2020-05-21 14:40:27,833 [14 : prior] *WARNING* If stuck here, maybe it is not possible to sample from the reference pdf a point with non-null prior. Check that they are consistent.
 2020-05-21 14:40:27,837 [17 : prior] *WARNING* If stuck here, maybe it is not possible to sample from the reference pdf a point with non-null prior. Check that they are consistent.
 2020-05-21 14:40:27,837 [15 : prior] *WARNING* If stuck here, maybe it is not possible to sample from the reference pdf a point with non-null prior. Check that they are consistent.
 2020-05-21 14:40:27,841 [16 : prior] *WARNING* If stuck here, maybe it is not possible to sample from the reference pdf a point with non-null prior. Check that they are consistent.
 2020-05-21 14:40:27,851 [13 : prior] *WARNING* If stuck here, maybe it is not possible to sample from the reference pdf a point with non-null prior. Check that they are consistent.
 2020-05-21 14:40:27,858 [18 : prior] *WARNING* If stuck here, maybe it is not possible to sample from the reference pdf a point with non-null prior. Check that they are consistent.
 2020-05-21 14:40:27,879 [5 : prior] *WARNING* If stuck here, maybe it is not possible to sample from the reference pdf a point with non-null prior. Check that they are consistent.
 2020-05-21 14:40:27,882 [12 : prior] *WARNING* If stuck here, maybe it is not possible to sample from the reference pdf a point with non-null prior. Check that they are consistent.
 2020-05-21 14:40:27,900 [8 : prior] *WARNING* If stuck here, maybe it is not possible to sample from the reference pdf a point with non-null prior. Check that they are consistent.
 2020-05-21 14:40:27,914 [6 : prior] *WARNING* If stuck here, maybe it is not possible to sample from the reference pdf a point with non-null prior. Check that they are consistent.
 2020-05-21 14:40:27,927 [7 : prior] *WARNING* If stuck here, maybe it is not possible to sample from the reference pdf a point with non-null prior. Check that they are consistent.
 2020-05-21 14:40:27,948 [1 : prior] *WARNING* If stuck here, maybe it is not possible to sample from the reference pdf a point with non-null prior. Check that they are consistent.
 2020-05-21 14:40:27,971 [4 : prior] *WARNING* If stuck here, maybe it is not possible to sample from the reference pdf a point with non-null prior. Check that they are consistent.
 2020-05-21 14:40:27,974 [2 : prior] *WARNING* If stuck here, maybe it is not possible to sample from the reference pdf a point with non-null prior. Check that they are consistent.
 2020-05-21 14:40:28,007 [19 : prior] *WARNING* If stuck here, maybe it is not possible to sample from the reference pdf a point with non-null prior. Check that they are consistent.
 2020-05-21 14:40:28,039 [3 : prior] *WARNING* If stuck here, maybe it is not possible to sample from the reference pdf a point with non-null prior. Check that they are consistent.
srun: Job step aborted: Waiting up to 32 seconds for job step to finish.
slurmstepd: error: *** STEP 4811107.1 ON ka09 CANCELLED AT 2020-05-21T14:46:36 ***
slurmstepd: error: *** JOB 4811107 ON ka09 CANCELLED AT 2020-05-21T14:46:36 ***
