vw0_5alpha0_05rs0_01_T100_0/ssmtools_vw0_5_al0_05_rs0_01_T100_0.yaml
vw0_6alpha0_05rs0_01_T100_0/ssmtools_vw0_6_al0_05_rs0_01_T100_0.yaml
vw0_7alpha0_05rs0_01_T100_0/ssmtools_vw0_7_al0_05_rs0_01_T100_0.yaml
vw0_8alpha0_05rs0_01_T100_0/ssmtools_vw0_8_al0_05_rs0_01_T100_0.yaml
vw0_9alpha0_05rs0_01_T100_0/ssmtools_vw0_9_al0_05_rs0_01_T100_0.yaml
