#weight  minuslogpost  log10_alpha   log10_rs         vw  minuslogprior  minuslogprior__0        chi2  chi2__lisa_likelihood
      1      1.545567   -1.3734084 -1.2249144 0.81698327      1.5040774         1.5040774 0.082979242            0.082979242
      1     1.5541444   -1.3762798 -1.2280608 0.82340069      1.5040774         1.5040774  0.10013395             0.10013395
      2     1.5649878   -1.3733738 -1.2091078 0.83399337      1.5040774         1.5040774  0.12182074             0.12182074
      1     1.5869575     -1.38089 -1.2139805 0.84672675      1.5040774         1.5040774  0.16576011             0.16576011
      1     1.5957923   -1.4065236 -1.2084271 0.83372107      1.5040774         1.5040774  0.18342988             0.18342988
      2     1.5628703   -1.4080849 -1.2986308 0.79828131      1.5040774         1.5040774  0.11758591             0.11758591
      1     1.5630171   -1.4080595 -1.2993181 0.79839903      1.5040774         1.5040774  0.11787939             0.11787939
      1     1.5759468   -1.4408921 -1.3049101 0.77282802      1.5040774         1.5040774  0.14373886             0.14373886
      1     1.6891171   -1.4688311 -1.2950272 0.72919814      1.5040774         1.5040774  0.37007939             0.37007939
      1     1.6256407   -1.4702916 -1.2702588 0.73574387      1.5040774         1.5040774  0.24312668             0.24312668
      1     1.8091785   -1.4505124 -1.2660001 0.72404267      1.5040774         1.5040774  0.61020212             0.61020212
      1     2.4380979   -1.4615445 -1.2590814  0.6935855      1.5040774         1.5040774   1.8680411              1.8680411
      1      1.979419   -1.4835839 -1.2544512 0.70262032      1.5040774         1.5040774  0.95068321             0.95068321
      2     1.8315887   -1.4580425 -1.1577076 0.71534531      1.5040774         1.5040774  0.65502267             0.65502267
      1     2.4099971   -1.3888977 -1.1874865 0.72411199      1.5040774         1.5040774   1.8118394              1.8118394
      1      2.904536   -1.3990852  -1.216159 0.70706744      1.5040774         1.5040774   2.8009172              2.8009172
      1     2.8333304   -1.4039448 -1.2169155 0.70532471      1.5040774         1.5040774    2.658506               2.658506
      1     2.1629033    -1.410944 -1.2115433 0.72250985      1.5040774         1.5040774   1.3176518              1.3176518
      1     2.4720156   -1.4117325 -1.1908015 0.71570466      1.5040774         1.5040774   1.9358765              1.9358765
      2     2.6307568   -1.4044545 -1.1849631 0.71229552      1.5040774         1.5040774   2.2533587              2.2533587
1 1.8469894 -1.4199858  -1.157352 0.72642426 1.5040774 1.5040774 0.68582393 0.68582393
1 1.5739676 -1.4032981 -1.1750229 0.75556642 1.5040774 1.5040774 0.13978035 0.13978035
1 1.5727754 -1.4034496 -1.1748555 0.75575468 1.5040774 1.5040774 0.13739598 0.13739598
1 1.5709037 -1.4717488 -1.2377764 0.75671178 1.5040774 1.5040774 0.13365254 0.13365254
1  1.574555 -1.4792937 -1.2397327  0.7569958 1.5040774 1.5040774 0.14095515 0.14095515
1 1.5796715 -1.4820768 -1.2277805 0.76538973 1.5040774 1.5040774 0.15118814 0.15118814
1 1.5713773 -1.4856352 -1.2165497 0.74821818 1.5040774 1.5040774 0.13459987 0.13459987
1 1.5901278 -1.4963676 -1.2270981 0.76522371 1.5040774 1.5040774  0.1721009  0.1721009
1 1.6309773 -1.5321455 -1.2661977 0.71839054 1.5040774 1.5040774 0.25379984 0.25379984
2 1.6680127 -1.5097977 -1.2876223  0.7192049 1.5040774 1.5040774 0.32787064 0.32787064
1 1.5914771 -1.4967621 -1.2839335 0.75580802 1.5040774 1.5040774 0.17479931 0.17479931
1 1.6043672 -1.5058825 -1.3137873 0.76206472 1.5040774 1.5040774  0.2005796  0.2005796
1 1.6115859 -1.5221262 -1.2897833 0.76238666 1.5040774 1.5040774 0.21501701 0.21501701
1 1.6180762 -1.5274605 -1.2934307 0.76519606 1.5040774 1.5040774 0.22799761 0.22799761
1 1.6293076 -1.5214069 -1.2895558 0.78172089 1.5040774 1.5040774 0.25046036 0.25046036
1 1.6132854 -1.5090514 -1.3005376  0.7738213 1.5040774 1.5040774 0.21841596 0.21841596
1 1.6109393 -1.5051352 -1.2967669 0.77470464 1.5040774 1.5040774 0.21372384 0.21372384
1 1.6423625 -1.4960746 -1.3156454 0.81512019 1.5040774 1.5040774  0.2765703  0.2765703
1 1.5995919 -1.4854647  -1.323472 0.77278443 1.5040774 1.5040774 0.19102891 0.19102891
1 1.6007249 -1.4796657 -1.3380426 0.77693141 1.5040774 1.5040774 0.19329504 0.19329504
1 1.6196813 -1.5123788 -1.3526282 0.77142953 1.5040774 1.5040774 0.23120772 0.23120772
1 1.6363584 -1.5001306 -1.3780456 0.80251098 1.5040774 1.5040774 0.26456192 0.26456192
1 1.6308374 -1.5058006  -1.401949 0.78519788 1.5040774 1.5040774  0.2535201  0.2535201
1 1.6125831 -1.4572458 -1.4004787  0.7672664 1.5040774 1.5040774 0.21701142 0.21701142
1 1.6160101 -1.4881814 -1.3988212 0.76803127 1.5040774 1.5040774 0.22386542 0.22386542
1 1.6411094 -1.4896213 -1.4158753 0.74675263 1.5040774 1.5040774 0.27406405 0.27406405
1 1.6284268 -1.4903985 -1.4389324 0.76528474 1.5040774 1.5040774 0.24869872 0.24869872
1 1.6257441 -1.4887608 -1.4343154 0.76824388 1.5040774 1.5040774 0.24333343 0.24333343
1  1.622201 -1.4688935 -1.4518204 0.78456124 1.5040774 1.5040774 0.23624715 0.23624715
1 1.6490969 -1.4443318 -1.4456251 0.76130214 1.5040774 1.5040774 0.29003906 0.29003906
1 1.6905807 -1.4364579 -1.4500246 0.75391809 1.5040774 1.5040774 0.37300656 0.37300656
1 1.9510959 -1.4957679  -1.475982 0.70613946 1.5040774 1.5040774 0.89403701 0.89403701
1  1.988168 -1.4956563 -1.4710778 0.70333647 1.5040774 1.5040774 0.96818119 0.96818119
1 1.8495765 -1.5143829 -1.4056308 0.70626187 1.5040774 1.5040774 0.69099825 0.69099825
1 1.7366775 -1.5244462 -1.4088515 0.71389758 1.5040774 1.5040774 0.46520012 0.46520012
1 1.6363891 -1.5029838  -1.404065 0.74420232 1.5040774 1.5040774 0.26462344 0.26462344
1 1.6164297 -1.4760588 -1.3966203 0.76096134 1.5040774 1.5040774 0.22470466 0.22470466
1 1.6843664 -1.4649226 -1.3871681  0.7388712 1.5040774 1.5040774  0.3605781  0.3605781
3  1.657918 -1.4695464 -1.3759776 0.74132861 1.5040774 1.5040774 0.30768116 0.30768116
4 1.7150139 -1.4596893 -1.7020536  0.7654474 1.5040774 1.5040774 0.42187308 0.42187308
3 1.7198395 -1.5198268 -1.7661352 0.75083016 1.5040774 1.5040774 0.43152429 0.43152429
6 1.7542385 -1.9818368 -1.7219607 0.86193144 1.5040774 1.5040774 0.50032224 0.50032224
2 1.7540919 -1.8770874 -1.9858184 0.88268025 1.5040774 1.5040774 0.50002895 0.50002895
2    1.7544  -1.939241 -2.0344166 0.77041796 1.5040774 1.5040774 0.50064513 0.50064513
1 1.7547687 -1.8449235 -2.2098922 0.78367109 1.5040774 1.5040774 0.50138267 0.50138267
4 1.7553165  -1.875474 -2.2476217 0.85050295 1.5040774 1.5040774 0.50247827 0.50247827
1 1.7551889 -1.8765269 -2.2158861 0.84705152 1.5040774 1.5040774 0.50222306 0.50222306
1 1.7511958 -1.6291825 -2.1734312 0.87038659 1.5040774 1.5040774 0.49423687 0.49423687
1 1.7533185 -1.6652474 -2.2626583 0.71280463 1.5040774 1.5040774 0.49848217 0.49848217
2 1.7531209 -1.7538973  -2.158138 0.68215175 1.5040774 1.5040774 0.49808697 0.49808697
1 1.7512944 -1.7445259 -2.0840601 0.76556311 1.5040774 1.5040774 0.49443398 0.49443398
1 1.7530693 -1.8046923 -2.1041408 0.76349301 1.5040774 1.5040774 0.49798384 0.49798384
1 1.7523026 -1.9022454 -1.8648339 0.59275209 1.5040774 1.5040774 0.49645037 0.49645037
1 1.7523474 -1.9034967 -1.9390454 0.57231192 1.5040774 1.5040774 0.49653996 0.49653996
1  1.735977 -1.7793424 -1.8597208 0.49892817 1.5040774 1.5040774 0.46379923 0.46379923
2 1.6657737 -1.8319745 -1.2447452 0.53379444 1.5040774 1.5040774 0.32339253 0.32339253
1 2.8645824 -1.6962395 -1.4196891 0.58853133 1.5040774 1.5040774  2.7210101  2.7210101
1  2.072379 -1.5346684 -1.1517477 0.68186875 1.5040774 1.5040774  1.1366032  1.1366032
1 1.5990747 -1.5786625 -1.1735923 0.71190108 1.5040774 1.5040774 0.18999456 0.18999456
1 1.7282677 -1.7714416  -1.299423 0.75773856 1.5040774 1.5040774 0.44838062 0.44838062
1 1.7202999 -1.7356853  -1.4962305 0.74664803 1.5040774 1.5040774  0.43244499  0.43244499
1  1.713961 -1.5633209  -1.4849909 0.89176195 1.5040774 1.5040774  0.41976712  0.41976712
1 1.6818756 -1.5583476   -1.512268 0.80539946 1.5040774 1.5040774   0.3555964   0.3555964
1 1.6988425 -1.6226229  -1.4630982 0.79013875 1.5040774 1.5040774  0.38953029  0.38953029
2 1.5924431 -1.4321151  -1.1083485 0.80236391 1.5040774 1.5040774   0.1767315   0.1767315
1 1.7911554 -1.8961156  -1.0760366  0.5811934 1.5040774 1.5040774  0.57415598  0.57415598
1 1.5568943 -1.8298728 -0.69481269  0.5752956 1.5040774 1.5040774   0.1056339   0.1056339
1  1.518228 -1.7490711  -0.6278671  0.5645634 1.5040774 1.5040774 0.028301141 0.028301141
2 1.7220569 -1.8001185  -0.6504259 0.50156667 1.5040774 1.5040774  0.43595901  0.43595901
1 1.7312403 -1.7895335 -0.68645193 0.48366532 1.5040774 1.5040774  0.45432588  0.45432588
1 1.7544622 -1.8855833 -0.59443235 0.41848277 1.5040774 1.5040774  0.50076958  0.50076958
1 1.7534094   -1.67055 -0.34986845 0.41376449 1.5040774 1.5040774  0.49866394  0.49866394
1 1.6179393 -1.6414975 -0.55196242 0.52734623 1.5040774 1.5040774  0.22772387  0.22772387
2 1.5214322 -1.7188069 -0.32932341 0.59625719 1.5040774 1.5040774 0.034709531 0.034709531
1 1.7266864 -1.4376008 -0.18782835 0.48393675 1.5040774 1.5040774  0.44521794  0.44521794
1 1.7435068 -1.4737098 -0.15026235 0.46445185 1.5040774 1.5040774  0.47885879  0.47885879
2 1.6965915 -1.3651732  0.16439858 0.56443038 1.5040774 1.5040774  0.38502827  0.38502827
4  1.752233   -1.31536  0.18251576 0.47606656 1.5040774 1.5040774  0.49631131  0.49631131
7 1.7347166 -1.8093282 0.040486334  0.5686654 1.5040774 1.5040774  0.46127841  0.46127841
3 1.7268451 -1.2733934  0.10081473 0.50228516 1.5040774 1.5040774  0.44553546  0.44553546
7 2.1569359  -1.0011753 -2.3711854 0.64981223 1.5040774 1.5040774   1.305717   1.305717
1 1.7559637  -1.1148796 -3.1529903 0.71456188 1.5040774 1.5040774 0.50377262 0.50377262
3 1.7637613  -1.1140617 -2.5648538 0.89060474 1.5040774 1.5040774 0.51936771 0.51936771
6  2.263008 -0.92539012 -2.4715963 0.63074288 1.5040774 1.5040774  1.5178611  1.5178611
3  2.438653 -0.92117654 -2.4409885 0.63780422 1.5040774 1.5040774  1.8691512  1.8691512
1 1.7550621  -1.4739613  -2.522329 0.70540739 1.5040774 1.5040774 0.50196943 0.50196943
1 1.7559649  -1.3675399 -3.5177656 0.76617779 1.5040774 1.5040774 0.50377507 0.50377507
3 1.7564455 -0.56377901 -3.1697581 0.65289067 1.5040774 1.5040774 0.50473618 0.50473618
3 1.7559649 -0.52336375 -3.7448931 0.81484367 1.5040774 1.5040774 0.50377507 0.50377507
1 1.7559649   -1.106991 -3.3630561 0.76208742 1.5040774 1.5040774 0.50377497 0.50377497
2 1.7559648  -1.1653146 -3.3532926 0.45875157 1.5040774 1.5040774 0.50377471 0.50377471
1 1.7559558   -1.240093 -3.0415891 0.80958555 1.5040774 1.5040774 0.50375675 0.50375675
2 1.7559614  -1.1782058  -3.119543 0.82342177 1.5040774 1.5040774 0.50376809 0.50376809
1 1.7559649  -1.2731947  -3.605669  0.5306749 1.5040774 1.5040774 0.50377507 0.50377507
3 1.7559649  -1.1311841 -3.6641306 0.54120259 1.5040774 1.5040774 0.50377507 0.50377507
2 1.7566571  -1.0850026 -3.0181881 0.45758738 1.5040774 1.5040774 0.50515932 0.50515932
2  1.756033  -1.0883469 -3.1266451 0.45652593 1.5040774 1.5040774 0.50391117 0.50391117
3 1.7559649  -1.2497835 -3.6421793 0.65266073 1.5040774 1.5040774 0.50377507 0.50377507
1 1.7559242  -1.3507316 -2.8610357 0.61821537 1.5040774 1.5040774 0.50369369 0.50369369
1 1.7558076  -1.2375538  -2.779268 0.59012849 1.5040774 1.5040774 0.50346034 0.50346034
1 1.7559033 -1.3237822 -2.9187211 0.51421071 1.5040774 1.5040774 0.50365172 0.50365172
4 1.7556424  -1.666611 -2.6704184 0.48510659 1.5040774 1.5040774 0.50313003 0.50313003
2 1.8542158  -1.390916 -2.3151284 0.41051508 1.5040774 1.5040774 0.70027675 0.70027675
5 1.8600845 -1.4386269 -2.0808459 0.41278435 1.5040774 1.5040774 0.71201414 0.71201414
2 1.7558704 -1.7007432 -2.5939515 0.61247951 1.5040774 1.5040774 0.50358592 0.50358592
1 1.7559107 -1.7205249 -2.6308399 0.65212487 1.5040774 1.5040774 0.50366665 0.50366665
3 1.7559646 -1.9605731 -2.9570973 0.58287579 1.5040774 1.5040774 0.50377443 0.50377443
1 1.7550411 -1.8240611  -2.256284 0.83446583 1.5040774 1.5040774 0.50192733 0.50192733
7 1.7529399 -1.7595267   -2.11895 0.83004583 1.5040774 1.5040774 0.49772502 0.49772502
1 1.7559649 -1.6198758 -3.5731421 0.80942355 1.5040774 1.5040774 0.50377507 0.50377507
4 1.7559649 -1.6226427 -3.6427512 0.87605539 1.5040774 1.5040774 0.50377507 0.50377507
1 1.7559649 -1.6943015 -3.7517318 0.88258594 1.5040774 1.5040774 0.50377507 0.50377507
4 1.7559649 -1.8314913 -3.9751233 0.66472051 1.5040774 1.5040774 0.50377507 0.50377507
2 1.7712111 -1.2326228 -2.2966905 0.86704657 1.5040774 1.5040774 0.53426733 0.53426733
1  1.774912 -1.2100951 -2.3943937 0.79069344 1.5040774 1.5040774 0.54166929 0.54166929
1 1.7545345 -1.3978627 -2.5042313 0.75622459 1.5040774 1.5040774 0.50091429 0.50091429
3 1.7559649 -1.8527728  -3.863489 0.77273994 1.5040774 1.5040774 0.50377507 0.50377507
1 1.7559649 -1.6359787 -3.9605799 0.73257903 1.5040774 1.5040774 0.50377507 0.50377507
5 1.7559592 -1.8202329 -2.8975578  0.5247244 1.5040774 1.5040774 0.50376352 0.50376352
2 1.7559649 -1.8781985 -3.4911056 0.72247645 1.5040774 1.5040774 0.50377507 0.50377507
 3 1.7559568  -1.639506   -2.899718 0.82352363 1.5040774 1.5040774 0.50375872 0.50375872
 1 1.7559649 -1.7742214  -3.2295599 0.86413738 1.5040774 1.5040774 0.50377503 0.50377503
 5 1.7559649 -1.8130772  -3.1691281 0.79151392 1.5040774 1.5040774 0.50377498 0.50377498
 1 1.7559648 -1.6446173  -3.1507636 0.79436695 1.5040774 1.5040774 0.50377472 0.50377472
 3 1.7559648 -1.6365106  -3.1604232 0.78587388 1.5040774 1.5040774 0.50377476 0.50377476
 7 1.7546765 -1.3276773   -2.453154 0.79317198 1.5040774 1.5040774 0.50119814 0.50119814
 2 1.6976001 -1.5167489 -0.92022398 0.80434782 1.5040774 1.5040774 0.38704531 0.38704531
 3 1.6889845 -1.2950075  -1.3776513 0.81040384 1.5040774 1.5040774 0.36981421 0.36981421
 4 1.7555691 -1.9568058 -0.50201048 0.76757447 1.5040774 1.5040774  0.5029835  0.5029835
 5 1.7559636 -1.7337659  0.75490211 0.78759718 1.5040774 1.5040774 0.50377247 0.50377247
 2 1.7501385 -1.5534438 -0.46848093 0.80906783 1.5040774 1.5040774 0.49212224 0.49212224
 4 1.7549891 -1.6683132 -0.46364487 0.85127229 1.5040774 1.5040774 0.50182331 0.50182331
 2 1.7541099 -1.5552648 -0.50858723 0.89493388 1.5040774 1.5040774 0.50006492 0.50006492
 7 1.5959772 -1.3377976  -1.4585299 0.82782979 1.5040774 1.5040774 0.18379967 0.18379967
 2 1.5356147 -1.3386243  -1.2783241 0.82267493 1.5040774 1.5040774  0.0630747  0.0630747
 3 1.7514287 -1.7448538 -0.78201222 0.81051736 1.5040774 1.5040774 0.49470259 0.49470259
 2 1.7555971 -1.9322532 -0.28279952 0.73291314 1.5040774 1.5040774 0.50303932 0.50303932
 1 1.7524609 -1.8529798  -0.1545584 0.68093818 1.5040774 1.5040774 0.49676699 0.49676699
10 1.7300655 -1.9684726 -0.13913689  0.6463079 1.5040774 1.5040774 0.45197618 0.45197618
 4  1.755806 -1.9263756  0.10711608 0.69695686 1.5040774 1.5040774 0.50345725 0.50345725
 7 1.7705802  -1.5212514 -0.52499485  0.5603895 1.5040774 1.5040774 0.53300569 0.53300569
 1 1.6368788  -1.4092396 -0.94650978 0.81687611 1.5040774 1.5040774 0.26560274 0.26560274
 1 1.6314552  -1.3930915 -0.93175347   0.819271 1.5040774 1.5040774 0.25475569 0.25475569
 2 1.6834455  -1.4127738 -0.81300207 0.82156665 1.5040774 1.5040774 0.35873627 0.35873627
 1 1.6828045   -1.410591  -0.8094711 0.82128999 1.5040774 1.5040774 0.35745413 0.35745413
 1 1.7559626  -1.2877771  -3.2082458 0.45063018 1.5040774 1.5040774 0.50377048 0.50377048
 3 1.7577693  -1.4593516  -2.5455185 0.40503922 1.5040774 1.5040774 0.50738376 0.50738376
12 1.7598797  -1.4505611  -2.5200567 0.40306217 1.5040774 1.5040774  0.5116047  0.5116047
 2 1.7559011   -1.376159  -2.9092305 0.51888772 1.5040774 1.5040774 0.50364741 0.50364741
 3 1.7554882  -1.4645541  -2.5948069 0.46713008 1.5040774 1.5040774 0.50282157 0.50282157
 4 1.7587075  -1.4176213  -2.5554484 0.46029895 1.5040774 1.5040774 0.50926016 0.50926016
 4 1.7559829 -0.54544811  -3.3903798  0.5976048 1.5040774 1.5040774 0.50381097 0.50381097
 2 1.7559833 -0.54546189  -3.3891388 0.59768746 1.5040774 1.5040774 0.50381189 0.50381189
 1  1.755914  -1.6309746  -2.7270971 0.68329594 1.5040774 1.5040774 0.50367318 0.50367318
 2 1.7481627  -1.6646527  -2.0353807 0.69432046 1.5040774 1.5040774 0.48817061 0.48817061
 2 1.7537895  -1.9248229  -1.9447007 0.80170532 1.5040774 1.5040774 0.49942419 0.49942419
 2 1.7545774  -1.9340669  -2.0900547 0.73741702 1.5040774 1.5040774 0.50100008 0.50100008
 5 1.7345138  -1.8071439  -1.8499928 0.48757171 1.5040774 1.5040774 0.46087287 0.46087287
 5 1.7290975  -1.8290063   -0.408592 0.52881978 1.5040774 1.5040774 0.45004016 0.45004016
 1 1.7559647  -1.4339842  -3.3091486 0.44207611 1.5040774 1.5040774 0.50377455 0.50377455
 1 1.7559649 -1.3094314   -3.655745 0.60952386 1.5040774 1.5040774 0.50377507 0.50377507
23 1.7559649 -1.7590854    -3.83291 0.86466356 1.5040774 1.5040774 0.50377507 0.50377507
 1 1.7559639 -1.7284529  -3.0805876 0.50425079 1.5040774 1.5040774  0.5037731  0.5037731
 2 1.7559649 -1.2849651  -3.6342122  0.4673746 1.5040774 1.5040774 0.50377507 0.50377507
 2 1.7935697 -1.3466408   0.6175546 0.43596871 1.5040774 1.5040774 0.57898469 0.57898469
11 1.7388728 -1.1956684 0.041587005 0.41881031 1.5040774 1.5040774 0.46959076 0.46959076
 3 1.8583607 -1.2583606  0.45854864 0.40568129 1.5040774 1.5040774 0.70856654 0.70856654
 4 2.0413146  -1.258688  0.46558315 0.40783842 1.5040774 1.5040774  1.0744744  1.0744744
 1 1.7559626 -1.8000219  0.60225578 0.75432913 1.5040774 1.5040774 0.50377051 0.50377051
 2 1.7798676 -1.2781194   -2.205486 0.81967779 1.5040774 1.5040774 0.55158038 0.55158038
 5 1.7559649 -1.1643175  -3.7345901 0.83280876 1.5040774 1.5040774 0.50377507 0.50377507
 1 1.7559636 -1.9066048  -2.9100988  0.7733826 1.5040774 1.5040774 0.50377239 0.50377239
11 1.7531291 -1.9115656  -0.4788509 0.70726333 1.5040774 1.5040774 0.49810341 0.49810341
 1 1.7205455 -1.6396295  -1.7288181 0.74902397 1.5040774 1.5040774 0.43293615 0.43293615
 1 1.7535056 -1.5691402  -2.2566279 0.56003471 1.5040774 1.5040774 0.49885642 0.49885642
 5 1.7787674 -1.5071889  -2.1360193 0.56111009 1.5040774 1.5040774 0.54937995 0.54937995
 2 1.7559649 -1.6955738  -3.2805616 0.71393316 1.5040774 1.5040774 0.50377504 0.50377504
 2 1.7559649  -1.713276  -3.1923437 0.71835381 1.5040774 1.5040774 0.50377496 0.50377496
 2 1.7527156 -1.7364244  -2.2310399 0.53423406 1.5040774 1.5040774 0.49727644 0.49727644
 1 1.7559648 -1.7762233   -3.211462 0.46495322 1.5040774 1.5040774  0.5037748  0.5037748
 2 1.7559647  -1.8615299 -3.1358271 0.47759389 1.5040774 1.5040774 0.50377459 0.50377459
 1 1.7559648   -1.759188 -3.2014256 0.49750343 1.5040774 1.5040774 0.50377483 0.50377483
16 1.7333331  -1.8065339 -1.8423553 0.48467118 1.5040774 1.5040774 0.45851147 0.45851147
 8 1.7459161  -1.8045786 -1.8444065 0.72346634 1.5040774 1.5040774 0.48367731 0.48367731
 3 1.7559649  -1.9051433 -3.7040015  0.5955165 1.5040774 1.5040774 0.50377507 0.50377507
 1 1.7554751  -1.5530579 -2.4938298 0.65419947 1.5040774 1.5040774 0.50279536 0.50279536
 6 1.7916589   -1.095058 -2.5842227 0.57546229 1.5040774 1.5040774   0.575163   0.575163
 7 1.7559722  -1.0586373 -3.1445145 0.52248333 1.5040774 1.5040774 0.50378968 0.50378968
 6 1.7561211  -1.1261888 -3.0057041 0.49298152 1.5040774 1.5040774 0.50408739 0.50408739
 1 1.7538221  -1.8076064 -2.1622705 0.75018959 1.5040774 1.5040774 0.49948948 0.49948948
14  1.720621  -1.6803341  -1.343058 0.80079629 1.5040774 1.5040774 0.43308724 0.43308724
 5 1.7559538  -1.1563388 -2.9725455 0.55305648 1.5040774 1.5040774 0.50375291 0.50375291
 1 1.7559558  -1.4368219 -3.0517673 0.50148788 1.5040774 1.5040774 0.50375687 0.50375687
 5 1.7559457  -1.4113833 -3.0258085 0.47697516 1.5040774 1.5040774  0.5037366  0.5037366
 1 1.7559565   -1.299853 -2.9411403  0.4592788 1.5040774 1.5040774 0.50375828 0.50375828
 4 1.7559493  -1.2310621 -2.9724122 0.50988813 1.5040774 1.5040774 0.50374388 0.50374388
 7 1.8752867  -1.4389559 -2.1224526 0.55001347 1.5040774 1.5040774 0.74241864 0.74241864
 5 1.9066576 -0.65417109 -2.7835296 0.66406014 1.5040774 1.5040774 0.80516043 0.80516043
 2 1.7559649 -0.76832069 -3.4457555 0.73346813 1.5040774 1.5040774 0.50377505 0.50377505
 3 1.7559628 -0.89076942 -3.0922178   0.725501 1.5040774 1.5040774 0.50377073 0.50377073
 5 1.7559647 -0.92419355  -3.2753706 0.64823432 1.5040774 1.5040774 0.50377467 0.50377467
 4 1.7559636  -1.5568511  -3.0969358 0.53935534 1.5040774 1.5040774 0.50377246 0.50377246
 2 1.7559213  -1.5620463  -2.9679965 0.40174958 1.5040774 1.5040774  0.5036878  0.5036878
 8 1.7424464  -1.8620863  -1.9425599 0.42760806 1.5040774 1.5040774 0.47673793 0.47673793
 1 1.7559649  -1.5918098  -3.7038238 0.72740022 1.5040774 1.5040774 0.50377507 0.50377507
 4  1.755672   -1.404027  -2.6879788 0.71616823 1.5040774 1.5040774 0.50318916 0.50318916
 3 1.7420939  -1.7931686  -1.6510584  0.7839714 1.5040774 1.5040774 0.47603307 0.47603307
 5  1.755949  -1.4567937  -3.0068746 0.50062149 1.5040774 1.5040774 0.50374317 0.50374317
 3 1.7559649  -1.0662545  -3.9964464 0.55919342 1.5040774 1.5040774 0.50377507 0.50377507
 3 2.8142782  -1.4131613  -1.8514014 0.61754801 1.5040774 1.5040774  2.6204016  2.6204016
 6 1.7559649 -0.76345921  -3.6225183  0.7842519 1.5040774 1.5040774 0.50377507 0.50377507
 2 1.7559649 -0.70400191  -3.4907847 0.76439101 1.5040774 1.5040774 0.50377506 0.50377506
 1 1.7559649 -0.33138807  -3.8391554 0.89774358 1.5040774 1.5040774 0.50377507 0.50377507
15  1.754418  -1.9727239  -1.7277407 0.89114209 1.5040774 1.5040774 0.50068116 0.50068116
 2 1.7556101  -1.9425616 -0.71126562 0.83948244 1.5040774 1.5040774 0.50306546 0.50306546
 3 1.7555931  -1.9361977 -0.71405385  0.8411146 1.5040774 1.5040774 0.50303132 0.50303132
 1  1.787275  -1.5227894  -1.7463066 0.70824438 1.5040774 1.5040774 0.56639523 0.56639523
 5  1.925378  -1.5146959  -1.6495367  0.6715533 1.5040774 1.5040774 0.84260128 0.84260128
 3 1.9428986  -1.9899745  0.74809183 0.60017691 1.5040774 1.5040774 0.87764249 0.87764249
 1 1.7748073  -1.7324793  0.72089397 0.59565194 1.5040774 1.5040774 0.54145975 0.54145975
2 1.7559606 -1.9873481 0.62675449 0.43089517 1.5040774 1.5040774 0.50376642 0.50376642
4  1.755648 -1.4688651 -2.7782945 0.40766462 1.5040774 1.5040774 0.50314126 0.50314126
2 2.1138739 -1.4225817 -1.7942371   0.434478 1.5040774 1.5040774   1.219593   1.219593
1 1.7391671 -1.8748222 -1.4229443 0.72825905 1.5040774 1.5040774 0.47017943 0.47017943
2 1.7559527 -1.8597975 -2.8787884 0.46283189 1.5040774 1.5040774 0.50375067 0.50375067
2 1.7559496 -1.8639133 -2.8592363 0.46190543 1.5040774 1.5040774 0.50374448 0.50374448
1 1.7559649 -1.5411467 -3.7127163 0.54931426 1.5040774 1.5040774 0.50377507 0.50377507
3 1.7560859 -1.1227013 -3.0652265 0.46137078 1.5040774 1.5040774 0.50401702 0.50401702
1 1.7559625 -1.1942664 -3.1487159 0.56696154 1.5040774 1.5040774 0.50377019 0.50377019
2 1.7556224 -1.3402888 -2.1352139 0.82563714 1.5040774 1.5040774 0.50309009 0.50309009
3 1.7728292 -1.1783177 -2.4304023 0.84101452 1.5040774 1.5040774 0.53750361 0.53750361
4 1.7710605 -1.3032116 -2.1999581 0.80977586 1.5040774 1.5040774 0.53396628 0.53396628
5 1.7559649 -1.2491831 -3.4804313  0.6293468 1.5040774 1.5040774 0.50377506 0.50377506
1 1.7558348  -1.694077 -2.6201828 0.68880205 1.5040774 1.5040774 0.50351485 0.50351485
3 1.7559649 -1.7133625 -3.8558977  0.7739843 1.5040774 1.5040774 0.50377507 0.50377507
8 1.7555336 -1.8548878 -2.2719842 0.63081536 1.5040774 1.5040774 0.50291234 0.50291234
3 1.7552247 -1.9484192 -2.1526019  0.8056431 1.5040774 1.5040774 0.50229466 0.50229466
1 1.7543481  -1.763859  -2.248739 0.68775388 1.5040774 1.5040774 0.50054139 0.50054139
3 1.7559549 -1.8216543 -2.8581106  0.5208901 1.5040774 1.5040774 0.50375495 0.50375495
1 1.7544746 -1.5892602 -2.1948569 0.54694872 1.5040774 1.5040774 0.50079444 0.50079444
4 1.7559647  -1.3770798  -3.2120303 0.84027065 1.5040774 1.5040774 0.50377451 0.50377451
3 1.7559593  -1.5225236  -2.9780012 0.81634113 1.5040774 1.5040774 0.50376387 0.50376387
2 1.8251385  -1.6329956   -1.876494 0.55639495 1.5040774 1.5040774 0.64212221 0.64212221
2 1.9682516  -1.6774176   -1.542192 0.54085019 1.5040774 1.5040774 0.92834844 0.92834844
5 1.8812221   -1.692719  -1.5279681 0.53682093 1.5040774 1.5040774 0.75428943 0.75428943
7 1.7558772  -1.5055393  -2.8536903 0.50335553 1.5040774 1.5040774 0.50359959 0.50359959
1 1.7559407  -1.5629731  -2.8506796 0.72995425 1.5040774 1.5040774 0.50372656 0.50372656
2 1.7512048  -1.8207109  -1.9962839 0.72629852 1.5040774 1.5040774  0.4942549  0.4942549
6 1.7507104  -1.8297478  -1.9632345 0.72344722 1.5040774 1.5040774 0.49326599 0.49326599
2 1.7510837  -1.7123052  -2.1077021 0.70076357 1.5040774 1.5040774 0.49401257 0.49401257
3 1.6954308  -1.6370773  -1.5398572 0.74664712 1.5040774 1.5040774  0.3827068  0.3827068
6 1.7464896  -1.4619043 -0.64682884 0.88712732 1.5040774 1.5040774 0.48482443 0.48482443
1 1.7559649 -0.71066557  -3.6914353 0.60085025 1.5040774 1.5040774 0.50377507 0.50377507
1 1.7559649 -0.75434947  -3.9935406 0.56041555 1.5040774 1.5040774 0.50377507 0.50377507
3  1.755959  -1.1453416  -3.0937763 0.55606339 1.5040774 1.5040774 0.50376324 0.50376324
4 1.7559649 -0.78462044  -3.2924359 0.72139466 1.5040774 1.5040774 0.50377506 0.50377506
3 1.7591809 -0.69839511  -2.9454338 0.68366831 1.5040774 1.5040774   0.510207   0.510207
9 1.7559816 -0.47383863  -3.3205962 0.86243238 1.5040774 1.5040774 0.50380837 0.50380837
2 1.6678713  -1.4895679  -1.5013728 0.85132619 1.5040774 1.5040774 0.32758783 0.32758783
6 2.0907064  -1.2310362  -2.0805045 0.75775272 1.5040774 1.5040774   1.173258   1.173258
 2 1.8835872  -1.1519188  -2.2164435 0.71938325 1.5040774 1.5040774 0.75901956 0.75901956
 9  1.780828 -0.99039052  -2.5710806 0.76352731 1.5040774 1.5040774 0.55350122 0.55350122
11 1.7559649  -1.2806136  -3.5104521 0.49829736 1.5040774 1.5040774 0.50377506 0.50377506
 1 1.7236101   -1.630659  -1.7671929 0.74901596 1.5040774 1.5040774  0.4390654  0.4390654
 5 1.7559649  -1.1642549  -3.5019956 0.84882165 1.5040774 1.5040774 0.50377506 0.50377506
 3 1.7528257  -1.7955991  -2.0101446 0.88106821 1.5040774 1.5040774 0.49749665 0.49749665
 4 1.7557704  -1.5978562  -2.6417813 0.86494854 1.5040774 1.5040774 0.50338601 0.50338601
17 1.7559649  -1.7314505  -3.4893462 0.88233896 1.5040774 1.5040774 0.50377507 0.50377507
 5 1.7550633  -1.8452375  -1.6887972 0.61128698 1.5040774 1.5040774 0.50197181 0.50197181
 2 1.7559649  -1.1136882  -3.8621208 0.48730335 1.5040774 1.5040774 0.50377507 0.50377507
 1 1.7559649 -0.90574099  -3.5703981  0.5187844 1.5040774 1.5040774 0.50377508 0.50377508
 1 1.7559651 -0.94455499  -3.4079917 0.52069116 1.5040774 1.5040774  0.5037754  0.5037754
 2  1.755965 -0.95080266  -3.4335147 0.53627114 1.5040774 1.5040774 0.50377513 0.50377513
 3 1.7573297  -1.0596252  -2.8810388 0.54254021 1.5040774 1.5040774 0.50650467 0.50650467
 2 1.7532399  -1.9616957 -0.91222525 0.41211897 1.5040774 1.5040774 0.49832497 0.49832497
 3 1.9773752  -1.7891034 -0.62004288  0.6100533 1.5040774 1.5040774 0.94659564 0.94659564
11 1.6759031  -1.8924583 -0.80519159 0.53504607 1.5040774 1.5040774  0.3436514  0.3436514
 3 1.7311837  -1.8494117  -1.6957244  0.5139201 1.5040774 1.5040774 0.45421267 0.45421267
 1 1.7490614  -1.8606413  -1.9169067 0.54238817 1.5040774 1.5040774  0.4899681  0.4899681
 1 1.6830534  -1.7122458  0.34765656 0.63934028 1.5040774 1.5040774 0.35795201 0.35795201
 3 1.7559636  -1.9451849 0.44749841 0.76817016 1.5040774 1.5040774 0.50377239 0.50377239
 9 1.7559707  -1.9704661 0.22670799 0.72794059 1.5040774 1.5040774 0.50378668 0.50378668
 4 1.7574777  -1.8605299 0.55761783 0.71288756 1.5040774 1.5040774 0.50680055 0.50680055
 3 1.7559649  -1.0368311 -3.5132714 0.72622623 1.5040774 1.5040774 0.50377506 0.50377506
 2 1.7559649  -1.4335037 -3.7277296 0.84005576 1.5040774 1.5040774 0.50377507 0.50377507
11 1.7559649 -0.67357842 -3.6348025 0.71010003 1.5040774 1.5040774 0.50377507 0.50377507
 5 1.7558675  -1.8394822 -2.5681338 0.73418725 1.5040774 1.5040774 0.50358026 0.50358026
 1 1.8228448  -1.3930821 -1.9434341 0.68432182 1.5040774 1.5040774  0.6375348  0.6375348
 3 2.9349026   -1.440592 -1.6789591 0.65264034 1.5040774 1.5040774  2.8616504  2.8616504
 2 1.7527875  -1.5306582 -1.8213239 0.71846158 1.5040774 1.5040774 0.49742015 0.49742015
 2 1.7549877  -1.3162077 -2.5362212 0.72462984 1.5040774 1.5040774  0.5018207  0.5018207
 2 1.7559623  -1.2882609 -3.0643862 0.70441255 1.5040774 1.5040774 0.50376984 0.50376984
 1 1.7559412  -1.4227144  -2.914892 0.77813995 1.5040774 1.5040774 0.50372769 0.50372769
 5 1.7559649   -1.256458 -3.3651528 0.80752091 1.5040774 1.5040774 0.50377501 0.50377501
 2 1.7546146  -1.6187148 -2.4037225 0.81247443 1.5040774 1.5040774 0.50107448 0.50107448
 4 1.7557358  -1.6695974 -2.5498075 0.59107227 1.5040774 1.5040774 0.50331683 0.50331683
 8 1.7516325  -1.5913754 -2.1871505 0.68719281 1.5040774 1.5040774 0.49511018 0.49511018
 1  1.753182  -1.9665045 -1.7435199 0.80053142 1.5040774 1.5040774 0.49820921 0.49820921
 3  1.755884  -1.9219386 -2.5056427 0.84718303 1.5040774 1.5040774 0.50361319 0.50361319
 3 1.7548482  -1.9740639 -2.2211967 0.51470655 1.5040774 1.5040774 0.50154156 0.50154156
 4 1.7555024  -1.9387372  -2.3650461 0.52941269 1.5040774 1.5040774 0.50284997 0.50284997
 2 1.7550955  -1.7994299 -0.58032523 0.82277026 1.5040774 1.5040774 0.50203617 0.50203617
 2 1.7543237  -1.7470906 -0.63528993 0.82986248 1.5040774 1.5040774  0.5004927  0.5004927
 1 1.7559649  -1.6896092  -3.2379112 0.82019015 1.5040774 1.5040774 0.50377501 0.50377501
 3 1.7558346  -1.6308307  -2.6702744 0.80350158 1.5040774 1.5040774  0.5035144  0.5035144
 6 1.7559649  -1.7068149  -3.2909796 0.70679329 1.5040774 1.5040774 0.50377505 0.50377505
 3 1.7311725  -1.5705752 -0.45433545 0.46087705 1.5040774 1.5040774 0.45419021 0.45419021
 3 1.7517218  -1.5903695    0.401183  0.5551489 1.5040774 1.5040774  0.4952889  0.4952889
16 1.7582526  -1.5951829  0.50312536 0.53605791 1.5040774 1.5040774  0.5083505  0.5083505
 2  1.755633  -1.8698944 -0.24472382 0.75065486 1.5040774 1.5040774 0.50311128 0.50311128
 1 1.7559649  -1.1612373  -3.9237015 0.69875533 1.5040774 1.5040774 0.50377507 0.50377507
 1 1.7559649  -1.2358354  -3.8491863 0.53485347 1.5040774 1.5040774 0.50377507 0.50377507
 1 1.7559722 -0.73150809  -3.3967536 0.52414212 1.5040774 1.5040774 0.50378959 0.50378959
 7 1.7550901  -1.3507374  -2.5553085 0.70666202 1.5040774 1.5040774 0.50202536 0.50202536
 5 1.7523542  -1.4549391  -2.1915851 0.72811193 1.5040774 1.5040774 0.49655358 0.49655358
 1 1.8557975  -1.4432776  -2.1758436 0.51010889 1.5040774 1.5040774 0.70344017 0.70344017
 5 2.0558641  -1.4780905  -1.9860025  0.5113696 1.5040774 1.5040774  1.1035733  1.1035733
 2 1.7506052  -1.5519418  -2.1742535 0.70163979 1.5040774 1.5040774 0.49305553 0.49305553
 5 1.7559649 -0.84671294  -3.6769516 0.71903575 1.5040774 1.5040774 0.50377507 0.50377507
 6 1.7559649 -0.86687018  -3.7075792 0.69913889 1.5040774 1.5040774 0.50377507 0.50377507
 1 1.7568107 -0.23277864  -3.3443686 0.68338224 1.5040774 1.5040774 0.50546652 0.50546652
 9 1.7620885 -0.24946032  -3.2370714 0.68908451 1.5040774 1.5040774 0.51602227 0.51602227
 6 1.7584695 -0.47761528  -3.2485361 0.56258794 1.5040774 1.5040774 0.50878417 0.50878417
 8 1.7559649 -0.59936135  -3.9051497 0.53443691 1.5040774 1.5040774 0.50377507 0.50377507
18 1.7559649 -0.36426845  -3.8885939 0.79106317 1.5040774 1.5040774 0.50377507 0.50377507
 6 1.7559651 -0.82118702  -3.5760608 0.45779308 1.5040774 1.5040774 0.50377542 0.50377542
 5 1.7559649 -0.84838282  -3.9448965 0.47901424 1.5040774 1.5040774 0.50377507 0.50377507
 2 3.6456997 -0.87294376  -2.5519708 0.56150474 1.5040774 1.5040774  4.2832446  4.2832446
 1 1.7492543  -1.8917041  -1.7032571 0.62912175 1.5040774 1.5040774  0.4903539  0.4903539
 1 1.7559649  -1.1913192  -3.9748604 0.77312559 1.5040774 1.5040774 0.50377507 0.50377507
10 1.7559649  -1.0319232  -3.6662307 0.76038276 1.5040774 1.5040774 0.50377507 0.50377507
 5 1.7559649  -1.0639233   -3.682956 0.74613809 1.5040774 1.5040774 0.50377507 0.50377507
 9 1.7559649  -1.0647271   -3.616352 0.74553531 1.5040774 1.5040774 0.50377507 0.50377507
 4 1.7405918   -1.525021    -1.99356 0.75044678 1.5040774 1.5040774 0.47302884 0.47302884
 7 1.7520007  -1.9614603 -0.68887764 0.70961551 1.5040774 1.5040774 0.49584658 0.49584658
 1  2.246861  -1.4405106  -1.3229234 0.71343457 1.5040774 1.5040774  1.4855672  1.4855672
 1 1.7559649  -1.4230362  -3.5257295 0.85113013 1.5040774 1.5040774 0.50377507 0.50377507
 4 1.7559649  -1.4202024  -3.8529982 0.79406737 1.5040774 1.5040774 0.50377507 0.50377507
 2 1.6999867  -1.8317263  -1.4296903 0.48042189 1.5040774 1.5040774 0.39181863 0.39181863
 2 1.6997679   -1.832367  -1.4249041 0.48082374 1.5040774 1.5040774 0.39138101 0.39138101
 3 1.7551172  -1.6282536   -2.3692448 0.64495106 1.5040774 1.5040774 0.50207964 0.50207964
 1 1.7524344  -1.8999257   -1.9235199 0.75157188 1.5040774 1.5040774   0.496714   0.496714
 2 1.7539169  -1.8839102   -2.0707363 0.75617595 1.5040774 1.5040774 0.49967892 0.49967892
 4 1.7414792  -1.7146551   -1.8410249 0.78636496 1.5040774 1.5040774 0.47480355 0.47480355
 2  1.754953  -1.8741498   -2.1549775 0.86664728 1.5040774 1.5040774 0.50175129 0.50175129
 1 2.3960306  -1.5606354    0.5835233 0.61814238 1.5040774 1.5040774  1.7839065  1.7839065
12  2.637459  -1.7978944   0.81212578 0.57637201 1.5040774 1.5040774  2.2667632  2.2667632
 9 3.5174772  -1.7899604   0.62929338 0.58728377 1.5040774 1.5040774  4.0267996  4.0267996
 2 1.7559638 -0.90147592   -3.0370814 0.75092153 1.5040774 1.5040774 0.50377274 0.50377274
 1 1.7600692 -0.85632276   -2.7936096  0.7780495 1.5040774 1.5040774 0.51198356 0.51198356
10 1.7559649 -0.53519547    -3.617852 0.77184246 1.5040774 1.5040774 0.50377507 0.50377507
 3 1.8403278 -0.29430983   -3.0102739 0.77861552 1.5040774 1.5040774 0.67250079 0.67250079
 6 1.7650742  -1.7845643   0.31248613 0.57005738 1.5040774 1.5040774 0.52199364 0.52199364
 2 1.7559674 -0.86143912   -3.4366611 0.45957397 1.5040774 1.5040774 0.50377992 0.50377992
 1 1.7560266 -0.53132168   -3.2944329 0.64565464 1.5040774 1.5040774 0.50389847 0.50389847
 3 1.7580828 -0.67118018   -3.1238509 0.56537011 1.5040774 1.5040774 0.50801085 0.50801085
 3 1.7309453  -1.5387912   -0.8068954 0.82224432 1.5040774 1.5040774 0.45373571 0.45373571
 5 1.7549645  -1.8228291 -0.078849298 0.70372077 1.5040774 1.5040774 0.50177426 0.50177426
 2 1.7559641   -1.807713   0.67436992 0.79093038 1.5040774 1.5040774 0.50377332 0.50377332
 7 1.7557624  -1.6607532  -0.14473403 0.83936367 1.5040774 1.5040774    0.50337    0.50337
1 1.7557644  -1.6438259  -0.12065693 0.84181895 1.5040774 1.5040774 0.50337401 0.50337401
5 1.7173084  -1.1595185 -0.035393305   0.437774 1.5040774 1.5040774 0.42646205 0.42646205
1 1.7027621  -1.1618716 -0.077316914 0.44451747 1.5040774 1.5040774 0.39736934 0.39736934
2  1.742464  -1.7430239  -0.52608562 0.71556196 1.5040774 1.5040774 0.47677324 0.47677324
1 1.7428003  -1.7443173  -0.52199558 0.71541402 1.5040774 1.5040774 0.47744573 0.47744573
1 1.7488334  -1.8801108  -0.61817967 0.70655971 1.5040774 1.5040774 0.48951192 0.48951192
2 1.7559597  -1.5191469   -2.9812222  0.8595525 1.5040774 1.5040774 0.50376468 0.50376468
2 1.7237233   -1.744941   -1.2791624 0.76174785 1.5040774 1.5040774 0.43929176 0.43929176
4   1.75595  -1.6540249   -2.9440217 0.48621643 1.5040774 1.5040774 0.50374521 0.50374521
2 1.7559649  -1.5918491    -3.641334 0.45100188 1.5040774 1.5040774 0.50377507 0.50377507
4 1.7559649  -1.4520677   -3.6264117 0.43629277 1.5040774 1.5040774 0.50377507 0.50377507
6 1.7559649  -1.4588645   -3.6316271  0.4366998 1.5040774 1.5040774 0.50377507 0.50377507
1 1.7559649  -1.4444007   -3.5438164  0.4413722 1.5040774 1.5040774 0.50377506 0.50377506
3  1.755291  -1.8845088   -2.4609477 0.45384359 1.5040774 1.5040774 0.50242714 0.50242714
1 1.7559091    -1.76135    -2.841077 0.42073219 1.5040774 1.5040774 0.50366335 0.50366335
1 1.7559649  -1.9704984   -3.8581967 0.42585048 1.5040774 1.5040774 0.50377507 0.50377507
7 1.7559649 -0.89468773   -3.5982279  0.6016831 1.5040774 1.5040774 0.50377507 0.50377507
9 1.7559649   -1.156248   -3.2965499 0.69232893 1.5040774 1.5040774 0.50377493 0.50377493
6 1.7559601  -1.9905583   -2.7449416  0.8755742 1.5040774 1.5040774 0.50376543 0.50376543
4 1.7478587  -1.6615859  -0.49612723 0.75475293 1.5040774 1.5040774 0.48756269 0.48756269
 3 1.6302983 -1.6344694  -1.1224322 0.71662169 1.5040774 1.5040774  0.25244182  0.25244182
 7 1.6399036 -1.5859835 -0.83915878 0.72479967 1.5040774 1.5040774  0.27165238  0.27165238
13 1.7559639 -1.9451183  0.49435983  0.7700331 1.5040774 1.5040774  0.50377296  0.50377296
10 1.7559647 -1.8914507  0.67227651 0.80562962 1.5040774 1.5040774  0.50377452  0.50377452
 9 1.7560623 -1.7945011  0.60185829 0.78897719 1.5040774 1.5040774  0.50396985  0.50396985
 6 1.7482233  -1.403774 -0.15458385 0.40765149 1.5040774 1.5040774  0.48829181  0.48829181
 3 1.7559649  -1.793193  -3.6875169 0.60188629 1.5040774 1.5040774  0.50377507  0.50377507
 6 1.7559649 -1.7843678  -3.6755066 0.59495912 1.5040774 1.5040774  0.50377507  0.50377507
 2 1.7557615 -1.9377058 -0.11671858 0.45432072 1.5040774 1.5040774  0.50336814  0.50336814
 3  1.755789 -1.7694808   0.1888358 0.46496468 1.5040774 1.5040774  0.50342328  0.50342328
18 1.7541056 -1.6469354 -0.15150396 0.43841441 1.5040774 1.5040774  0.50005634  0.50005634
 1  3.718226 -1.7474584  0.62501325 0.47674518 1.5040774 1.5040774   4.4282972   4.4282972
 2 1.7558763 -1.5776483  0.63163744 0.48236422 1.5040774 1.5040774  0.50359772  0.50359772
 3 1.5247175 -1.7097983 -0.80449327 0.54601167 1.5040774 1.5040774 0.041280211 0.041280211
 5 1.5830934 -1.6630621 0.030474912 0.61392314 1.5040774 1.5040774  0.15803209  0.15803209
10 1.5835587 -1.7132798 -0.45627732 0.59061794 1.5040774 1.5040774   0.1589627   0.1589627
 1 1.7559366 -1.3747304  -2.9499182 0.54833176 1.5040774 1.5040774  0.50371844  0.50371844
 2 1.7559576 -1.1055201  -3.0736826 0.77191286 1.5040774 1.5040774  0.50376036  0.50376036
12 1.7892537 -1.3010804  -1.8823796  0.8345522 1.5040774 1.5040774  0.57035257  0.57035257
 3 1.8363303 -1.2498639  -1.0505485 0.78505671 1.5040774 1.5040774  0.66450573  0.66450573
 3 1.7573406 -1.0577632  -2.9845772 0.47370144 1.5040774 1.5040774  0.50652647  0.50652647
 5 1.7560727 -1.2069679  -2.9896231 0.46099188 1.5040774 1.5040774  0.50399068  0.50399068
 3 1.7587903 -1.1522591  -2.5582559 0.63409784 1.5040774 1.5040774   0.5094259   0.5094259
 6 1.7559649 -1.2762527  -3.6716154 0.44720481 1.5040774 1.5040774  0.50377507  0.50377507
 6 1.7559649  -1.353905  -3.7475205 0.53437833 1.5040774 1.5040774  0.50377507  0.50377507
13 1.7559649 -1.9494383  -3.8198528 0.51621257 1.5040774 1.5040774  0.50377507  0.50377507
 3 1.9420484 -1.3629648  -1.9358841 0.72621919 1.5040774 1.5040774  0.87594201  0.87594201
 3 1.7316655 -1.5879975  -1.8207981 0.87782368 1.5040774 1.5040774  0.45517611  0.45517611
 4 1.7558343 -1.8682968 -0.26899303 0.79801956 1.5040774 1.5040774  0.50351378  0.50351378
 1 1.6856335 -1.8522805 -0.11826369 0.65293328 1.5040774 1.5040774  0.36311228  0.36311228
 7 1.7012897 -1.9093419 -0.20354711 0.57333471 1.5040774 1.5040774   0.3944246   0.3944246
 4 1.6599458 -1.8417668 -0.28915958  0.5713974 1.5040774 1.5040774  0.31173689  0.31173689
 4 1.7269021 -1.5149764 -0.39964011 0.74309748 1.5040774 1.5040774  0.44564948  0.44564948
 4 1.7475436 -1.8152201  -1.4906247  0.8469263 1.5040774 1.5040774  0.48693232  0.48693232
10 1.7495164 -1.9475462  -1.6949094 0.71673542 1.5040774 1.5040774  0.49087796  0.49087796
 2 1.5849432 -1.7173181  -1.1175501 0.51430558 1.5040774 1.5040774   0.1617317   0.1617317
 3 1.7029215 -1.9900192  -1.0164319 0.53760961 1.5040774 1.5040774  0.39768826  0.39768826
 4   1.61431 -1.3796846 -0.59172345 0.46182798 1.5040774 1.5040774  0.22046522  0.22046522
 3 1.5280324 -1.5737474 -0.54406024 0.54292568 1.5040774 1.5040774 0.047909947 0.047909947
 2 1.7559486 -1.4082176  -2.8873149 0.67194769 1.5040774 1.5040774  0.50374231  0.50374231
 3 1.7559625  -1.4203449  -3.0128988 0.65601762 1.5040774 1.5040774 0.50377024 0.50377024
11  1.561446  -1.5619375  -1.3724841 0.43276771 1.5040774 1.5040774 0.11473715 0.11473715
 3 1.7559649  -1.3349051  -3.7228036 0.53515823 1.5040774 1.5040774 0.50377507 0.50377507
 7 1.7559649  -1.1604083  -3.8969194 0.50191572 1.5040774 1.5040774 0.50377507 0.50377507
 4 1.7633187  -1.5419317  -2.0945218 0.58876128 1.5040774 1.5040774 0.51848262 0.51848262
 1 1.7828662   -1.585556  -1.9796934 0.58505318 1.5040774 1.5040774 0.55757763 0.55757763
 2 1.7559649 -0.83153771  -3.7215318 0.72056745 1.5040774 1.5040774 0.50377507 0.50377507
14 1.7562997 -0.47705867  -3.3201236 0.58208851 1.5040774 1.5040774 0.50444456 0.50444456
 2 1.7559775 -0.45729966  -3.3828287 0.68180971 1.5040774 1.5040774 0.50380019 0.50380019
 3  1.756029 -0.50267449  -3.3023983 0.65592799 1.5040774 1.5040774 0.50390313 0.50390313
17 1.7565537 -0.51772529  -3.1979573 0.64738014 1.5040774 1.5040774 0.50495269 0.50495269
 1 1.7559386  -1.5348848  -2.8719136 0.56344407 1.5040774 1.5040774 0.50372242 0.50372242
 3 2.0839156     -1.2896  -2.0677456 0.63574303 1.5040774 1.5040774  1.1596764  1.1596764
13 2.3741281 -0.89839862  -2.7682389 0.46026109 1.5040774 1.5040774  1.7401013  1.7401013
 3  1.648284  -1.3843586 -0.59962001 0.44176303 1.5040774 1.5040774 0.28841324 0.28841324
 7 1.7559649 -0.86554795  -3.7117982  0.6738156 1.5040774 1.5040774 0.50377507 0.50377507
 3 1.7559649  -1.4915852  -3.4659774  0.6505817 1.5040774 1.5040774 0.50377507 0.50377507
 4 1.7559649  -1.7884243  -3.2011554 0.61693062 1.5040774 1.5040774 0.50377504 0.50377504
 4 1.7559649  -1.7509501  -3.4612695 0.74422227 1.5040774 1.5040774 0.50377507 0.50377507
 1 1.7561812   -1.112628  -2.7695326 0.85191592 1.5040774 1.5040774 0.50420761 0.50420761
 4 1.6783746 -1.1778668 -0.47848196 0.45517744 1.5040774 1.5040774 0.34859449 0.34859449
 2 1.7472598 -1.8815313 -0.43497006 0.50651875 1.5040774 1.5040774 0.48636489 0.48636489
 4 1.6660659 -1.5947454   -1.450592 0.72814964 1.5040774 1.5040774 0.32397707 0.32397707
 4 1.7552575 -1.9854951 -0.23929087 0.69319638 1.5040774 1.5040774 0.50236021 0.50236021
 1 1.7135843 -1.6234738  -1.6867614 0.76624339 1.5040774 1.5040774  0.4190139  0.4190139
 2 1.7532966 -1.8774253  -1.2817887 0.89531378 1.5040774 1.5040774 0.49843835 0.49843835
 1 1.7674897 -1.9693738  0.83793948 0.69704005 1.5040774 1.5040774 0.52682467 0.52682467
 1 1.7512184 -1.2337047  0.56557558 0.75109782 1.5040774 1.5040774 0.49428199 0.49428199
 1 1.7566994 -1.6225571   0.7429164 0.78767667 1.5040774 1.5040774 0.50524408 0.50524408
 2 1.7348036 -1.4991825 -0.55598257 0.79036991 1.5040774 1.5040774 0.46145246 0.46145246
10 1.6568926 -1.9554002 -0.86820859 0.55770367 1.5040774 1.5040774 0.30563045 0.30563045
18 1.7554502 -1.8415586  -2.3545703 0.69427459 1.5040774 1.5040774 0.50274558 0.50274558
 2 1.7559535 -1.6060225  -2.8384799 0.61438172 1.5040774 1.5040774 0.50375212 0.50375212
 6 1.7554662 -1.8884282   -2.286112 0.83174584 1.5040774 1.5040774 0.50277754 0.50277754
 4 1.7559649 -1.3502974  -3.3922738 0.87328416 1.5040774 1.5040774 0.50377505 0.50377505
 7 1.7543636 -1.5684922  -2.4087574 0.86792637 1.5040774 1.5040774 0.50057238 0.50057238
 6 1.7559649 -1.9981002  -3.8885787 0.85664369 1.5040774 1.5040774 0.50377507 0.50377507
 4 1.7559579 -1.6315531  -2.9128039 0.84358156 1.5040774 1.5040774 0.50376107 0.50376107
18 1.7553496 -1.5667654  0.17612862 0.74647546 1.5040774 1.5040774 0.50254434 0.50254434
16 1.7561462 -1.5789577  0.94588896 0.76453285 1.5040774 1.5040774 0.50413762 0.50413762
 1 1.7228341 -1.9152232  -1.2779479 0.65282971 1.5040774 1.5040774 0.43751338 0.43751338
 2 1.8445217 -1.4116964  -2.2228547 0.52336752 1.5040774 1.5040774 0.68088864 0.68088864
 1 1.7537387 -1.7531118  -1.9225627 0.57381404 1.5040774 1.5040774 0.49932252 0.49932252
 8 1.7536855 -1.7529149  -1.9229001 0.57394654 1.5040774 1.5040774 0.49921621 0.49921621
 9 1.7456596 -1.8983551  -1.5785957 0.73760641 1.5040774 1.5040774 0.48316432 0.48316432
 3 1.7454357 -1.9004095  -1.5545809 0.73803065 1.5040774 1.5040774 0.48271658 0.48271658
 3 1.7357305 -1.8257222  -1.4705019 0.74114174 1.5040774 1.5040774 0.46330617 0.46330617
35 1.7556786  -1.806668  -2.4316935 0.88791182 1.5040774 1.5040774 0.50320243 0.50320243
 7 1.7556477 -1.8238283   -2.399987 0.89035742 1.5040774 1.5040774 0.50314059 0.50314059
 5 1.7559542 -1.3434081  -2.9849459 0.72460451 1.5040774 1.5040774 0.50375351 0.50375351
 7 1.7559649 -1.0487874  -3.3532645 0.73399053 1.5040774 1.5040774 0.50377498 0.50377498
 5  1.750788 -1.5203405   -2.168384 0.69504866 1.5040774 1.5040774 0.49342115 0.49342115
 2 1.7778122 -1.1104435  -2.5130464 0.79177219 1.5040774 1.5040774 0.54746958 0.54746958
 1 1.7577055  -1.160082  -2.6212882 0.81775709 1.5040774 1.5040774 0.50725621 0.50725621
 1 1.7526949 -1.3868031 -0.32894134 0.89197784 1.5040774 1.5040774 0.49723497 0.49723497
 4 1.7559575 -1.9734021  -0.1442341 0.86698713 1.5040774 1.5040774 0.50376025 0.50376025
 6 1.7559636 -1.9229796  0.21170983 0.85876898 1.5040774 1.5040774 0.50377242 0.50377242
 3 2.1334593 -1.5246688 -0.17423953 0.68397497 1.5040774 1.5040774  1.2587639  1.2587639
 6 2.5053388 -1.6205896  -1.5720425 0.61976257 1.5040774 1.5040774  2.0025229  2.0025229
 9 1.7555969  -1.936076 -0.42689817 0.76168017 1.5040774 1.5040774 0.50303907 0.50303907
 2 1.7414858  -1.6251978  -1.9587082 0.82771414 1.5040774 1.5040774 0.47481673 0.47481673
 2 1.7559649  -1.4985433  -3.7508967 0.84643617 1.5040774 1.5040774 0.50377507 0.50377507
 2 1.7559491  -1.8063707  -2.7569894 0.84221276 1.5040774 1.5040774  0.5037434  0.5037434
 2 1.7559649  -1.8804441  -3.3124326 0.61685846 1.5040774 1.5040774 0.50377507 0.50377507
 3  1.743613  -1.8293175 -0.55110179 0.69746658 1.5040774 1.5040774 0.47907126 0.47907126
 1 1.7525223  -1.9991827  -0.2917915 0.66542176 1.5040774 1.5040774 0.49688983 0.49688983
 5 1.7559023  -1.9918351  -2.4168918 0.60785733 1.5040774 1.5040774 0.50364978 0.50364978
 8 1.7559634  -1.2252115  -3.1318895 0.61140637 1.5040774 1.5040774 0.50377193 0.50377193
 4 1.7559467  -1.0406853  -2.9795947 0.66895607 1.5040774 1.5040774  0.5037387  0.5037387
 3 1.7564225 -0.97845753  -2.8120891 0.66444291 1.5040774 1.5040774  0.5046902  0.5046902
 1 1.7571022  -1.0132668   -2.884747 0.56982559 1.5040774 1.5040774 0.50604952 0.50604952
 1 1.8244904  -1.2712755  -2.3224609 0.57811843 1.5040774 1.5040774   0.640826   0.640826
21 1.7559649  -1.7793201  -3.8995065 0.63838041 1.5040774 1.5040774 0.50377507 0.50377507
 1 1.7559649   -1.582827  -3.5865563 0.66549744 1.5040774 1.5040774 0.50377507 0.50377507
 1 1.7559649  -1.4889212  -3.8882866 0.61926008 1.5040774 1.5040774 0.50377507 0.50377507
 3  1.751597  -1.9856848   -1.035286 0.42409022 1.5040774 1.5040774 0.49503925 0.49503925
 3 1.7368158  -1.9175777   -1.454573 0.43453476 1.5040774 1.5040774 0.46547687 0.46547687
 4 1.7559649  -1.4895318  -3.5008982 0.54161167 1.5040774 1.5040774 0.50377507 0.50377507
 2  1.779082  -1.2160787   -2.753653 0.40484888 1.5040774 1.5040774 0.55000928 0.55000928
 2 1.7559267  -1.9072883   0.3665025 0.47994751 1.5040774 1.5040774 0.50369862 0.50369862
 6  1.753435 -1.7333341   -0.313843 0.44654405 1.5040774 1.5040774  0.49871517  0.49871517
 1 1.6745882  -1.600346 -0.94071715 0.43445386 1.5040774 1.5040774  0.34102163  0.34102163
 4 1.6406592 -1.1703853  -0.3321894 0.45712297 1.5040774 1.5040774  0.27316362  0.27316362
16 1.7827514 -1.2066664  0.36250598 0.45937526 1.5040774 1.5040774  0.55734793  0.55734793
 2 1.7559648  -1.803305  -3.1287768 0.55700558 1.5040774 1.5040774  0.50377484  0.50377484
 2 1.7559649 -1.5861935  -3.8414455 0.47013163 1.5040774 1.5040774  0.50377507  0.50377507
 8 1.7559649 -1.5387249  -3.7877555 0.47854527 1.5040774 1.5040774  0.50377507  0.50377507
 9 1.7559649 -1.7006554  -3.5786324 0.46734576 1.5040774 1.5040774  0.50377507  0.50377507
 7 1.6776897  -1.469798  -1.5884032 0.88175568 1.5040774 1.5040774  0.34722462  0.34722462
 1 1.6794399 -1.4698477  -1.5985828 0.88393305 1.5040774 1.5040774   0.3507251   0.3507251
 3 1.6651565 -1.4407854  -1.6113017 0.87816046 1.5040774 1.5040774   0.3221582   0.3221582
12 1.5370172 -1.3827665  -0.8694654 0.44580844 1.5040774 1.5040774 0.065879637 0.065879637
 3 1.7550786 -1.6888761 -0.54378679 0.87480654 1.5040774 1.5040774  0.50200245  0.50200245
 2 1.7339631 -1.4206851 -0.36931371 0.78073093 1.5040774 1.5040774  0.45977146  0.45977146
 6 1.7557166  -1.416224  0.23540798 0.82697099 1.5040774 1.5040774  0.50327843  0.50327843
 6 1.6887201 -1.3512435 -0.78066762 0.85286887 1.5040774 1.5040774  0.36928538  0.36928538
 1  1.754562 -1.8536451 -0.18577127 0.70185857 1.5040774 1.5040774  0.50096913  0.50096913
 1 1.7512111 -1.8241445  -0.2829318 0.69327714 1.5040774 1.5040774  0.49426734  0.49426734
 5 1.7552639 -1.5704181   0.2092402 0.73721277 1.5040774 1.5040774  0.50237301  0.50237301
 1 1.7543284 -1.5276899 -0.34608296 0.85844213 1.5040774 1.5040774  0.50050208  0.50050208
 6 1.7496915 -1.7287621  -0.8580659 0.81882594 1.5040774 1.5040774 0.49122825 0.49122825
 2 1.7486937 -1.7128691 -0.81327721  0.8068871 1.5040774 1.5040774 0.48923256 0.48923256
 2 1.7399679 -1.5417773  -2.0216928 0.76912189 1.5040774 1.5040774 0.47178104 0.47178104
 1 1.7539197 -1.7746311  -2.1891959 0.80354226 1.5040774 1.5040774 0.49968465 0.49968465
 4 1.7515139 -1.7047712  -2.1240281 0.80972975 1.5040774 1.5040774 0.49487295 0.49487295
 3 1.7559649 -1.4487271  -3.6429904 0.52407169 1.5040774 1.5040774 0.50377507 0.50377507
 1 1.7559649 -1.3604422  -3.8804742 0.51303281 1.5040774 1.5040774 0.50377507 0.50377507
 3 1.7559649 -1.1361758  -3.7467671 0.67492281 1.5040774 1.5040774 0.50377507 0.50377507
 1 1.7559649 -1.1449272  -3.6610456 0.68505041 1.5040774 1.5040774 0.50377507 0.50377507
 7 1.6598138 -1.1808739 -0.26978203 0.44656252 1.5040774 1.5040774 0.31147283 0.31147283
 5 1.5779202 -1.3387975 -0.52762098 0.72420387 1.5040774 1.5040774 0.14768563 0.14768563
13 1.7559392 -1.1540962  0.85174776 0.86737872 1.5040774 1.5040774 0.50372369 0.50372369
 7  1.756119 -1.1489858  0.91940273 0.86309058 1.5040774 1.5040774 0.50408328 0.50408328
 7 1.7559468  -1.915332 -0.12933897 0.83780232 1.5040774 1.5040774 0.50373889 0.50373889
 5 1.7536811 -1.5857209 -0.13562447 0.75902827 1.5040774 1.5040774 0.49920743 0.49920743
 1 1.8746882 -1.5076207  -1.6144349 0.69677963 1.5040774 1.5040774 0.74122168 0.74122168
 1 1.7553674 -1.5135217  -2.5135439 0.68119979 1.5040774 1.5040774 0.50257993 0.50257993
 1 1.7553672 -1.4739263   -2.581761 0.71297756 1.5040774 1.5040774  0.5025796  0.5025796
 1  1.754112 -1.6794123  -2.3131681 0.73887925 1.5040774 1.5040774 0.50006911 0.50006911
 1 1.7559649 -1.6661792  -3.6108234 0.57765161 1.5040774 1.5040774 0.50377507 0.50377507
 1 1.7544815  -1.9503074  -2.2463559 0.48115561 1.5040774 1.5040774  0.50080823  0.50080823
30 1.7585931  -1.5265075  -2.1867392 0.43512896 1.5040774 1.5040774   0.5090314   0.5090314
 1 1.7667821   -1.499728   -2.257735 0.43907656 1.5040774 1.5040774  0.52540945  0.52540945
 1 1.7559645  -1.1912607   -3.300351 0.46850004 1.5040774 1.5040774  0.50377416  0.50377416
 5 1.7559649  -1.6653142  -3.7393837 0.69781631 1.5040774 1.5040774  0.50377507  0.50377507
 2 1.7559649   -1.532537  -3.6592256 0.67437533 1.5040774 1.5040774  0.50377507  0.50377507
 5 1.7559642  -1.4901791  -3.1207952 0.76670448 1.5040774 1.5040774  0.50377362  0.50377362
 3 1.7559649 -0.84902481  -3.6195543  0.8781217 1.5040774 1.5040774  0.50377507  0.50377507
 8 1.7559649  -0.9146585  -3.5286459 0.84832133 1.5040774 1.5040774  0.50377506  0.50377506
 1 1.7559649 -0.91853399  -3.5113473 0.84861098 1.5040774 1.5040774  0.50377506  0.50377506
 3 1.7559649 -0.99581707  -3.3727891 0.64975227 1.5040774 1.5040774    0.503775    0.503775
17 1.7559068  -1.6687328  0.39209712 0.74871565 1.5040774 1.5040774  0.50365877  0.50365877
 5  1.679961   -1.490697  -1.6355111 0.77390793 1.5040774 1.5040774  0.35176712  0.35176712
 1 1.7538601  -1.5129169  -2.3816558 0.70177387 1.5040774 1.5040774  0.49956534  0.49956534
12 1.7559596  -1.3251283  -3.0020213 0.69255735 1.5040774 1.5040774  0.50376447  0.50376447
 4 1.7559603  -1.0095384   -3.092641 0.79267566 1.5040774 1.5040774  0.50376576  0.50376576
 3 1.7559649 -0.86805008   -3.571144 0.69848137 1.5040774 1.5040774  0.50377507  0.50377507
27 1.5254485  -1.4976349  -1.3521502 0.41889103 1.5040774 1.5040774 0.042742164 0.042742164
 6 1.5232954  -1.4924738  -1.3544977 0.41929417 1.5040774 1.5040774 0.038435949 0.038435949
11 1.7393782  -1.6879566 -0.76175035 0.41984972 1.5040774 1.5040774  0.47060163  0.47060163
10 1.7543545  -1.7731795  -0.4657516 0.40464931 1.5040774 1.5040774 0.50055421 0.50055421
 2 1.7600499  -1.5593881  0.69601343 0.45606353 1.5040774 1.5040774 0.51194503 0.51194503
 1 1.7559413  -1.6049212  0.48996159 0.78483474 1.5040774 1.5040774 0.50372773 0.50372773
 4 1.6165518  -1.5186012  -1.0048614 0.75789095 1.5040774 1.5040774 0.22494884 0.22494884
 2 1.6064568  -1.5238543  -1.0447336 0.75383595 1.5040774 1.5040774 0.20475878 0.20475878
 5 1.7490376  -1.8742005  -1.8390014 0.70679563 1.5040774 1.5040774 0.48992049 0.48992049
 4 1.7532965  -1.4897437  -2.2846878 0.65724787 1.5040774 1.5040774 0.49843812 0.49843812
 3 1.7558236  -1.3163967  -2.1624657 0.84795267 1.5040774 1.5040774 0.50349241 0.50349241
 5 1.7559778 -0.88436051  -3.0972908 0.81980312 1.5040774 1.5040774 0.50380087 0.50380087
 4 1.7558603  -1.7422574  -2.5640848 0.66150706 1.5040774 1.5040774 0.50356587 0.50356587
10 1.7542805  -1.8564929 -0.68552243  0.7856856 1.5040774 1.5040774 0.50040625 0.50040625
 1 1.7522258  -1.8636275 -0.88641807 0.78413579 1.5040774 1.5040774 0.49629685 0.49629685
 6 1.7360329  -1.7332963  -1.3994277 0.81993451 1.5040774 1.5040774 0.46391099 0.46391099
 5  1.697925  -1.8092228 -0.45465055 0.53991405 1.5040774 1.5040774 0.38769512 0.38769512
 2 1.6232944  -1.8540764 -0.34470674  0.5760392 1.5040774 1.5040774 0.23843407 0.23843407
 1 1.6790436  -1.3385913   -1.709274 0.84633451 1.5040774 1.5040774 0.34993249 0.34993249
 2 1.5954386  -1.3788438  -1.3471412 0.86692746 1.5040774 1.5040774 0.18272241 0.18272241
 5 1.7511906  -1.4529086 0.055249963 0.45930975 1.5040774 1.5040774 0.49422644 0.49422644
 8 1.7515876  -1.3774889   0.1599705 0.46278397 1.5040774 1.5040774 0.49502038 0.49502038
10 1.7507939  -1.3783032  0.15098349 0.46004638 1.5040774 1.5040774   0.493433   0.493433
 1 1.7556915  -1.3113066  0.030755802  0.4494427 1.5040774 1.5040774  0.5032282  0.5032282
 2 1.7136187  -1.1982298    0.1795836 0.51804787 1.5040774 1.5040774 0.41908254 0.41908254
 4 1.6523678  -1.3949095  -0.35472993 0.49767051 1.5040774 1.5040774 0.29658076 0.29658076
 1 1.6929442  -1.4536497  -0.33534931 0.49155042 1.5040774 1.5040774 0.37773369 0.37773369
 5 1.7531974  -1.4499089   -2.3972735 0.77535661 1.5040774 1.5040774 0.49823996 0.49823996
 1 1.7559649 -0.99128033   -3.4085004 0.78041321 1.5040774 1.5040774 0.50377501 0.50377501
 6 1.7559633 -0.96543472   -3.1537373 0.81960106 1.5040774 1.5040774 0.50377183 0.50377183
 4 1.7547862   -1.316101   -2.5051635 0.71786313 1.5040774 1.5040774  0.5014177  0.5014177
 5 1.7578962  -1.2369512   -2.4084562 0.72058643 1.5040774 1.5040774 0.50763769 0.50763769
 3 1.7561832  -1.2823117   -2.4848786 0.76729831 1.5040774 1.5040774 0.50421156 0.50421156
 2 1.7558976  -1.7305603    -2.767399 0.50256347 1.5040774 1.5040774 0.50364035 0.50364035
10 1.7559649  -1.3267142    -3.568348 0.45685984 1.5040774 1.5040774 0.50377506 0.50377506
 4  1.716594 -0.91673989  -0.47143626 0.88861445 1.5040774 1.5040774 0.42503324 0.42503324
 5 1.6234794  -1.1315624   -0.6726181 0.88869136 1.5040774 1.5040774 0.23880402 0.23880402
12 1.7503431  -1.4312198 -0.098266867 0.77482955 1.5040774 1.5040774  0.4925315  0.4925315
 1 1.7328967  -1.6072069   -1.1767829 0.87925098 1.5040774 1.5040774 0.45763858 0.45763858
 4 1.6309734  -1.3367277   -1.5824267 0.84401214 1.5040774 1.5040774 0.25379202 0.25379202
 1 1.7399113  -1.6038294   -1.9245808 0.87729417 1.5040774 1.5040774 0.47166773 0.47166773
 5 1.7455589  -1.8180353   -1.2743594 0.80728194 1.5040774 1.5040774 0.48296295 0.48296295
 2 1.7464239  -1.8387206   -1.4200641 0.80957109 1.5040774 1.5040774 0.48469304 0.48469304
 2 1.7332064  -1.6766636 -1.7882927 0.77383856 1.5040774 1.5040774 0.45825795 0.45825795
 2 1.7559649  -1.8723617 -3.3596213  0.7455699 1.5040774 1.5040774 0.50377507 0.50377507
 2 1.7559645  -1.8953104 -2.9992879 0.79902833 1.5040774 1.5040774 0.50377429 0.50377429
 2 1.7224563  -1.5920071 -1.4882909 0.89420361 1.5040774 1.5040774 0.43675782 0.43675782
 2 1.8594001 -0.77559187 -2.8062213 0.58614204 1.5040774 1.5040774 0.71064534 0.71064534
 2 1.7572233 -0.77342294 -3.0762909 0.56637374 1.5040774 1.5040774 0.50629182 0.50629182
 2  1.773839 -0.54149838 -3.1140375 0.56041763 1.5040774 1.5040774  0.5395233  0.5395233
 2 1.7559649  -0.4661971 -3.8938029 0.53460782 1.5040774 1.5040774 0.50377507 0.50377507
 1 1.7559649 -0.49730589 -3.9748889 0.53638691 1.5040774 1.5040774 0.50377507 0.50377507
 7 1.7559649 -0.53329226  -3.891285 0.51728341 1.5040774 1.5040774 0.50377507 0.50377507
 5 1.7559649 -0.73328264 -3.8638784 0.55155709 1.5040774 1.5040774 0.50377507 0.50377507
 3 1.7559473  -1.1169439 -3.0149622 0.86377554 1.5040774 1.5040774  0.5037399  0.5037399
 3 1.7559649  -1.4216854 -3.8500896 0.49781045 1.5040774 1.5040774 0.50377507 0.50377507
14 1.7527719   -1.929945 -1.6119394 0.84849523 1.5040774 1.5040774   0.497389   0.497389
 4 1.7495399  -1.7678961 -1.8719606  0.8654174 1.5040774 1.5040774 0.49092504 0.49092504
 2  1.755956  -1.7612369 0.55225224 0.74619892 1.5040774 1.5040774 0.50375721 0.50375721
 2 1.7554871  -1.8470823 0.22048132 0.68078476 1.5040774 1.5040774 0.50281938 0.50281938
 3 2.4726827  -1.4073539 0.25808714 0.51639547 1.5040774 1.5040774  1.9372106  1.9372106
 7 1.7632911  -1.5220947 0.77819572  0.4808445 1.5040774 1.5040774 0.51842734 0.51842734
 1 1.7559449  -1.9021899 0.08210429 0.77175885 1.5040774 1.5040774 0.50373497 0.50373497
 9 1.7124178 -1.7674825   -1.3490097 0.72124078 1.5040774 1.5040774  0.41668081  0.41668081
 1 1.7286566 -1.8565907   -1.3268316 0.70753682 1.5040774 1.5040774  0.44915837  0.44915837
 2 1.7529104 -1.9800226    -1.753651 0.76725232 1.5040774 1.5040774  0.49766601  0.49766601
11 1.7559649 -1.6476176   -3.4505093  0.6960396 1.5040774 1.5040774  0.50377507  0.50377507
 4 1.7559649 -1.6880395   -3.5300535  0.6890269 1.5040774 1.5040774  0.50377507  0.50377507
 5 1.7533524 -1.5484382   -2.1907614  0.6069461 1.5040774 1.5040774  0.49854992  0.49854992
 7 1.7559648 -1.9600682   -3.0858667 0.53322108 1.5040774 1.5040774  0.50377481  0.50377481
 1 1.7506391 -1.6378608  -0.53106418 0.79044486 1.5040774 1.5040774  0.49312351  0.49312351
 4 1.6549585  -1.139666  -0.63051273 0.89638941 1.5040774 1.5040774  0.30176211  0.30176211
 1  1.696419  -1.658005   -1.5190965 0.73419034 1.5040774 1.5040774  0.38468319  0.38468319
 1 1.7522288 -1.4389453 -0.016971294 0.42420288 1.5040774 1.5040774  0.49630282  0.49630282
 5 1.7449748 -1.4888291 -0.044069316 0.72950741 1.5040774 1.5040774  0.48179475  0.48179475
 1  1.723396 -1.6086396   -1.7583797 0.72942047 1.5040774 1.5040774   0.4386373   0.4386373
 8 1.7559649 -1.5190801   -3.6581581 0.52335798 1.5040774 1.5040774  0.50377507  0.50377507
 1 1.7559649 -1.5615364   -3.3369466  0.4625328 1.5040774 1.5040774  0.50377496  0.50377496
 1 1.7559649 -1.2985139   -3.5157823 0.54486195 1.5040774 1.5040774  0.50377506  0.50377506
 1 1.7559639 -1.2833658    -3.203397 0.53513706 1.5040774 1.5040774  0.50377294  0.50377294
 4 1.7384418 -1.8313916   -1.6145168 0.72238843 1.5040774 1.5040774  0.46872888  0.46872888
 5 1.7410246  -1.876298   -1.1018788  0.7311866 1.5040774 1.5040774  0.47389435  0.47389435
 1 1.5201312 -1.3204779   -1.1326443 0.79827563 1.5040774 1.5040774 0.032107557 0.032107557
2 1.8021765  -1.0373659  -2.4372504 0.73402504 1.5040774 1.5040774 0.59619813 0.59619813
1 1.7559446  -1.0766068  -2.9641432 0.81591981 1.5040774 1.5040774 0.50373441 0.50373441
3 1.7533383  -1.4525808  -2.3988069 0.75989178 1.5040774 1.5040774 0.49852181 0.49852181
2  1.729576  -1.3489928  -1.7559718 0.81912072 1.5040774 1.5040774 0.45099721 0.45099721
4 1.7559649 -0.59657731  -3.7318923 0.83786971 1.5040774 1.5040774 0.50377507 0.50377507
4 1.7559649 -0.57381268  -3.7990364 0.82122536 1.5040774 1.5040774 0.50377507 0.50377507
7 1.7559649  -1.4541618  -3.6895629 0.66220344 1.5040774 1.5040774 0.50377507 0.50377507
1 1.7559649  -1.4661604  -3.4423543 0.67086513 1.5040774 1.5040774 0.50377507 0.50377507
1 1.7559649  -1.4612044  -3.4465357 0.67025771 1.5040774 1.5040774 0.50377507 0.50377507
1 1.7557163  -1.3773644  -2.7309497 0.77272825 1.5040774 1.5040774 0.50327785 0.50327785
5 1.7557251  -1.3768428  -2.7347562 0.77298377 1.5040774 1.5040774 0.50329542 0.50329542
2 1.7837043  -1.2842566  -2.6552411 0.40602382 1.5040774 1.5040774 0.55925386 0.55925386
1 1.7559649  -1.5160711  -3.4494762 0.62399084 1.5040774 1.5040774 0.50377507 0.50377507
2 1.7559679  -1.6697458  0.77378952 0.87219228 1.5040774 1.5040774 0.50378102 0.50378102
1 1.7559648  -1.7526307  0.69878127 0.86337386 1.5040774 1.5040774 0.50377482 0.50377482
7  1.809443  -1.6335601  0.76859986 0.56861796 1.5040774 1.5040774 0.61073127 0.61073127
7 1.6942084  -1.0673474 -0.28809904 0.86572374 1.5040774 1.5040774 0.38026203 0.38026203
4 1.6987109  -1.7807887  -1.1105338 0.70154074 1.5040774 1.5040774 0.38926696 0.38926696
1 1.7559483  -1.8118581  0.78691245 0.69029881 1.5040774 1.5040774 0.50374187 0.50374187
1 1.7206589  -1.4918042  0.25494387 0.57560785 1.5040774 1.5040774 0.43316299 0.43316299
10 1.7685375  -1.8004393   0.66254313 0.54819983 1.5040774 1.5040774 0.52892023 0.52892023
 1 1.7535362  -1.8453558   0.17701946 0.54628344 1.5040774 1.5040774 0.49891766 0.49891766
 2 1.7472434   -1.809075   0.11512961  0.5616448 1.5040774 1.5040774 0.48633201 0.48633201
 2 1.7529241  -1.5250507  -0.49686165 0.87361109 1.5040774 1.5040774 0.49769337 0.49769337
11 1.8045997  -1.4469819   -1.4142668 0.73301428 1.5040774 1.5040774 0.60104459 0.60104459
11 1.7584349  -1.0239855   -2.7502932 0.82842388 1.5040774 1.5040774 0.50871493 0.50871493
 8 1.7562894 -0.99650879   -2.8797509  0.8654817 1.5040774 1.5040774 0.50442401 0.50442401
 2 1.7565609  -1.1669301    -2.651837 0.85336124 1.5040774 1.5040774 0.50496699 0.50496699
 2 1.7515551  -1.1520271 -0.011975047 0.89256316 1.5040774 1.5040774 0.49495538 0.49495538
 3 1.7590409  -1.2129624   0.40990442 0.88994865 1.5040774 1.5040774 0.50992705 0.50992705
 8 1.7559649   -1.990334   -3.2971412 0.53300062 1.5040774 1.5040774 0.50377506 0.50377506
 2 1.7559649  -1.6030732   -3.5839285 0.69904628 1.5040774 1.5040774 0.50377507 0.50377507
 1 1.7559628   -1.649162   -2.9868942 0.70855136 1.5040774 1.5040774 0.50377077 0.50377077
 8 1.6030728  -1.7171204   -1.0069405 0.54373709 1.5040774 1.5040774 0.19799075 0.19799075
 1 1.6956623  -1.8669511    -1.188399 0.55588078 1.5040774 1.5040774 0.38316988 0.38316988
 6 1.7709206   -1.977152    -1.074482 0.60884634 1.5040774 1.5040774 0.53368639 0.53368639
 3 1.7479411  -1.7969223  -0.89116294 0.77507201 1.5040774 1.5040774 0.48772743 0.48772743
 6 1.5887139  -1.3620781   -1.4496428 0.82425024 1.5040774 1.5040774 0.16927296 0.16927296
 1 1.7551364   -1.398444   -2.5934679  0.8783828 1.5040774 1.5040774 0.50211799 0.50211799
 2 1.7550227  -1.4210751   -2.5682087 0.87588386 1.5040774 1.5040774 0.50189058 0.50189058
 2 1.7928237  -1.3263898  -2.1344314   0.767468 1.5040774 1.5040774 0.57749262 0.57749262
 1 1.7559621 -0.96214386  -3.0442129  0.7763557 1.5040774 1.5040774 0.50376947 0.50376947
 3  1.778296  -1.0209072  -2.5599061 0.76349092 1.5040774 1.5040774 0.54843726 0.54843726
 7 1.7699083  -1.0046806  -2.6285123 0.77234889 1.5040774 1.5040774 0.53166184 0.53166184
 1  1.756001 -0.68328375  -3.1955164 0.88080209 1.5040774 1.5040774 0.50384722 0.50384722
 2 1.7559649 -0.39909116  -3.7081592 0.78693033 1.5040774 1.5040774 0.50377507 0.50377507
 5  1.755696  -1.4921878  0.36005198  0.4172206 1.5040774 1.5040774 0.50323721 0.50323721
 3 1.7637213   -1.644453    0.670747  0.4060705 1.5040774 1.5040774 0.51928784 0.51928784
 6 1.7454049  -1.9796793  -1.3336956  0.7056576 1.5040774 1.5040774   0.482655   0.482655
 6 1.7708059  -1.9598151 -0.94463957  0.6087065 1.5040774 1.5040774 0.53345709 0.53345709
 8  1.678329  -1.9073235 -0.56669072 0.63787154 1.5040774 1.5040774 0.34850315 0.34850315
11 1.7701747   -1.206938  -2.3749776 0.64573707 1.5040774 1.5040774  0.5321947  0.5321947
 3 1.7648487  -1.3001926  -2.2387969 0.66823511 1.5040774 1.5040774 0.52154268 0.52154268
12 1.7559649  -0.7023653  -3.8183227 0.50074422 1.5040774 1.5040774 0.50377507 0.50377507
 1 1.7566777  -1.4969006  -2.4209099 0.40768612 1.5040774 1.5040774 0.50520054 0.50520054
 7  1.754402   -1.576588  -2.5239665 0.47724303 1.5040774 1.5040774  0.5006493  0.5006493
 4 1.7559636  -1.5623324  -3.1599507 0.45876555 1.5040774 1.5040774 0.50377231 0.50377231
 6 1.7559289  -1.5125172  0.63640564 0.41561768 1.5040774 1.5040774 0.50370304 0.50370304
 6   1.75612  -1.9613064  0.13009776 0.43237612 1.5040774 1.5040774 0.50408528 0.50408528
 6 1.7527526   -1.653958  -2.1007202 0.58707287 1.5040774 1.5040774 0.49735043 0.49735043
 1 1.7125056  -1.6491993   -1.3891543 0.68596401 1.5040774 1.5040774 0.41685647 0.41685647
 6 1.7559651 -0.39848402   -3.5523364 0.75285469 1.5040774 1.5040774 0.50377543 0.50377543
 5 1.7559649 -0.42565086   -3.7421853 0.71992899 1.5040774 1.5040774 0.50377507 0.50377507
 2 1.7559741  -1.1694173   -2.8204386 0.57846023 1.5040774 1.5040774  0.5037935  0.5037935
 5 1.7559649  -1.1858754   -3.8256103 0.63789172 1.5040774 1.5040774 0.50377507 0.50377507
 3 1.7170598  -1.5301371    -1.804485 0.85720003 1.5040774 1.5040774 0.42596481 0.42596481
 7 1.7410599  -1.5207076   -2.0647719 0.87397569 1.5040774 1.5040774 0.47396495 0.47396495
13  1.738292  -1.6806381   -1.3304606 0.87440426 1.5040774 1.5040774 0.46842913 0.46842913
 4 1.7362374  -1.6937914   -1.3524919 0.85254251 1.5040774 1.5040774 0.46432002 0.46432002
 3 1.7573378  -0.6351075   -3.1729253  0.5624537 1.5040774 1.5040774 0.50652085 0.50652085
 7 1.7608035 -0.64237427   -3.1025319 0.56590928 1.5040774 1.5040774 0.51345218 0.51345218
12 1.7559657    -1.10434   -3.2580161 0.47168963 1.5040774 1.5040774 0.50377658 0.50377658
 5 1.7559649  -1.0612188    -3.504239 0.44643826 1.5040774 1.5040774 0.50377508 0.50377508
 3 1.7559673  -1.0218205   -3.3585558 0.42945277 1.5040774 1.5040774 0.50377983 0.50377983
 4 1.7559625  -1.1942397   -3.1188215 0.48073693 1.5040774 1.5040774 0.50377019 0.50377019
 3 1.7446995  -1.3835208 -0.050067902 0.44978661 1.5040774 1.5040774 0.48124417 0.48124417
 2 1.7559649  -0.9045187   -3.9335312 0.68320459 1.5040774 1.5040774 0.50377507 0.50377507
 1 1.7559649 -0.87067345   -3.9369607  0.6836551 1.5040774 1.5040774 0.50377507 0.50377507
 4  1.750795  -1.5044064    -2.186214  0.7154493 1.5040774 1.5040774 0.49343521 0.49343521
 2 1.7519172  -1.5194292   -2.2762176 0.72108301 1.5040774 1.5040774 0.49567967 0.49567967
 4 1.7610184  -1.6053392  -1.8218491 0.65323764 1.5040774 1.5040774 0.51388202 0.51388202
 3 1.7528673  -1.6416698  -1.8245079   0.651564 1.5040774 1.5040774 0.49757989 0.49757989
 2 1.7559649   -1.290286  -3.3221983 0.66769345 1.5040774 1.5040774 0.50377503 0.50377503
 1 1.7520559  -1.7633355  -2.0876329 0.56329266 1.5040774 1.5040774 0.49595707 0.49595707
 8 1.6682194  -1.0086667 -0.04956761 0.45719168 1.5040774 1.5040774   0.328284   0.328284
13 1.8114832   -1.296802  0.65449893 0.48311567 1.5040774 1.5040774 0.61481153 0.61481153
 1 1.7351077  -1.8565728 -0.56145102 0.50983161 1.5040774 1.5040774 0.46206052 0.46206052
 3 1.7574936  -1.3081382  -2.3379316 0.64553261 1.5040774 1.5040774 0.50683246 0.50683246
 2  2.510698  -1.3689995   -2.035609 0.55801337 1.5040774 1.5040774  2.0132411  2.0132411
 2 1.6659246  -1.7490443  -1.3361904 0.52213402 1.5040774 1.5040774 0.32369448 0.32369448
 1 1.7202763  -1.5361974 -0.38694765 0.72901719 1.5040774 1.5040774 0.43239777 0.43239777
 4  1.755938  -1.7988576  0.42529702 0.72442572 1.5040774 1.5040774  0.5037212  0.5037212
 4 1.6297694  -1.6318492 -0.92027429 0.71099471 1.5040774 1.5040774 0.25138391 0.25138391
 5 1.7362306  -1.4674076  -2.0190774 0.79981423 1.5040774 1.5040774 0.46430634 0.46430634
 2 1.7494148  -1.8514621  -1.2052885  0.8139472 1.5040774 1.5040774 0.49067478 0.49067478
 3 1.7448386  -1.8097895  -1.5415941 0.81522728 1.5040774 1.5040774 0.48152245 0.48152245
 4 2.2996276   -1.153322  -1.8405661 0.87941829 1.5040774 1.5040774  1.5911005  1.5911005
 1 1.7559649 -0.42926285  -3.7909598 0.68363991 1.5040774 1.5040774 0.50377507 0.50377507
 2 1.7559661  -0.6073734  -3.3746327 0.69523323 1.5040774 1.5040774 0.50377731 0.50377731
 5 1.7559656  -0.6083904  -3.3946881 0.69708078 1.5040774 1.5040774  0.5037764  0.5037764
 2 1.7559404  -1.2075287  -2.9531977 0.61524711 1.5040774 1.5040774  0.50372596  0.50372596
13 1.7749289  -1.4093682  -2.3903409 0.49573519 1.5040774 1.5040774   0.5417031   0.5417031
 3 1.5283908  -1.4866925 -0.54727175 0.70074748 1.5040774 1.5040774 0.048626808 0.048626808
 1 1.7142609  -1.6322395 -0.65771525 0.72944583 1.5040774 1.5040774   0.4203671   0.4203671
10 1.7559491  -1.7061986  -2.9665065 0.42317148 1.5040774 1.5040774  0.50374342  0.50374342
12 1.7559459  -1.6605009  -2.9784756 0.41671047 1.5040774 1.5040774  0.50373703  0.50373703
 1 1.7559654 -0.68406474   -3.442362 0.60851153 1.5040774 1.5040774  0.50377608  0.50377608
 4 1.7559655 -0.68654334  -3.4345396  0.6098571 1.5040774 1.5040774  0.50377619  0.50377619
 1 1.7559649  -1.1941222   -3.701893 0.53198256 1.5040774 1.5040774  0.50377507  0.50377507
11 1.7559649  -1.1703357  -3.5379991 0.52035166 1.5040774 1.5040774  0.50377506  0.50377506
 3 1.7544053  -1.5351782  -2.3504247 0.63868982 1.5040774 1.5040774  0.50065577  0.50065577
 1 1.7559646  -1.8031121   -3.016328  0.5988368 1.5040774 1.5040774  0.50377448  0.50377448
15 1.7552177  -1.7771428  -2.2992549 0.66229837 1.5040774 1.5040774  0.50228052  0.50228052
18  1.697298  -1.9023012  -1.1438708 0.51175455 1.5040774 1.5040774  0.38644123  0.38644123
 3 2.4982462  -1.6576624 -0.68631251 0.65967758 1.5040774 1.5040774   1.9883377   1.9883377
 5 1.7559644  -1.1418859  -3.1927026 0.71634692 1.5040774 1.5040774  0.50377393  0.50377393
10 1.7559647  -1.1395403  -3.2400897 0.69841261 1.5040774 1.5040774  0.50377462  0.50377462
 2 1.7559649  -1.3712453  -3.8741347 0.53887182 1.5040774 1.5040774  0.50377507  0.50377507
 3 1.7559649  -1.7791973  -3.4852159 0.61063589 1.5040774 1.5040774  0.50377507  0.50377507
 2 1.7559649  -1.8489013   -3.646615 0.71396785 1.5040774 1.5040774  0.50377507  0.50377507
1 1.6627092  -1.3128039 -0.14733466 0.51660224 1.5040774 1.5040774  0.3172637  0.3172637
1 1.6479387   -1.298482 -0.27024281 0.49857511 1.5040774 1.5040774 0.28772265 0.28772265
6 1.7552801  -1.5783149  0.13819717 0.43720129 1.5040774 1.5040774 0.50240538 0.50240538
4 1.7557573  -1.7256262  0.23238307 0.46314197 1.5040774 1.5040774 0.50335976 0.50335976
2 1.7559649  -1.3054511  -3.9821274 0.46010836 1.5040774 1.5040774 0.50377507 0.50377507
2 1.7559648  -1.4730866  -3.2202761 0.58302809 1.5040774 1.5040774 0.50377484 0.50377484
3  1.755962 -0.98642468  -3.0926717  0.6343993 1.5040774 1.5040774 0.50376924 0.50376924
5 1.7559645 -0.95698644  -3.2197786 0.61639379 1.5040774 1.5040774 0.50377429 0.50377429
3 1.8042236  -1.4159876  -2.1818582 0.57229588 1.5040774 1.5040774 0.60029231 0.60029231
7 1.7559636  -1.1574577   -3.189758 0.57220648 1.5040774 1.5040774 0.50377245 0.50377245
1  1.842293  -1.3544417  -2.1683206  0.5960943 1.5040774 1.5040774  0.6764313  0.6764313
4 1.7559649   -1.697575  -3.4671968 0.52409936 1.5040774 1.5040774 0.50377507 0.50377507
2 1.7559649  -1.7050596  -3.3709746 0.53167315 1.5040774 1.5040774 0.50377506 0.50377506
3 1.7559649  -1.6065583  -3.5198657 0.45325631 1.5040774 1.5040774 0.50377506 0.50377506
1 1.7559647  -1.6215722  -3.2280766 0.48947882 1.5040774 1.5040774 0.50377467 0.50377467
1 1.7539233  -1.7721687  -2.4297222 0.42715807 1.5040774 1.5040774 0.49969179 0.49969179
1 1.7554625   -1.953805  -2.4548252 0.43686417 1.5040774 1.5040774 0.50277023 0.50277023
1 1.7559649  -1.1743206  -3.8882687 0.56200021 1.5040774 1.5040774 0.50377507 0.50377507
5 1.7559649  -1.1830621  -3.8378237 0.57054573 1.5040774 1.5040774 0.50377507 0.50377507
1 1.5551121  -1.3178314  -1.0034367 0.40562345 1.5040774 1.5040774  0.1020695  0.1020695
 5 1.6846863 -1.5003861    0.34828113 0.61660996 1.5040774 1.5040774  0.3612179  0.3612179
10 1.7086952 -1.3495372 -0.0043384769 0.57768854 1.5040774 1.5040774 0.40923559 0.40923559
 2 1.6728174  -1.757677    -1.1375147 0.47347294 1.5040774 1.5040774 0.33748002 0.33748002
 2  1.751986 -1.7873933    -2.0217859 0.57367132 1.5040774 1.5040774  0.4958172  0.4958172
 3 1.7518583 -1.8818624    -1.9728262 0.56049202 1.5040774 1.5040774 0.49556175 0.49556175
 2 1.6823395 -1.7105422    -1.0828515 0.45180475 1.5040774 1.5040774 0.35652423 0.35652423
13 2.0910121 -1.2588332    -2.3778954 0.47681391 1.5040774 1.5040774  1.1738694  1.1738694
 1 1.7559321 -1.2203102    -2.9461611 0.75766309 1.5040774 1.5040774 0.50370938 0.50370938
 1 1.7559644 -1.4242024    -3.1611127 0.79072399 1.5040774 1.5040774   0.503774   0.503774
 5  1.755964 -1.9442881    -3.0557411  0.4216104 1.5040774 1.5040774 0.50377323 0.50377323
 7  1.755834 -1.9142672    -2.6432885 0.44492388 1.5040774 1.5040774  0.5035132  0.5035132
10 1.7555051 -1.8693038    -1.5686665 0.55981356 1.5040774 1.5040774 0.50285539 0.50285539
16 1.6817623 -1.6771526   -0.41341492 0.53059703 1.5040774 1.5040774 0.35536985 0.35536985
 2  1.677711 -1.8159528   -0.62879386 0.53239852 1.5040774 1.5040774 0.34726718 0.34726718
14 1.7844588 -1.5286408    -2.0542664 0.45999007 1.5040774 1.5040774 0.56076276 0.56076276
 1  1.752153 -1.5891563    -2.2183719 0.47847864 1.5040774 1.5040774  0.4961512  0.4961512
 3 1.5732274 -1.3115226   -0.84757525 0.81257966 1.5040774 1.5040774 0.13829991 0.13829991
 5   1.51054  -1.641678    -0.5682313 0.55489141 1.5040774 1.5040774 0.01292523 0.01292523
19 1.7179509 -1.7152042    0.20919379 0.59613593 1.5040774 1.5040774 0.42774708 0.42774708
 5 1.7143775 -1.7194328    0.20163687 0.59994607 1.5040774 1.5040774 0.42060023 0.42060023
 2 1.7446045  -1.7103546 -0.26785673 0.50266187 1.5040774 1.5040774 0.48105416 0.48105416
 2 1.6536956  -1.5376626  0.11132965 0.67533245 1.5040774 1.5040774 0.29923635 0.29923635
 3 1.8346181  -1.9744706  0.93505997  0.7080231 1.5040774 1.5040774 0.66108143 0.66108143
 3 1.7561424  -1.9728123  0.84402589 0.70986193 1.5040774 1.5040774 0.50413003 0.50413003
 2 1.7559514  -1.9904252   0.4125747 0.69435115 1.5040774 1.5040774 0.50374805 0.50374805
 4 1.7559572  -1.9885179  0.58098287 0.68656047 1.5040774 1.5040774 0.50375951 0.50375951
 4 1.6682864  -1.9674276 -0.49231376 0.63117374 1.5040774 1.5040774   0.328418   0.328418
11 1.6880705   -1.484201  0.26150339 0.64293026 1.5040774 1.5040774 0.36798616 0.36798616
15  2.097054  -1.1195495  0.58155999 0.53516465 1.5040774 1.5040774  1.1859532  1.1859532
 4 2.0806018  -1.3448291  0.32426021 0.58832886 1.5040774 1.5040774  1.1530488  1.1530488
 3 1.7560007 -0.84313177  -3.1898702  0.5695441 1.5040774 1.5040774 0.50384659 0.50384659
 3 1.7574929 -0.81497446  -2.9126122 0.66067344 1.5040774 1.5040774 0.50683092 0.50683092
 2 1.7310528  -1.7715706  -1.0078294  0.4280623 1.5040774 1.5040774 0.45395075 0.45395075
 9 1.7388967  -1.7455158 -0.86051537 0.42453403 1.5040774 1.5040774 0.46963861 0.46963861
 9 1.7537778  -1.9487443 -0.78874738 0.42056678 1.5040774 1.5040774 0.49940077 0.49940077
 5 1.7039193  -1.8807165 -0.73465824 0.66354438 1.5040774 1.5040774 0.39968387 0.39968387
 2 1.6798796   -1.864998 -0.67291971 0.64689813 1.5040774 1.5040774 0.35160436 0.35160436
 1 1.6539516  -1.7317228 -0.48106731 0.66720418 1.5040774 1.5040774 0.29974835 0.29974835
 5 1.7555519  -1.2533498  -2.5861689 0.62157523 1.5040774 1.5040774 0.50294901 0.50294901
 3 1.7554141   -1.238933  -2.5185346 0.65580907 1.5040774 1.5040774 0.50267332 0.50267332
2 1.7765849 -1.2566957 -2.2931056 0.64409954 1.5040774 1.5040774  0.5450151  0.5450151
2 1.8953656 -1.2220085 -2.1428984 0.67729721 1.5040774 1.5040774 0.78257641 0.78257641
1 1.7559545  -1.584528 -2.8426633 0.64600635 1.5040774 1.5040774 0.50375427 0.50375427
5 1.7559649 -1.2967446 -3.8712064 0.41706639 1.5040774 1.5040774 0.50377507 0.50377507
5  1.736471 -1.8825333 -1.7129555 0.51841063 1.5040774 1.5040774 0.46478721 0.46478721
4 1.7371452 -1.8838839 -1.7250133 0.51704079 1.5040774 1.5040774 0.46613561 0.46613561
2 1.7861608 -1.7133374 -1.7016295 0.62352153 1.5040774 1.5040774 0.56416689 0.56416689
4 2.9346085 -1.3831674  -1.837271  0.6346111 1.5040774 1.5040774  2.8610623  2.8610623
2 1.7631243 -1.7445362 -1.8050156 0.60195227 1.5040774 1.5040774 0.51809381 0.51809381
2  1.755717 -1.6297986 -2.6066666 0.76363054 1.5040774 1.5040774 0.50327925 0.50327925
1 1.7559636 -1.6863604 -3.0082009 0.73912463 1.5040774 1.5040774 0.50377239 0.50377239
3 1.7531157 -1.6457863 -2.1121056 0.56871904 1.5040774 1.5040774 0.49807658 0.49807658
2 1.7528521 -1.6470149 -2.1234507 0.57016088 1.5040774 1.5040774 0.49754948 0.49754948
9 1.7559649 -1.5248045 -3.7515626 0.42590008 1.5040774 1.5040774 0.50377507 0.50377507
3 1.7559622 -1.7415343 -3.0753996 0.41868408 1.5040774 1.5040774  0.5037696  0.5037696
1 1.7559649 -1.5916572 -3.6548768 0.48046827 1.5040774 1.5040774 0.50377507 0.50377507
2 1.7559649 -1.6020823  -3.476062 0.48643981 1.5040774 1.5040774 0.50377506 0.50377506
7 1.7559649 -1.3562303 -3.6678291 0.50069202 1.5040774 1.5040774 0.50377507 0.50377507
2 1.7551774 -1.4938511 -2.5758254 0.55121333 1.5040774 1.5040774 0.50219998 0.50219998
3 1.7537414 -1.8236433 -2.3227774 0.47118297 1.5040774 1.5040774 0.49932797 0.49932797
 3 1.7516882  -1.9059895  -2.152931 0.43300355 1.5040774 1.5040774 0.49522168 0.49522168
10 1.9323587  -1.6895016 -1.6356132 0.61268559 1.5040774 1.5040774 0.85656257 0.85656257
 1 2.2707728  -1.7733645 -1.3666371 0.60220288 1.5040774 1.5040774  1.5333909  1.5333909
 9 2.2457012  -1.7760842 -1.3713288 0.60297936 1.5040774 1.5040774  1.4832476  1.4832476
 2 1.7596273 -0.99074757 -2.6751907 0.67872416 1.5040774 1.5040774 0.51109971 0.51109971
 3 1.7559649  -1.0734396  -3.722466 0.52933037 1.5040774 1.5040774 0.50377507 0.50377507
 2 1.5905613  -1.5638948 -1.5435808  0.4241648 1.5040774 1.5040774 0.17296781 0.17296781
 3 1.7297663  -1.9483103 -1.5256183 0.51892966 1.5040774 1.5040774  0.4513778  0.4513778
 2 1.6082934  -1.7415341 -1.0538485 0.54189171 1.5040774 1.5040774 0.20843203 0.20843203
 3 1.7558566  -1.5278401 0.20359416 0.82132421 1.5040774 1.5040774 0.50355831 0.50355831
17 1.7559632  -1.5783747 0.78664874 0.83725996 1.5040774 1.5040774 0.50377159 0.50377159
 2 1.7559855  -1.5931319 0.92021324 0.78295034 1.5040774 1.5040774 0.50381616 0.50381616
 6 2.5733215  -1.6060384 0.71758338 0.77524205 1.5040774 1.5040774  2.1384882  2.1384882
 3 1.7560405  -1.3146583 0.70722715 0.89264818 1.5040774 1.5040774 0.50392629 0.50392629
 1 1.7604844  -1.2905131 0.72209981 0.89290558 1.5040774 1.5040774 0.51281392 0.51281392
 2 1.7559649  -1.3455586 -3.6619634 0.85746026 1.5040774 1.5040774 0.50377507 0.50377507
 5 1.7559649  -1.4602423 -3.5058225 0.83116096 1.5040774 1.5040774 0.50377507 0.50377507
 5 1.7559636  -1.1729853 -3.1791114 0.86276466 1.5040774 1.5040774 0.50377236 0.50377236
 4 1.7559622  -1.1673495  -3.137268 0.87817588 1.5040774 1.5040774 0.50376956 0.50376956
 4 1.7559649 -0.78884293 -3.5773151 0.87576933 1.5040774 1.5040774 0.50377507 0.50377507
 3 1.7521959 -1.7460344  -1.9829953 0.56950538 1.5040774 1.5040774 0.49623698 0.49623698
 1 1.7557112 -1.6436458  -2.5277033 0.66746032 1.5040774 1.5040774 0.50326767 0.50326767
 5 1.7544217 -1.8074857   -2.223456 0.71603392 1.5040774 1.5040774 0.50068852 0.50068852
 1  1.752197 -1.9187802 -0.67802899  0.7237738 1.5040774 1.5040774 0.49623918 0.49623918
 2 1.7555678 -1.4432103  -2.6779862 0.55365194 1.5040774 1.5040774 0.50298087 0.50298087
 1 1.7558746 -1.4775729  -2.8057557 0.55721491 1.5040774 1.5040774 0.50359448 0.50359448
 6 1.5704586 -1.7076968 -0.95996447  0.5423382 1.5040774 1.5040774 0.13276249 0.13276249
 2 1.7500386 -1.7256844  -2.2189438  0.4833952 1.5040774 1.5040774 0.49192234 0.49192234
 1 1.7594595 -1.4397469  -2.5070486 0.45366321 1.5040774 1.5040774 0.51076425 0.51076425
 6 1.7648922 -1.4190316   -2.490577 0.44641029 1.5040774 1.5040774 0.52162957 0.52162957
 5 1.7560812 -1.1068842  -2.9558299 0.54028576 1.5040774 1.5040774 0.50400754 0.50400754
 3 1.7558827 -1.3479775  -2.8762594 0.54106327 1.5040774 1.5040774 0.50361069 0.50361069
11 1.7554602 -1.8377671 -0.17950844 0.44390337 1.5040774 1.5040774 0.50276561 0.50276561
 3 1.7057021 -1.7461984  -1.6846555 0.48315946 1.5040774 1.5040774 0.40324941 0.40324941
 5 1.7519013 -1.6103423  -2.0822146 0.63765725 1.5040774 1.5040774 0.49564775 0.49564775
 9 1.7559649  -1.471022  -3.9750676 0.52195434 1.5040774 1.5040774 0.50377507 0.50377507
 6 1.7559649 -1.6424962  -3.6593727 0.60057085 1.5040774 1.5040774 0.50377507 0.50377507
 1 1.7559649 -1.6265031  -3.6495563 0.59776448 1.5040774 1.5040774 0.50377507 0.50377507
 2 1.7559649 -1.7111767  -3.5087007 0.55729133 1.5040774 1.5040774 0.50377507 0.50377507
11 1.7559649 -1.7412594  -3.7642126 0.53043656 1.5040774 1.5040774 0.50377507 0.50377507
 8 1.7559649    -1.67197   -3.7683907 0.45842619 1.5040774 1.5040774 0.50377507 0.50377507
 1 1.7559649  -1.7481303   -3.4174363 0.45941905 1.5040774 1.5040774 0.50377506 0.50377506
 3 1.7559649  -1.6988805   -3.3469153 0.48875589 1.5040774 1.5040774 0.50377504 0.50377504
 1 1.7560868  -1.8057872   0.87779239 0.72741616 1.5040774 1.5040774 0.50401883 0.50401883
 5 1.7475329  -1.7456419   -1.9667015 0.71142787 1.5040774 1.5040774 0.48691097 0.48691097
 1 1.6961569   -1.713404   -1.4214373 0.68851527 1.5040774 1.5040774 0.38415909 0.38415909
 1 1.7546767  -1.5916565   -2.3376231 0.65139542 1.5040774 1.5040774 0.50119858 0.50119858
12 1.7592827 -0.91676693   -2.8230463 0.84706929 1.5040774 1.5040774 0.51041065 0.51041065
23 1.7499158  -1.7496451   -1.0228334 0.85273776 1.5040774 1.5040774 0.49167681 0.49167681
 4 1.7559157  -1.9797085  0.030919616 0.44345657 1.5040774 1.5040774 0.50367668 0.50367668
 2 1.6856815  -1.9867354  -0.97970596 0.57593778 1.5040774 1.5040774 0.36320824 0.36320824
 2  1.755762  -1.6477617 0.0034617119 0.79863887 1.5040774 1.5040774 0.50336919 0.50336919
 1 1.7571032 -0.81729187   -2.9236492 0.80384765 1.5040774 1.5040774 0.50605168 0.50605168
 4  1.781933 -0.75396797   -2.7994576 0.82100205 1.5040774 1.5040774 0.55571127 0.55571127
 6 1.8412849  -0.6691899   -2.7437787 0.80556275 1.5040774 1.5040774 0.67441503 0.67441503
 2 1.7559649  -1.3227145   -3.3954218 0.82340986 1.5040774 1.5040774 0.50377504 0.50377504
 7 1.7559649  -1.0482703   -3.9797289  0.7569183 1.5040774 1.5040774 0.50377507 0.50377507
 6 1.7559649  -1.2800281   -3.6259514 0.46939672 1.5040774 1.5040774 0.50377507 0.50377507
 3 1.7559649  -1.4312026   -3.6777356 0.65374851 1.5040774 1.5040774 0.50377507 0.50377507
 3 1.7546116  -1.9365796   -2.0087927 0.83608728 1.5040774 1.5040774 0.50106835 0.50106835
 7 1.7545066  -1.9364975 -1.9861134 0.83819977 1.5040774 1.5040774 0.50085848 0.50085848
 1 1.7556834  -1.7358226 -2.4931409 0.89800568 1.5040774 1.5040774  0.5032121  0.5032121
 2 1.7559645  -1.3890613 -3.1359773 0.67139572 1.5040774 1.5040774 0.50377429 0.50377429
 2 1.7550812  -1.2986643 -2.5490132 0.68859528 1.5040774 1.5040774 0.50200753 0.50200753
 1 1.7555153  -1.3812889 -2.6668981 0.55790136 1.5040774 1.5040774 0.50287578 0.50287578
 4 4.7046468  -1.5362143  -1.113942 0.55060537 1.5040774 1.5040774  6.4011388  6.4011388
 1  1.755965 -0.70061172 -3.6600436 0.48080306 1.5040774 1.5040774 0.50377521 0.50377521
24 1.7559931 -0.54564893 -3.4035829  0.5674989 1.5040774 1.5040774 0.50383147 0.50383147
 4 1.7725301 -0.60482552 -3.0209637 0.60325344 1.5040774 1.5040774 0.53690548 0.53690548
21 1.7560405 -0.66353477 -3.2157713 0.62452512 1.5040774 1.5040774 0.50392627 0.50392627
 3 1.7562007 -0.65959048 -3.1640754 0.62583128 1.5040774 1.5040774 0.50424663 0.50424663
 4 1.7560213 -0.87787204 -3.2510509 0.48887416 1.5040774 1.5040774 0.50388786 0.50388786
 4 1.7559649  -1.1058703 -3.8080134 0.53050987 1.5040774 1.5040774 0.50377507 0.50377507
 3 1.7549776  -1.6257153 -2.4266941 0.57734492 1.5040774 1.5040774 0.50180038 0.50180038
 3 1.5766354  -1.6772125 -1.0021638 0.50135542 1.5040774 1.5040774 0.14511591 0.14511591
 6 1.7431087  -1.9573527 -1.6820309 0.53686961 1.5040774 1.5040774 0.47806269 0.47806269
 3 1.7556691   -1.438935  -2.691116  0.8014766 1.5040774 1.5040774 0.50318339 0.50318339
 1 1.7559649  -1.3624946 -3.5024905  0.7810985 1.5040774 1.5040774 0.50377506 0.50377506
 3 1.7559649  -1.7389265 -3.1535408 0.63950262 1.5040774 1.5040774   0.503775   0.503775
 2 1.7559648  -1.6661398 -3.1364514 0.62031625 1.5040774 1.5040774 0.50377491 0.50377491
 1 1.7381959 -1.4794801  -2.0167382 0.78336249 1.5040774 1.5040774   0.4682371   0.4682371
 4 1.7400617 -1.4722714  -2.0393314 0.78390896 1.5040774 1.5040774  0.47196853  0.47196853
 7 1.7336664 -1.7115261  -1.4200653 0.82694915 1.5040774 1.5040774  0.45917808  0.45917808
 6 1.7395844 -1.3973548  -1.8491182 0.79507678 1.5040774 1.5040774  0.47101393  0.47101393
 5 1.7556208 -1.2511958  -2.7197961 0.86607469 1.5040774 1.5040774  0.50308676  0.50308676
12 1.7543824 -1.8338505 -0.93891449 0.87750089 1.5040774 1.5040774  0.50061003  0.50061003
 1 1.7537971 -1.3958089  -2.3794915 0.68434479 1.5040774 1.5040774  0.49943945  0.49943945
 1 1.7556486 -1.6480229  -2.4811723 0.63529041 1.5040774 1.5040774  0.50314242  0.50314242
 3 1.7559595 -1.8500444  0.28528821 0.47016542 1.5040774 1.5040774  0.50376428  0.50376428
 8 1.5341105 -1.3858254  -1.1975387 0.78816334 1.5040774 1.5040774 0.060066185 0.060066185
 7 1.8045089 -1.3142718   0.2422865 0.47309852 1.5040774 1.5040774  0.60086295  0.60086295
 1 1.7393521 -1.8585769  -1.8732763 0.40165532 1.5040774 1.5040774  0.47054938  0.47054938
 3 1.7549059 -1.8180976  -2.4545652 0.45580934 1.5040774 1.5040774  0.50165699  0.50165699
 6   1.74252 -1.9044286  -1.0276815 0.44795269 1.5040774 1.5040774  0.47688512  0.47688512
 9 1.7451964 -1.9521569  -1.0210797  0.4566557 1.5040774 1.5040774  0.48223795  0.48223795
10 1.7558336 -1.5111762  -2.8352407 0.48075055 1.5040774 1.5040774  0.50351235  0.50351235
 2 1.7558525 -1.6620487  -2.6222525 0.59679137 1.5040774 1.5040774  0.50355016  0.50355016
 4 1.7559571 -1.7979393  -2.8243028 0.69424346 1.5040774 1.5040774  0.50375946  0.50375946
 2 1.7552389  -1.792605  -2.3515049 0.70937842 1.5040774 1.5040774    0.502323    0.502323
 4 1.7559649 -1.7924602  -3.1770164 0.68821555 1.5040774 1.5040774  0.50377499  0.50377499
 1 1.7559649  -1.8775469  -3.5274161 0.72766271 1.5040774 1.5040774 0.50377507 0.50377507
 2 1.7559649   -1.878768  -3.5413584 0.72539916 1.5040774 1.5040774 0.50377507 0.50377507
 5 1.6837639  -1.9800406  -1.0423886 0.56279108 1.5040774 1.5040774  0.3593731  0.3593731
 3 1.7571471  -0.9525992  -2.7998324 0.77135002 1.5040774 1.5040774 0.50613943 0.50613943
 1 1.7559649  -1.1033332  -3.8721902 0.76778245 1.5040774 1.5040774 0.50377507 0.50377507
 2 1.7559234  -1.6180573  -2.9054992 0.45888713 1.5040774 1.5040774 0.50369198 0.50369198
 1 2.1146347  -1.4188625  -2.0690752 0.53037829 1.5040774 1.5040774  1.2211145  1.2211145
 9 1.7602697  -1.1253186  -2.8152635 0.50750002 1.5040774 1.5040774 0.51238467 0.51238467
12 1.6817356    -1.57509 0.011386009  0.6887901 1.5040774 1.5040774 0.35531634 0.35531634
 5 1.7571593   -1.083446  -2.6118341 0.71701402 1.5040774 1.5040774 0.50616387 0.50616387
 3 1.7882468 -0.90841097  -2.8013286 0.56137551 1.5040774 1.5040774 0.56833889 0.56833889
 3 1.7560581 -0.86544625  -3.3090424  0.4237377 1.5040774 1.5040774 0.50396138 0.50396138
 1 1.7558224   -1.553171  -2.6828294 0.69562399 1.5040774 1.5040774 0.50348995 0.50348995
 2 1.7559649   -1.669363  -3.1848812 0.65050614 1.5040774 1.5040774   0.503775   0.503775
 1 1.7559462  -1.8550259  -2.6697045 0.65409117 1.5040774 1.5040774 0.50373765 0.50373765
 2 1.7831395  -1.6728474   -1.723076 0.63334599 1.5040774 1.5040774 0.55812431 0.55812431
 9 1.7559612  -1.6392694  -3.0654261 0.46297426 1.5040774 1.5040774 0.50376763 0.50376763
 6 1.7559645   -1.539556   -3.229326 0.46392448 1.5040774 1.5040774 0.50377417 0.50377417
 2 1.7559647  -1.5364135  -3.2798166 0.45703315 1.5040774 1.5040774 0.50377466 0.50377466
14 1.7559649  -1.7357478  -3.5889508 0.48347004 1.5040774 1.5040774 0.50377507 0.50377507
 2 1.7609314  -1.7294373  -1.8660255 0.54570377 1.5040774 1.5040774  0.5137081  0.5137081
 2 1.7559649  -1.7804166  -3.4400143 0.76230822 1.5040774 1.5040774 0.50377507 0.50377507
 2 1.7559648  -1.5465524  -3.1930483 0.82425325 1.5040774 1.5040774 0.50377477 0.50377477
 4 1.7559648  -1.6106808  -3.2509659 0.47316214 1.5040774 1.5040774 0.50377472 0.50377472
 2 1.7559649  -1.4193815  -3.4011903  0.4409253 1.5040774 1.5040774 0.50377497 0.50377497
12 1.7590391  -0.9069555  -3.0902419 0.44469675 1.5040774 1.5040774 0.50992343 0.50992343
 2 1.7533993  -1.9778196  -2.1567579 0.43186824 1.5040774 1.5040774 0.49864372 0.49864372
 6 1.7519164  -1.9812269     -2.0158 0.47877212 1.5040774 1.5040774 0.49567805 0.49567805
 4 2.0743044  -1.2011046  -1.2287512 0.81982502 1.5040774 1.5040774  1.1404541  1.1404541
 8 1.6799409  -1.1843994  0.32514435 0.74667016 1.5040774 1.5040774 0.35172697 0.35172697
 4 1.7317454  -1.1948783  0.24136638 0.75991304 1.5040774 1.5040774   0.455336   0.455336
 2 1.7204211  -1.4993765 -0.16523853 0.71613471 1.5040774 1.5040774  0.4326874  0.4326874
 5 1.7559649 -0.37435707  -3.6555644 0.86225132 1.5040774 1.5040774 0.50377509 0.50377509
22 1.7559649  -0.4014182  -3.6873416 0.86653183 1.5040774 1.5040774 0.50377508 0.50377508
 8 1.7559671 -0.26307598  -3.6051229 0.65726005 1.5040774 1.5040774 0.50377931 0.50377931
 4 1.7559669 -0.47333932  -3.5189202 0.60956339 1.5040774 1.5040774 0.50377909 0.50377909
 5 1.7559649 -0.58599591  -3.8393567 0.78369661 1.5040774 1.5040774 0.50377507 0.50377507
 1 1.7531311  -1.6552939 -0.70680224 0.87262784 1.5040774 1.5040774 0.49810738 0.49810738
 3  1.756249   -1.678712  0.18119649 0.72800571 1.5040774 1.5040774 0.50434314 0.50434314
 2 1.7559302  -1.7477331  0.31915432  0.7544053 1.5040774 1.5040774 0.50370571 0.50370571
 1 1.7559405  -1.7120899   0.37589405 0.76372788 1.5040774 1.5040774 0.50372628 0.50372628
 1 1.7558511  -1.5421937   -2.8261851 0.49195653 1.5040774 1.5040774 0.50354736 0.50354736
 5 1.7696903 -0.59098299    -3.190447 0.47648217 1.5040774 1.5040774 0.53122588 0.53122588
 3 1.9665838 -0.58532024   -3.0703407 0.46486643 1.5040774 1.5040774  0.9250129  0.9250129
 5 2.0555983 -0.59928112   -3.0336319 0.47221674 1.5040774 1.5040774  1.1030417  1.1030417
 9 1.7820671 -0.31074801   -3.2302729 0.58027201 1.5040774 1.5040774  0.5559795  0.5559795
 1 2.0860744  -1.2427342   -2.4594584  0.4252123 1.5040774 1.5040774  1.1639939  1.1639939
 1 1.6888453  -1.8501046    -0.640293 0.53308531 1.5040774 1.5040774 0.36953584 0.36953584
 1 1.9223298  -1.7181988   0.57838085 0.47469783 1.5040774 1.5040774  0.8365048  0.8365048
15 1.7686322  -1.8190411   0.58833705 0.42539707 1.5040774 1.5040774 0.52910952 0.52910952
14 1.7362989  -1.0619839 -0.024554201 0.80529991 1.5040774 1.5040774  0.4644431  0.4644431
 3 1.6902958  -1.0628194 -0.022202615 0.80571632 1.5040774 1.5040774 0.37243672 0.37243672
 8 1.7638238  -1.1121914   -2.5562119 0.75603237 1.5040774 1.5040774 0.51949271 0.51949271
 1 1.7559649 -0.86601118   -3.9305025 0.75475846 1.5040774 1.5040774 0.50377507 0.50377507
 4 1.7559649 -0.57580717   -3.6743136 0.79626202 1.5040774 1.5040774 0.50377507 0.50377507
 7  1.755965  -0.3793382   -3.6053126  0.8535349 1.5040774 1.5040774 0.50377515 0.50377515
 8 1.7559649 -0.50318447   -3.7409565 0.79125658 1.5040774 1.5040774 0.50377507 0.50377507
 6  1.755957   -0.991337   -3.0524185 0.73900479 1.5040774 1.5040774 0.50375925 0.50375925
 5 1.7559623 -0.95718477   -3.1314887 0.74229046 1.5040774 1.5040774 0.50376973 0.50376973
