#weight  minuslogpost  log10_alpha   log10_rs         vw  minuslogprior  minuslogprior__0       chi2  chi2__lisa_likelihood
      1     1.7016625   -1.5523864 -1.1301093 0.82908962      1.5040774         1.5040774 0.39517023             0.39517023
      1     1.6841104   -1.5446801  -1.146032 0.81206526      1.5040774         1.5040774 0.36006603             0.36006603
      1     1.6695462    -1.555192 -1.1245449 0.78721033      1.5040774         1.5040774 0.33093763             0.33093763
      1     1.6522242   -1.5273156 -1.1109831 0.78714473      1.5040774         1.5040774 0.29629354             0.29629354
      1     1.6483709   -1.5321007 -1.1117132 0.78145795      1.5040774         1.5040774 0.28858709             0.28858709
      1     1.5925933   -1.5062767  -1.112063 0.75977371      1.5040774         1.5040774 0.17703187             0.17703187
      1     1.5929831   -1.5045585 -1.1431714 0.76232187      1.5040774         1.5040774 0.17781145             0.17781145
      1       1.56767   -1.5000444 -1.1590459 0.73179441      1.5040774         1.5040774 0.12718519             0.12718519
      1     1.5942283   -1.5084325 -1.1337472 0.71739858      1.5040774         1.5040774 0.18030185             0.18030185
      1     1.6308702   -1.4879681 -1.1271825 0.71701097      1.5040774         1.5040774 0.25358552             0.25358552
      1     1.6854281   -1.4887835 -1.1261283 0.71231429      1.5040774         1.5040774 0.36270136             0.36270136
      1     1.7615154   -1.5060888  -1.169651 0.70554945      1.5040774         1.5040774 0.51487598             0.51487598
      1     1.6641302   -1.5182986 -1.1652783  0.7086509      1.5040774         1.5040774 0.32010565             0.32010565
      1     1.7151057    -1.514179 -1.1609649 0.70564745      1.5040774         1.5040774 0.42205659             0.42205659
      1      1.564399   -1.5034018 -1.1514431 0.73410446      1.5040774         1.5040774 0.12064317             0.12064317
      1     1.5852269   -1.4744431 -1.1800686 0.73271543      1.5040774         1.5040774 0.16229903             0.16229903
      1     1.5761141   -1.4644414  -1.203623 0.74139041      1.5040774         1.5040774 0.14407332             0.14407332
      1     1.5566995   -1.4523053 -1.1941284  0.7531783      1.5040774         1.5040774 0.10524425             0.10524425
      1     1.5893794   -1.4764797 -1.1949756 0.77874919      1.5040774         1.5040774   0.170604               0.170604
      1     1.5950817    -1.493343 -1.2123745 0.77205112      1.5040774         1.5040774  0.1820087              0.1820087
2 1.5877583 -1.5219322 -1.1754494 0.74811172 1.5040774 1.5040774 0.16736176 0.16736176
1 1.5801868 -1.5254867 -1.1744812 0.72531753 1.5040774 1.5040774 0.15221884 0.15221884
1 1.6039147 -1.5008492 -1.1745338  0.7214734 1.5040774 1.5040774 0.19967466 0.19967466
1 1.6127482 -1.5009479 -1.1860658 0.72099896 1.5040774 1.5040774 0.21734167 0.21734167
1 1.5780318 -1.4925211 -1.1878103 0.73238267 1.5040774 1.5040774 0.14790873 0.14790873
1 1.5754926 -1.4927172 -1.1846606 0.73301051 1.5040774 1.5040774 0.14283038 0.14283038
1 1.5919589 -1.5199236 -1.1901999 0.75230104 1.5040774 1.5040774 0.17576297 0.17576297
1 1.6201375 -1.5212464 -1.1815552 0.71442855 1.5040774 1.5040774 0.23212025 0.23212025
1 1.6118173 -1.5252581 -1.1801728 0.71488423 1.5040774 1.5040774 0.21547971 0.21547971
1 1.5895531 -1.5175495 -1.1592859 0.71938258 1.5040774 1.5040774 0.17095139 0.17095139
1 1.6112775 -1.4853515 -1.1984924 0.72650229 1.5040774 1.5040774 0.21440019 0.21440019
1 1.5573407 -1.4573702 -1.1719747 0.74598682 1.5040774 1.5040774 0.10652654 0.10652654
1 1.6155818 -1.4810936 -1.1826358 0.79456487 1.5040774 1.5040774 0.22300887 0.22300887
1 1.5639104 -1.4627434 -1.1592408 0.76794047 1.5040774 1.5040774 0.11966596 0.11966596
1 1.6183126  -1.505475 -1.1819248 0.71855609 1.5040774 1.5040774 0.22847043 0.22847043
1  1.576926 -1.5372796 -1.1449749 0.72910372 1.5040774 1.5040774 0.14569722 0.14569722
1 1.5770615 -1.5373877 -1.1452882 0.72914945 1.5040774 1.5040774 0.14596817 0.14596817
2 1.6275266 -1.5180062 -1.1449192 0.77747165 1.5040774 1.5040774 0.24689844 0.24689844
1 1.6068115 -1.4956216 -1.1496531 0.77695521 1.5040774 1.5040774 0.20546813 0.20546813
2 1.6825578 -1.5092482 -1.2069975 0.71196931 1.5040774 1.5040774 0.35696076 0.35696076
1 2.8432219 -1.4809215  -1.2676843 0.68184271 1.5040774 1.5040774   2.678289   2.678289
1  2.091605 -1.4704887   -1.274232 0.70484175 1.5040774 1.5040774  1.1750552  1.1750552
2 1.9666183 -1.4812734  -1.2807704 0.70787242 1.5040774 1.5040774 0.92508172 0.92508172
1 2.0811491 -1.4660978  -1.2708311 0.70656278 1.5040774 1.5040774  1.1541434  1.1541434
1 2.3256243 -1.4486626  -1.2984483 0.69899803 1.5040774 1.5040774  1.6430938  1.6430938
1 2.8661908 -1.4426789  -1.3204062 0.68971492 1.5040774 1.5040774  2.7242268  2.7242268
2 3.6128599 -1.6309045   -1.381733 0.62771803 1.5040774 1.5040774  4.2175649  4.2175649
1 3.1163846 -1.6376285  -1.3643498 0.63426585 1.5040774 1.5040774  3.2246143  3.2246143
1  2.789038  -1.669729  -1.3828814  0.6271451 1.5040774 1.5040774  2.5699212  2.5699212
1 1.7339581 -1.6535322  -1.4820322 0.67579807 1.5040774 1.5040774 0.45976143 0.45976143
1 1.6265624 -1.5833966  -1.1033125 0.73908606 1.5040774 1.5040774 0.24496991 0.24496991
3 1.5982214 -1.6262911  -1.0615165 0.69171608 1.5040774 1.5040774 0.18828804 0.18828804
1 1.6602843  -1.631675  -1.0938546 0.67780622 1.5040774 1.5040774 0.31241385 0.31241385
2 1.6701386 -1.9712626 -0.89166962 0.55484895 1.5040774 1.5040774 0.33212233 0.33212233
1 1.6478835 -1.9419681 -0.90382363 0.56087758 1.5040774 1.5040774  0.2876123  0.2876123
1 1.6782759 -1.8748443 -0.67512787 0.64475177 1.5040774 1.5040774 0.34839708 0.34839708
1 1.7242208 -1.4088933 -0.34189042 0.76590707 1.5040774 1.5040774 0.44028682 0.44028682
2 1.7455253 -1.3810935 -0.55257154 0.89730036 1.5040774 1.5040774 0.48289578 0.48289578
1 1.7462249 -1.9110265   0.2920857 0.59096466 1.5040774 1.5040774 0.48429496 0.48429496
1 1.7483926 -1.9213155  0.27632653 0.58587133 1.5040774 1.5040774  0.4886304  0.4886304
1 1.7331427 -1.9738175    0.2717871 0.61636742 1.5040774 1.5040774  0.45813061  0.45813061
1 1.7558321 -1.9595102   0.25699311 0.51207209 1.5040774 1.5040774  0.50350948  0.50350948
1 1.7883259 -1.7806164   0.31886764 0.54618698 1.5040774 1.5040774  0.56849705  0.56849705
1 1.7295841 -1.7438226 0.0072210818  0.5655943 1.5040774 1.5040774  0.45101338  0.45101338
1 1.6377575 -1.6943242  0.013861175 0.59811859 1.5040774 1.5040774  0.26736028  0.26736028
1 1.7161386 -1.6711204   0.18534484 0.58834527 1.5040774 1.5040774  0.42412247  0.42412247
1 1.6480494 -1.8163317   0.22787181  0.6453051 1.5040774 1.5040774  0.28794402  0.28794402
1 1.7559459 -1.8466269   0.29411085 0.74455982 1.5040774 1.5040774  0.50373698  0.50373698
1 1.7559439 -1.8400031   0.24476259 0.75255345 1.5040774 1.5040774  0.50373291  0.50373291
1 1.7559403 -1.7323453   0.28806984 0.77506745 1.5040774 1.5040774  0.50372575  0.50372575
3 1.7559563 -1.6110605   0.68993487 0.74371857 1.5040774 1.5040774  0.50375777  0.50375777
1  1.754775  -1.387003   0.41215939 0.75248942 1.5040774 1.5040774  0.50139513  0.50139513
1 1.7558358 -1.3872755   0.36717655 0.83097106 1.5040774 1.5040774  0.50351676  0.50351676
1  1.755573 -1.6629572    0.0252397 0.75988253 1.5040774 1.5040774   0.5029913   0.5029913
1 1.7553386 -1.7648053  0.076451559 0.70908764 1.5040774 1.5040774  0.50252248  0.50252248
1 1.5242956 -1.6870574  0.083837168 0.65534969 1.5040774 1.5040774 0.040436313 0.040436313
1 1.5072451 -1.7816107  -0.23936137 0.61665061 1.5040774 1.5040774 0.006335356 0.006335356
1 1.6336255  -1.824732   0.02482075 0.64586168 1.5040774 1.5040774  0.25909617  0.25909617
1 1.6183251  -1.811241  0.028996642 0.64961629 1.5040774 1.5040774   0.2284954   0.2284954
1 1.7549659 -1.7626605   0.16808249  0.5140208 1.5040774 1.5040774  0.50177695  0.50177695
 1 1.7533686 -1.7205516 0.026162214 0.50731599 1.5040774 1.5040774  0.49858239  0.49858239
 3  1.755872 -1.9821631 -0.11568845 0.43693216 1.5040774 1.5040774  0.50358915  0.50358915
 1 1.5311906 -1.6042241 0.071226368 0.64917377 1.5040774 1.5040774 0.054226404 0.054226404
 2 1.5433905 -1.5977838 0.093777089 0.64247422 1.5040774 1.5040774  0.07862612  0.07862612
 7 1.5412015 -1.6092688 0.072028009 0.64378201 1.5040774 1.5040774 0.074248253 0.074248253
 1 1.5200874 -1.7900439 -0.41892203 0.59836109 1.5040774 1.5040774 0.032020018 0.032020018
 2 1.7055653 -1.2969737  0.42864353 0.60029734 1.5040774 1.5040774  0.40297579  0.40297579
 3 1.6107128 -1.1897696 -0.60901277 0.40063051 1.5040774 1.5040774   0.2132708   0.2132708
 1 1.7070149 -1.3647144 -0.48927721  0.4089611 1.5040774 1.5040774  0.40587502  0.40587502
 3 1.5609601   -1.35854 -0.74383335 0.45482239 1.5040774 1.5040774  0.11376547  0.11376547
 1 1.5985147 -1.3589927 -0.71588067 0.43373754 1.5040774 1.5040774  0.18887466  0.18887466
 4 1.6108821 -1.4143685 -0.81833658 0.42245707 1.5040774 1.5040774  0.21360947  0.21360947
21 1.6985587 -1.5589028 -0.82021722 0.42127522 1.5040774 1.5040774   0.3889627   0.3889627
 1  1.686907  -1.341933  0.37396206 0.62502139 1.5040774 1.5040774  0.36565924  0.36565924
 5 1.7559381 -1.8158888  0.26629633 0.74750779 1.5040774 1.5040774  0.50372142  0.50372142
 4 1.7533891 -1.9979634  -1.1863692 0.78600274 1.5040774 1.5040774  0.49862336  0.49862336
 3 1.7523712 -1.9099437  -1.0894277  0.8015443 1.5040774 1.5040774  0.49658763  0.49658763
 1 1.6698781 -1.4745135  -1.3910685 0.87512929 1.5040774 1.5040774  0.33160146  0.33160146
 2 1.6663095 -1.4714344  -1.3591304 0.87039285 1.5040774 1.5040774   0.3244642   0.3244642
 3 1.6104601 -1.3990655   -1.210007 0.85199705 1.5040774 1.5040774   0.2127654   0.2127654
2 1.5825864  -1.4474108   -1.1369206 0.78955688 1.5040774 1.5040774  0.15701792  0.15701792
1 1.7558027  -1.7470326   -2.5759666 0.76139848 1.5040774 1.5040774  0.50345064  0.50345064
6 1.7559649  -1.8098927    -3.575845 0.49393686 1.5040774 1.5040774  0.50377507  0.50377507
4 1.5860086   -1.340676   -1.3520832 0.89440613 1.5040774 1.5040774  0.16386243  0.16386243
2 1.7546882  -1.5004108   -2.3476919 0.55170836 1.5040774 1.5040774   0.5012216   0.5012216
2 2.0758768  -1.2015911   -2.4165072 0.50858097 1.5040774 1.5040774   1.1435989   1.1435989
3 1.7559628  -1.1568949   -3.1616004 0.57005571 1.5040774 1.5040774  0.50377083  0.50377083
1 1.7559644 -0.88202406   -3.0905983 0.70796162 1.5040774 1.5040774  0.50377396  0.50377396
2 1.7559668 -0.86303655   -3.0743403 0.75129919 1.5040774 1.5040774  0.50377884  0.50377884
1 1.8621612  -1.3818166   -1.9717251 0.72305587 1.5040774 1.5040774  0.71616767  0.71616767
3 1.6087977  -1.2815537    -1.555902 0.87724815 1.5040774 1.5040774  0.20944051  0.20944051
1 1.5401464  -1.2694208  -0.53211898 0.75945809 1.5040774 1.5040774 0.072137908 0.072137908
6  1.755846  -1.5847148  0.028198232 0.84942433 1.5040774 1.5040774  0.50353721  0.50353721
2 1.7555185  -1.5524475 -0.036034103 0.81547437 1.5040774 1.5040774  0.50288215  0.50288215
1 1.7552292  -1.5000149   0.46846304 0.72600443 1.5040774 1.5040774  0.50230367  0.50230367
3  1.734542   -1.839763   0.33754278 0.60941451 1.5040774 1.5040774  0.46092916  0.46092916
3 1.7423799  -1.8270323   0.34533489 0.62582409 1.5040774 1.5040774  0.47660494  0.47660494
2 1.9552727  -1.6710179    -1.693898 0.59259279 1.5040774 1.5040774  0.90239066  0.90239066
1 1.7552949  -1.8383495    -2.263735 0.89528669 1.5040774 1.5040774  0.50243509  0.50243509
2 1.7559508  -1.8113038    -2.757953 0.87747378 1.5040774 1.5040774  0.50374682  0.50374682
 2 1.7502025  -1.8870644 -1.3867382  0.8194918 1.5040774 1.5040774 0.49225011 0.49225011
 3 1.7400423  -1.9072531 -1.5269532 0.69366217 1.5040774 1.5040774 0.47192978 0.47192978
 2 1.7350793  -1.8738554 -1.5303619 0.68662846 1.5040774 1.5040774 0.46200385 0.46200385
 1 1.7401523  -1.8327487 -1.6858621 0.67355417 1.5040774 1.5040774 0.47214973 0.47214973
 4 1.7439299  -1.4567884 -2.1550173 0.83555874 1.5040774 1.5040774 0.47970498 0.47970498
 9 1.7640156  -0.6601147 -2.9674913 0.64497616 1.5040774 1.5040774 0.51987638 0.51987638
 1 1.7559659 -0.67529369 -3.3186581  0.7062809 1.5040774 1.5040774 0.50377709 0.50377709
 2 1.7559665 -0.60963223 -3.3432486 0.71526433 1.5040774 1.5040774 0.50377817 0.50377817
 3 1.7559649 -0.91521006 -3.9095603  0.8778482 1.5040774 1.5040774 0.50377507 0.50377507
 1 1.7495175  -1.3598646 -2.3005542 0.89065749 1.5040774 1.5040774 0.49088027 0.49088027
 5 1.7559649  -1.7579026 -3.7101731 0.87345402 1.5040774 1.5040774 0.50377507 0.50377507
 4 1.7559649  -1.7549298 -3.6456327 0.86543828 1.5040774 1.5040774 0.50377507 0.50377507
23 1.7559649  -1.7156296 -3.9877489 0.86041447 1.5040774 1.5040774 0.50377507 0.50377507
 1 1.7559644  -1.4998514 -3.1175848 0.70090362 1.5040774 1.5040774 0.50377402 0.50377402
 1 1.7559644  -1.6429516 -3.0278791 0.66311755 1.5040774 1.5040774 0.50377391 0.50377391
 7 1.7559515  -1.6700843 -2.8100464 0.67434399 1.5040774 1.5040774 0.50374821 0.50374821
 2 1.7559649  -1.5242486 -3.2168921 0.67570171 1.5040774 1.5040774 0.50377497 0.50377497
 1  1.755394  -1.4225572  -2.621041  0.7487261 1.5040774 1.5040774 0.50263314 0.50263314
 5 1.7559134  -1.0363836 -2.8536919 0.70756809 1.5040774 1.5040774 0.50367195 0.50367195
16 1.7559648    -1.52053 -3.2040611 0.69513438 1.5040774 1.5040774 0.50377488 0.50377488
 5 1.7559648   -1.535267  -3.1610112 0.68589742 1.5040774 1.5040774 0.50377476 0.50377476
 3 1.7559781 -0.64705526  -3.2171325 0.81374674 1.5040774 1.5040774 0.50380132 0.50380132
 1 1.7562578 -0.60053314  -3.1013235 0.82008263 1.5040774 1.5040774 0.50436089 0.50436089
 6 1.7559649 -0.30758077  -3.9505807 0.84070108 1.5040774 1.5040774 0.50377507 0.50377507
 8 1.7559649 -0.62167146  -3.9454062 0.60234429 1.5040774 1.5040774 0.50377507 0.50377507
11 1.7559874 -0.59484228  -3.4211517 0.53334057 1.5040774 1.5040774 0.50381997 0.50381997
 5 1.7559653 -0.55856051  -3.6119217 0.53653866 1.5040774 1.5040774 0.50377587 0.50377587
 3 1.7559649 -0.94019002  -3.6530184 0.70170563 1.5040774 1.5040774 0.50377507 0.50377507
 2 1.7559649 -0.90495007  -3.7761398 0.67325286 1.5040774 1.5040774 0.50377507 0.50377507
 5 1.7559649 -0.98880321  -3.6166817 0.65470378 1.5040774 1.5040774 0.50377507 0.50377507
17 1.7485602  -1.7855668  -1.3114542 0.87326361 1.5040774 1.5040774 0.48896554 0.48896554
 4  1.755912  -1.9980145   -2.436112 0.60412157 1.5040774 1.5040774 0.50366926 0.50366926
 2 1.7559536  -1.9878633   -2.615495 0.63489299 1.5040774 1.5040774 0.50375244 0.50375244
15 1.7559648  -1.4470017  -3.2156471 0.84205074 1.5040774 1.5040774 0.50377472 0.50377472
 2 1.7559647  -1.3606938  -3.2291874 0.84421409 1.5040774 1.5040774 0.50377462 0.50377462
 4 1.7639896  -1.7546794   0.7696336 0.43708226 1.5040774 1.5040774  0.5198244  0.5198244
16  1.747393  -1.5142848 -0.72373613 0.88849986 1.5040774 1.5040774  0.4866312  0.4866312
 9 1.7298329  -1.4980293 -0.94088567  0.8836659 1.5040774 1.5040774 0.45151106 0.45151106
 2 1.8905987  -1.4574663  -1.7305307 0.43747335 1.5040774 1.5040774 0.77304257 0.77304257
 4 1.7148063  -1.3778102  0.16095174 0.60641601 1.5040774 1.5040774 0.42145783 0.42145783
 4 1.6336406  -1.7197239   -1.2713737  0.4795401 1.5040774 1.5040774 0.25912638 0.25912638
 1 1.7558644  -1.5725715   -2.7268094 0.74109741 1.5040774 1.5040774 0.50357393 0.50357393
 3 1.7560088 -0.84942112   -3.0823406 0.85192414 1.5040774 1.5040774 0.50386284 0.50386284
 2 1.7559741 -0.84790235   -3.1477588 0.85275607 1.5040774 1.5040774 0.50379343 0.50379343
 2 1.7556548   -1.535821   -2.6311407   0.725538 1.5040774 1.5040774 0.50315476 0.50315476
 2   1.72536  -1.5958484   -1.7951858 0.73681459 1.5040774 1.5040774 0.44256525 0.44256525
 1  1.691781  -1.5869528   0.41739892 0.68746536 1.5040774 1.5040774 0.37540728 0.37540728
 3 1.7513475  -1.1858887    0.1722871 0.81693105 1.5040774 1.5040774 0.49454019 0.49454019
 4 1.7351261  -1.2598007  -0.26717815 0.82794703 1.5040774 1.5040774 0.46209738 0.46209738
 6 1.7525998  -1.4695073  -0.34635807 0.84663523 1.5040774 1.5040774 0.49704479 0.49704479
 3  1.584914  -1.4022418  -0.99835308 0.79978541 1.5040774 1.5040774 0.16167316 0.16167316
 5 1.6423107  -1.4984635  -0.73560071 0.74507971 1.5040774 1.5040774 0.27646654 0.27646654
 1 1.7555917  -1.9952797 -0.045206804  0.5011917 1.5040774 1.5040774 0.50302866 0.50302866
 1 1.7228844  -1.8616272   -1.4990999 0.44816954 1.5040774 1.5040774 0.43761395 0.43761395
11 1.9731884  -1.5591192   0.53107798 0.64454298 1.5040774 1.5040774 0.93822196 0.93822196
10 2.3918264   -1.369472   0.24661338 0.66205811 1.5040774 1.5040774   1.775498   1.775498
 5 1.8031606   -1.848246   -1.5307133 0.59466699 1.5040774 1.5040774 0.59816636 0.59816636
 4 1.7468263  -1.9629313   -1.5518905 0.70340769 1.5040774 1.5040774 0.48549775 0.48549775
 1 1.7539272   -1.923288   -1.1755474 0.85711849 1.5040774 1.5040774 0.49969966 0.49969966
 3 1.7554203  -1.9384438  -0.82176391 0.84870684 1.5040774 1.5040774 0.50268574 0.50268574
 6 1.7403518 -1.8165502  -1.1983519 0.76807612 1.5040774 1.5040774 0.47254871 0.47254871
 2 1.6828028 -1.8168289 -0.93976363 0.67521283 1.5040774 1.5040774 0.35745084 0.35745084
 4 1.8460752 -1.7136561  -1.1883566 0.65282881 1.5040774 1.5040774  0.6839956  0.6839956
 1 1.7741361  -1.527712  -1.8370126 0.67166837 1.5040774 1.5040774 0.54011749 0.54011749
 2 1.7483857  -1.248677 -0.22879702 0.88123561 1.5040774 1.5040774 0.48861658 0.48861658
 7 1.7401338 -1.2368676 -0.36559036 0.88758947 1.5040774 1.5040774 0.47211282 0.47211282
 1 1.7109318 -1.3153927 -0.50907712  0.8236091 1.5040774 1.5040774 0.41370889 0.41370889
17 1.7488962 -1.2997955  0.37404508 0.74336582 1.5040774 1.5040774 0.48963763 0.48963763
 4 1.7468935 -1.7868385 -0.82974086 0.41554872 1.5040774 1.5040774 0.48563215 0.48563215
 1 1.7557341 -1.6250952  -2.6100507 0.57355613 1.5040774 1.5040774 0.50331336 0.50331336
 1 1.7558216 -1.8330096  -2.5165432 0.57212163 1.5040774 1.5040774 0.50348839 0.50348839
 5 1.7559648 -1.7830488  -3.2085384 0.49149163 1.5040774 1.5040774 0.50377487 0.50377487
 1 1.7559649 -1.6604503  -3.2285726 0.69059424 1.5040774 1.5040774   0.503775   0.503775
 5 1.7559649 -1.3311798  -3.2526358  0.6709749 1.5040774 1.5040774 0.50377494 0.50377494
 2 1.7559619 -1.4412665  -2.9937313 0.67465703 1.5040774 1.5040774 0.50376896 0.50376896
 3 1.7559649  -1.434428  -3.5095179 0.58337822 1.5040774 1.5040774 0.50377507 0.50377507
 4   1.75596 -1.6545649  -2.9418049 0.56170823 1.5040774 1.5040774 0.50376513 0.50376513
 2  1.755962 -1.6261308  -2.9865708 0.56580854 1.5040774 1.5040774 0.50376927 0.50376927
 1 1.7559649 -1.2725088  -3.7185134 0.60990566 1.5040774 1.5040774 0.50377507 0.50377507
 6 2.6577801 -1.2578791  -1.8668508 0.75668833 1.5040774 1.5040774  2.3074054  2.3074054
 1  2.579082   -1.230878  -1.9146047 0.69908444 1.5040774 1.5040774  2.1500092  2.1500092
 1 1.8805289 -0.37503742  -2.9427265 0.75428203 1.5040774 1.5040774  0.7529031  0.7529031
 1 1.8780303 -0.37806893  -2.9393258 0.75733949 1.5040774 1.5040774  0.7479058  0.7479058
 9 1.7559664 -0.42900779  -3.4503092 0.74480535 1.5040774 1.5040774 0.50377798 0.50377798
 2 1.7559649 -0.56433627  -3.6840301 0.65526797 1.5040774 1.5040774 0.50377507 0.50377507
 3 1.9292644 -0.59820244  -2.9201762 0.58746336 1.5040774 1.5040774 0.85037404 0.85037404
 7 1.7557232  -1.7282908  -2.6851596 0.46395525 1.5040774 1.5040774 0.50329156 0.50329156
19 1.7556144  -1.8043127  -2.6479381 0.40687503 1.5040774 1.5040774 0.50307392 0.50307392
10 1.7544343  -1.4271377  -2.4035607 0.59587605 1.5040774 1.5040774 0.50071385 0.50071385
 1 1.7523508  -1.7155348  -1.9574759 0.61401949 1.5040774 1.5040774 0.49654685 0.49654685
 1 1.7527812  -1.5145446 -0.50076515 0.87859459 1.5040774 1.5040774 0.49740759 0.49740759
20 1.7559104  -1.5353129  0.31612725 0.82045728 1.5040774 1.5040774 0.50366606 0.50366606
 1 1.7333737  -1.7454684  -1.6390159 0.76514997 1.5040774 1.5040774 0.45859254 0.45859254
 1 1.7551358  -1.3380845  -2.6059856 0.82795557 1.5040774 1.5040774 0.50211683 0.50211683
 1 1.7559248  -1.2677032  -2.9236296 0.77168407 1.5040774 1.5040774  0.5036948  0.5036948
 1 1.7559648   -1.459018  -3.2294141 0.76472518 1.5040774 1.5040774 0.50377481 0.50377481
 6 1.7256206  -1.9805703 -0.87550588 0.61489514 1.5040774 1.5040774 0.44308639 0.44308639
 5  1.750483  -1.9888227 -0.51230305 0.67566296 1.5040774 1.5040774 0.49281128 0.49281128
 1 1.7505223  -1.9733287 -0.48500032 0.67688321 1.5040774 1.5040774 0.49288973 0.49288973
26 1.7559644  -1.3398177  -3.1866275 0.89050574 1.5040774 1.5040774 0.50377404 0.50377404
 8 1.7559649  -1.4751708   -3.555391 0.54137845 1.5040774 1.5040774 0.50377507 0.50377507
 4 1.7559649  -1.4815528  -3.5911442 0.54234524 1.5040774 1.5040774 0.50377507 0.50377507
 2 1.7559649  -1.7169274  -3.4531935 0.52682868 1.5040774 1.5040774 0.50377507 0.50377507
 4 1.7503523  -1.8974496  -1.8923269 0.55469866 1.5040774 1.5040774  0.4925499  0.4925499
 2 1.7555875  -1.8140198  -2.4645728 0.54825839 1.5040774 1.5040774 0.50302024 0.50302024
 4 1.7559584  -1.9840486   -2.752915 0.55778413 1.5040774 1.5040774 0.50376206 0.50376206
 8 1.7559649  -1.4210367  -3.9999163 0.80804484 1.5040774 1.5040774 0.50377507 0.50377507
 3 1.7555167  -1.5928604  -2.5526878 0.87071729 1.5040774 1.5040774 0.50287855 0.50287855
 1 1.7559649  -1.3265185  -3.9042679 0.89663635 1.5040774 1.5040774 0.50377507 0.50377507
 8  1.755965 -0.34492533  -3.6991793  0.6607873 1.5040774 1.5040774 0.50377518 0.50377518
11 1.7559772 -0.53327735  -3.3259993 0.68980609 1.5040774 1.5040774 0.50379951 0.50379951
 8 1.7559722 -0.55035408  -3.3320137 0.69652155 1.5040774 1.5040774 0.50378958 0.50378958
 1  1.755965 -0.59923244  -3.5079185 0.69571052 1.5040774 1.5040774 0.50377517 0.50377517
 2 1.7569066  -1.3263178  -1.3147659 0.78010517 1.5040774 1.5040774 0.50565832 0.50565832
11 1.7548491  -1.1408261  0.23989794 0.89020747 1.5040774 1.5040774 0.50154332 0.50154332
 1 1.6715819  -1.8872657 -0.45270854 0.64413313 1.5040774 1.5040774 0.33500891 0.33500891
 8 1.6998173  -1.8934131 -0.50780236  0.6515628 1.5040774 1.5040774 0.39147988 0.39147988
 1 1.5119273  -1.4758339 -0.72133912 0.71186926 1.5040774 1.5040774 0.01569972 0.01569972
 5 2.0437868  -1.1515322  -2.4440026  0.5338361 1.5040774 1.5040774  1.0794188  1.0794188
 1 1.7559649   -1.453101  -3.6964632 0.43374537 1.5040774 1.5040774 0.50377507 0.50377507
 8 1.7559649   -1.786617  -3.6319876 0.64698061 1.5040774 1.5040774 0.50377507 0.50377507
10 1.7559649  -1.7833659  -3.6369224 0.65275046 1.5040774 1.5040774 0.50377507 0.50377507
 1 1.7559649  -1.8050817  -3.6304824 0.66647158 1.5040774 1.5040774 0.50377507 0.50377507
 4 1.7556489   -1.730988  -2.5081141 0.71340584 1.5040774 1.5040774   0.503143   0.503143
 1 1.7555618  -1.7311364  -2.4774858 0.70915565 1.5040774 1.5040774 0.50296879 0.50296879
 3 1.7554823  -1.8612899  -2.3484447  0.7042149 1.5040774 1.5040774  0.5028099  0.5028099
 3 1.7508675  -1.9930729  -1.7305513 0.68411906 1.5040774 1.5040774 0.49358017 0.49358017
 2 1.7475023  -1.6491476  -2.0678587 0.73356968 1.5040774 1.5040774 0.48684989 0.48684989
 3 1.7557362  -1.7459178  -2.4568506 0.65237095 1.5040774 1.5040774 0.50331755 0.50331755
21 1.7558183  -1.8115923  -2.4523927 0.63671977 1.5040774 1.5040774 0.50348176 0.50348176
 2 1.7458976  -1.4469898  -2.2005305 0.86394743 1.5040774 1.5040774 0.48364044 0.48364044
 2 1.7251032  -1.6207443  -1.4566274 0.87445614 1.5040774 1.5040774 0.44205163 0.44205163
 3 1.7559377  -1.9016533 -0.23010098 0.85905647 1.5040774 1.5040774 0.50372061 0.50372061
12 1.7600786  -1.4253032  -2.0835173 0.70351918 1.5040774 1.5040774 0.51200241 0.51200241
 4 1.8002962   -1.522331  -1.7014207 0.70734539 1.5040774 1.5040774 0.59243757 0.59243757
 4 1.7884241  -1.5003339  -1.8539094 0.70204609 1.5040774 1.5040774 0.56869339 0.56869339
 2 1.7547467  -1.5158104  -2.4458014 0.69466458 1.5040774 1.5040774 0.50133851 0.50133851
 1 1.7588938  -1.2922625  -2.7315755  0.4627486 1.5040774 1.5040774  0.5096328  0.5096328
13 1.7559665 -0.30116088  -3.6108229 0.63634433 1.5040774 1.5040774 0.50377825 0.50377825
 3 1.7573429 -0.37996237  -3.4495845 0.45521629 1.5040774 1.5040774 0.50653093 0.50653093
 4 1.7559649  -1.6853848  -3.2685036 0.56354078 1.5040774 1.5040774 0.50377503 0.50377503
 1 1.7561148 -0.93192357  -3.0691591 0.56007287 1.5040774 1.5040774 0.50407476 0.50407476
 6 1.7559744  -0.9814478   -3.159192  0.5524061 1.5040774 1.5040774 0.50379392 0.50379392
 2 1.7559663  -1.0007642  -3.2044196 0.55353758 1.5040774 1.5040774 0.50377781 0.50377781
 2  1.641417  -1.7832687 -0.23720687 0.65203521 1.5040774 1.5040774 0.27467919 0.27467919
 4 1.5621843  -1.7933568 -0.29722972 0.62988388 1.5040774 1.5040774 0.11621373 0.11621373
 1 1.7559813 -0.84287295  -3.0386238 0.75468535 1.5040774 1.5040774 0.50380774 0.50380774
 6 1.7531081  -1.6374349  -2.1797021 0.65954433 1.5040774 1.5040774 0.49806132 0.49806132
 3 1.7559609   -1.702969  -2.9036159 0.58318975 1.5040774 1.5040774 0.50376708 0.50376708
 6 1.7439592  -1.9296876  -1.6881378 0.54505862 1.5040774 1.5040774 0.47976367 0.47976367
 1 1.7559648  -1.7067572  -3.1780533 0.52051621 1.5040774 1.5040774 0.50377472 0.50377472
 5 1.7559609  -1.3778661  -3.0979689 0.53259388 1.5040774 1.5040774 0.50376706 0.50376706
 5 1.7555714  -1.4516913  -2.5826272  0.6440577 1.5040774 1.5040774 0.50298796 0.50298796
10 1.7541658  -1.4724953  -2.3713004 0.62184218 1.5040774 1.5040774 0.50017687 0.50017687
 5 1.7559649 -0.74110406  -3.7486488  0.4252671 1.5040774 1.5040774  0.5037751  0.5037751
 1 1.7559649 -0.74886907  -3.7647117 0.42421935 1.5040774 1.5040774 0.50377509 0.50377509
 1 1.7559649   -1.215283  -3.5668686 0.55559765 1.5040774 1.5040774 0.50377507 0.50377507
 5 1.7089751  -1.7572747  -1.7053237 0.41441877 1.5040774 1.5040774 0.40979537 0.40979537
 1 1.7559649  -1.4117113  -3.8594175 0.67844938 1.5040774 1.5040774 0.50377507 0.50377507
 4 1.7559649  -1.4602576  -3.9141916 0.67410175 1.5040774 1.5040774 0.50377507 0.50377507
 2 1.7559649  -1.2097799 -3.3894884 0.61607893 1.5040774 1.5040774 0.50377504 0.50377504
 1 1.7559282  -1.2759821 -2.8850423 0.64032861 1.5040774 1.5040774  0.5037016  0.5037016
 2 1.7559649 -0.63081764 -3.6182825 0.83917671 1.5040774 1.5040774 0.50377507 0.50377507
 6 1.7559649 -0.71703147 -3.9248606 0.84421412 1.5040774 1.5040774 0.50377507 0.50377507
 1 1.7559649 -0.91778335 -3.8694983 0.81566738 1.5040774 1.5040774 0.50377507 0.50377507
 3 1.7559648 -0.95335441 -3.3205301 0.79828768 1.5040774 1.5040774 0.50377475 0.50377475
 8 1.7559649 -0.82063184 -3.7820871 0.77164004 1.5040774 1.5040774 0.50377507 0.50377507
 9  1.755771  -1.2569346  -2.788738 0.85666998 1.5040774 1.5040774 0.50338713 0.50338713
 2 1.7509394  -1.4944614 -2.2697375 0.75858662 1.5040774 1.5040774 0.49372392 0.49372392
 5 1.7559647  -1.4147432 -3.2151186 0.84143931 1.5040774 1.5040774 0.50377464 0.50377464
 2 1.9329715 -0.92710726 -2.5264777  0.7979295 1.5040774 1.5040774 0.85778815 0.85778815
 1 1.7614898   -1.039906 -2.6361962 0.76020549 1.5040774 1.5040774 0.51482483 0.51482483
 1 1.7590847 -0.23813877 -3.4833057 0.47062981 1.5040774 1.5040774 0.51001465 0.51001465
 2 1.7578159 -0.27208565 -3.5238938 0.43194607 1.5040774 1.5040774 0.50747695 0.50747695
 3 1.7721728   -1.097709   -2.75725 0.50956482 1.5040774 1.5040774 0.53619081 0.53619081
 4 2.1748705 -0.94969212 -2.6800258 0.50721855 1.5040774 1.5040774  1.3415862  1.3415862
 4 1.7633094   -1.138685 -2.4737676 0.66495117 1.5040774 1.5040774 0.51846403 0.51846403
 1 1.7559649  -1.1502064 -3.5158905 0.59698708 1.5040774 1.5040774 0.50377506 0.50377506
12 1.7559649  -1.2624586 -3.8865241 0.71386394 1.5040774 1.5040774 0.50377507 0.50377507
 3 1.7552999  -1.6419012 -2.4732823 0.70214156 1.5040774 1.5040774 0.50244495 0.50244495
 1 1.7559318  -1.3124733  -2.9815526  0.4774186 1.5040774 1.5040774 0.50370883 0.50370883
 1 1.7559612  -1.4351091  -3.0292588 0.58320981 1.5040774 1.5040774 0.50376769 0.50376769
 9 1.7558955  -1.1755724  -2.8636725 0.63345984 1.5040774 1.5040774  0.5036363  0.5036363
 1 1.7579032  -1.6843776  -1.4637408 0.66004827 1.5040774 1.5040774 0.50765156 0.50765156
 1 1.6415437   -1.620966  -1.2865715 0.70611167 1.5040774 1.5040774 0.27493256 0.27493256
 1 1.6687539  -1.5660506  -1.3513999 0.71068458 1.5040774 1.5040774 0.32935293 0.32935293
 2 1.7559829  -1.6964743   0.7939581 0.87532567 1.5040774 1.5040774 0.50381106 0.50381106
 1 1.6731623  -1.7288578 -0.42579292 0.54025307 1.5040774 1.5040774 0.33816975 0.33816975
 1 1.7559846 -0.68727364  -3.2928945 0.59681363 1.5040774 1.5040774 0.50381439 0.50381439
 2 1.7559686 -0.70352618  -3.3519038 0.59998581 1.5040774 1.5040774 0.50378251 0.50378251
 4 1.8968878 -0.67278588  -2.9124478   0.558643 1.5040774 1.5040774 0.78562076 0.78562076
 1 1.7924352  -0.5630892  -3.1117625 0.51963836 1.5040774 1.5040774 0.57671554 0.57671554
 4  1.755986 -0.52870492  -3.5200081 0.48029403 1.5040774 1.5040774 0.50381727 0.50381727
 2 1.7559649 -0.53560746   -3.899783 0.44240326 1.5040774 1.5040774 0.50377508 0.50377508
10 1.7559649  -0.5357346  -3.8949768  0.4424053 1.5040774 1.5040774 0.50377508 0.50377508
 6  1.755965 -0.53491674  -3.8358313 0.44238169 1.5040774 1.5040774 0.50377511 0.50377511
 1 1.7559651 -0.54135587  -3.7636253 0.44015316 1.5040774 1.5040774 0.50377534 0.50377534
 7 1.7559462   -1.509897  -2.9427139 0.53492103 1.5040774 1.5040774  0.5037377  0.5037377
 1 1.6567855  -1.5378213   -1.250305 0.48961928 1.5040774 1.5040774 0.30541621 0.30541621
 1 1.7521686  -1.3761331 -0.31138431 0.88103023 1.5040774 1.5040774 0.49618243 0.49618243
11 1.7498836 -1.3476156  -0.34836286  0.8799742 1.5040774 1.5040774 0.49161233 0.49161233
 3 1.7530974 -1.3841037  -0.27479381 0.88145078 1.5040774 1.5040774 0.49803991 0.49803991
 4 1.7558324 -1.4853737   0.23151756 0.82600557 1.5040774 1.5040774 0.50350994 0.50350994
 3 1.8548604 -1.2349981   0.45056591 0.88816646 1.5040774 1.5040774 0.70156603 0.70156603
 3 1.7278467 -1.0956551  -0.03700294 0.83106247 1.5040774 1.5040774  0.4475386  0.4475386
 2  1.736693 -1.1256574  -0.03337463 0.83361474 1.5040774 1.5040774 0.46523128 0.46523128
 4 1.6953489 -1.0651147 -0.081835852 0.81998556 1.5040774 1.5040774   0.382543   0.382543
 1 1.7105004  -1.158196  -0.31781833 0.84776122 1.5040774 1.5040774 0.41284593 0.41284593
 1  1.759993 -1.4912916   0.26322283 0.79021246 1.5040774 1.5040774 0.51183126 0.51183126
 9 1.7559482 -1.5630971   0.41498449 0.83854446 1.5040774 1.5040774 0.50374162 0.50374162
 2 1.7559643  -1.592639   0.49622547 0.83349025 1.5040774 1.5040774 0.50377388 0.50377388
 3 1.7559647 -1.9198907   0.43105183   0.876563 1.5040774 1.5040774 0.50377461 0.50377461
13 1.7559387  -1.825696 -0.064007585 0.84067257 1.5040774 1.5040774 0.50372261 0.50372261
 1 1.7559237 -1.8442252  -0.16843004 0.84185852 1.5040774 1.5040774 0.50369265 0.50369265
 4 2.0332453 -1.6260957   -1.2440155 0.53439852 1.5040774 1.5040774  1.0583357  1.0583357
 1 2.7310645 -1.5276306    -1.655927 0.62985637 1.5040774 1.5040774  2.4539742  2.4539742
 6 1.7554542 -1.8244973 -0.056148373 0.71702788 1.5040774 1.5040774 0.50275364 0.50275364
 2 1.7555061 -1.3890791   -2.6564635  0.7449818 1.5040774 1.5040774 0.50285747 0.50285747
 2 1.7551786   -1.35221   -2.3789764 0.73546287 1.5040774 1.5040774 0.50220236 0.50220236
 8 1.7904553 -1.1938576   -2.2943739 0.87546241 1.5040774 1.5040774 0.57275585 0.57275585
 7 1.7460734  -1.6427925  -2.0329879  0.7238475 1.5040774 1.5040774 0.48399202 0.48399202
 1  1.738777  -1.7461025  -1.0644931 0.78569866 1.5040774 1.5040774 0.46939931 0.46939931
 5 1.7559649 -0.75919732  -3.6899561 0.80422109 1.5040774 1.5040774 0.50377507 0.50377507
 8 1.7559649 -0.74848518  -3.6571382 0.80729753 1.5040774 1.5040774 0.50377507 0.50377507
 4 1.7559647  -1.0921732  -3.2931355  0.8127653 1.5040774 1.5040774  0.5037746  0.5037746
 5  1.755134  -1.5544454  -2.4755812 0.59222516 1.5040774 1.5040774 0.50211311 0.50211311
 6 1.7538909   -1.622663  -2.2790664 0.59443075 1.5040774 1.5040774 0.49962707 0.49962707
 1 1.6811593   -1.901833   -1.129533 0.52702252 1.5040774 1.5040774 0.35416379 0.35416379
12 1.6500906  -1.9598532 -0.77064541 0.59077038 1.5040774 1.5040774 0.29202639 0.29202639
 2 1.7209165   -1.933439  -0.9296766 0.66706756 1.5040774 1.5040774 0.43367811 0.43367811
 8  1.735315  -1.7522994 -0.80078835 0.73375878 1.5040774 1.5040774 0.46247531 0.46247531
13 1.7555848  -1.7972376  -2.4518318 0.56104346 1.5040774 1.5040774 0.50301477 0.50301477
 1 1.7431873  -1.7857037  -1.9902397 0.49133043 1.5040774 1.5040774 0.47821982 0.47821982
 2 1.7533487  -1.6881242  -2.4094777 0.46770491 1.5040774 1.5040774 0.49854268 0.49854268
 2 1.7466555  -1.8887512  -1.4131406 0.77180589 1.5040774 1.5040774 0.48515622 0.48515622
 1 1.7305102  -1.7274537  -1.6665869 0.75424746 1.5040774 1.5040774 0.45286561 0.45286561
10  1.730401  -1.7278984  -1.6647084 0.75378093 1.5040774 1.5040774 0.45264721 0.45264721
 6  1.734323   -1.748136  -1.6943007 0.74554726 1.5040774 1.5040774 0.46049114 0.46049114
 1  1.755875  -1.5723612  -2.7360362 0.73386832 1.5040774 1.5040774 0.50359514 0.50359514
 6 1.6036919  -1.5716536  -1.0496304 0.73022943 1.5040774 1.5040774 0.19922894 0.19922894
 7 1.7253716  -1.7372431 0.094690356 0.57539174 1.5040774 1.5040774 0.44258844 0.44258844
 1 1.7365923  -1.7248748  -1.4650614 0.65905734 1.5040774 1.5040774  0.4650299  0.4650299
 5 1.7559651 -0.41855663  -3.7235821 0.53549295 1.5040774 1.5040774 0.50377545 0.50377545
 2 1.7560641 -0.60756685  -3.2650899 0.60406623 1.5040774 1.5040774 0.50397333 0.50397333
 2 1.7559842 -0.61113218  -3.3336873  0.6070881 1.5040774 1.5040774 0.50381353 0.50381353
 2 1.7559842 -0.61321122  -3.3329997   0.606372 1.5040774 1.5040774 0.50381358 0.50381358
 4 2.5476721 -0.64136234  -2.8920449  0.5178362 1.5040774 1.5040774  2.0871894  2.0871894
 9 3.5316343 -0.70608414  -2.8080005 0.50393796 1.5040774 1.5040774  4.0551139  4.0551139
 2 1.8369656 -0.57191329  -3.0500882 0.53240429 1.5040774 1.5040774 0.66577631 0.66577631
 2 1.8032592 -0.56840674  -3.0816233 0.53107157 1.5040774 1.5040774 0.59836356 0.59836356
 3 1.7559713 -0.78051229  -3.1625392 0.79723332 1.5040774 1.5040774 0.50378772 0.50378772
 1 1.7559649 -0.73931249  -3.8238459 0.81643125 1.5040774 1.5040774 0.50377507 0.50377507
 4 1.7559649 -0.58975936  -3.9353063 0.81712233 1.5040774 1.5040774 0.50377507 0.50377507
 8 1.7559649  -0.6259813  -3.8319851 0.79855551 1.5040774 1.5040774 0.50377507 0.50377507
 2 1.9120372  -1.0996901  -2.3443327  0.8235099 1.5040774 1.5040774 0.81591963 0.81591963
 3 1.6794254 -0.74816526 0.010668106 0.88927156 1.5040774 1.5040774   0.350696   0.350696
12 1.7263984 -0.66569226  0.55791996 0.89424755 1.5040774 1.5040774 0.44464207 0.44464207
 1 1.7442444    -1.05789  0.21845341 0.82888182 1.5040774 1.5040774   0.480334   0.480334
 1 1.7435378  -1.0548433  0.20753472 0.82771043 1.5040774 1.5040774 0.47892088 0.47892088
17 1.6254138 -0.98968688 -0.46808863 0.88413824 1.5040774 1.5040774 0.24267275 0.24267275
 1 1.7562109 -0.56316228   -3.1570523 0.85457799 1.5040774 1.5040774 0.50426701 0.50426701
 2 1.7565395 -0.50387342   -3.1142976 0.79068198 1.5040774 1.5040774 0.50492414 0.50492414
 5 1.7559536  -1.0842118   -3.0142022 0.69143963 1.5040774 1.5040774  0.5037524  0.5037524
 4 1.7559492  -1.0813539   -2.9916755 0.69144685 1.5040774 1.5040774 0.50374351 0.50374351
 1 1.7555385  -1.6657555    -2.508636 0.69460627 1.5040774 1.5040774 0.50292228 0.50292228
 1 1.7559202  -1.6550368   -2.7376002 0.68490186 1.5040774 1.5040774 0.50368565 0.50368565
 1   1.75557  -1.7462428   -2.4681879 0.70570427 1.5040774 1.5040774 0.50298513 0.50298513
 6 1.7549667  -1.8271134     -2.19087 0.65108807 1.5040774 1.5040774 0.50177856 0.50177856
 4 1.7555998  -1.9811586   -2.2646134 0.66409806 1.5040774 1.5040774  0.5030449  0.5030449
 1 1.7459454  -1.5348545   -2.1419033 0.81829499 1.5040774 1.5040774 0.48373606 0.48373606
 2 1.7545286  -1.4518505   -2.5000111 0.79337125 1.5040774 1.5040774 0.50090249 0.50090249
 9 1.7344173  -1.9984499   -1.4834858 0.53605153 1.5040774 1.5040774 0.46067981 0.46067981
 7 1.7983992  -1.4550805    0.2669206 0.58227193 1.5040774 1.5040774 0.58864353 0.58864353
 1 1.6505981  -1.5527952 0.0062526872 0.58169169 1.5040774 1.5040774  0.2930414  0.2930414
17 1.7559649 -0.39615807   -3.7858197 0.88515565 1.5040774 1.5040774 0.50377507 0.50377507
 3 1.7560657 -0.40585794   -3.3048181 0.70611139 1.5040774 1.5040774 0.50397659 0.50397659
16 1.7559649 -0.68362642   -3.8710278 0.46172657 1.5040774 1.5040774 0.50377507 0.50377507
 2 1.7273162  -1.8599809   -1.6525054 0.44997763 1.5040774 1.5040774 0.44647753 0.44647753
 1 1.7435781  -1.7183691  -0.64626485 0.44128066 1.5040774 1.5040774 0.47900133 0.47900133
 4 2.1417039  -1.4154381   -1.3313243 0.46196811 1.5040774 1.5040774   1.275253   1.275253
 5 1.7887602  -1.5099612   -1.3675013 0.48006082 1.5040774 1.5040774 0.56936568 0.56936568
 1 1.5819949  -1.6213357   -1.2475028 0.49688893 1.5040774 1.5040774 0.15583503 0.15583503
 1   1.75272  -1.7639134  -0.55091091 0.41601764 1.5040774 1.5040774 0.49728512 0.49728512
 2 1.7567886 -0.67064311     -3.11553 0.60940904 1.5040774 1.5040774 0.50542238 0.50542238
 5 1.7559649 -0.99234529   -3.5011914 0.73157016 1.5040774 1.5040774 0.50377506 0.50377506
14 1.6604562  -1.4180659   -1.2417082 0.44657168 1.5040774 1.5040774 0.31275768 0.31275768
 1 1.7558386  -1.9282036 -0.094420362 0.43472787 1.5040774 1.5040774 0.50352244 0.50352244
 6  1.795321  -1.9148696   0.94887687 0.80748634 1.5040774 1.5040774 0.58248713 0.58248713
 1 1.7547246  -1.7128013   -0.2487271 0.75854635 1.5040774 1.5040774 0.50129437 0.50129437
 3 1.8052298  -1.5876007   0.40519906 0.60295728 1.5040774 1.5040774 0.60230477 0.60230477
 2 1.7557847  -1.7459665  -0.20824594 0.82296274 1.5040774 1.5040774 0.50341462 0.50341462
 2 1.7217301  -1.6342888   -1.0070083 0.79243077 1.5040774 1.5040774 0.43530549 0.43530549
14 1.7559649  -1.9523526   -3.5129716 0.83828063 1.5040774 1.5040774 0.50377507 0.50377507
 4 1.7559649  -1.9840869   -3.8433358  0.8658307 1.5040774 1.5040774 0.50377507 0.50377507
12 1.7209096  -1.1085539  -0.32774972 0.89431173 1.5040774 1.5040774 0.43366433 0.43366433
 5 1.7503509  -1.2557027  -0.21960393 0.89387044 1.5040774 1.5040774 0.49254701 0.49254701
15 1.7204986   -1.711195    -1.545886 0.75904743 1.5040774 1.5040774 0.43284249 0.43284249
 9 1.7214052  -1.6650037    -1.681269 0.76315957 1.5040774 1.5040774 0.43465553 0.43465553
 2 1.7559651 -0.80165306   -3.3318426 0.87682083 1.5040774 1.5040774 0.50377544 0.50377544
 1 1.7557618  -1.1609188   -2.7446985 0.67893153 1.5040774 1.5040774 0.50336876 0.50336876
 1  1.746416 -1.2256232  0.30812746 0.75183086 1.5040774 1.5040774 0.48467716 0.48467716
 2 2.3753984 -1.2143145  -1.6749635 0.82722043 1.5040774 1.5040774   1.742642   1.742642
 5 2.1671952  -1.308474  -1.9232437 0.73730615 1.5040774 1.5040774  1.3262356  1.3262356
 6 1.7559649  -1.262704  -3.4820491 0.71621604 1.5040774 1.5040774 0.50377506 0.50377506
 2 1.7559649 -1.0035632  -3.4166234 0.60867327 1.5040774 1.5040774 0.50377503 0.50377503
 3 1.7559649 -1.0057619  -3.5038166 0.53492201 1.5040774 1.5040774 0.50377506 0.50377506
11 1.7558651 -1.4124261  -2.8949378 0.40305477 1.5040774 1.5040774 0.50357537 0.50357537
 3 1.7559649 -1.3115708  -3.9074131 0.44037324 1.5040774 1.5040774 0.50377507 0.50377507
 1 1.7559649  -1.092882  -3.9627896  0.6208326 1.5040774 1.5040774 0.50377507 0.50377507
 4 1.9035453 -1.2922477  -2.0872929 0.73322519 1.5040774 1.5040774 0.79893572 0.79893572
 4 1.7156445 -1.2260039  -1.5960611 0.88264923 1.5040774 1.5040774 0.42313427 0.42313427
 1 1.6101663 -1.3175783  -1.0431004 0.87797252 1.5040774 1.5040774 0.21217778 0.21217778
 5 1.7595196 -1.2976228  -2.2884347 0.82907421 1.5040774 1.5040774 0.51088438 0.51088438
 1 1.7496491 -1.3483392  -2.2434155 0.85657333 1.5040774 1.5040774  0.4911434  0.4911434
 6   1.62944 -1.9504787 -0.22680766 0.59840668 1.5040774 1.5040774 0.25072519 0.25072519
 1  3.164948 -1.2030101  -1.8776666 0.71351877 1.5040774 1.5040774  3.3217413  3.3217413
 5 1.7361635 -1.1537641 -0.62887588 0.78510425 1.5040774 1.5040774 0.46417218 0.46417218
 2 1.7485653 -1.7366078 -0.57333803 0.74504564 1.5040774 1.5040774  0.4889758  0.4889758
 4 2.5100904  -1.613665  -1.0551413 0.55207891 1.5040774 1.5040774  2.0120261  2.0120261
 5 1.6016714 -1.4521954 -0.45082845  0.5404984 1.5040774 1.5040774 0.19518805 0.19518805
13 1.6342047  -1.1376696 -0.034507732 0.76725859 1.5040774 1.5040774 0.26025466 0.26025466
 2 1.7562571   -1.559624   0.79661206 0.73567965 1.5040774 1.5040774 0.50435947 0.50435947
 8 3.2470782  -1.6200976  -0.51952233 0.66153892 1.5040774 1.5040774  3.4860016  3.4860016
 1 3.1268792  -1.6361631  -0.52387427 0.65671965 1.5040774 1.5040774  3.2456037  3.2456037
 7 1.7559649  -1.6583056   -3.8413914 0.85140959 1.5040774 1.5040774 0.50377507 0.50377507
 2 1.7559649  -1.2323824   -3.8266366 0.84325325 1.5040774 1.5040774 0.50377507 0.50377507
 1 1.7445647    -1.42709   -2.1892528 0.87992142 1.5040774 1.5040774 0.48097462 0.48097462
 2 1.7559649  -1.0705001   -3.7700407 0.70085183 1.5040774 1.5040774 0.50377507 0.50377507
 3 1.7559649  -1.9964149     -3.73594 0.55637789 1.5040774 1.5040774 0.50377507 0.50377507
 3 1.7559649  -1.9487427   -3.7529386 0.43296052 1.5040774 1.5040774 0.50377507 0.50377507
11 1.7559649  -1.8676245   -3.5062851 0.43510046 1.5040774 1.5040774 0.50377507 0.50377507
 1 1.7559649  -1.9597268   -3.3934602 0.42412015 1.5040774 1.5040774 0.50377506 0.50377506
 4 1.7557411  -1.9719243   -2.5418011 0.43936719 1.5040774 1.5040774 0.50332747 0.50332747
 2 1.7559481   -1.807197    -2.912823 0.42322153 1.5040774 1.5040774 0.50374144 0.50374144
 2 1.6133019  -1.5976632   -1.3953151 0.48017917 1.5040774 1.5040774 0.21844897 0.21844897
 3 1.9355818  -1.4507566   -1.5351817 0.45123543 1.5040774 1.5040774 0.86300874 0.86300874
12 1.7937406  -1.4740905  -0.37080664 0.56706961 1.5040774 1.5040774  0.5793265  0.5793265
 1 1.7559428  -1.1223116   -2.9961298 0.87217816 1.5040774 1.5040774 0.50373077 0.50373077
 1 1.7559652  -0.7171081   -3.3816979 0.84093334 1.5040774 1.5040774 0.50377552 0.50377552
 3 1.7559902 -0.52634083   -3.2718629  0.7250221 1.5040774 1.5040774 0.50382557 0.50382557
 6 1.7559649 -0.36527616   -3.9170157 0.76442682 1.5040774 1.5040774 0.50377507 0.50377507
 5 1.7559649 -0.76302455   -3.6022361  0.5503692 1.5040774 1.5040774  0.5037751  0.5037751
 2 1.7559649 -0.67702355   -3.6999086 0.55861761 1.5040774 1.5040774 0.50377508 0.50377508
11 1.7559649 -0.59189275   -3.8962031 0.53082868 1.5040774 1.5040774 0.50377507 0.50377507
 2 1.7559659 -0.63542644   -3.5438889 0.52323391 1.5040774 1.5040774 0.50377702 0.50377702
 3 1.7559629  -1.3829092   -3.0439729  0.6854899 1.5040774 1.5040774 0.50377103 0.50377103
 4  1.755958  -1.6659225     -2.87503 0.68003028 1.5040774 1.5040774 0.50376126 0.50376126
 4 1.7559649  -1.7480635    -3.323395 0.59392212 1.5040774 1.5040774 0.50377506 0.50377506
 1 1.7559645  -1.9725403   -3.0589205 0.46856621 1.5040774 1.5040774 0.50377421 0.50377421
13  1.635422  -1.6152197   -1.2402618 0.41978841 1.5040774 1.5040774  0.2626892  0.2626892
 4 1.6570888  -1.5232342  -0.96040494 0.40949991 1.5040774 1.5040774 0.30602289 0.30602289
22 1.7005539  -1.0828268 -0.058082682 0.41877399 1.5040774 1.5040774 0.39295308 0.39295308
 4 1.5680723  -1.4620604   -1.0321646 0.47999318 1.5040774 1.5040774 0.12798979 0.12798979
10 1.6961483   -1.682786   -1.7703741 0.45155861 1.5040774 1.5040774  0.3841419  0.3841419
 2 1.7382149  -1.8657315   -1.3386275 0.40191335 1.5040774 1.5040774 0.46827494 0.46827494
 7 1.7559649   -1.862405   -3.9927339 0.70049919 1.5040774 1.5040774 0.50377507 0.50377507
 1 1.7559647  -1.8307772   -3.0208858 0.58768793 1.5040774 1.5040774 0.50377451 0.50377451
 2 1.7559649  -1.5883618   -3.8204222 0.54447219 1.5040774 1.5040774 0.50377507 0.50377507
 2 1.7559649  -1.6146986   -3.6488023 0.54841114 1.5040774 1.5040774 0.50377507 0.50377507
 2  1.748192    -1.84612   -1.5264366 0.82535671 1.5040774 1.5040774 0.48822922 0.48822922
 7   1.74303  -1.4237019  -2.1662825 0.87620404 1.5040774 1.5040774  0.47790526  0.47790526
 6 1.7458217  -1.4253025  -2.2124822 0.88823991 1.5040774 1.5040774  0.48348854  0.48348854
 3  1.755964  -1.9378349  -2.8563588 0.61737907 1.5040774 1.5040774  0.50377318  0.50377318
 1 1.7559626  -1.6760467  -2.9141351 0.65093133 1.5040774 1.5040774  0.50377039  0.50377039
 9 1.7543104  -1.9312786  -1.9539401 0.84341147 1.5040774 1.5040774  0.50046607  0.50046607
 2  1.755962  -1.7601372  -2.9155924 0.84882146 1.5040774 1.5040774  0.50376924  0.50376924
 3 1.7559611  -1.7573041  -2.8969323 0.84463047 1.5040774 1.5040774  0.50376736  0.50376736
 9 1.7558589  -1.2861613   -2.789891 0.64872668 1.5040774 1.5040774  0.50356294  0.50356294
 3  2.266621  -1.1563254  -2.1170659 0.80143301 1.5040774 1.5040774   1.5250873   1.5250873
 8 1.7559649  -1.3856656  -3.7234982 0.87176484 1.5040774 1.5040774  0.50377507  0.50377507
 3 1.7559626  -1.3843535  -3.0857155  0.8157328 1.5040774 1.5040774  0.50377039  0.50377039
 6 1.7557732  -1.3161062  -2.7777956 0.80935384 1.5040774 1.5040774  0.50339164  0.50339164
 1 1.7559716 -0.90959527  -3.1068707 0.86053089 1.5040774 1.5040774  0.50378848  0.50378848
 7 1.5306328  -1.1449465 -0.93018117 0.88459466 1.5040774 1.5040774 0.053110891 0.053110891
20 1.7460206  -1.7459227  -1.7443144 0.86897872 1.5040774 1.5040774  0.48388636  0.48388636
 6 1.7557774  -1.8385674 -0.50914948 0.87598204 1.5040774 1.5040774  0.50340007  0.50340007
 6 1.7559641  -1.9812055  0.17132682  0.8747648 1.5040774 1.5040774   0.5037735   0.5037735
 7 1.7517327  -1.8637735  0.46128281 0.66223215 1.5040774 1.5040774  0.49531051  0.49531051
 2 1.7559455  -1.9235398  0.74175153 0.67231079 1.5040774 1.5040774  0.50373629  0.50373629
 2 1.7553357  -1.8409274  0.30597663 0.67372328 1.5040774 1.5040774  0.50251655  0.50251655
 5 1.7553062 -1.8403778  0.30614919 0.67341881 1.5040774 1.5040774   0.50245758   0.50245758
 1 1.9225868 -1.6797721  -1.7007734 0.56214975 1.5040774 1.5040774   0.83701872   0.83701872
 1 1.5088981 -1.4154961  -1.1400825 0.41293195 1.5040774 1.5040774 0.0096414296 0.0096414296
 2 1.5110521 -1.4181537  -1.1323785 0.41270353 1.5040774 1.5040774  0.013949371  0.013949371
13 1.6253393 -1.3260741  -0.5029245 0.46129388 1.5040774 1.5040774    0.2425239    0.2425239
 1 1.5879238 -1.7983877  -0.3446871 0.63050096 1.5040774 1.5040774   0.16769279   0.16769279
 1 1.5870454 -1.7990353 -0.35393798 0.62986828 1.5040774 1.5040774    0.1659361    0.1659361
 4 1.6680788  -1.786273   -0.391565 0.63280445 1.5040774 1.5040774   0.32800281   0.32800281
 1 1.6090638 -1.8283531 -0.36992616  0.6350221 1.5040774 1.5040774   0.20997276   0.20997276
 3 1.7558887 -1.8265506  0.20529836  0.7249101 1.5040774 1.5040774   0.50362263   0.50362263
 2  1.755894 -1.8329935  0.44106127  0.6909441 1.5040774 1.5040774   0.50363313   0.50363313
 6 1.7559586 -1.7599197  0.47303122 0.77116109 1.5040774 1.5040774   0.50376244   0.50376244
 1 1.7559418 -1.9275379  0.45160981 0.69390364 1.5040774 1.5040774   0.50372889   0.50372889
 3 1.7488627 -1.9198584  -0.9003081 0.72840882 1.5040774 1.5040774   0.48957068   0.48957068
 1 1.7558439 -1.4989837  -2.6766848 0.64443872 1.5040774 1.5040774   0.50353299   0.50353299
 6 1.7855719 -1.1315684  -2.3992874 0.74076109 1.5040774 1.5040774   0.56298907   0.56298907
 1 1.7559649  -1.498627  -3.5744198 0.71181835 1.5040774 1.5040774   0.50377507   0.50377507
 2 1.7559649 -1.3120623   -3.408946 0.72123011 1.5040774 1.5040774   0.50377506   0.50377506
 2 1.7056191 -1.7477061 -0.85037678 0.47665697 1.5040774 1.5040774   0.40308335   0.40308335
 2 1.7536096 -1.8492771  -2.3243274 0.43898262 1.5040774 1.5040774   0.49906437   0.49906437
 3 1.7558438 -1.9671182   -2.4150965 0.65436594 1.5040774 1.5040774 0.50353286 0.50353286
 1 1.7529569 -1.6331415   -2.1554433  0.6333805 1.5040774 1.5040774 0.49775904 0.49775904
 2 1.6785461 -1.8486109  -0.83519321 0.65879171 1.5040774 1.5040774 0.34893742 0.34893742
 5 1.7487299 -1.9487317  -0.81529834 0.70748902 1.5040774 1.5040774 0.48930495 0.48930495
 4 1.7375022 -1.9263299   -1.0310469 0.69593948 1.5040774 1.5040774  0.4668496  0.4668496
 8 1.7208675 -1.8694495   -1.3802141 0.66494035 1.5040774 1.5040774 0.43358021 0.43358021
 4 1.7323716 -1.8770588   -1.4270506 0.69650088 1.5040774 1.5040774 0.45658849 0.45658849
 5 1.7559187 -1.2959653   -2.9088232 0.84216588 1.5040774 1.5040774 0.50368263 0.50368263
 4 1.7559649 -1.5257569   -3.9765679 0.87078715 1.5040774 1.5040774 0.50377507 0.50377507
 1 1.7559649 -1.6091677   -3.9794691 0.86022933 1.5040774 1.5040774 0.50377507 0.50377507
 2 1.7559528  -1.457684   -3.0104134 0.51788061 1.5040774 1.5040774 0.50375072 0.50375072
 1 2.3206114 -1.4670976   -1.7441964 0.47749125 1.5040774 1.5040774  1.6330681  1.6330681
 6 2.1074141 -1.4928655   -1.7115748 0.47734967 1.5040774 1.5040774  1.2066734  1.2066734
12 1.5688035 -1.4839178   -1.1002198 0.75747786 1.5040774 1.5040774 0.12945215 0.12945215
 2 1.7515949 -1.8909843 -0.015394717 0.54341124 1.5040774 1.5040774 0.49503499 0.49503499
 8 1.7593923 -1.2782561   0.75321377 0.85067971 1.5040774 1.5040774 0.51062978 0.51062978
 1 1.7558854 -1.8981227  -0.01234819 0.42205162 1.5040774 1.5040774 0.50361604 0.50361604
 3 1.7558813 -1.8687318  0.072736132 0.43236828 1.5040774 1.5040774 0.50360784 0.50360784
 5 2.3677148 -1.5970813   -1.5411382 0.53343195 1.5040774 1.5040774  1.7272748  1.7272748
 3 1.8058677 -1.6000531    -1.956855 0.52896026 1.5040774 1.5040774 0.60358056 0.60358056
 4 1.7552757  -1.6679669  -1.9563463 0.51249865 1.5040774 1.5040774 0.50239669 0.50239669
 3  1.755959  -1.5779378  -3.0494142 0.47500167 1.5040774 1.5040774 0.50376312 0.50376312
 5 1.7604007 -0.90814586  -3.0682887 0.44674602 1.5040774 1.5040774 0.51264661 0.51264661
 3 1.7569353 -0.92353304  -3.1303792 0.45005552 1.5040774 1.5040774 0.50571574 0.50571574
 5 1.7828425  -1.0972378  -2.7677722 0.48124421 1.5040774 1.5040774 0.55753021 0.55753021
 6 1.6528917  -1.7581718  -1.0754064 0.67551908 1.5040774 1.5040774 0.29762857 0.29762857
 1 2.2212596  -1.5189385  -1.1235249 0.68359046 1.5040774 1.5040774  1.4343643  1.4343643
 4  1.745229  -1.5647319 -0.77694176 0.85669814 1.5040774 1.5040774 0.48230323 0.48230323
 6 1.8208491   -1.667095  -0.2952924 0.66224376 1.5040774 1.5040774 0.63354337 0.63354337
 6 2.7480145  -0.6562689   -2.631372 0.85065946 1.5040774 1.5040774  2.4878742  2.4878742
15 1.7418457  -1.8117306  -1.4379827 0.79104475 1.5040774 1.5040774 0.47553657 0.47553657
 9 1.7539408  -1.9786125  -1.2048388 0.82136338 1.5040774 1.5040774 0.49972677 0.49972677
 5 1.7536668  -1.9665368  -1.1635889 0.81205157 1.5040774 1.5040774 0.49917887 0.49917887
 6 1.7594143 -0.97229758  -2.8098335 0.60024576 1.5040774 1.5040774 0.51067373 0.51067373
 2 1.7559663 -0.99197417  -3.1192684 0.59132676 1.5040774 1.5040774 0.50377772 0.50377772
17 1.7559649  -1.1467507  -3.6815817  0.4896976 1.5040774 1.5040774 0.50377507 0.50377507
 1 1.7559305  -1.5957392  -2.9668265 0.41025988 1.5040774 1.5040774 0.50370627 0.50370627
 2 1.7559649   -1.903711   -3.677784 0.57372214 1.5040774 1.5040774 0.50377507 0.50377507
 3 1.7559649  -1.9029567  -3.7156377 0.56656737 1.5040774 1.5040774 0.50377507 0.50377507
 7 1.7552373  -1.8166831 -0.27276699 0.43014888 1.5040774 1.5040774 0.50231977 0.50231977
18 1.7559649 -1.5767195   -3.8570507 0.41787098 1.5040774 1.5040774 0.50377507 0.50377507
 4 1.7559649 -1.5567416   -3.6898137 0.41207745 1.5040774 1.5040774 0.50377507 0.50377507
 1 1.7559649  -1.623124   -3.9914745 0.42173062 1.5040774 1.5040774 0.50377507 0.50377507
 1 1.7559636 -1.1082695   -3.1924035 0.57389227 1.5040774 1.5040774  0.5037724  0.5037724
 3 1.7484014 -1.9067354  -0.10966442 0.66026466 1.5040774 1.5040774 0.48864792 0.48864792
 5 1.7574233 -1.1600947   -2.5949665 0.74758616 1.5040774 1.5040774 0.50669187 0.50669187
 8 1.7648368 -1.8594755   -1.6024651 0.60631513 1.5040774 1.5040774 0.52151883 0.52151883
11 1.7552701   -1.98332     -2.07751 0.60835376 1.5040774 1.5040774 0.50238542 0.50238542
 5 1.7538338  -1.991401   -1.8757306 0.60042107 1.5040774 1.5040774 0.49951287 0.49951287
 1 1.7558599 -1.9735241  -0.25989508  0.4049007 1.5040774 1.5040774 0.50356499 0.50356499
 3 1.7483694 -1.5581721 -0.046438886 0.49266046 1.5040774 1.5040774 0.48858409 0.48858409
 3 1.7559649  -1.601367   -3.8481021 0.57923571 1.5040774 1.5040774 0.50377507 0.50377507
13 1.7601311 -1.4271945    0.8686476  0.7346154 1.5040774 1.5040774 0.51210741 0.51210741
 3 1.7559631 -1.4865415   -3.0673493 0.79358738 1.5040774 1.5040774  0.5037715  0.5037715
 4 1.7559649  -1.306652   -3.3902538 0.82413858 1.5040774 1.5040774 0.50377504 0.50377504
 5  1.755964 -1.2821038   -3.1702411 0.79609917 1.5040774 1.5040774 0.50377316 0.50377316
 2 1.7552311  -1.349291   -2.3834939 0.73615935 1.5040774 1.5040774 0.50230738 0.50230738
18 1.7252498 -1.6295921   0.36899554 0.60756319 1.5040774 1.5040774 0.44234472 0.44234472
 3 1.6830742 -1.5033712  -0.84722619 0.40554937 1.5040774 1.5040774 0.35799354 0.35799354
 8 1.6599534   -1.60645  -0.98617763 0.73999907 1.5040774 1.5040774 0.31175209 0.31175209
 3 1.7556201  -1.7813772 -2.5498134 0.51745936 1.5040774 1.5040774 0.50308545 0.50308545
 1 1.7437847  -1.8486325 -1.8763249 0.51612205 1.5040774 1.5040774  0.4794146  0.4794146
 2 1.7272547   -1.691466 -2.0214562 0.41740253 1.5040774 1.5040774  0.4463547  0.4463547
 4 1.7559648   -1.940674 -3.0064857 0.65299539 1.5040774 1.5040774 0.50377472 0.50377472
 8 1.7559589  -1.9307226 -2.7786467 0.77218169 1.5040774 1.5040774 0.50376308 0.50376308
 3 1.7559436  -1.9578287  -2.641169 0.78524418 1.5040774 1.5040774 0.50373238 0.50373238
 5 1.7559648  -1.8816478 -3.0722084 0.77592091 1.5040774 1.5040774 0.50377478 0.50377478
21 1.7559649  -1.9092724 -3.1910794 0.76533869 1.5040774 1.5040774 0.50377504 0.50377504
 3 1.7559649  -1.3960654 -3.6838639 0.82517985 1.5040774 1.5040774 0.50377507 0.50377507
 1 1.7559597  -1.6027717 -2.9397374 0.57773339 1.5040774 1.5040774 0.50376462 0.50376462
 2 1.7555455  -1.7988101 -2.4671007 0.54626802 1.5040774 1.5040774 0.50293624 0.50293624
 3 1.7512931  -1.9953735 -1.6146471  0.7350182 1.5040774 1.5040774 0.49443143 0.49443143
 8 1.7306834  -1.4762335 -0.3083743 0.74593622 1.5040774 1.5040774 0.45321202 0.45321202
 5 1.7542554  -1.4821582 0.06558373  0.7658857 1.5040774 1.5040774 0.50035605 0.50035605
 3 1.7522376  -1.3585344 0.10172197 0.77674849 1.5040774 1.5040774 0.49632035 0.49632035
 8 1.7559631  -1.3454551  0.6826182 0.88287153 1.5040774 1.5040774 0.50377138 0.50377138
17 1.7559534  -1.3285339 0.68516409 0.89044056 1.5040774 1.5040774 0.50375201 0.50375201
 7 1.7611168 -0.83915022 -3.1030127 0.45176143 1.5040774 1.5040774 0.51407889 0.51407889
 7 1.8079239  -1.2814475 -2.5982245 0.41272713 1.5040774 1.5040774 0.60769292 0.60769292
15 1.6574404  -1.6473191 0.45191599 0.67485522 1.5040774 1.5040774 0.30672597 0.30672597
 5 1.6483807  -1.6542673   0.47163972 0.66385953 1.5040774 1.5040774 0.28860662 0.28860662
 5 2.0628576  -1.2755015   -1.8215142 0.79944287 1.5040774 1.5040774  1.1175603  1.1175603
 2 1.7283841  -1.7513043   -1.2421619 0.65511245 1.5040774 1.5040774 0.44861343 0.44861343
 1 1.7559353  -1.8339268   -2.6198096 0.64444034 1.5040774 1.5040774 0.50371575 0.50371575
 2 1.7559559  -1.7511481   -2.7918313 0.60128447 1.5040774 1.5040774 0.50375705 0.50375705
 8 1.7559649  -1.7525278   -3.6851939  0.4412163 1.5040774 1.5040774 0.50377507 0.50377507
 4 1.8575569 -0.54443741   -3.0690263 0.52281356 1.5040774 1.5040774 0.70695893 0.70695893
 3 2.0017897 -0.40764236   -3.0587883 0.57554391 1.5040774 1.5040774 0.99542469 0.99542469
 4 1.7559649 -0.39572982   -3.9045209 0.57712319 1.5040774 1.5040774 0.50377507 0.50377507
 5 1.7560623 -0.64992239   -3.2366779 0.60439284 1.5040774 1.5040774 0.50396971 0.50396971
48 1.7561037 -0.25489039   -3.4031951  0.6922168 1.5040774 1.5040774 0.50405264 0.50405264
 4  1.755965 -0.23921613   -3.8175454 0.61195253 1.5040774 1.5040774 0.50377514 0.50377514
 3 1.6970172  -1.4144016  -0.30002845 0.73877067 1.5040774 1.5040774 0.38587957 0.38587957
 5 2.0821293 -0.80957872   -2.5157274 0.77371995 1.5040774 1.5040774  1.1561037  1.1561037
 1 1.6918084   -1.550491  -0.68747535 0.45157327 1.5040774 1.5040774 0.37546203 0.37546203
 2 1.7436763  -1.3410503 -0.044832846 0.44254779 1.5040774 1.5040774 0.47919777 0.47919777
 1 2.3446772  -1.3469592   0.21258598 0.43411321 1.5040774 1.5040774  1.6811996  1.6811996
12 1.8696383  -1.7931751    0.9260449 0.49174503 1.5040774 1.5040774 0.73112179 0.73112179
 1 1.7101051  -1.8709108  -0.28501845 0.55881983 1.5040774 1.5040774 0.41205539 0.41205539
 9 1.7465717  -1.8688702  -0.97535082 0.42371324 1.5040774 1.5040774 0.48498863 0.48498863
 9 1.7559649   -1.958248 -3.7582794 0.49179356 1.5040774 1.5040774 0.50377507 0.50377507
 2 1.7559648  -1.8125404 -3.0832644 0.82186199 1.5040774 1.5040774 0.50377472 0.50377472
 4 1.7559648  -1.8050365 -3.1018736 0.81903148 1.5040774 1.5040774  0.5037748  0.5037748
18 1.7559639  -1.9836311 -2.8929435 0.76385665 1.5040774 1.5040774 0.50377303 0.50377303
 2 1.7559649  -1.5779262 -3.3876014 0.85598432 1.5040774 1.5040774 0.50377506 0.50377506
 5 1.7559649 -0.94401254 -3.7765518 0.84943694 1.5040774 1.5040774 0.50377507 0.50377507
 2 1.7551121  -1.6952522 -2.3974115  0.8405252 1.5040774 1.5040774 0.50206934 0.50206934
 2 1.7572445  -1.6693917 -1.9970213 0.52914894 1.5040774 1.5040774 0.50633416 0.50633416
 1 1.7559645  -1.3941901 -3.1582491 0.60188347 1.5040774 1.5040774 0.50377424 0.50377424
 1 1.7565408  -1.4238033 -2.0255469 0.76211897 1.5040774 1.5040774 0.50492681 0.50492681
27 1.7681274 -0.28592611 -3.1947183 0.67075465 1.5040774 1.5040774 0.52809992 0.52809992
 6 1.7559649  -1.6783174 -3.7523867 0.58286084 1.5040774 1.5040774 0.50377507 0.50377507
 1 1.7559649  -1.6507788 -3.6252895 0.61373928 1.5040774 1.5040774 0.50377507 0.50377507
 2 1.7559649  -1.8036621 -3.6106038  0.6371146 1.5040774 1.5040774 0.50377507 0.50377507
 2 1.7550402  -1.4915342 -2.4549663 0.64113391 1.5040774 1.5040774 0.50192562 0.50192562
 7 1.7548205  -1.5046278 -2.4186749 0.63672027 1.5040774 1.5040774 0.50148622 0.50148622
 3 1.7528457  -1.5534249 -2.1632725 0.62569292 1.5040774 1.5040774 0.49753651 0.49753651
 3 1.7559649 -0.89981475 -3.3854965 0.72844779 1.5040774 1.5040774   0.503775   0.503775
 9 1.7559649   -1.736445 -3.9539386 0.59267206 1.5040774 1.5040774 0.50377507 0.50377507
 2 1.7559649  -1.9006785 -3.7115827 0.57714291 1.5040774 1.5040774 0.50377507 0.50377507
 3 1.7559649  -1.8971975 -3.5363881  0.5799547 1.5040774 1.5040774 0.50377507 0.50377507
 8 1.7559649   -1.911305 -3.5226607 0.57436782 1.5040774 1.5040774 0.50377507 0.50377507
 4 1.7565736  -1.1813013 -2.6324475 0.61219599 1.5040774 1.5040774 0.50499248 0.50499248
22 1.7559104  -1.3913249 -2.8822597 0.55858244 1.5040774 1.5040774 0.50366594 0.50366594
 1 1.7912198  -1.0049929 -2.8534653 0.46657054 1.5040774 1.5040774 0.57428478 0.57428478
 3 1.7559649  -1.0187134  -3.677388 0.40175173 1.5040774 1.5040774 0.50377507 0.50377507
 8  1.755965 -0.64339599 -3.7874236 0.41295128 1.5040774 1.5040774 0.50377514 0.50377514
15 1.7559669 -0.60325452 -3.6482066 0.41139572 1.5040774 1.5040774 0.50377901 0.50377901
 4 1.9618197  -1.1586405 -2.2077606 0.66648178 1.5040774 1.5040774 0.91548461 0.91548461
 1 1.7559649 -0.69355809  -3.867726 0.67537139 1.5040774 1.5040774 0.50377507 0.50377507
 6 1.8101691 -0.38155096 -3.0640766 0.65864677 1.5040774 1.5040774 0.61218344 0.61218344
 1 1.7559649 -0.54805074 -3.8343754 0.66626857 1.5040774 1.5040774 0.50377507 0.50377507
 1 1.7559645 -0.87169091 -3.2446536 0.73106098 1.5040774 1.5040774 0.50377431 0.50377431
10 1.7559649 -0.63831026 -3.5444614 0.85323749 1.5040774 1.5040774 0.50377509 0.50377509
12 1.7559649  -1.4722383 -3.6422367 0.70734367 1.5040774 1.5040774 0.50377507 0.50377507
 2 1.7550101  -1.7048549 -2.3353755 0.59398567 1.5040774 1.5040774 0.50186549 0.50186549
 2 1.7547095  -1.6856926 -2.3166206 0.59116693 1.5040774 1.5040774 0.50126426 0.50126426
 1 1.7555406  -1.7541643 -2.3944113 0.66351632 1.5040774 1.5040774 0.50292641 0.50292641
11 1.7559649 -0.99079336 -3.8759671  0.7356181 1.5040774 1.5040774 0.50377507 0.50377507
 7 1.7559649  -0.9721381 -3.8736825 0.66318659 1.5040774 1.5040774 0.50377507 0.50377507
 3 1.7559649 -0.92403054  -3.7359451 0.53203795 1.5040774 1.5040774 0.50377507 0.50377507
 8 1.7559649 -0.94084867  -3.9273594 0.55393954 1.5040774 1.5040774 0.50377507 0.50377507
 1 1.7334712  -1.6472051 -0.68421988 0.75219294 1.5040774 1.5040774 0.45878761 0.45878761
 4 1.6261142  -1.5062909  0.33750834 0.64724883 1.5040774 1.5040774 0.24407369 0.24407369
 8 1.6864302  -1.4759849  0.53310919 0.68027492 1.5040774 1.5040774 0.36470561 0.36470561
 2 1.7555719  -1.7640719  0.26661106 0.69749455 1.5040774 1.5040774 0.50298901 0.50298901
 2 1.7226937  -1.7142687  0.26586973  0.6743539 1.5040774 1.5040774 0.43723254 0.43723254
15 1.6639227  -1.7925703  0.32367381 0.65398519 1.5040774 1.5040774 0.31969051 0.31969051
 1 1.7402689   -1.343087   0.2306452 0.52867194 1.5040774 1.5040774 0.47238297 0.47238297
 2 1.6835525  -1.2341464 -0.20833215 0.47107921 1.5040774 1.5040774 0.35895027 0.35895027
 1 1.8381047  -1.3423276 -0.80205539 0.48372926 1.5040774 1.5040774 0.66805467 0.66805467
 1 1.7422879  -1.6842902  -1.8674275 0.82954085 1.5040774 1.5040774 0.47642106 0.47642106
 2 1.7559551  -1.0907212  -3.0609795 0.87553292 1.5040774 1.5040774 0.50375536 0.50375536
10 1.7492964  -1.7921739  -1.7720618 0.86938816 1.5040774 1.5040774 0.49043798 0.49043798
 3 1.7559436  -1.5535771  -2.8672052 0.74829925 1.5040774 1.5040774 0.50373231 0.50373231
 3 1.7559649  -1.6876444  -3.3060626 0.71945033 1.5040774 1.5040774 0.50377505 0.50377505
 2 1.7559649  -1.8321818  -3.3688989  0.7338467 1.5040774 1.5040774 0.50377507 0.50377507
 2 1.7559649  -1.7280409  -3.3342067 0.75715495 1.5040774 1.5040774 0.50377506 0.50377506
 1 1.7559649  -1.7383735   -3.344305 0.76521467 1.5040774 1.5040774 0.50377506 0.50377506
10 1.7585154 -0.69782025  -2.9251943 0.72723622 1.5040774 1.5040774 0.50887599 0.50887599
27 1.8021197 -0.48247576    -2.904534 0.77521429 1.5040774 1.5040774 0.59608467 0.59608467
 3 1.7786762  -1.3433474   -2.1044887 0.69892941 1.5040774 1.5040774 0.54919758 0.54919758
 9 1.7559613  -1.8715831  0.088100913  0.8811364 1.5040774 1.5040774 0.50376786 0.50376786
15 1.7559418  -1.8471483  0.030653837 0.80536478 1.5040774 1.5040774 0.50372873 0.50372873
 6 1.7579085    -1.86361  0.025511741  0.4346421 1.5040774 1.5040774 0.50766223 0.50766223
 1 1.7558325  -1.8524262 0.0017806201 0.43285468 1.5040774 1.5040774 0.50351027 0.50351027
 1 1.7558268  -1.8442784  0.031056936 0.43633635 1.5040774 1.5040774  0.5034989  0.5034989
 3 1.7559649  -1.4175276   -3.9375198 0.76097984 1.5040774 1.5040774 0.50377507 0.50377507
 5 1.7559649  -1.9779814   -3.5418339 0.69348382 1.5040774 1.5040774 0.50377507 0.50377507
 4 1.7563844  -1.0449744   -2.7844632 0.63440235 1.5040774 1.5040774 0.50461396 0.50461396
 6 1.8019548  -1.1963443   -2.4993164 0.55297208 1.5040774 1.5040774 0.59575481 0.59575481
 3 1.7455646  -1.6798725    0.2893071 0.57302883 1.5040774 1.5040774 0.48297443 0.48297443
 6 1.6569441  -1.1033682    -0.191892 0.45785173 1.5040774 1.5040774 0.30573338 0.30573338
 3 1.7553717  -1.7478633  -0.29905982 0.78763084 1.5040774 1.5040774 0.50258857 0.50258857
 2 1.8565267  -1.7649402   0.49755052 0.59023173 1.5040774 1.5040774 0.70489851 0.70489851
12 1.7520607  -1.9028412   -2.1804669 0.42751442 1.5040774 1.5040774 0.49596652 0.49596652
 5 1.7519989   -1.915172   -2.1757452 0.40453268 1.5040774 1.5040774  0.4958431  0.4958431
28  1.745623  -1.9514526    -1.825284  0.4555041 1.5040774 1.5040774 0.48309127 0.48309127
 1 1.7545627  -1.8148657   -2.3131264 0.53150019 1.5040774 1.5040774 0.50097051 0.50097051
 7 1.7557807  -1.7402831   -2.7516075 0.41163925 1.5040774 1.5040774 0.50340666 0.50340666
 8 1.7545382  -1.8728166  -2.3432964 0.47260651 1.5040774 1.5040774 0.50092168 0.50092168
 4 1.7543622   -1.861637  -2.3362557 0.47255837 1.5040774 1.5040774 0.50056969 0.50056969
 2 1.7559649  -1.6564732  -3.9359775 0.43331665 1.5040774 1.5040774 0.50377507 0.50377507
 4 1.7559644  -1.1683478  -3.2646234 0.53977797 1.5040774 1.5040774 0.50377403 0.50377403
 4 1.7559744 -0.93205752  -3.0722692  0.6274062 1.5040774 1.5040774 0.50379401 0.50379401
 5 1.7559649 -0.84502599  -3.3937369 0.65441542 1.5040774 1.5040774 0.50377505 0.50377505
 1 1.9656275  -1.1101391  -2.2834193 0.65572923 1.5040774 1.5040774 0.92310011 0.92310011
 8 1.7559649  -1.9959324  -3.9017524  0.6600542 1.5040774 1.5040774 0.50377507 0.50377507
 9 1.8131881 -0.66132691  -2.8236047 0.85601789 1.5040774 1.5040774 0.61822149 0.61822149
12 1.7559649  -0.8825349  -3.9111099 0.88354123 1.5040774 1.5040774 0.50377507 0.50377507
10 1.7559649 -0.89000899  -3.9385917 0.88487037 1.5040774 1.5040774 0.50377507 0.50377507
 2 1.7320585  -1.3125156 -0.39666409 0.83041206 1.5040774 1.5040774  0.4559622  0.4559622
 7 1.9482634  -1.6546291  0.67012849 0.81065459 1.5040774 1.5040774 0.88837191 0.88837191
 2 1.7559438   -1.796189  0.32359543 0.42284369 1.5040774 1.5040774 0.50373289 0.50373289
 2 1.7554595  -1.8381948 -0.05688845  0.4766844 1.5040774 1.5040774 0.50276414 0.50276414
 2 1.7391537  -1.8203609  -1.3097027 0.64284394 1.5040774 1.5040774 0.47015258 0.47015258
19 1.7663966  -1.7800762  -1.7089234 0.61092668 1.5040774 1.5040774 0.52463837 0.52463837
 2  1.755963  -1.7403609  -3.0407788 0.49298397 1.5040774 1.5040774 0.50377113 0.50377113
 3 1.7559649  -1.5537542  -3.6823567 0.55881124 1.5040774 1.5040774 0.50377507 0.50377507
 3 1.7559649  -1.6315906  -3.6985326 0.57184733 1.5040774 1.5040774 0.50377507 0.50377507
1 1.7559646  -1.1048854  -3.2581936 0.60206417 1.5040774 1.5040774 0.50377441 0.50377441
3 1.7559292  -1.3228341  -2.9436631 0.55290223 1.5040774 1.5040774 0.50370363 0.50370363
3 1.7561371  -1.0499057   -3.123773 0.44900728 1.5040774 1.5040774 0.50411938 0.50411938
3 1.7559729  -1.0192015  -3.3069895 0.43060208 1.5040774 1.5040774 0.50379106 0.50379106
1 1.8074315  -1.2810284  -2.5978971 0.41439157 1.5040774 1.5040774  0.6067083  0.6067083
5 1.7704005  -1.2949304   -2.693189 0.40547721 1.5040774 1.5040774 0.53264617 0.53264617
1 1.7559649   -1.684541  -3.9118711  0.6548049 1.5040774 1.5040774 0.50377507 0.50377507
2 1.7559649  -1.8599283  -3.6774481 0.62403332 1.5040774 1.5040774 0.50377507 0.50377507
6 1.7559648  -1.6689447  -3.1101837  0.6099638 1.5040774 1.5040774 0.50377479 0.50377479
1 1.7558149  -1.6689374  -2.5792856 0.67093525 1.5040774 1.5040774 0.50347495 0.50347495
1 1.7559646  -1.5627097  -3.1303771  0.7170922 1.5040774 1.5040774 0.50377433 0.50377433
4  1.755976 -0.65733563  -3.2995907 0.63174122 1.5040774 1.5040774 0.50379717 0.50379717
6 1.7559866 -0.66640468  -3.2520338 0.64162262 1.5040774 1.5040774  0.5038184  0.5038184
4 1.7559649 -0.94493811  -3.4974307 0.76975359 1.5040774 1.5040774 0.50377506 0.50377506
3 1.7514853  -1.5166734 -0.12613012 0.43738139 1.5040774 1.5040774 0.49481574 0.49481574
2 1.7558125  -1.7454332   0.1592684 0.43193018 1.5040774 1.5040774 0.50347015 0.50347015
2 1.6084737  -1.4803184 -0.78269847 0.45535813 1.5040774 1.5040774 0.20879264 0.20879264
1 5.2498363  -1.4111154 0.093106967 0.67638359 1.5040774 1.5040774  7.4915179  7.4915179
6  7.015956  -1.3917825   0.3277109 0.68322397 1.5040774 1.5040774  11.023757  11.023757
1 1.7559649  -1.2305597  -3.5399138  0.7772525 1.5040774 1.5040774 0.50377507 0.50377507
 5 1.7559649 -0.98340774  -3.8637679 0.74755477 1.5040774 1.5040774  0.50377507  0.50377507
 8 1.7559649  -1.0625996  -3.4542802  0.7396452 1.5040774 1.5040774  0.50377506  0.50377506
 4 1.7559649 -0.93331761  -3.5120206 0.67977691 1.5040774 1.5040774  0.50377506  0.50377506
 1 1.7559767 -0.79305709   -3.155442 0.66329597 1.5040774 1.5040774  0.50379865  0.50379865
 1 1.5299768  -1.6136808  -0.6190574 0.53691127 1.5040774 1.5040774 0.051798899 0.051798899
 3 1.7559642   -1.728128  0.91520028 0.83422376 1.5040774 1.5040774  0.50377369  0.50377369
 5 1.7559649  -1.8509802  0.88254932 0.86862762 1.5040774 1.5040774  0.50377493  0.50377493
 5 1.7820206  -1.7674981  0.44157238 0.77697243 1.5040774 1.5040774  0.55588636  0.55588636
 7   1.66845  -1.1517892 -0.40802241 0.83508301 1.5040774 1.5040774  0.32874518  0.32874518
 5 1.7559438  -1.5662166  0.33814719 0.84380577 1.5040774 1.5040774  0.50373272  0.50373272
10 1.7559648  -1.0896525  -3.3547461 0.52595851 1.5040774 1.5040774  0.50377484  0.50377484
 3 1.7980193  -1.6142851  -1.9494163 0.53521772 1.5040774 1.5040774   0.5878838   0.5878838
 3 1.7452323  -1.5851321  -2.0807863  0.8226801 1.5040774 1.5040774  0.48230978  0.48230978
 1 1.7560122 -0.37475085  -3.4079094 0.64858403 1.5040774 1.5040774  0.50386955  0.50386955
 7 2.1616414 -0.37378467  -2.9634898 0.66040033 1.5040774 1.5040774    1.315128    1.315128
14 1.7559649  -1.8283126  -3.8864906 0.75236506 1.5040774 1.5040774  0.50377507  0.50377507
 2 1.7559649  -1.7483129  -3.9403857 0.71270212 1.5040774 1.5040774  0.50377507  0.50377507
 1 1.7562149  -1.8222102  0.22685139 0.77340147 1.5040774 1.5040774  0.50427506  0.50427506
 3 1.7781038  -1.7829014  0.30921405 0.43877026 1.5040774 1.5040774   0.5480528   0.5480528
 7 1.7319468  -1.6447346 -0.15731068 0.52842544 1.5040774 1.5040774  0.45573878  0.45573878
 8 1.7571588  -1.7253426   0.35921311 0.81061545 1.5040774 1.5040774 0.50616274 0.50616274
 4 1.7559608  -1.6217757   -2.9577214 0.74113861 1.5040774 1.5040774 0.50376674 0.50376674
 7 1.7475285  -1.8100613   -2.0452813 0.49910977 1.5040774 1.5040774 0.48690211 0.48690211
 3 1.9195926   -1.079708   -2.6619196 0.47848233 1.5040774 1.5040774 0.83103042 0.83103042
 1  1.755965   -0.415878   -3.7851345 0.55868134 1.5040774 1.5040774 0.50377511 0.50377511
15 1.7560033 -0.43296585   -3.4303465 0.59608608 1.5040774 1.5040774 0.50385184 0.50385184
13 1.7575673  -1.1782073   -2.5399818 0.73831987 1.5040774 1.5040774 0.50697985 0.50697985
 1 1.7559649  -1.6425998     -3.61915  0.6128744 1.5040774 1.5040774 0.50377507 0.50377507
 4  1.755906  -1.9829836     -2.44259  0.6391992 1.5040774 1.5040774 0.50365715 0.50365715
 1 1.7559649  -1.7159726   -3.3640696 0.73477895 1.5040774 1.5040774 0.50377506 0.50377506
 5 1.7559649  -1.6947786   -3.5049852 0.70850992 1.5040774 1.5040774 0.50377507 0.50377507
 1 1.7559649   -1.758498   -3.4152672 0.87562024 1.5040774 1.5040774 0.50377507 0.50377507
 2 1.7559633  -1.5425191    -3.048586 0.86552607 1.5040774 1.5040774 0.50377186 0.50377186
 4 1.7559649  -1.5231907   -3.2482635 0.82372606 1.5040774 1.5040774 0.50377494 0.50377494
 9 1.7559649  -1.7959292   -3.1614529 0.68293078 1.5040774 1.5040774 0.50377497 0.50377497
10 1.7559649  -1.7920717   -3.3388848 0.65181727 1.5040774 1.5040774 0.50377507 0.50377507
 8 1.7559649  -1.9279283    -3.449286 0.74350139 1.5040774 1.5040774 0.50377507 0.50377507
 4  1.755945   -1.947081 -0.060194749 0.79221764 1.5040774 1.5040774 0.50373525 0.50373525
 5 1.7559649  -1.6094127   -3.6940656 0.52321002 1.5040774 1.5040774 0.50377507 0.50377507
 5 1.7237672  -1.9630341   -1.1737413 0.65082981 1.5040774 1.5040774  0.4393797  0.4393797
2 1.7125375 -0.96081741 -0.18245949 0.43200239 1.5040774 1.5040774    0.41692026    0.41692026
1 1.7560602  -1.0800693   -2.925967 0.57241857 1.5040774 1.5040774    0.50396564    0.50396564
1 1.7043866  -1.8294909  -1.2123041 0.65375506 1.5040774 1.5040774    0.40061835    0.40061835
2 1.7424295  -1.8172183 -0.60546063 0.70389071 1.5040774 1.5040774    0.47670413    0.47670413
3 1.7022682  -1.5007941  -1.0213049 0.70249855 1.5040774 1.5040774    0.39638167    0.39638167
2 1.7383185  -1.4331352  -2.0091795 0.79851157 1.5040774 1.5040774    0.46848223    0.46848223
1  1.504267  -1.3656612 -0.86940059 0.75548881 1.5040774 1.5040774 0.00037926617 0.00037926617
1  1.517875  -1.3861282 -0.83451791 0.75456222 1.5040774 1.5040774   0.027595146   0.027595146
4 1.7466785  -1.3253274  -1.2614455 0.77626509 1.5040774 1.5040774    0.48520211    0.48520211
1 1.7559649  -1.2407875   -3.382606 0.82600086 1.5040774 1.5040774    0.50377502    0.50377502
8 1.7559649  -1.7481493  -3.3996944 0.63867299 1.5040774 1.5040774    0.50377507    0.50377507
2 1.7543547  -1.4827333  -2.4289729 0.56866712 1.5040774 1.5040774    0.50055466    0.50055466
1 1.7559648  -1.4253487  -3.2627302  0.8245294 1.5040774 1.5040774     0.5037749     0.5037749
4 1.7559017  -1.1651841  -2.9003337 0.85622407 1.5040774 1.5040774    0.50364863    0.50364863
3 1.7559649 -0.96014929  -3.4591931 0.83908015 1.5040774 1.5040774    0.50377504    0.50377504
2 1.7559649 -0.96170992  -3.4815943 0.83904463 1.5040774 1.5040774    0.50377505    0.50377505
3 1.7555127  -1.8359611   -2.381163  0.7311216 1.5040774 1.5040774    0.50287069    0.50287069
9 1.7428574  -1.7380984  -1.3431591 0.85761371 1.5040774 1.5040774    0.47756002    0.47756002
5 1.7437576  -1.7489107  -1.3104151 0.85142557 1.5040774 1.5040774     0.4793605     0.4793605
3  1.694976  -1.6950413  -1.4194881 0.72706447 1.5040774 1.5040774    0.38179715    0.38179715
 2 1.7559585  -1.5553297  0.51769743  0.8557621 1.5040774 1.5040774 0.50376229 0.50376229
 4 1.7559568  -1.5493768  0.50232648 0.85682213 1.5040774 1.5040774 0.50375886 0.50375886
12 1.7550793  -1.8798698  -2.1920992 0.83808819 1.5040774 1.5040774 0.50200382 0.50200382
 2 1.7567246    -1.12829  -2.6879375 0.88480108 1.5040774 1.5040774 0.50529447 0.50529447
 3 1.7559367  -1.0848885  -2.8843576 0.76500856 1.5040774 1.5040774 0.50371869 0.50371869
 1 1.8260353  -1.3115381  -2.0365757 0.79023245 1.5040774 1.5040774 0.64391576 0.64391576
 7 1.7486354  -1.5973638 -0.60271041  0.8113425 1.5040774 1.5040774   0.489116   0.489116
 3 1.6047262  -1.3943808  -1.0559063 0.74172396 1.5040774 1.5040774 0.20129767 0.20129767
 3 1.5930852  -1.5582552 -0.88398085 0.72168635 1.5040774 1.5040774 0.17801556 0.17801556
12 1.6394756  -1.3459881  -1.0478064 0.88357545 1.5040774 1.5040774 0.27079634 0.27079634
 1 1.7533026  -1.5526011  -2.3498486 0.85527323 1.5040774 1.5040774 0.49845044 0.49845044
 1 1.7492676  -1.6383374  -2.1203143 0.81427447 1.5040774 1.5040774 0.49038041 0.49038041
12 1.8230263 -0.71367221  -2.7873184 0.89199847 1.5040774 1.5040774 0.63789772 0.63789772
 1 1.7841966 -0.72607505  -2.8328591 0.89634148 1.5040774 1.5040774 0.56023842 0.56023842
 3  1.756007  -1.0835847  -2.7382691 0.73945619 1.5040774 1.5040774 0.50385915 0.50385915
 6 1.7559649 -0.88027619  -3.9473451 0.63000762 1.5040774 1.5040774 0.50377507 0.50377507
 7 1.7559649 -0.97911109  -3.4336875 0.66850749 1.5040774 1.5040774 0.50377505 0.50377505
 2 2.3495509  -1.1731647  -1.9907224 0.82794068 1.5040774 1.5040774   1.690947   1.690947
 9 1.7594024 -0.49450801  -3.0833893 0.69730327 1.5040774 1.5040774 0.51064995 0.51064995
 3 1.7573316 -0.51654076  -3.1215789 0.68683965 1.5040774 1.5040774 0.50650834 0.50650834
10 1.7560071 -0.43381637  -3.3170027 0.71731189 1.5040774 1.5040774 0.50385941 0.50385941
 2 1.7559657 -0.35185101   -3.593867 0.65159352 1.5040774 1.5040774  0.5037767  0.5037767
12 1.7559651 -0.32350207  -3.6577096 0.66454434 1.5040774 1.5040774 0.50377548 0.50377548
 4 1.7559649 -0.96660038  -3.4672149 0.84421919 1.5040774 1.5040774 0.50377504 0.50377504
 2 1.7559518  -1.2532565  -2.9950318 0.73387606 1.5040774 1.5040774 0.50374873 0.50374873
 5 1.7182031  -1.6121646  -1.7370329 0.77814448 1.5040774 1.5040774 0.42825131 0.42825131
 3 1.7294428  -1.8152758 -0.37365751 0.53025939 1.5040774 1.5040774 0.45073088 0.45073088
 1 1.6988237  -1.7141065 -0.62051323 0.50297418 1.5040774 1.5040774 0.38949254 0.38949254
 6 1.7559189  -1.7501043  0.44416145 0.44888549 1.5040774 1.5040774 0.50368303 0.50368303
 2 1.6369341  -1.3663709  -1.5911335 0.83155217 1.5040774 1.5040774 0.26571332 0.26571332
 9 1.6301939  -1.4294258  -1.5068074 0.84380246 1.5040774 1.5040774 0.25223307 0.25223307
 1  1.748542  -1.5375411   -1.418749 0.70894343 1.5040774 1.5040774  0.4889293  0.4889293
 2 1.7489821  -1.9563774  -1.5778434 0.73159294 1.5040774 1.5040774 0.48980946 0.48980946
 5 1.7558017  -1.4128222  -2.7424707 0.71558246 1.5040774 1.5040774 0.50344863 0.50344863
 3 1.7603804  -1.0034746  -2.9567942 0.48041064 1.5040774 1.5040774 0.51260604 0.51260604
 3 1.7559679 -0.97649291  -3.2644349 0.52011149 1.5040774 1.5040774 0.50378102 0.50378102
 4 1.7559649  -1.2016862  -3.8480719 0.54535798 1.5040774 1.5040774 0.50377507 0.50377507
 3 1.7559649  -1.1745854  -3.9027146 0.51747959 1.5040774 1.5040774 0.50377507 0.50377507
 3 1.7559649  -1.1716594    -3.90379 0.52103596 1.5040774 1.5040774 0.50377507 0.50377507
 6 1.7572901  -1.1282248  -2.9620601 0.44687383 1.5040774 1.5040774 0.50642547 0.50642547
 7 1.9933217 -0.84913511  -2.7904571 0.52107298 1.5040774 1.5040774 0.97848868 0.97848868
 1 1.7559649  -1.0241192  -3.3702325 0.60577882 1.5040774 1.5040774 0.50377497 0.50377497
 5 1.7646515   -1.685703  -1.8892851   0.527477 1.5040774 1.5040774 0.52114828 0.52114828
 5 1.7559645  -1.8734542  0.86364915 0.79379038 1.5040774 1.5040774 0.50377423 0.50377423
 3 1.6983686  -1.8394286 -0.64959651 0.66624163 1.5040774 1.5040774 0.38858237 0.38858237
 2 1.6801619  -1.8247481 -0.71685636 0.66357858 1.5040774 1.5040774 0.35216903 0.35216903
 7  2.023557  -1.7359504  -0.4506479 0.63998012 1.5040774 1.5040774  1.0389591  1.0389591
 2 1.7459237   -1.798701 -0.84716607 0.42209677 1.5040774 1.5040774 0.48369267 0.48369267
 2 1.7559649 -0.85665894  -3.7100094 0.44343031 1.5040774 1.5040774 0.50377508 0.50377508
10 1.7559125  -1.7783887  0.26241603 0.74136644 1.5040774 1.5040774 0.50367018 0.50367018
 4 1.7559649  -1.8023354  -3.5962198 0.44257183 1.5040774 1.5040774 0.50377507 0.50377507
 3 1.7559649  -1.7683247  -3.3022545 0.50033342 1.5040774 1.5040774 0.50377503 0.50377503
 1 1.7559647  -1.3747037  -3.2004304 0.70591263 1.5040774 1.5040774 0.50377468 0.50377468
 1 1.7559645  -1.8770516   -2.999219 0.81952349 1.5040774 1.5040774 0.50377422 0.50377422
 9 1.7559649  -1.7900211  -3.8374619 0.82191872 1.5040774 1.5040774 0.50377507 0.50377507
 1 1.7559649  -1.7719093   -3.971976 0.81768952 1.5040774 1.5040774 0.50377507 0.50377507
 6 1.6159278  -1.4412684 -0.68594143  0.4590283 1.5040774 1.5040774 0.22370078 0.22370078
 7 2.0952964  -1.4017845  0.39276977 0.66717025 1.5040774 1.5040774   1.182438   1.182438
 1  1.972792  -1.4026256  0.39786509 0.66724748 1.5040774 1.5040774 0.93742916 0.93742916
 9 1.7865179   -1.255572  0.61219057 0.57833512 1.5040774 1.5040774 0.56488099 0.56488099
 7 1.7218714  -1.2059175  0.33017468 0.53570146 1.5040774 1.5040774 0.43558809 0.43558809
 1  1.744873  -1.5769819 0.098516855  0.5623704 1.5040774 1.5040774 0.48159127 0.48159127
 3 1.8411713  -1.0856315  -2.3813687 0.65619939 1.5040774 1.5040774 0.67418773 0.67418773
 2 1.7564625 -0.80907832  -3.0533585 0.59714618 1.5040774 1.5040774 0.50477029 0.50477029
 1 1.7607163  -1.1396464  -2.7766943 0.51909499 1.5040774 1.5040774 0.51327777 0.51327777
 6 1.7531821  -1.5762459  0.42586383 0.69682729 1.5040774 1.5040774  0.4982094  0.4982094
 1 1.7559649 -0.48076076   -3.649442 0.78028936 1.5040774 1.5040774 0.50377507 0.50377507
 5 1.7559649 -0.37854704  -3.8782134 0.59285553 1.5040774 1.5040774 0.50377507 0.50377507
 3  1.755965 -0.88380995  -3.3944346 0.57808987 1.5040774 1.5040774 0.50377523 0.50377523
 2 2.5105196 -0.91002154   -2.662503 0.51562891 1.5040774 1.5040774  2.0128844  2.0128844
 3 1.7567833  -0.8120551  -3.1670792 0.49060273 1.5040774 1.5040774 0.50541181 0.50541181
 6 2.2817148  -1.8293611  0.78766907 0.46742077 1.5040774 1.5040774  1.5552748  1.5552748
 6 1.7559649   -1.848769  -3.7691472 0.41032919 1.5040774 1.5040774 0.50377507 0.50377507
11 1.7559649  -1.8580875  -3.4942354 0.42843694 1.5040774 1.5040774 0.50377507 0.50377507
 1 1.7417168  -1.8197959  -1.0033547 0.41945732 1.5040774 1.5040774 0.47527884 0.47527884
 3 1.6342197  -1.5274932  -1.6794493 0.42252163 1.5040774 1.5040774 0.26028455 0.26028455
 1 1.7554583  -1.7386591  -2.4411919 0.70226429 1.5040774 1.5040774 0.50276182 0.50276182
 1 1.7550367  -1.5603008  -2.4914238  0.7297314 1.5040774 1.5040774 0.50191851 0.50191851
 1 1.7243984  -1.6495936  -1.7488262 0.75269703 1.5040774 1.5040774 0.44064201 0.44064201
 2 1.7559649  -1.0914037  -3.8509339 0.64507109 1.5040774 1.5040774 0.50377507 0.50377507
 3 1.7559649  -1.4406148  -3.8290737 0.50166258 1.5040774 1.5040774  0.50377507  0.50377507
 1 1.7551055  -1.6342962  -2.4004701 0.67717188 1.5040774 1.5040774  0.50205614  0.50205614
14 1.7559334  -1.1458224  -2.9261988 0.68381321 1.5040774 1.5040774  0.50371199  0.50371199
 1 1.7586744  -1.0529526  -2.6720239 0.64139744 1.5040774 1.5040774  0.50919399  0.50919399
 5 1.7559615  -1.0135005  -3.1077363 0.70373639 1.5040774 1.5040774  0.50376827  0.50376827
 2 1.7559354  -1.2427832   -2.923274 0.72072372 1.5040774 1.5040774  0.50371601  0.50371601
 4 1.5191003  -1.2134503  -0.9132415 0.82749632 1.5040774 1.5040774 0.030045805 0.030045805
 1 1.6175631  -1.5041175  -1.3663426 0.77260231 1.5040774 1.5040774  0.22697131  0.22697131
 5 1.5503859  -1.3364784  -1.2898911 0.85535153 1.5040774 1.5040774 0.092616968 0.092616968
 2 1.7178805  -1.7518442 -0.78389287 0.47559836 1.5040774 1.5040774   0.4276063   0.4276063
 2  1.687955  -1.7968905  -1.2027383 0.47380034 1.5040774 1.5040774  0.36775516  0.36775516
 1 1.6850283  -1.7985031  -1.2466308 0.47572372 1.5040774 1.5040774  0.36190188  0.36190188
 2 2.1282362 -0.58262394  -2.9190183 0.56508215 1.5040774 1.5040774   1.2483176   1.2483176
 5 1.7559842  -1.2881474  -2.7857843 0.52125471 1.5040774 1.5040774  0.50381351  0.50381351
 7 1.7563979  -1.2876741  -2.7486576 0.51071884 1.5040774 1.5040774  0.50464109  0.50464109
 3 1.7558083  -1.2296581  -2.6817333 0.59731176 1.5040774 1.5040774  0.50346173  0.50346173
 1 1.7559649 -0.92003064  -3.5646955 0.89726939 1.5040774 1.5040774  0.50377506  0.50377506
 9 1.7559649  -1.0480362  -3.7580893 0.89806769 1.5040774 1.5040774  0.50377507  0.50377507
 1 1.7559649  -1.0324202  -3.6668723 0.85897421 1.5040774 1.5040774  0.50377507  0.50377507
 4 1.7559649  -1.0867365  -3.4815229 0.86007151 1.5040774 1.5040774  0.50377505  0.50377505
 1 1.7559649  -0.7548892  -3.5790882 0.76271854 1.5040774 1.5040774 0.50377507 0.50377507
 6 1.7559705 -0.63562186  -3.2713724 0.82566041 1.5040774 1.5040774 0.50378616 0.50378616
 4 1.7559708 -0.63571716  -3.2696546 0.82578873 1.5040774 1.5040774 0.50378678 0.50378678
 3 1.7559646  -1.0993248  -3.2493671 0.73971521 1.5040774 1.5040774 0.50377448 0.50377448
 4 1.7559649 -0.68059631  -3.8039808 0.83292917 1.5040774 1.5040774 0.50377507 0.50377507
11 1.7559649 -0.69237223  -3.8209127 0.83404013 1.5040774 1.5040774 0.50377507 0.50377507
 2 1.7562066  -1.0931416  -2.6672171 0.72738269 1.5040774 1.5040774 0.50425837 0.50425837
 3 1.7559382  -1.3835406  -2.9503721 0.54911564 1.5040774 1.5040774 0.50372153 0.50372153
 3 1.7559649  -1.4520264   -3.945925 0.66942687 1.5040774 1.5040774 0.50377507 0.50377507
 2 1.7610095  -0.8224849  -3.1247463 0.44340173 1.5040774 1.5040774 0.51386417 0.51386417
 1 1.7559649 -0.81098371  -3.8289449 0.40288328 1.5040774 1.5040774 0.50377507 0.50377507
 3 1.7559649  -1.3632404  -3.4458241 0.43967689 1.5040774 1.5040774 0.50377501 0.50377501
 6 1.7326544  -1.9524708  -1.5575691 0.51780064 1.5040774 1.5040774 0.45715405 0.45715405
 1 3.5048674  -1.0597563  -2.0559396  0.7301444 1.5040774 1.5040774    4.00158    4.00158
 2 1.7582888  -1.3794535  0.91441561 0.81005665 1.5040774 1.5040774 0.50842286 0.50842286
 3 1.7523564  -1.3651964 -0.13161252 0.82943143 1.5040774 1.5040774 0.49655791 0.49655791
 4 1.8183319  -1.4857518  0.19941609 0.77461964 1.5040774 1.5040774 0.62850893 0.62850893
 5 1.7552622  -1.4859694  0.37427836 0.74005665 1.5040774 1.5040774 0.50236968 0.50236968
 4 1.6708963  -1.3530842 -0.02561898 0.55137843 1.5040774 1.5040774 0.33363788 0.33363788
 5 1.7114975  -1.1711939 -0.27237718 0.49655407 1.5040774 1.5040774  0.4148402  0.4148402
 6 1.7533769  -1.1646197  0.034447316 0.55098659 1.5040774 1.5040774 0.49859895 0.49859895
15 1.7559649 -0.80378334   -3.6775602 0.81140716 1.5040774 1.5040774 0.50377507 0.50377507
 4 1.7559649 -0.69282936   -3.9823935  0.7261144 1.5040774 1.5040774 0.50377507 0.50377507
 2 1.7559649 -0.81764666   -3.3376046 0.70015825 1.5040774 1.5040774 0.50377499 0.50377499
22 1.7559649 -0.72116911   -3.8640218 0.80216606 1.5040774 1.5040774 0.50377507 0.50377507
 1 1.7559649 -0.72316426   -3.8049396 0.80004449 1.5040774 1.5040774 0.50377507 0.50377507
 1 1.7562122 -0.91430313   -2.9458647 0.80381176 1.5040774 1.5040774 0.50426957 0.50426957
 3 1.7559649  -1.2590514   -3.5256729  0.8556297 1.5040774 1.5040774 0.50377506 0.50377506
 3  1.755912  -1.3069364   -2.8412011 0.69224781 1.5040774 1.5040774 0.50366928 0.50366928
 3 1.7588171  -1.0529317   -2.6489579 0.65526859 1.5040774 1.5040774  0.5094794  0.5094794
 3 1.7560321 -0.75900501   -3.0976728 0.67259837 1.5040774 1.5040774 0.50390947 0.50390947
 1 1.7606896 -0.89623519   -2.7416919 0.69563725 1.5040774 1.5040774  0.5132245  0.5132245
 7 1.7559649  -0.9395301   -3.5563748  0.7358776 1.5040774 1.5040774 0.50377507 0.50377507
 3 1.7546371  -1.8922778 -0.047631567 0.51361548 1.5040774 1.5040774 0.50111944 0.50111944
 6 1.7660159  -1.6960308   0.10341157 0.52078891 1.5040774 1.5040774 0.52387695 0.52387695
 6 1.7554843  -1.7450133   0.20823662 0.49808316 1.5040774 1.5040774 0.50281371 0.50281371
 3 1.7528277  -1.8589024  -0.29864737 0.49242714 1.5040774 1.5040774 0.49750063 0.49750063
 7 1.7542473  -1.4737782   0.28057713 0.48105398 1.5040774 1.5040774 0.50033984 0.50033984
16 1.7559653 -0.88593691    -3.209441 0.89238089 1.5040774 1.5040774 0.50377575 0.50377575
 5 1.7559652 -0.33910896   -3.5486653 0.85644641 1.5040774 1.5040774 0.50377563 0.50377563
 3 1.7559651 -0.43768556     -3.5393427 0.86185721 1.5040774 1.5040774 0.50377534 0.50377534
 3 1.7610682  -1.0497824     -2.6644604  0.7735096 1.5040774 1.5040774 0.51398167 0.51398167
 4 1.7548285  -1.2796577     -2.4954775 0.70162038 1.5040774 1.5040774 0.50150215 0.50150215
 1 1.9873099  -1.3641134     -1.8395008 0.70073508 1.5040774 1.5040774 0.96646504 0.96646504
 8 1.7490411  -1.5174532     -2.1447939 0.72798476 1.5040774 1.5040774 0.48992745 0.48992745
 5 1.7532978  -1.4623382     -2.3788653 0.73355402 1.5040774 1.5040774 0.49844081 0.49844081
 4 1.7559649  -1.5672744     -3.3880789 0.71488552 1.5040774 1.5040774 0.50377506 0.50377506
 1 1.7559649 -0.86408736     -3.4416872 0.63864051 1.5040774 1.5040774 0.50377506 0.50377506
 4 1.7558682  -1.1722817     -2.8281299 0.65891868 1.5040774 1.5040774 0.50358157 0.50358157
 3 1.7558859  -1.1695961     -2.8454775 0.67401119 1.5040774 1.5040774 0.50361706 0.50361706
 7 1.7559645  -1.7734146     0.65421182 0.84052144 1.5040774 1.5040774 0.50377412 0.50377412
10 1.7579097   -1.779413     0.80594279   0.828369 1.5040774 1.5040774 0.50766462 0.50766462
 1 1.7558966  -1.7075535 -0.00061737521 0.82550629 1.5040774 1.5040774 0.50363836 0.50363836
 9 1.7525348  -1.6414866   -0.089194964 0.47611021 1.5040774 1.5040774 0.49691473 0.49691473
