#weight  minuslogpost  log10_alpha   log10_rs         vw  minuslogprior  minuslogprior__0        chi2  chi2__lisa_likelihood
      1     1.5601729   -1.4521802 -1.0009963 0.76255016      1.5040774         1.5040774  0.11219097             0.11219097
      1      1.567965   -1.4683542 -1.0243641 0.76043121      1.5040774         1.5040774  0.12777528             0.12777528
      1     1.5482942   -1.4718364 -1.0208833 0.74862487      1.5040774         1.5040774 0.088433514            0.088433514
      1     1.5277483   -1.4529373 -1.0331314 0.73943977      1.5040774         1.5040774 0.047341758            0.047341758
      1     1.5408337   -1.4740603 -1.0749975 0.73514065      1.5040774         1.5040774 0.073512601            0.073512601
      1     1.5688558   -1.4984387 -1.0640508 0.74831764      1.5040774         1.5040774  0.12955679             0.12955679
      1      1.548119   -1.5064678 -1.0579544  0.7283987      1.5040774         1.5040774  0.08808312             0.08808312
      1     1.5416309   -1.4935689 -1.0471252 0.72884216      1.5040774         1.5040774 0.075106955            0.075106955
      1     1.6131839   -1.4951171 -1.0445544 0.71109514      1.5040774         1.5040774   0.2182131              0.2182131
      1     1.5461737    -1.518357 -1.0171186 0.71709676      1.5040774         1.5040774 0.084192699            0.084192699
      1     1.5977662   -1.5191327 -1.0067826 0.74880679      1.5040774         1.5040774  0.18737764             0.18737764
      1     1.6264377   -1.5334383  -1.040437  0.7594266      1.5040774         1.5040774   0.2447207              0.2447207
      1     1.6151795   -1.5173216  -1.046536 0.76180885      1.5040774         1.5040774  0.22220417             0.22220417
      1     1.6376485      -1.5323 -1.0806899 0.77064817      1.5040774         1.5040774  0.26714218             0.26714218
      1     1.6260989    -1.519405 -1.0863206   0.770743      1.5040774         1.5040774  0.24404305             0.24404305
      1     1.6845268   -1.5150121 -1.0754259 0.82028261      1.5040774         1.5040774  0.36089889             0.36089889
      1     1.7009213    -1.545523 -1.0761717 0.82260375      1.5040774         1.5040774  0.39368784             0.39368784
      1     1.7026194   -1.5459264  -1.061311 0.82207728      1.5040774         1.5040774  0.39708409             0.39708409
      1     1.6443056   -1.5502996 -1.0634911 0.76389153      1.5040774         1.5040774  0.28045643             0.28045643
      1     1.6765624   -1.5506371 -1.0639889 0.78876878      1.5040774         1.5040774  0.34496992             0.34496992
1 1.6996953 -1.6045624 -1.0923803 0.78746907 1.5040774 1.5040774 0.39123573 0.39123573
1 1.6875548 -1.5870573 -1.1256091 0.78704167 1.5040774 1.5040774  0.3669548  0.3669548
1 1.6694954 -1.5446269 -1.1578539 0.79737829 1.5040774 1.5040774 0.33083608 0.33083608
1 1.6849452 -1.5648458 -1.1821919 0.80445266 1.5040774 1.5040774 0.36173569 0.36173569
1 1.6479645 -1.5643439 -1.1930862 0.76840776 1.5040774 1.5040774 0.28777418 0.28777418
1 1.6479235 -1.5643854 -1.1931375 0.76835043 1.5040774 1.5040774 0.28769216 0.28769216
2 1.6609092  -1.566019 -1.2042848  0.7795182 1.5040774 1.5040774 0.31366351 0.31366351
1 1.6527458 -1.5446329 -1.2094182   0.785837 1.5040774 1.5040774 0.29733679 0.29733679
1 1.5920367 -1.5279181 -1.1873113 0.74722526 1.5040774 1.5040774 0.17591855 0.17591855
1 1.6006984 -1.5271293 -1.1747574 0.75475442 1.5040774 1.5040774 0.19324197 0.19324197
1 1.5922453 -1.5246094  -1.138896 0.75018237 1.5040774 1.5040774 0.17633586 0.17633586
1 1.6474969 -1.5647139  -1.134268 0.76437851 1.5040774 1.5040774 0.28683898 0.28683898
1 1.7004722 -1.5384376 -1.1269544 0.83622569 1.5040774 1.5040774 0.39278963 0.39278963
1 1.7097873 -1.5462216 -1.1248432  0.8471314 1.5040774 1.5040774 0.41141988 0.41141988
1 1.7098859 -1.5466031 -1.1113633 0.84424947 1.5040774 1.5040774 0.41161709 0.41161709
1 1.7098613 -1.5517593 -1.1122589 0.84074262 1.5040774 1.5040774 0.41156783 0.41156783
1 1.6864662 -1.5029179 -1.1443004 0.84363163 1.5040774 1.5040774 0.36477753 0.36477753
1 1.6285796 -1.4859587 -1.1228061 0.79530926 1.5040774 1.5040774 0.24900447 0.24900447
1  1.650802 -1.4605856 -1.0816769 0.82250883 1.5040774 1.5040774 0.29344918 0.29344918
1 1.6345838 -1.4253985 -1.0830999 0.83215446 1.5040774 1.5040774 0.26101284 0.26101284
1 1.5156165 -1.4034341  -1.0288964  0.7600252 1.5040774 1.5040774 0.023078275 0.023078275
1 1.5157044 -1.4035097   -1.028402 0.76037376 1.5040774 1.5040774 0.023254084 0.023254084
1 1.5204254 -1.4163117  -1.0495465 0.75529888 1.5040774 1.5040774 0.032696077 0.032696077
1 1.5589598 -1.4336788  -1.0438536 0.77539047 1.5040774 1.5040774  0.10976489  0.10976489
1 1.5566798 -1.4360824  -1.0417571 0.77271879 1.5040774 1.5040774  0.10520479  0.10520479
1 1.5626574 -1.4387326  -1.0749938 0.77749563 1.5040774 1.5040774  0.11715997  0.11715997
1 1.5342411  -1.378566  -1.0820703 0.76163897 1.5040774 1.5040774  0.06032741  0.06032741
1 1.5158038 -1.3730278  -1.0796471 0.78157187 1.5040774 1.5040774 0.023452797 0.023452797
1 1.5818811 -1.4217592  -1.0603622 0.79620937 1.5040774 1.5040774  0.15560744  0.15560744
1 1.6308952 -1.4261102   -1.098117 0.83146597 1.5040774 1.5040774  0.25363552  0.25363552
1 1.6539852 -1.4084756  -1.0744467 0.85898973 1.5040774 1.5040774  0.29981563  0.29981563
1 1.6414419 -1.3875931  -1.0679067 0.86046269 1.5040774 1.5040774   0.2747291   0.2747291
1  1.634188 -1.3868535  -1.0690245 0.85493967 1.5040774 1.5040774  0.26022125  0.26022125
1 1.6465121 -1.4040058  -1.0110988 0.84091927 1.5040774 1.5040774  0.28486942  0.28486942
1   1.64273 -1.4068908  -1.0126806 0.83638065 1.5040774 1.5040774  0.27730519  0.27730519
1 1.6801872 -1.4348707  -1.0122722 0.85402402 1.5040774 1.5040774  0.35221954  0.35221954
1 1.6819283 -1.4382573 -0.98914915 0.84811805 1.5040774 1.5040774  0.35570175  0.35570175
1 1.7001246 -1.4476125  -1.0255998 0.87676152 1.5040774 1.5040774  0.39209446  0.39209446
1 1.7249412 -1.5190488  -1.0092957 0.87417781 1.5040774 1.5040774  0.44172763  0.44172763
1 1.7191653 -1.5208955  -1.0195503 0.86052499 1.5040774 1.5040774  0.43017578  0.43017578
1 1.7169667 -1.5312672  -1.0317895 0.85142641 1.5040774 1.5040774  0.4257787  0.4257787
1 1.7317522 -1.5528246    -1.03403 0.87901414 1.5040774 1.5040774  0.4553497  0.4553497
2 1.7334766 -1.5673054  -1.0145244 0.86928276 1.5040774 1.5040774 0.45879831 0.45879831
1 1.7381657 -1.6109333   -1.030216 0.86260802 1.5040774 1.5040774 0.46817652 0.46817652
1 1.7353536 -1.6036676  -1.0494075 0.86023463 1.5040774 1.5040774 0.46255247 0.46255247
1 1.7359706 -1.6029119  -1.0400375 0.86093862 1.5040774 1.5040774 0.46378635 0.46378635
3  1.745507 -1.6392708  -1.0394568 0.89224243 1.5040774 1.5040774 0.48285914 0.48285914
1 1.7526224 -1.9279128 -0.75755032 0.73738262 1.5040774 1.5040774 0.49709004 0.49709004
2 1.7532794 -1.9430126 -0.76732061 0.74248853 1.5040774 1.5040774 0.49840402 0.49840402
1 1.7557409 -1.9211647 -0.47872784 0.80607282 1.5040774 1.5040774 0.50332698 0.50332698
1 1.7553514 -1.8191625  -0.4337064 0.78975869 1.5040774 1.5040774 0.50254807 0.50254807
1 1.6946487 -1.8377889 -0.61028667 0.63766023 1.5040774 1.5040774 0.38114252 0.38114252
1 1.6047466 -1.9295334 -0.55083615 0.61063036 1.5040774 1.5040774 0.20133839 0.20133839
1 1.6381377 -1.7566681 -0.23620566 0.57254715 1.5040774 1.5040774  0.2681207  0.2681207
1 1.7368724 -1.8365938 -0.34256438 0.52958048 1.5040774 1.5040774 0.46558995 0.46558995
3 1.7540436 -1.9703601 -0.57616663 0.71556274 1.5040774 1.5040774 0.49993235 0.49993235
1 1.7548251 -1.8296144 -0.55782316  0.7865709 1.5040774 1.5040774 0.50149551 0.50149551
1 1.7559122 -1.8798491 -0.19956343 0.81923211 1.5040774 1.5040774  0.5036697  0.5036697
1 1.7508701 -1.6633958 -0.38859171 0.75152129 1.5040774 1.5040774 0.49358533 0.49358533
2 1.7493957 -1.9258967 -0.87001516 0.72569186 1.5040774 1.5040774 0.49063665 0.49063665
3 1.7431032 -1.8618928 -0.92339072  0.7275148 1.5040774 1.5040774 0.47805161 0.47805161
1 1.7374805 -1.8534645 -0.91828203 0.71448457 1.5040774 1.5040774 0.46680619 0.46680619
1 1.7129144 -1.6957775  -1.1099969 0.75786531 1.5040774 1.5040774 0.41767406 0.41767406
2 1.7167633 -1.7735008  -1.2199473 0.72936914 1.5040774 1.5040774 0.42537176 0.42537176
2 1.7194057   -1.70588  -1.6275676 0.71637449 1.5040774 1.5040774 0.43065664 0.43065664
1 1.7486708 -1.8037268   -1.814145 0.81822971 1.5040774 1.5040774 0.48918675 0.48918675
1 1.7442951  -1.731013  -1.7284647 0.86501005 1.5040774 1.5040774 0.48043536 0.48043536
1 1.7514783 -1.8873817  -1.5505096 0.85272604 1.5040774 1.5040774 0.49480185 0.49480185
5 1.7513692 -1.8555586  -1.5532558 0.88505409 1.5040774 1.5040774 0.49458362 0.49458362
1 1.7438792 -1.7593199   -1.728604 0.82166706 1.5040774 1.5040774 0.47960359 0.47960359
3 1.7512487 -1.9458126  -1.7620029 0.73701782 1.5040774 1.5040774 0.49434264 0.49434264
2 1.7502041 -1.7928758  -1.9479308 0.79183689 1.5040774 1.5040774  0.4922535  0.4922535
3 1.7553019 -1.9670448  -2.1508136 0.80112122 1.5040774 1.5040774 0.50244909 0.50244909
2 1.7548812 -1.9730468  -2.0141308 0.81986872 1.5040774 1.5040774  0.5016077  0.5016077
6 1.7547991 -1.9621999  -2.0146217 0.82125995 1.5040774 1.5040774 0.50144339 0.50144339
2 1.7475811 -1.7769856  -1.5994105 0.88647491 1.5040774 1.5040774 0.48700735 0.48700735
1 1.7471051 -1.8695118  -1.7946519 0.68537226 1.5040774 1.5040774 0.48605531 0.48605531
2 1.7539932 -1.8960354  -2.0740095 0.73317999 1.5040774 1.5040774 0.49983152 0.49983152
1    1.7497 -1.8047131  -1.9599834 0.69376498 1.5040774 1.5040774 0.49124528 0.49124528
1 1.7491609 -1.7911116  -1.9599131 0.70176375 1.5040774 1.5040774 0.49016709 0.49016709
1 1.7541013 -1.7353611  -2.188428 0.66293211 1.5040774 1.5040774 0.50004772 0.50004772
1 1.7526733 -1.8951048 -1.9844117 0.69186105 1.5040774 1.5040774 0.49719177 0.49719177
3 1.7520878 -1.8787818 -1.9004572 0.65013425 1.5040774 1.5040774 0.49602078 0.49602078
2  1.750571 -1.8195631 -2.1259603 0.50129288 1.5040774 1.5040774 0.49298713 0.49298713
2 1.7474304 -1.9726404 -1.7997257 0.41530261 1.5040774 1.5040774 0.48670599 0.48670599
1 1.7384919 -1.9245331 -1.7099944 0.47299217 1.5040774 1.5040774 0.46882903 0.46882903
1 1.7184575 -1.6337385 -1.9989226 0.42153999 1.5040774 1.5040774 0.42876016 0.42876016
4 1.7234931 -1.6469343 -2.0239259  0.4222355 1.5040774 1.5040774 0.43883133 0.43883133
1 1.7810605 -1.4900173 -2.2280507 0.46474685 1.5040774 1.5040774 0.55396627 0.55396627
2 1.7892821 -1.4812441 -2.2240996 0.47627531 1.5040774 1.5040774 0.57040947 0.57040947
1 1.8377409 -1.4827749 -2.1089609  0.4700679 1.5040774 1.5040774 0.66732695 0.66732695
1 1.8389132 -1.4834757 -2.1024856 0.46865694 1.5040774 1.5040774 0.66967152 0.66967152
6 2.6990394 -1.3387133 -2.0955909 0.45512063 1.5040774 1.5040774   2.389924   2.389924
2  3.944386 -1.2148274 -2.2615409 0.41430029 1.5040774 1.5040774  4.8806171  4.8806171
1 1.7559646 -1.4652254 -3.1514133  0.7012574 1.5040774 1.5040774 0.50377443 0.50377443
2 1.7559649 -1.2456101 -3.5822375 0.73995883 1.5040774 1.5040774 0.50377507 0.50377507
5 1.7559565 -1.1250595 -3.0376814 0.56324629 1.5040774 1.5040774  0.5037582  0.5037582
1 2.0059177 -1.4842965 0.52473706 0.69307682 1.5040774 1.5040774  1.0036806  1.0036806
2 1.7609443 -1.2527708 -1.9806446 0.89950477 1.5040774 1.5040774 0.51373379 0.51373379
5 1.7568879 -1.1936469 -2.5176484 0.65090111 1.5040774 1.5040774 0.50562098 0.50562098
 8 2.1458612   -1.307379  -1.2348253 0.41685636 1.5040774 1.5040774  1.2835676  1.2835676
 1 1.7560139 -0.62643968  -3.4709401 0.43689937 1.5040774 1.5040774 0.50387302 0.50387302
 2 1.7560343 -0.47122942  -3.3205369 0.65529808 1.5040774 1.5040774 0.50391379 0.50391379
 6 1.7559779 -0.60323526  -3.3810255  0.5854737 1.5040774 1.5040774 0.50380095 0.50380095
13 3.5769993 -0.52613813  -2.6256378 0.78716659 1.5040774 1.5040774  4.1458438  4.1458438
 2 2.0719749 -0.52778318  -2.7789093 0.73271144 1.5040774 1.5040774  1.1357949  1.1357949
 2  1.756534 -0.52533782  -3.1485926 0.69724612 1.5040774 1.5040774 0.50491316 0.50491316
 2 1.7559769 -0.42602961  -3.3472361 0.77138696 1.5040774 1.5040774 0.50379907 0.50379907
 4 1.7559669  -1.0465686  -3.2940023 0.46875788 1.5040774 1.5040774 0.50377909 0.50377909
 2 1.7538598  -1.5120907  -2.3986375  0.7221093 1.5040774 1.5040774 0.49956484 0.49956484
 1 1.7713887  -1.7797135  -1.5703426 0.54373577 1.5040774 1.5040774 0.53462261 0.53462261
 2 1.7457039  -1.6615635 -0.32333232  0.7200707 1.5040774 1.5040774 0.48325306 0.48325306
 4 1.7559628  -1.3403633  -3.1034286 0.77618091 1.5040774 1.5040774 0.50377076 0.50377076
 1 1.7558142  -1.7338765  -2.7559744 0.43385755 1.5040774 1.5040774 0.50347353 0.50347353
 1 1.7559642  -1.9148732  -3.0353988 0.48203797 1.5040774 1.5040774 0.50377352 0.50377352
 6 1.7559649  -1.3556244  -3.9544429 0.80238264 1.5040774 1.5040774 0.50377507 0.50377507
 2 1.7559649  -1.0730168  -3.5120629   0.768832 1.5040774 1.5040774 0.50377506 0.50377506
 3 1.7559649  -1.2947967  -3.7375235 0.69070844 1.5040774 1.5040774 0.50377507 0.50377507
 1 1.7559649   -1.230023  -3.7658724 0.79496787 1.5040774 1.5040774 0.50377507 0.50377507
 2 1.6617753  -1.5180474  -1.4568866 0.81567282 1.5040774 1.5040774 0.31539584 0.31539584
 2 1.7559649  -1.5242012  -3.7147907 0.62226707 1.5040774 1.5040774 0.50377507 0.50377507
10 1.7559648  -1.2190027  -3.3588664 0.53451843 1.5040774 1.5040774  0.5037749  0.5037749
 4 1.7559649   -1.043833   -3.731853 0.85698641 1.5040774 1.5040774 0.50377507 0.50377507
 3 1.7559649  -1.0552819  -3.7152134 0.84861932 1.5040774 1.5040774 0.50377507 0.50377507
 4 1.7560394  -1.1154426   -2.906042 0.56638549 1.5040774 1.5040774 0.50392401 0.50392401
 7 1.7817898 -0.87772977  -2.9571846 0.47928857 1.5040774 1.5040774 0.55542489 0.55542489
 7 1.7561814 -0.93703722  -3.1425154 0.49272132 1.5040774 1.5040774   0.504208   0.504208
 2 3.0812286 -0.63074394  -2.9320238 0.46881467 1.5040774 1.5040774  3.1543024  3.1543024
 3 2.2594198  -1.0239549 -0.32609009 0.78737512 1.5040774 1.5040774  1.5106848  1.5106848
16 1.5551096   -1.131796 -0.76627771 0.85489479 1.5040774 1.5040774  0.1020644  0.1020644
 1 1.5600259  -1.1240711 -0.74670326 0.85776861 1.5040774 1.5040774 0.11189691 0.11189691
 1 1.7203444  -1.2209057 -0.47140286 0.87713953 1.5040774 1.5040774   0.432534   0.432534
 9 1.7710529  -1.3775707  -2.1937335 0.62433647 1.5040774 1.5040774 0.53395095 0.53395095
 3 1.7557258  -1.7175961  -2.4646704 0.63036992 1.5040774 1.5040774 0.50329687 0.50329687
 1 1.7558299  -1.7202546  -2.5285865 0.63202423 1.5040774 1.5040774   0.503505   0.503505
 3 1.7556385  -1.4667763  -2.6646323 0.75058538 1.5040774 1.5040774 0.50312225 0.50312225
 6   1.85582  -1.2891432  -2.0898432 0.77597958 1.5040774 1.5040774 0.70348527 0.70348527
 7 1.7559649  -1.0754292   -3.674789 0.61863467 1.5040774 1.5040774 0.50377507 0.50377507
 6 1.7559659 -0.64570443  -3.5527103 0.51157827 1.5040774 1.5040774 0.50377692 0.50377692
 2 1.7559669 -0.78014062  -3.3726744 0.56327568 1.5040774 1.5040774 0.50377904 0.50377904
 6 1.7559649 -0.69848883  -3.7683621 0.53726067 1.5040774 1.5040774 0.50377507 0.50377507
 1 1.7559651 -0.75367446  -3.4037847 0.63631343 1.5040774 1.5040774 0.50377539 0.50377539
 4 1.9441043  -0.3456398  -3.0306415 0.65549591 1.5040774 1.5040774 0.88005383 0.88005383
 3 1.8085553 -0.30194935  -3.1326984 0.64938116 1.5040774 1.5040774 0.60895585 0.60895585
 2 2.0265065 -0.31031059  -3.0483126 0.64594072 1.5040774 1.5040774  1.0448582  1.0448582
 8 1.7559745 -0.32588355  -3.6589279 0.49075839 1.5040774 1.5040774 0.50379431 0.50379431
 3  1.755965 -0.22922915  -3.8257065 0.61271614 1.5040774 1.5040774 0.50377514 0.50377514
 3 1.7559721 -0.24551772  -3.6045059 0.61142823 1.5040774 1.5040774 0.50378948 0.50378948
 9 1.7559649 -0.62025725  -3.9667916 0.63849316 1.5040774 1.5040774 0.50377507 0.50377507
 2 1.5589725  -1.3030035  -1.2458632 0.81138813 1.5040774 1.5040774 0.10979016 0.10979016
 4 1.8174247  -1.5302632    -1.63075 0.69587133 1.5040774 1.5040774 0.62669458 0.62669458
 5 2.4780502  -1.4057188  -1.5622928   0.696674 1.5040774 1.5040774  1.9479456  1.9479456
15 1.7497533    -1.92873  -1.7011108 0.63302738 1.5040774 1.5040774  0.4913518  0.4913518
 1 1.7555724  -1.8058798  -2.4227638  0.7022639 1.5040774 1.5040774 0.50299003 0.50299003
 1  1.735694  -1.5807778  -1.9143251  0.7414415 1.5040774 1.5040774 0.46323315 0.46323315
10 1.7514938  -1.8227495  -1.1132628 0.84897284 1.5040774 1.5040774  0.4948328  0.4948328
 7 1.6968618  -1.4141109 -0.58772665 0.78346538 1.5040774 1.5040774 0.38556877 0.38556877
 7 1.6078013  -1.3862352 -0.77524568 0.78048775 1.5040774 1.5040774 0.20744784 0.20744784
 2  1.581112  -1.3792979 -0.82821002 0.78134053 1.5040774 1.5040774 0.15406925 0.15406925
 4 1.7511084   -1.742936 -0.57919901 0.76098012 1.5040774 1.5040774   0.494062   0.494062
 1 1.7137267  -1.8359627   -1.2081166 0.46100854 1.5040774 1.5040774 0.41929863 0.41929863
 4 1.7535671  -1.7736569  -0.53035762 0.40970391 1.5040774 1.5040774 0.49897948 0.49897948
 5 1.7546462  -1.8112244  -0.43453299 0.41842357 1.5040774 1.5040774 0.50113751 0.50113751
 1  1.755897  -1.6684031    0.1556983 0.79619207 1.5040774 1.5040774 0.50363927 0.50363927
 1 1.7499049  -1.4940836  -0.32299642 0.79641617 1.5040774 1.5040774 0.49165495 0.49165495
 1 1.7557483  -1.3455359   0.64997477 0.77200185 1.5040774 1.5040774 0.50334185 0.50334185
 9 1.7559489  -1.3630095   0.64610219 0.77750175 1.5040774 1.5040774 0.50374298 0.50374298
 1 1.7559322  -1.4690576   0.59658461  0.7908751 1.5040774 1.5040774 0.50370953 0.50370953
 5 1.7536443  -1.3582278 -0.013854999 0.82153494 1.5040774 1.5040774 0.49913379 0.49913379
 8 1.7559649  -1.6545968   -3.3766324 0.43437977 1.5040774 1.5040774 0.50377503 0.50377503
 1 1.7559648  -1.6285799   -3.1762323 0.74456424 1.5040774 1.5040774 0.50377482 0.50377482
17 2.2219367 -0.29102609   -2.9115097 0.88794549 1.5040774 1.5040774  1.4357187  1.4357187
 2 1.8224337 -0.63706117   -2.7978443  0.8243894 1.5040774 1.5040774 0.63671264 0.63671264
 2 1.7559395  -1.2540183   -2.9484174 0.50730297 1.5040774 1.5040774  0.5037243  0.5037243
 1 1.7559391  -1.2702768   -2.9936565 0.50504343 1.5040774 1.5040774 0.50372345 0.50372345
 2 1.8013271  -1.3940114   -2.3979486 0.43608306 1.5040774 1.5040774 0.59449947 0.59449947
 1 1.7703966  -1.2518657   -2.6860621 0.45484944 1.5040774 1.5040774 0.53263846 0.53263846
10 1.6917165  -1.0129612   0.20682003 0.49328318 1.5040774 1.5040774 0.37527826 0.37527826
 7 2.2244274  -1.0601051   0.49423856 0.51694604 1.5040774 1.5040774     1.4407     1.4407
 6 1.7558515  -1.6012385    0.2798362 0.77065358 1.5040774 1.5040774 0.50354827 0.50354827
 7  1.596429  -1.4462208   -1.1963049 0.80455259 1.5040774 1.5040774  0.18470314  0.18470314
 1   1.75552  -1.9152329  -0.24958034 0.72637902 1.5040774 1.5040774  0.50288512  0.50288512
 1 1.7504957  -1.3798215 -0.025831598 0.41533305 1.5040774 1.5040774  0.49283666  0.49283666
11 1.5749284  -1.5371792  -0.41301248 0.54216801 1.5040774 1.5040774  0.14170193  0.14170193
 3 1.7276669  -1.6910032  -0.74242731 0.45054938 1.5040774 1.5040774    0.447179    0.447179
 1  1.544994   -1.650851   -1.0556033 0.50500836 1.5040774 1.5040774 0.081833285 0.081833285
 4 1.7558175    -1.97889  -0.20194056 0.73337929 1.5040774 1.5040774  0.50348027  0.50348027
 2 1.5984415  -1.4295939   -1.3149075 0.76139802 1.5040774 1.5040774  0.18872824  0.18872824
12 1.7360951  -1.5479901   -1.9552689 0.75853951 1.5040774 1.5040774  0.46403531  0.46403531
 1 1.7361346  -1.6987081   -0.8653689 0.76773879 1.5040774 1.5040774  0.46411438  0.46411438
 1 1.6643335  -1.3221826  -0.78516097 0.84717865 1.5040774 1.5040774  0.32051212  0.32051212
 3 1.5747096  -1.2308597  -0.74092036 0.77804911 1.5040774 1.5040774  0.14126441  0.14126441
 1 1.5607217   -1.224388  -0.73565146 0.78289828 1.5040774 1.5040774   0.1132887   0.1132887
 1 2.0048838   -1.564736   -1.6999902  0.6381849 1.5040774 1.5040774   1.0016129   1.0016129
 2 1.7559738  -1.0403637   -3.0570032 0.57039874 1.5040774 1.5040774  0.50379286  0.50379286
 3  1.755968 -0.79853189   -3.3122407 0.58386298 1.5040774 1.5040774   0.5037812   0.5037812
 7 1.7559649 -0.86310184   -3.4742147 0.66311215 1.5040774 1.5040774  0.50377506  0.50377506
 4 1.7955087 -0.77400853   -2.7224077 0.69819278 1.5040774 1.5040774  0.58286261  0.58286261
 1 1.7306398  -1.2518657    -1.293904 0.81922627 1.5040774 1.5040774  0.45312486  0.45312486
12 1.7521387  -1.4001991   -2.3845185 0.89127421 1.5040774 1.5040774  0.49612259  0.49612259
 3 1.7526669  -1.7067746 -0.88653109 0.89074971 1.5040774 1.5040774  0.49717897  0.49717897
 4 1.7547026  -1.7416082 -0.75917337 0.89648704 1.5040774 1.5040774  0.50125038  0.50125038
 9 1.7493967  -1.7051157  -1.0360253 0.88259846 1.5040774 1.5040774  0.49063853  0.49063853
17 1.7524109  -1.7680885  -1.0646838 0.89917537 1.5040774 1.5040774  0.49666693  0.49666693
 1 1.7397361  -1.3484082 -0.50281937  0.8675097 1.5040774 1.5040774  0.47131732  0.47131732
 4 1.6241828  -1.6059798 -0.11493716 0.61396883 1.5040774 1.5040774  0.24021089  0.24021089
11  1.762113 -0.40228228  -3.0966798 0.72866994 1.5040774 1.5040774  0.51607116  0.51607116
 1 1.7559649 -0.48305961  -3.7510352  0.5734125 1.5040774 1.5040774   0.5037751   0.5037751
15 1.7530922  -1.9629423   -1.897062 0.65316086 1.5040774 1.5040774  0.49802951  0.49802951
 6 1.7449968  -1.5844371 -0.70363664 0.82193378 1.5040774 1.5040774   0.4818389   0.4818389
 4 1.5786287  -1.3938217 -0.91529712   0.787803 1.5040774 1.5040774   0.1491026   0.1491026
 6 1.5233062  -1.3892488 -0.88939412 0.73916407 1.5040774 1.5040774 0.038457606 0.038457606
 2 1.6534357  -1.4794565 -0.65522106 0.74561333 1.5040774 1.5040774  0.29871655  0.29871655
 5 1.6413348  -1.5367352   -1.126037 0.77494466 1.5040774 1.5040774  0.27451471  0.27451471
 2 1.7438456  -1.7049474  -1.9303073 0.71968646 1.5040774 1.5040774   0.4795364   0.4795364
 2 1.7263747  -1.6793584  -1.7057114 0.70727046 1.5040774 1.5040774  0.44459452  0.44459452
 9 1.6632591  -1.3859795  -1.6986396 0.84723743 1.5040774 1.5040774  0.31836345  0.31836345
 1 1.6727035  -1.4886853  -1.5918202 0.84109108 1.5040774 1.5040774  0.33725223  0.33725223
 4 1.7526643  -1.9529398   -1.667541 0.81003879 1.5040774 1.5040774  0.49717381  0.49717381
 2 1.7557892  -1.9937018  -2.3685507   0.700428 1.5040774 1.5040774  0.50342365  0.50342365
 3 1.7549154  -1.8755287  -2.2145314 0.73035001 1.5040774 1.5040774  0.50167603  0.50167603
 5 1.7551612  -1.9220716  -2.2037598 0.74218473 1.5040774 1.5040774  0.50216756  0.50216756
 5 1.7709088  -1.1785643  -2.3490904 0.69569473 1.5040774 1.5040774  0.53366287  0.53366287
 8 1.7557842  -1.6612821   0.2564052  0.4318026 1.5040774 1.5040774  0.50341363  0.50341363
 3 1.8051671  -1.4360797  0.47528045  0.4760848 1.5040774 1.5040774  0.60217941  0.60217941
14 3.1431931  -1.1537222 -0.15491723 0.55576397 1.5040774 1.5040774   3.2782314   3.2782314
 2 2.2555803  -1.1620975  -2.5145277 0.44507688 1.5040774 1.5040774   1.5030057   1.5030057
 3 1.7559649  -1.0326271  -3.3700914 0.58672814 1.5040774 1.5040774  0.50377495  0.50377495
 4 1.7559601  -1.8012908  0.31862524 0.81171208 1.5040774 1.5040774  0.50376548  0.50376548
 4  1.657137  -1.4260348 -0.88293791  0.8087204 1.5040774 1.5040774  0.30611914  0.30611914
 2 1.7555131  -1.2648429   -2.404923 0.70442436 1.5040774 1.5040774  0.50287139  0.50287139
 3 1.7559755 -0.72026716  -3.2132021 0.82844022 1.5040774 1.5040774  0.50379626  0.50379626
 1 1.7559649   -1.276176  -3.3229863 0.76231317 1.5040774 1.5040774  0.50377496  0.50377496
 1 1.7606095  -1.1682249    -2.43305 0.70888076 1.5040774 1.5040774  0.51306429  0.51306429
 1 1.6619063  -1.4696609  -1.1595311 0.84038863 1.5040774 1.5040774  0.31565776  0.31565776
 2 1.6361491  -1.4304606  -1.1995441 0.84974994 1.5040774 1.5040774  0.26414349  0.26414349
 1 1.5448375  -1.3403709  -1.1715633 0.83867064 1.5040774 1.5040774 0.081520204 0.081520204
 6 1.7559676  -1.6667821  0.70531032 0.81908422 1.5040774 1.5040774   0.5037805   0.5037805
 1 1.7288598  -1.6927443 -0.35368788  0.6937547 1.5040774 1.5040774  0.44956489  0.44956489
 8 1.7307007  -1.8021839  -1.5906824 0.67674966 1.5040774 1.5040774  0.45324665  0.45324665
8  1.736336  -1.8410776  -1.5936221 0.70326377 1.5040774 1.5040774  0.46451718  0.46451718
1 1.7465511  -1.9478792  -1.6515785  0.6776483 1.5040774 1.5040774   0.4849474   0.4849474
7 1.7559649  -1.5308638   -3.585274 0.61947871 1.5040774 1.5040774  0.50377507  0.50377507
1 1.7559649  -1.5018341  -3.4424662 0.59919954 1.5040774 1.5040774  0.50377507  0.50377507
5 1.7559649 -0.48707608  -3.7827804 0.85501657 1.5040774 1.5040774  0.50377507  0.50377507
1  1.755965 -0.55520688  -3.5066146 0.86463942 1.5040774 1.5040774  0.50377528  0.50377528
3 1.7560164 -0.41651667  -3.3029038 0.87693613 1.5040774 1.5040774  0.50387794  0.50387794
5  1.755965 -0.27139677  -3.6527266 0.84927391 1.5040774 1.5040774  0.50377515  0.50377515
1 1.7559648  -1.0620334  -3.2981455 0.67305627 1.5040774 1.5040774  0.50377486  0.50377486
1 1.7559649  -1.1040661  -3.5176327 0.70566346 1.5040774 1.5040774  0.50377506  0.50377506
4 1.7549978  -1.6478994 -0.50053455 0.87840041 1.5040774 1.5040774  0.50184073  0.50184073
4 1.7559646  -1.9516843  -2.9872043 0.70969654 1.5040774 1.5040774  0.50377439  0.50377439
1 1.7407012  -1.9309984   -1.022656 0.70190451 1.5040774 1.5040774  0.47324759  0.47324759
5 1.7409448  -1.9306557   -1.022282 0.70270783 1.5040774 1.5040774  0.47373479  0.47373479
2 1.5585851  -1.5692511 -0.40648887 0.56620539 1.5040774 1.5040774  0.10901542  0.10901542
3 1.5504381  -1.6096438 -0.43680948 0.57151783 1.5040774 1.5040774 0.092721416 0.092721416
2 1.6836636  -1.7277639 -0.95913317 0.70498606 1.5040774 1.5040774  0.35917242  0.35917242
7 1.7559642   -1.944791  -2.9873093 0.52278342 1.5040774 1.5040774  0.50377357  0.50377357
1 1.7559486  -1.8792745  -2.6419192 0.62538666 1.5040774 1.5040774  0.50374238  0.50374238
2 1.7559158  -1.9038642  -2.5088982 0.62198675 1.5040774 1.5040774   0.5036769   0.5036769
 2 1.7559473  -1.9103782  -2.614285 0.62080974 1.5040774 1.5040774 0.50373974 0.50373974
 2 1.7559486  -1.8479497  -2.724645 0.86730581 1.5040774 1.5040774 0.50374243 0.50374243
 3 1.7501018  -1.6104667 -2.2986303 0.45646796 1.5040774 1.5040774 0.49204883 0.49204883
17 1.7559706 -0.63185624 -3.3505067 0.62843191 1.5040774 1.5040774 0.50378646 0.50378646
 8  1.755973 -0.62524744 -3.3385256 0.62907368 1.5040774 1.5040774  0.5037913  0.5037913
 1 1.7560205   -0.726039 -3.4273534 0.41597869 1.5040774 1.5040774 0.50388617 0.50388617
 2 1.7560799  -0.7424217 -3.3983992 0.40215411 1.5040774 1.5040774 0.50400504 0.50400504
 6 1.8151716  -1.2640861 -2.5524285  0.4617471 1.5040774 1.5040774 0.62218851 0.62218851
17 1.8038832  -1.2503631 -2.6505046 0.40993696 1.5040774 1.5040774 0.59961163 0.59961163
 1 1.7559649 -0.86556878 -3.6379958 0.52180576 1.5040774 1.5040774 0.50377507 0.50377507
 2 1.7605982  -1.3742835 -2.2119347 0.74829069 1.5040774 1.5040774 0.51304158 0.51304158
 3 1.7559484  -1.8840059 -2.7106765 0.81225476 1.5040774 1.5040774 0.50374197 0.50374197
 1 1.7556432  -1.9097355 -2.3466272 0.79388748 1.5040774 1.5040774 0.50313157 0.50313157
 3 1.7559469  -1.7482603 -2.7862961 0.72825239 1.5040774 1.5040774 0.50373908 0.50373908
 1 1.7559648  -1.4950195 -3.1971406  0.7176691 1.5040774 1.5040774 0.50377474 0.50377474
 2 1.7559647  -1.5038068 -3.1872801 0.71226525 1.5040774 1.5040774 0.50377471 0.50377471
 1 1.7556375  -1.3033534 -2.6718118 0.68400895 1.5040774 1.5040774 0.50312019 0.50312019
 5 1.7558687  -1.3462015 -2.8229035 0.73969326 1.5040774 1.5040774 0.50358261 0.50358261
 3 1.7230879  -1.8679554 -1.2379316 0.69362809 1.5040774 1.5040774 0.43802097 0.43802097
 2 1.7396396  -1.9230436 -1.5438098 0.66655891 1.5040774 1.5040774 0.47112435 0.47112435
 2 1.7558219  -1.6732353  -2.6011059 0.58929696 1.5040774 1.5040774 0.50348896 0.50348896
 1 1.7450607  -1.8708503  -1.5966666 0.75173865 1.5040774 1.5040774 0.48196655 0.48196655
 8 1.7179325  -1.7432131 -0.98751542 0.73116244 1.5040774 1.5040774 0.42771023 0.42771023
 3 1.7552975  -1.9341277 -0.91469935 0.86736804 1.5040774 1.5040774 0.50244026 0.50244026
20 1.7559532  -1.7692218  0.41993701 0.76337176 1.5040774 1.5040774 0.50375153 0.50375153
 5 1.7457693  -1.6999169 -0.91872465 0.81839607 1.5040774 1.5040774 0.48338379 0.48338379
 1  1.734619  -1.6667718  -1.0367057 0.81235329 1.5040774 1.5040774 0.46108324 0.46108324
 1 1.7364002  -1.4376948  -0.6406389  0.8479602 1.5040774 1.5040774  0.4646456  0.4646456
 1 1.7271453   -1.713464  -1.0217216 0.76389607 1.5040774 1.5040774 0.44613589 0.44613589
 5 1.7428401  -1.4998694  -2.0719661 0.77091719 1.5040774 1.5040774 0.47752538 0.47752538
 3 2.8009959  -1.1465648  -1.9186262 0.83744394 1.5040774 1.5040774   2.593837   2.593837
 6  1.755965 -0.22572286  -3.8217568 0.57704482 1.5040774 1.5040774 0.50377525 0.50377525
 4 1.7559966 -0.28019666  -3.5368994 0.59371418 1.5040774 1.5040774 0.50383849 0.50383849
12 1.7559649 -0.66818516  -3.8970187 0.41500176 1.5040774 1.5040774 0.50377507 0.50377507
 2 1.7549826  -1.8731712  -2.4692778 0.40072969 1.5040774 1.5040774 0.50181045 0.50181045
 2 1.7548147  -1.6470332   -2.531689 0.48495475 1.5040774 1.5040774 0.50147469 0.50147469
 3 1.7559649   -1.707809  -3.9048697 0.54075577 1.5040774 1.5040774 0.50377507 0.50377507
 3 1.7559649   -1.619862  -3.2712864 0.70550712 1.5040774 1.5040774 0.50377503 0.50377503
 2 1.7558315  -1.6096956  -2.7027429  0.5567592 1.5040774 1.5040774 0.50350819 0.50350819
 6 1.7560288 -0.69146086  -3.1862047  0.6400706 1.5040774 1.5040774 0.50390279 0.50390279
 3 1.7559729 -0.64880146   -3.3252886 0.62696173 1.5040774 1.5040774  0.50379107  0.50379107
 5 1.7576706 -0.38045932   -3.3615581 0.53146202 1.5040774 1.5040774  0.50718642  0.50718642
 5 1.7589072 -0.42707423   -3.3048889 0.53374481 1.5040774 1.5040774   0.5096596   0.5096596
 3 1.7559649 -0.86534745   -3.8457782 0.77358844 1.5040774 1.5040774  0.50377507  0.50377507
 8  1.755923  -1.5276942   -2.7768237 0.61233536 1.5040774 1.5040774  0.50369125  0.50369125
 1 1.7546992  -1.6913087   -2.3355246 0.86494557 1.5040774 1.5040774  0.50124364  0.50124364
 6 1.7559532   -1.381216   0.62706551  0.8850088 1.5040774 1.5040774  0.50375155  0.50375155
 3 1.7458064  -1.1832708 0.0037548714  0.8289674 1.5040774 1.5040774  0.48345807  0.48345807
17 1.7439542  -1.2072199  -0.14553806   0.848368 1.5040774 1.5040774  0.47975358  0.47975358
 3 1.7385519  -1.2173646  -0.24672505 0.85336581 1.5040774 1.5040774  0.46894895  0.46894895
 9 1.7276883  -1.1051567  -0.24928532 0.88429779 1.5040774 1.5040774  0.44722174  0.44722174
 9 1.6351594  -1.5351572   -1.2845802 0.77762168 1.5040774 1.5040774  0.26216398  0.26216398
 1  1.732167  -1.7104359  -0.76000774 0.73775588 1.5040774 1.5040774  0.45617925  0.45617925
13 1.7486541  -1.8787021   -1.0279962 0.76260736 1.5040774 1.5040774  0.48915343  0.48915343
 1 1.6399916   -1.398914  -0.89428624 0.81377652 1.5040774 1.5040774  0.27182833  0.27182833
 4 1.5529606  -1.3706988    -1.077852 0.81183252 1.5040774 1.5040774 0.097766398 0.097766398
10 1.7464885  -1.7038171  -0.68089888 0.76743028 1.5040774 1.5040774  0.48482228  0.48482228
 2 1.7414962  -1.6673068  -0.63048223 0.75386913 1.5040774 1.5040774   0.4748376   0.4748376
 2 1.7598466  -1.6160462    0.3685558 0.86697181 1.5040774 1.5040774  0.51153841  0.51153841
 1  1.748798  -1.4328398  -0.40887333 0.84152715 1.5040774 1.5040774  0.48944116  0.48944116
 9 1.7471812 -0.99993014  0.27006831 0.85510608 1.5040774 1.5040774 0.48620755 0.48620755
 7 1.7543816  -1.1626413  0.42804688 0.81592422 1.5040774 1.5040774 0.50060849 0.50060849
 3 1.7559622  -1.4937988  0.80992128 0.85375601 1.5040774 1.5040774 0.50376961 0.50376961
 6 1.7558354  -1.5278586  0.11739006 0.84351336 1.5040774 1.5040774  0.5035161  0.5035161
 3 1.7556151  -1.4933706 0.050497094 0.83062451 1.5040774 1.5040774 0.50307534 0.50307534
 5 1.7559652  -1.6099548  0.88818655 0.88643975 1.5040774 1.5040774 0.50377568 0.50377568
 2 1.7499626  -1.7525548 -0.31174267 0.70830583 1.5040774 1.5040774 0.49177037 0.49177037
 1 1.7535449  -1.5016231  0.07706611 0.45029003 1.5040774 1.5040774 0.49893493 0.49893493
 3 1.7560428 -0.80147714  -3.3639597  0.4178012 1.5040774 1.5040774 0.50393083 0.50393083
 2 1.6951444  -1.7582971 -0.86801483 0.69653818 1.5040774 1.5040774 0.38213391 0.38213391
 4 1.7513954  -1.7701452  -2.1939931 0.50617091 1.5040774 1.5040774 0.49463606 0.49463606
12 1.7538773  -1.8194285  -2.1936303 0.55526528 1.5040774 1.5040774 0.49959987 0.49959987
 1 1.7508591  -1.8113411  -1.7679698 0.54653837 1.5040774 1.5040774 0.49356342 0.49356342
 3 1.7507455   -1.824022  -1.7611054 0.54980709 1.5040774 1.5040774 0.49333625 0.49333625
 2 1.7559649  -1.8407377  -3.4009564 0.41276061 1.5040774 1.5040774 0.50377506 0.50377506
 9 1.7559649  -1.8969646   -3.879807 0.50113154 1.5040774 1.5040774 0.50377507 0.50377507
10 1.8699142  -1.4309032  -1.9803627 0.40392642 1.5040774 1.5040774 0.73167362 0.73167362
 5 1.8522266  -1.4373824  -1.9692299 0.40538901 1.5040774 1.5040774 0.69629845 0.69629845
10 1.7565388  -1.3919789  -2.7079233 0.43900679 1.5040774 1.5040774 0.50492277 0.50492277
 1 1.7559267  -1.3351559  -2.9234177  0.4516249 1.5040774 1.5040774 0.50369855 0.50369855
17 1.7541967  -1.0867129 0.43960361 0.84310323 1.5040774 1.5040774 0.50023862 0.50023862
 5 1.7515565  -1.6661631 -2.1810228 0.74064912 1.5040774 1.5040774 0.49495822 0.49495822
11 1.7559649  -1.6572712 -3.6000548 0.63932121 1.5040774 1.5040774 0.50377507 0.50377507
 3 1.7559633  -1.5777447 -3.1237432 0.48644719 1.5040774 1.5040774 0.50377184 0.50377184
 2 1.7559649  -1.3672728 -3.7769225 0.42219645 1.5040774 1.5040774 0.50377507 0.50377507
 1 1.7559649  -1.4005607 -3.7493822 0.44912562 1.5040774 1.5040774 0.50377507 0.50377507
 3 1.7638691  -1.2191415 -2.7002486 0.49708167 1.5040774 1.5040774 0.51958332 0.51958332
 4 1.7559649 -0.99632649 -3.5870828 0.89888984 1.5040774 1.5040774 0.50377507 0.50377507
10 1.7559649  -0.8378438 -3.3252243 0.80909953 1.5040774 1.5040774 0.50377503 0.50377503
 1 1.7559649 -0.68061486 -3.6064353 0.81640587 1.5040774 1.5040774 0.50377507 0.50377507
11 1.7559649 -0.64338623 -3.7476792  0.7129565 1.5040774 1.5040774 0.50377507 0.50377507
14 1.7559649 -0.65669837 -3.6039584 0.72440155 1.5040774 1.5040774 0.50377507 0.50377507
 2  1.755965 -0.44151436  -3.573043 0.75848383 1.5040774 1.5040774 0.50377517 0.50377517
 3 1.7559649 -0.44837515 -3.6467955 0.77147172 1.5040774 1.5040774 0.50377508 0.50377508
 1 1.7559961 -0.22279679 -3.6343829 0.52795579 1.5040774 1.5040774 0.50383742 0.50383742
14 1.7559649 -0.22099766  -3.991222  0.5191075 1.5040774 1.5040774 0.50377508 0.50377508
 4 1.7571436 -0.30820792 -3.2172622 0.76920138 1.5040774 1.5040774 0.50613233 0.50613233
 7 1.7572943 -0.30283872  -3.215763 0.76841525 1.5040774 1.5040774 0.50643388 0.50643388
 1 1.7497189  -1.8945366 -1.8444256  0.6795995 1.5040774 1.5040774   0.491283   0.491283
 1 1.7535685  -1.8165345 -2.2408723 0.52252647 1.5040774 1.5040774 0.49898221 0.49898221
 2 1.7559647  -1.782617  -3.1095913 0.53308078 1.5040774 1.5040774 0.50377451 0.50377451
 2 1.7526838 -1.6655773  -2.0863951 0.58254094 1.5040774 1.5040774 0.49721287 0.49721287
 3 1.7559459 -1.9150162  -2.6819702 0.69368494 1.5040774 1.5040774 0.50373691 0.50373691
 7 1.7559649 -1.7465346  -3.1849589 0.72076432 1.5040774 1.5040774 0.50377497 0.50377497
 3 1.7559649 -1.7915896  -3.6792073 0.52334347 1.5040774 1.5040774 0.50377507 0.50377507
 3 2.6024674 -1.4136865  -1.6248277 0.45747831 1.5040774 1.5040774  2.1967801  2.1967801
 3 3.1015548 -1.4237047  -1.8851741 0.51618357 1.5040774 1.5040774  3.1949548  3.1949548
 2 1.7518431 -1.7530688  -1.9362969 0.54724901 1.5040774 1.5040774 0.49553149 0.49553149
 7  1.829944 -1.4150079  -2.2907737 0.44133537 1.5040774 1.5040774 0.65173326 0.65173326
34 2.1695222  -0.787354 0.024490885 0.83573628 1.5040774 1.5040774  1.3308895  1.3308895
10 1.7638411  -1.891581  0.87487795 0.47895952 1.5040774 1.5040774 0.51952738 0.51952738
22 1.7096817 -1.4198169 -0.56660824 0.40943252 1.5040774 1.5040774 0.41120857 0.41120857
 2 1.7139264 -1.4706684 -0.38275799 0.46814367 1.5040774 1.5040774 0.41969795 0.41969795
13  1.578344 -1.3780171  -0.7187796 0.45119775 1.5040774 1.5040774  0.1485333  0.1485333
 8 1.6556677 -1.2621342 -0.74856116   0.441864 1.5040774 1.5040774 0.30318068 0.30318068
 3  1.666404 -1.5875256 -0.82304805 0.45587618 1.5040774 1.5040774 0.32465325 0.32465325
 4 1.7559649 -1.9188574  -3.6025668 0.54196599 1.5040774 1.5040774 0.50377507 0.50377507
 2  1.805572 -1.9180479  -1.3280912 0.60423152 1.5040774 1.5040774 0.60298914 0.60298914
 2 1.7556857  -1.754969 -0.22836187 0.80164933 1.5040774 1.5040774  0.5032166  0.5032166
 3  1.755866 -1.1942178  -2.8613633 0.89233322 1.5040774 1.5040774  0.5035772  0.5035772
 9 1.7836949  -1.2003688   -2.3116029 0.66351541 1.5040774 1.5040774 0.55923504 0.55923504
 2 1.7561056 -0.58154027   -3.1936806 0.67519286 1.5040774 1.5040774  0.5040564  0.5040564
 6 1.7580288 -0.53725923   -3.1167002 0.65495622 1.5040774 1.5040774 0.50790273 0.50790273
 6 1.7488996  -1.2986171 -0.070427394 0.81100193 1.5040774 1.5040774  0.4896445  0.4896445
16 1.7672646  -1.1538349   -1.3127554 0.88377516 1.5040774 1.5040774 0.52637449 0.52637449
 1 1.7562091 -0.97009336   -2.8093603 0.73318084 1.5040774 1.5040774 0.50426345 0.50426345
 2 1.7559649  -1.0943395   -3.3630089 0.68722479 1.5040774 1.5040774 0.50377502 0.50377502
 2 1.7559649  -1.0574192    -3.452421 0.68295429 1.5040774 1.5040774 0.50377506 0.50377506
13 1.7558105   -1.758812    -2.485869 0.62765587 1.5040774 1.5040774 0.50346621 0.50346621
13 1.7559218  -1.8712309   -2.5473902 0.62575267 1.5040774 1.5040774  0.5036888  0.5036888
 5 1.7559648  -1.7813868   -3.1064384 0.67430545 1.5040774 1.5040774 0.50377481 0.50377481
 5 1.7376191  -1.9685778    -1.231024 0.47090032 1.5040774 1.5040774 0.46708339 0.46708339
 7 1.6816218   -1.831059   -1.3568244 0.51195836 1.5040774 1.5040774 0.35508881 0.35508881
 5 1.7298724  -1.9861282   -1.2558814 0.56971148 1.5040774 1.5040774 0.45158992 0.45158992
 8  1.744698   -1.476506   -2.0941196  0.7710292 1.5040774 1.5040774 0.48124118 0.48124118
 3 1.9415213  -0.7949244   -2.8516312 0.52100492 1.5040774 1.5040774 0.87488789 0.87488789
 9 2.1280936  -1.3777367   -2.1148209 0.54127255 1.5040774 1.5040774  1.2480323  1.2480323
 1 1.7559649  -1.0856381   -3.8006539 0.61981065 1.5040774 1.5040774 0.50377507 0.50377507
 1 1.7559649 -0.99410335   -3.8276322 0.60588598 1.5040774 1.5040774 0.50377507 0.50377507
12 1.9525697 -0.85749848   -2.5850161 0.81289874 1.5040774 1.5040774 0.89698457 0.89698457
 4 4.2496451  -1.7202851  0.88949616 0.57675237 1.5040774 1.5040774   5.4911353   5.4911353
 4 1.7533452  -1.4470823  0.51689042 0.53102372 1.5040774 1.5040774  0.49853562  0.49853562
 5 1.8694054  -1.5057833  0.44946528 0.52829663 1.5040774 1.5040774  0.73065594  0.73065594
 5 1.7605949  -1.6334046  0.42658747 0.56668523 1.5040774 1.5040774  0.51303504  0.51303504
 5 1.9230745  -1.4476917  0.19373146 0.64494267 1.5040774 1.5040774  0.83799421  0.83799421
 2 1.7559649  -1.8570827  -3.8893989  0.5510268 1.5040774 1.5040774  0.50377507  0.50377507
 1 1.7581957  -1.1965625   -2.639323 0.57635919 1.5040774 1.5040774  0.50823657  0.50823657
 2   1.69027   -1.695511 -0.55412267 0.58465405 1.5040774 1.5040774   0.3723853   0.3723853
 3 1.8678091  -1.7099796  0.39638622 0.59194089 1.5040774 1.5040774  0.72746335  0.72746335
 1 1.6497671  -1.7581374 0.066094259 0.60780975 1.5040774 1.5040774  0.29137947  0.29137947
 7 1.7322031  -1.2271323 -0.24400526 0.83106258 1.5040774 1.5040774   0.4562514   0.4562514
 4 1.7559649 -0.92278187  -3.6314248 0.78649923 1.5040774 1.5040774  0.50377507  0.50377507
 4 1.7559649  -1.0750988  -3.5857989 0.76542817 1.5040774 1.5040774  0.50377507  0.50377507
 1 1.7554301  -1.5869779  -2.5450209 0.73906266 1.5040774 1.5040774  0.50270543  0.50270543
 1 1.7548864  -1.4915433  -2.4937419 0.58045816 1.5040774 1.5040774  0.50161798  0.50161798
 4 2.0026523  -1.5470107  -1.1775511 0.68067042 1.5040774 1.5040774  0.99714974  0.99714974
 3 1.7456884  -1.9143451  -1.2655739 0.74435872 1.5040774 1.5040774  0.48322205  0.48322205
15 1.7459987  -1.9076519  -1.5482263 0.73905899 1.5040774 1.5040774  0.48384255  0.48384255
 1 1.5348502  -1.6873742 -0.20530642 0.60585404 1.5040774 1.5040774 0.061545585 0.061545585
 2 1.6997158  -1.7683252 -0.96958213 0.47329746 1.5040774 1.5040774  0.39127682  0.39127682
 2 1.8584042  -1.5937553   0.61261234 0.44360868 1.5040774 1.5040774 0.70865366 0.70865366
 9  1.755919  -1.6002472   0.59065159 0.42633596 1.5040774 1.5040774 0.50368318 0.50368318
 3 1.7546599  -1.8687615   0.35181981 0.57224642 1.5040774 1.5040774 0.50116506 0.50116506
 1 1.7540255  -1.8674153 -0.076587837 0.68118616 1.5040774 1.5040774 0.49989615 0.49989615
 5 1.7558325  -1.7380828   -1.8993866 0.58655901 1.5040774 1.5040774  0.5035103  0.5035103
 3 1.8308761    -1.65463   -1.7239127 0.62447972 1.5040774 1.5040774 0.65359749 0.65359749
 2 1.7607086  -1.6874407    -1.733641 0.64104119 1.5040774 1.5040774 0.51326237 0.51326237
 1 1.7559473  -1.8802178   0.53270652 0.69959023 1.5040774 1.5040774 0.50373971 0.50373971
 5 1.7422865  -1.6300902  -0.29676823  0.7175647 1.5040774 1.5040774 0.47641831 0.47641831
 2 1.7559649 -0.66790655   -3.7293632 0.71020242 1.5040774 1.5040774 0.50377507 0.50377507
 4 1.7559617  -1.2292276   -3.0589718 0.66583125 1.5040774 1.5040774 0.50376852 0.50376852
 4 1.7559649  -1.4480491   -3.4392215 0.80158244 1.5040774 1.5040774 0.50377506 0.50377506
 1 1.7559649  -1.3920041   -3.7862063 0.80663803 1.5040774 1.5040774 0.50377507 0.50377507
 2 1.7559649  -1.2721345   -3.6970725 0.81854808 1.5040774 1.5040774 0.50377507 0.50377507
 3 1.7559649  -1.0994198   -3.5807923 0.75461286 1.5040774 1.5040774 0.50377507 0.50377507
 3 1.7559649 -0.73271222   -3.8510301  0.8322394 1.5040774 1.5040774 0.50377507 0.50377507
 1 1.7559649  -1.3752009   -3.6525771 0.78731797 1.5040774 1.5040774 0.50377507 0.50377507
 2 1.7559649  -1.3701291   -3.6005304 0.76331245 1.5040774 1.5040774 0.50377507 0.50377507
 9 1.7559649  -1.3664488   -3.6288633 0.77526884 1.5040774 1.5040774 0.50377507 0.50377507
11 1.7559649 -0.76643558   -3.6457756 0.57148359 1.5040774 1.5040774 0.50377507 0.50377507
 3 1.7579526  -1.0477613    -2.8144493 0.57427023 1.5040774 1.5040774 0.50775039 0.50775039
 3 1.7599269  -1.1063302    -2.6700934 0.59636841 1.5040774 1.5040774 0.51169897 0.51169897
 1 1.6871589   -1.671092    -1.1707325  0.7430665 1.5040774 1.5040774   0.366163   0.366163
 2  3.052979  -1.3113668    -1.8224129 0.66912018 1.5040774 1.5040774  3.0978032  3.0978032
 7 1.7524384  -1.0198217    0.57643088 0.78384197 1.5040774 1.5040774 0.49672205 0.49672205
 5  1.756015 -0.79573735    -3.1118294 0.85461596 1.5040774 1.5040774 0.50387526 0.50387526
 4 1.7614974 -0.49324259    -3.0100693 0.82083308 1.5040774 1.5040774 0.51483991 0.51483991
13 1.7573668 -0.49998149    -3.1148508 0.88705012 1.5040774 1.5040774 0.50657873 0.50657873
10 1.7559657 -0.30884053    -3.5216745 0.86357224 1.5040774 1.5040774  0.5037767  0.5037767
13 1.7559649 -0.33501724    -3.9200535 0.80755977 1.5040774 1.5040774 0.50377507 0.50377507
 3 1.7559649 -0.82829084    -3.3590246 0.88493213 1.5040774 1.5040774 0.50377509 0.50377509
 8 1.7559649   -1.535453    -3.7490347 0.74660826 1.5040774 1.5040774 0.50377507 0.50377507
 4 1.7559649  -1.3635389    -3.5096476 0.72685448 1.5040774 1.5040774 0.50377507 0.50377507
 3 1.7559613  -1.3618812    -3.0648175 0.83802384 1.5040774 1.5040774 0.50376777 0.50376777
 4 1.7559409  -1.2284566    -2.9768916 0.87524776 1.5040774 1.5040774 0.50372708 0.50372708
 9 1.7550842   -1.522193    -2.3987177 0.46953732 1.5040774 1.5040774 0.50201357 0.50201357
12 1.6950467  -1.1935448    -0.1242926 0.52406654 1.5040774 1.5040774 0.38193859 0.38193859
 5 2.0451105   -1.218191    0.60906429 0.55492962 1.5040774 1.5040774  1.0820663  1.0820663
 7 1.7572373  -1.5361753    0.34583353 0.87621831 1.5040774 1.5040774 0.50631985 0.50631985
 1 1.7557102  -1.9664945 -0.0053394912 0.48958683 1.5040774 1.5040774 0.50326561 0.50326561
 1 1.7558656  -1.7125173    -2.744942 0.49990748 1.5040774 1.5040774 0.50357649 0.50357649
 2 1.7558054  -1.7924756   -2.4988272 0.66437935 1.5040774 1.5040774 0.50345604 0.50345604
 4 1.7459266  -1.7045273   -1.8787706 0.67126625 1.5040774 1.5040774 0.48369836 0.48369836
12 1.7557705  -1.8850479   -2.5363053 0.51963009 1.5040774 1.5040774 0.50338611 0.50338611
 9 1.7362545  -1.3953121 0.0044148958 0.73556253 1.5040774 1.5040774 0.46435429 0.46435429
11 1.6004026  -1.2474464     -0.58172 0.79771963 1.5040774 1.5040774 0.19265045 0.19265045
 1 1.6934382  -1.2371427  -0.12688191 0.76782235 1.5040774 1.5040774  0.3787217  0.3787217
 1 2.3034153  -1.0368447   -2.3037812 0.79540458 1.5040774 1.5040774  1.5986757  1.5986757
 1 1.7553388  -1.5627514   -2.4680013 0.62308266 1.5040774 1.5040774 0.50252278 0.50252278
 4 1.7553566  -1.5208261   -2.5172059 0.60760282 1.5040774 1.5040774 0.50255847 0.50255847
 2 1.7559649  -1.7412696   -3.5120006  0.7440156 1.5040774 1.5040774 0.50377507 0.50377507
 4 1.7559649  -1.9142108   -3.7955538 0.65819738 1.5040774 1.5040774 0.50377507 0.50377507
 2 1.7559649  -1.0082487   -3.9500862 0.82033172 1.5040774 1.5040774 0.50377507 0.50377507
 6 1.7559649 -0.92003371   -3.6382131 0.72721316 1.5040774 1.5040774 0.50377507 0.50377507
 6 1.7559649 -0.92800411   -3.6434806 0.72728268 1.5040774 1.5040774 0.50377507 0.50377507
 1 1.7559649 -0.89676912   -3.6913535 0.72941217 1.5040774 1.5040774 0.50377507 0.50377507
 3 1.7559649 -0.88964001   -3.6254642 0.73154339 1.5040774 1.5040774 0.50377507 0.50377507
 2 1.7559649 -0.75618241    -3.947328 0.72504584 1.5040774 1.5040774 0.50377507 0.50377507
 2 1.7559649 -0.71716319   -3.4957765  0.6804317 1.5040774 1.5040774 0.50377508 0.50377508
 1 1.7559649 -0.50280412   -3.9285641 0.64176142 1.5040774 1.5040774 0.50377507 0.50377507
 4 1.7559651   -0.377661  -3.6054702 0.70363925 1.5040774 1.5040774 0.50377537 0.50377537
11  1.755965 -0.31810394  -3.6484992 0.72052842 1.5040774 1.5040774 0.50377527 0.50377527
 8 1.6306183  -1.6580199  -1.0866522 0.46247726 1.5040774 1.5040774 0.25308184 0.25308184
 1 1.9978418  -1.0596573  -2.4717713 0.58027189 1.5040774 1.5040774 0.98752875 0.98752875
 1 1.7559368  -1.7418752  -2.7385623 0.87189137 1.5040774 1.5040774 0.50371873 0.50371873
 5 1.7559649  -1.5852894  -3.7678526 0.83159079 1.5040774 1.5040774 0.50377507 0.50377507
 1 1.7559649  -1.8962379  -3.2270134 0.80853377 1.5040774 1.5040774 0.50377505 0.50377505
 2 1.7559656 -0.37246242  -3.5937913 0.64390746 1.5040774 1.5040774 0.50377648 0.50377648
 5 1.7559663 -0.38845265  -3.5692001 0.63087502 1.5040774 1.5040774 0.50377771 0.50377771
14 1.7559649  -1.2045963   -3.466315 0.60578341 1.5040774 1.5040774 0.50377506 0.50377506
 8 1.7558579  -1.7327546  0.44755975 0.70889646 1.5040774 1.5040774 0.50356098 0.50356098
 2 1.7550008    -1.69503 -0.11039988  0.7461944 1.5040774 1.5040774 0.50184688 0.50184688
 1 1.7559649  -1.5733515  -3.4247389 0.50424251 1.5040774 1.5040774 0.50377506 0.50377506
 7 1.7559649 -0.59719365  -3.8488624 0.43754618 1.5040774 1.5040774 0.50377508 0.50377508
 9 1.7559649  -1.4106245  -3.5491407 0.48189864 1.5040774 1.5040774 0.50377506 0.50377506
 3 1.7559649  -1.4140197   -3.508813 0.47878032 1.5040774 1.5040774 0.50377506 0.50377506
 1 1.7645551  -1.4294206  -2.4319661 0.48301819 1.5040774 1.5040774 0.52095531 0.52095531
 2 1.7560105 -0.69255871  -3.1146945 0.76939758 1.5040774 1.5040774 0.50386611 0.50386611
 4 1.7596399  -0.7986598  -2.8495397 0.69041286 1.5040774 1.5040774 0.51112508 0.51112508
 4 1.7559649 -0.65094079  -3.8851958 0.54009114 1.5040774 1.5040774 0.50377507 0.50377507
5 1.7560059 -0.78770353  -3.2401302 0.55751612 1.5040774 1.5040774 0.50385699 0.50385699
8 1.7559652 -0.72204548  -3.3961346 0.64586059 1.5040774 1.5040774 0.50377562 0.50377562
5 1.9160565  -1.1628953  -2.1744396 0.86697224 1.5040774 1.5040774  0.8239582  0.8239582
1 1.8364261 -0.85014516  -2.5798967 0.75692623 1.5040774 1.5040774 0.66469737 0.66469737
6 1.7559658 -0.80456305  -3.2035443 0.69814823 1.5040774 1.5040774 0.50377673 0.50377673
3 1.7559688 -0.82998673  -3.1088141 0.71295009 1.5040774 1.5040774 0.50378272 0.50378272
6 1.7559649  -1.6875279  -3.1934845 0.55993414 1.5040774 1.5040774 0.50377492 0.50377492
1 1.7185945  -1.9374774   -1.363999  0.5068208 1.5040774 1.5040774 0.42903428 0.42903428
8 1.7268471   -1.557869 -0.45754578 0.73806885 1.5040774 1.5040774 0.44553931 0.44553931
4 1.7517496  -1.7461967 -0.66577021 0.78510451 1.5040774 1.5040774 0.49534435 0.49534435
3 1.6730265  -1.6963499   -1.213786 0.71624003 1.5040774 1.5040774 0.33789812 0.33789812
1 1.8041177  -1.5047064  -1.7585431  0.6854154 1.5040774 1.5040774 0.60008051 0.60008051
1 1.7538169  -1.5159294  -2.0181109 0.70577505 1.5040774 1.5040774 0.49947906 0.49947906
5  1.754875  -1.6236739  -2.3380145 0.63498534 1.5040774 1.5040774  0.5015953  0.5015953
3 1.7559649  -1.5905102  -3.6287149 0.54165594 1.5040774 1.5040774 0.50377507 0.50377507
6 1.7559649  -1.4581696  -3.6728077 0.53902923 1.5040774 1.5040774 0.50377507 0.50377507
4 2.0363555  -1.2372982  -2.1743621 0.61892726 1.5040774 1.5040774  1.0645561  1.0645561
5 1.8677547  -1.3916021    -2.06938 0.61417527 1.5040774 1.5040774 0.72735461 0.72735461
1 1.7559649  -1.1352717  -3.9508202 0.67312033 1.5040774 1.5040774 0.50377507 0.50377507
5  1.756161 -0.30358382  -3.4591794 0.57778336 1.5040774 1.5040774 0.50416723 0.50416723
 7 1.7573798 -0.87609033   -2.8955065  0.8314052 1.5040774 1.5040774 0.50660479 0.50660479
 2 1.7559649 -0.83161014    -3.421962 0.82723289 1.5040774 1.5040774 0.50377504 0.50377504
 9 1.7559649   -0.949227   -3.3729141 0.80093606 1.5040774 1.5040774 0.50377494 0.50377494
 1 1.7570231  -1.1054733   -2.7099501 0.85857985 1.5040774 1.5040774 0.50589135 0.50589135
 6 1.7559648  -1.6080398   -3.1937071 0.76066887 1.5040774 1.5040774 0.50377486 0.50377486
 9 1.7558424    -1.89135   -2.4952268 0.68101927 1.5040774 1.5040774 0.50353006 0.50353006
11 1.7559649  -1.9238581   -3.1389572 0.67495743 1.5040774 1.5040774   0.503775   0.503775
 2  1.724436  -1.9994265 -0.047089977 0.58483276 1.5040774 1.5040774 0.44071711 0.44071711
 5 1.7112428  -1.9939585  -0.15909579 0.58096933 1.5040774 1.5040774 0.41433078 0.41433078
 7 1.6471514  -1.5496221  -0.60824073 0.49034861 1.5040774 1.5040774 0.28614811 0.28614811
 5 1.6852605  -1.3688171  -0.40218099 0.45786186 1.5040774 1.5040774 0.36236613 0.36236613
 6 1.7607032   -1.571289   0.45684319 0.45468892 1.5040774 1.5040774 0.51325158 0.51325158
 9 1.7585242  -1.7804262   0.74587401 0.42774298 1.5040774 1.5040774 0.50889354 0.50889354
 1  1.812586  -1.4977856   -1.2026381 0.49226586 1.5040774 1.5040774 0.61701719 0.61701719
 2 1.7561323  -1.4974133   -1.2235956 0.48704312 1.5040774 1.5040774 0.50410973 0.50410973
 1 1.7407626  -1.5020723   -1.1512276 0.49472561 1.5040774 1.5040774 0.47337043 0.47337043
 7  1.755961  -1.3023025   -3.0235939 0.67343694 1.5040774 1.5040774 0.50376727 0.50376727
 1 1.7559649   -1.234338   -3.4033495 0.65831019 1.5040774 1.5040774 0.50377506 0.50377506
 1 1.7559649  -1.5198737   -3.7779737 0.69668149 1.5040774 1.5040774 0.50377507 0.50377507
 5 1.7559649  -1.5642349    -3.421504 0.72371002 1.5040774 1.5040774 0.50377506 0.50377506
19 1.7514647  -1.9472307 -0.54071047 0.69263878 1.5040774 1.5040774 0.49477468 0.49477468
 2 1.7553538  -1.6375366  -2.4936089 0.81361278 1.5040774 1.5040774 0.50255275 0.50255275
 4 1.7535868  -1.4963943   -2.407968 0.84077958 1.5040774 1.5040774 0.49901886 0.49901886
 3 1.7471159  -1.8296532  -1.2082171 0.80459984 1.5040774 1.5040774 0.48607707 0.48607707
 7   1.75592  -1.9284338 -0.40446853 0.87795602 1.5040774 1.5040774  0.5036852  0.5036852
 2 1.7556508  -1.8731119 -0.67916883 0.88177477 1.5040774 1.5040774 0.50314674 0.50314674
 6 1.7544601  -1.9720384  -1.3354386 0.88064281 1.5040774 1.5040774 0.50076549 0.50076549
 1 1.9343168  -1.0787543  -2.3381868 0.86438619 1.5040774 1.5040774 0.86047876 0.86047876
33 1.6180679   -1.139879 -0.43824356  0.8176108 1.5040774 1.5040774 0.22798106 0.22798106
 1 1.7232037  -1.1096863 -0.26505522 0.87722677 1.5040774 1.5040774 0.43825267 0.43825267
 4 1.7559651 -0.48916913  -3.5821901 0.65651565 1.5040774 1.5040774 0.50377531 0.50377531
 3 1.7559649   -0.528655   -3.747553 0.69689469 1.5040774 1.5040774 0.50377507 0.50377507
 1  1.755965 -0.49438524  -3.5419104 0.70218841 1.5040774 1.5040774  0.5037753  0.5037753
 2 1.7559651  -0.3692793  -3.7580259 0.52786485 1.5040774 1.5040774 0.50377545 0.50377545
 4 1.9053116 -0.60025514  -2.9390958 0.57820212 1.5040774 1.5040774 0.80246842 0.80246842
 6  1.755965 -0.45230762  -3.5759864 0.75662397 1.5040774 1.5040774 0.50377515 0.50377515
 9 1.7560021 -0.40075408   -3.460256 0.58807889 1.5040774 1.5040774 0.50384947 0.50384947
 9 1.7559649 -0.83645383  -3.9343655  0.7017062 1.5040774 1.5040774 0.50377507 0.50377507
 4   1.90224 -0.55758173  -2.9358765 0.60731204 1.5040774 1.5040774  0.7963252  0.7963252
 5 1.7572003 -0.75881681  -2.9128745 0.76828096 1.5040774 1.5040774 0.50624572 0.50624572
 1 1.7559632  -1.5726114  -3.0370784 0.73835232 1.5040774 1.5040774  0.5037717  0.5037717
 4 1.7559185  -1.5319839   -2.815502 0.75751536 1.5040774 1.5040774 0.50368225 0.50368225
 2 1.7538181  -1.8408362 -0.93913069 0.84802588 1.5040774 1.5040774 0.49948149 0.49948149
 5 1.7252007  -1.5841417  -1.0854223  0.8479594 1.5040774 1.5040774 0.44224659 0.44224659
 8 1.7557683   -1.734894  0.35616033 0.70466616 1.5040774 1.5040774 0.50338185 0.50338185
 3 1.7559311  -1.8593518  0.56775226 0.69058556 1.5040774 1.5040774 0.50370747 0.50370747
 5 1.6728493  -1.6099528  -1.3693087 0.76242612 1.5040774 1.5040774 0.33754384 0.33754384
 5 1.7557114  -1.2199915    -2.72132 0.67979387 1.5040774 1.5040774 0.50326793 0.50326793
 2 1.7559649  -1.2174173  -3.3040309   0.662673 1.5040774 1.5040774 0.50377498 0.50377498
12 1.7559649  -1.0216533  -3.7951237 0.66163741 1.5040774 1.5040774 0.50377507 0.50377507
 8 1.7559645  -1.5306408  -3.0856163 0.62203393 1.5040774 1.5040774 0.50377415 0.50377415
 2 1.7559645  -1.5297888  -3.0875811 0.62265359 1.5040774 1.5040774 0.50377419 0.50377419
 3 1.7552709  -1.4585342  -2.5176813 0.63201831 1.5040774 1.5040774 0.50238706 0.50238706
 2 1.7530732   -1.531637  -2.2269253 0.62972289 1.5040774 1.5040774 0.49799167 0.49799167
 4  1.755942  -1.0217532  -2.9616484  0.7495009 1.5040774 1.5040774 0.50372925 0.50372925
 6 1.9144155  -1.0579313  -2.3859442 0.64476721 1.5040774 1.5040774  0.8206763  0.8206763
11 1.7562209 -0.42043472  -3.3132668 0.63654695 1.5040774 1.5040774 0.50428706 0.50428706
13 1.7558108  -1.9404321 -0.12487128 0.44148265 1.5040774 1.5040774 0.50346686 0.50346686
 7 1.7179422  -1.6509079 -0.67805484 0.46190438 1.5040774 1.5040774 0.42772964 0.42772964
 3 1.7556477  -1.7729655  0.15121087 0.47689143 1.5040774 1.5040774 0.50314058 0.50314058
 3 1.7558225  -1.7990637  0.34588345 0.49020975 1.5040774 1.5040774 0.50349011 0.50349011
 2 1.7555986  -1.8197459  0.15150174 0.49267002 1.5040774 1.5040774 0.50304239 0.50304239
 9  1.755946  -1.9497401  0.39686876 0.47534753 1.5040774 1.5040774 0.50373727 0.50373727
10 1.7559649  -1.6958569  -3.1568903  0.6130253 1.5040774 1.5040774 0.50377497 0.50377497
 4 1.7559649  -1.7217504  -3.5003174 0.58334549 1.5040774 1.5040774 0.50377507 0.50377507
10 1.7559646  -1.9377863  -2.9778941 0.57753071 1.5040774 1.5040774 0.50377445 0.50377445
 2 1.6380201  -1.5421318  -1.3812094 0.73318349 1.5040774 1.5040774  0.2678854  0.2678854
 2 1.5982004  -1.5570863  -1.2133327 0.72454811 1.5040774 1.5040774 0.18824601 0.18824601
 5 1.7282945  -1.9864816 -0.86803292 0.65903987 1.5040774 1.5040774 0.44843411 0.44843411
 3 1.7544934  -1.8816902  -2.0779728 0.84581908 1.5040774 1.5040774 0.50083206 0.50083206
 3 1.7559649    -1.63556  -3.6651502 0.88209093 1.5040774 1.5040774 0.50377507 0.50377507
 2 1.6830455  -1.6546832  -1.4236558 0.73457006 1.5040774 1.5040774 0.35793629 0.35793629
 9 1.7555513  -1.2532116   -2.635983 0.74065894 1.5040774 1.5040774 0.50294781 0.50294781
 2 1.7558384  -1.2054929  -2.6877928 0.80426778 1.5040774 1.5040774 0.50352203 0.50352203
 1 2.3816191  -1.1421821  -2.0602671 0.83435782 1.5040774 1.5040774  1.7550833  1.7550833
 3 1.7419945  -1.2956229  -1.7883607 0.85273288 1.5040774 1.5040774 0.47583411 0.47583411
 3 2.3270586  -0.6567293  -2.6602235 0.69190355 1.5040774 1.5040774  1.6459624  1.6459624
 2 3.3116895 -0.62577674  -2.6667903 0.65599822 1.5040774 1.5040774  3.6152242  3.6152242
 4 2.0769555 -0.70380145  -2.6245135 0.72046842 1.5040774 1.5040774  1.1457561  1.1457561
 1 1.8356762 -0.86020671  -2.6152966  0.6749451 1.5040774 1.5040774 0.66319752 0.66319752
 1 1.7399789  -1.2930245  0.12885264 0.75400537 1.5040774 1.5040774 0.47180309 0.47180309
 1 1.7609099   -1.736849  0.44805721 0.53553815 1.5040774 1.5040774 0.51366503 0.51366503
 3 1.7124854  -1.6875993  -1.2654039 0.52887653 1.5040774 1.5040774 0.41681609 0.41681609
 2 1.7559649  -1.4045319  -3.6452677 0.40776401 1.5040774 1.5040774 0.50377507 0.50377507
 1 1.7559547  -1.3225044  -3.0804313 0.49315973 1.5040774 1.5040774 0.50375466 0.50375466
 2 1.7559575  -1.2419078  -3.0951895 0.47702878 1.5040774 1.5040774 0.50376021 0.50376021
 1 1.7559657 -0.67675132  -3.2987573 0.75923225 1.5040774 1.5040774 0.50377656 0.50377656
 1 2.4845082  -1.1472704  -1.9640027 0.84972671 1.5040774 1.5040774  1.9608617  1.9608617
 3 1.7559649  -1.2914906  -3.3541744 0.89745862 1.5040774 1.5040774 0.50377501 0.50377501
 1 1.7559649  -1.2513358  -3.4445531 0.88923888 1.5040774 1.5040774 0.50377506 0.50377506
 1 1.7559649  -1.0143109  -3.8496991 0.70221448 1.5040774 1.5040774 0.50377507 0.50377507
 3 2.2672103  -1.7261709 -0.59526454 0.60411663 1.5040774 1.5040774  1.5262657  1.5262657
22 1.7481889  -1.7671748 -0.29404569 0.49985921 1.5040774 1.5040774 0.48822304 0.48822304
 3 1.7033047  -1.3117053 -0.59069234 0.83767176 1.5040774 1.5040774 0.39845461 0.39845461
 2  1.749622   -1.562027 -0.40853194 0.78586223 1.5040774 1.5040774 0.49108924 0.49108924
 1  1.747086  -1.4574833  -0.2647024 0.78142282 1.5040774 1.5040774 0.48601722 0.48601722
 3 1.7491647  -1.4207933  -0.3150556 0.82240809 1.5040774 1.5040774  0.4901746  0.4901746
 2 1.7539865  -1.4504032 -0.11340224 0.81328347 1.5040774 1.5040774 0.49981813 0.49981813
 6 1.6069011  -1.3935689  -1.0167611 0.82037781 1.5040774 1.5040774 0.20564744 0.20564744
 2  2.812896  -1.4301498  -1.9189923 0.52753391 1.5040774 1.5040774  2.6176372  2.6176372
 3 1.7707514  -1.5272014  -2.1880105 0.51640849 1.5040774 1.5040774 0.53334796 0.53334796
 7 1.7557188  -1.7010744  -2.5521984 0.69833046 1.5040774 1.5040774 0.50328271 0.50328271
 1 1.7101758  -1.6341426  -1.5662131 0.79319315 1.5040774 1.5040774 0.41219687 0.41219687
 2 1.5746543  -1.5853047 -0.96394092 0.69257383 1.5040774 1.5040774  0.1411539  0.1411539
 1 1.7566084  -1.0326919  -2.7368731 0.75061291 1.5040774 1.5040774 0.50506201 0.50506201
 2 1.7559555  -1.0258524  -3.0315981 0.67846344 1.5040774 1.5040774 0.50375612 0.50375612
 1 1.7256512  -1.6870351  -1.4398031 0.81290724 1.5040774 1.5040774 0.44314767 0.44314767
 2 1.7227174  -1.6659478  -1.3042482 0.81575415 1.5040774 1.5040774 0.43727992 0.43727992
 1 1.7229497  -1.6664286  -1.3006478 0.81578406 1.5040774 1.5040774 0.43774457 0.43774457
 9 1.7017909   -1.657087   -1.293276 0.77498642 1.5040774 1.5040774 0.39542708 0.39542708
 4 1.7561018  -0.8082895  -3.2533029 0.49129909 1.5040774 1.5040774 0.50404879 0.50404879
 5 1.7560075 -0.33096743   -3.553736 0.53156791 1.5040774 1.5040774 0.50386026 0.50386026
 8 1.7560154 -0.40620853  -3.5599836 0.47369769 1.5040774 1.5040774 0.50387602 0.50387602
 6 1.7559821 -0.34009935  -3.6757976 0.44037282 1.5040774 1.5040774 0.50380935 0.50380935
10 1.7560472 -0.33008669    -3.62188 0.43409015 1.5040774 1.5040774 0.50393962 0.50393962
32 1.7560833 -0.35298147  -3.6023655 0.42494967 1.5040774 1.5040774 0.50401176 0.50401176
 6 1.7559731 -0.41707772  -3.6978856 0.40518684 1.5040774 1.5040774 0.50379143 0.50379143
 3 1.7688048 -0.27128776  -3.3320549 0.53831606 1.5040774 1.5040774 0.52945475 0.52945475
 9 1.7559649 -0.74154618  -3.7839235 0.62664751 1.5040774 1.5040774 0.50377507 0.50377507
30 1.7568067 -0.23314874  -3.5949449 0.41749364 1.5040774 1.5040774 0.50545861 0.50545861
10 1.7560122 -0.49766348 -3.2813995 0.70001141 1.5040774 1.5040774 0.50386957 0.50386957
 3 1.7559651 -0.50137951 -3.5683565 0.65400449 1.5040774 1.5040774 0.50377537 0.50377537
 2 1.7559649  -0.6057027 -3.8664619 0.68435658 1.5040774 1.5040774 0.50377507 0.50377507
15 1.7559649 -0.59998186 -3.6801869 0.76048992 1.5040774 1.5040774 0.50377507 0.50377507
 5 1.7559396  -1.2479949 -2.9683948 0.83583162 1.5040774 1.5040774 0.50372449 0.50372449
 2 1.7558542  -1.3185487 -2.8289901 0.83350326 1.5040774 1.5040774 0.50355352 0.50355352
 4 1.7559649  -1.3253577 -3.3266491 0.64888685 1.5040774 1.5040774 0.50377503 0.50377503
 1 1.7559649  -1.3040657 -3.4762232 0.64538635 1.5040774 1.5040774 0.50377507 0.50377507
 6 1.7559666 -0.41931653 -3.4281632 0.80544658 1.5040774 1.5040774 0.50377834 0.50377834
 1 1.7822246 -0.59581335 -2.8690121 0.73730966 1.5040774 1.5040774  0.5562944  0.5562944
 1 1.7559669 -0.96173023  -3.042362 0.78734345 1.5040774 1.5040774 0.50377895 0.50377895
 1 1.7558261  -1.2324422 -2.8161454 0.77417442 1.5040774 1.5040774 0.50349749 0.50349749
 1 1.7621803  -1.2517184 -2.4155474 0.77962491 1.5040774 1.5040774 0.51620574 0.51620574
 5 1.7585315  -1.2308669 -2.3943154 0.66874039 1.5040774 1.5040774 0.50890829 0.50890829
 6 1.7884386  -1.0671396 -2.5407243 0.61731369 1.5040774 1.5040774 0.56872248 0.56872248
 5 1.7558823  -1.3087592 -2.8801301 0.52535031 1.5040774 1.5040774 0.50360973 0.50360973
 3 1.7343345  -1.7444146 0.37443397 0.62611137 1.5040774 1.5040774 0.46051412 0.46051412
 1 2.2059147 -0.80054348 -2.5033005 0.78039374 1.5040774 1.5040774  1.4036747  1.4036747
 3 1.7559654 -0.62576687 -3.5455129 0.55315956 1.5040774 1.5040774 0.50377605 0.50377605
 6 1.7559649 -0.58533336 -3.7085422  0.5578287 1.5040774 1.5040774  0.5037751  0.5037751
 2  1.760092 -0.72642271  -2.9667556  0.6313756 1.5040774 1.5040774 0.51202912 0.51202912
 1  1.754318  -1.4715075  -2.4552459 0.72704472 1.5040774 1.5040774 0.50048113 0.50048113
 4 1.7553359  -1.4102233  -2.6173611 0.76603396 1.5040774 1.5040774 0.50251702 0.50251702
 5 1.7551605   -1.329794  -2.6182305 0.89171036 1.5040774 1.5040774 0.50216619 0.50216619
 3 1.6948386   -1.301243  -1.6861275 0.85305826 1.5040774 1.5040774 0.38152241 0.38152241
 3 1.7559661   -1.012876  -2.9921702 0.88803159 1.5040774 1.5040774 0.50377741 0.50377741
 1 1.7559705 -0.84035545  -3.4391394 0.43578427 1.5040774 1.5040774 0.50378628 0.50378628
21 1.7559649 -0.86694708   -3.988518 0.43088181 1.5040774 1.5040774 0.50377507 0.50377507
10 1.6542046   -1.481253   -1.538857 0.82050717 1.5040774 1.5040774 0.30025441 0.30025441
 5 1.6478795  -1.4489006  -1.5785168  0.8218293 1.5040774 1.5040774 0.28760423 0.28760423
 5  1.922043  -1.5312955  -1.4697267 0.68270095 1.5040774 1.5040774 0.83593125 0.83593125
 4 1.7048931  -1.8024593 -0.82469807 0.68701462 1.5040774 1.5040774 0.40163144 0.40163144
 8 1.7164744  -1.8392036 -0.69517263 0.67746756 1.5040774 1.5040774 0.42479406 0.42479406
 2 1.7559427  -1.7070504 0.015532211 0.89127358 1.5040774 1.5040774 0.50373055 0.50373055
 2 1.7306808  -1.3454635 -0.36962131 0.80548124 1.5040774 1.5040774 0.45320677 0.45320677
 6 1.7623113  -1.7762399  -1.7963689 0.57400935 1.5040774 1.5040774 0.51646782 0.51646782
 3 1.8095187  -1.6728596  -1.8154417 0.58391065 1.5040774 1.5040774 0.61088267 0.61088267
 2 2.2619609  -1.6558063 -0.96537978 0.56197281 1.5040774 1.5040774   1.515767   1.515767
 3 1.9093996  -1.8223835  -1.0698854 0.63163611 1.5040774 1.5040774 0.81064436 0.81064436
 1 1.5966412  -1.6390566 -0.51470956 0.53676955 1.5040774 1.5040774 0.18512751 0.18512751
 6 1.7548895  -1.8866396 -0.14797903 0.49059876 1.5040774 1.5040774 0.50162411 0.50162411
 1 1.7559066   -1.605033  0.36316247 0.77490453 1.5040774 1.5040774 0.50365834 0.50365834
 4 1.7549838  -1.7173056 -0.23127624 0.76182968 1.5040774 1.5040774 0.50181272 0.50181272
 7 1.7559649 -0.79189157  -3.5779592 0.88815534 1.5040774 1.5040774 0.50377507 0.50377507
 4 1.7559649 -0.74608189  -3.4736804 0.81991016 1.5040774 1.5040774 0.50377508 0.50377508
 7  1.766811  -0.7175489  -2.8349896 0.79538821 1.5040774 1.5040774 0.52546714 0.52546714
 4 1.7559649 -0.50898034  -3.6066172 0.70224952 1.5040774 1.5040774  0.5037751  0.5037751
 2 1.7559649 -0.56464316  -3.7759244 0.83124145 1.5040774 1.5040774 0.50377507 0.50377507
 4 1.7559649 -0.57336671  -3.7434677 0.78954256 1.5040774 1.5040774 0.50377507 0.50377507
 6 1.7559258  -1.7240863  -2.7169134 0.68243301 1.5040774 1.5040774  0.5036968  0.5036968
 8 1.7559649  -1.1742275  -3.5614104 0.69242716 1.5040774 1.5040774 0.50377507 0.50377507
10 1.7559649   -1.109983  -3.8712713 0.65230899 1.5040774 1.5040774 0.50377507 0.50377507
 2  1.773716  -1.6716244  -1.8718414 0.59776999 1.5040774 1.5040774 0.53927719 0.53927719
 3 1.7513557  -1.8984866  -1.9052036 0.69732627 1.5040774 1.5040774 0.49455668 0.49455668
 9 1.7554464  -1.6561363  -2.6956156 0.40833905 1.5040774 1.5040774 0.50273792 0.50273792
11 1.7559649  -1.0814655  -3.7105481  0.5109156 1.5040774 1.5040774 0.50377507 0.50377507
 2 1.7559646  -1.1324825  -3.2991007 0.50175168 1.5040774 1.5040774 0.50377438 0.50377438
 2 1.7559645  -1.2399149  -3.2816674 0.50578033 1.5040774 1.5040774 0.50377414 0.50377414
 8 1.5690932  -1.5315961  -1.5338413 0.40007882 1.5040774 1.5040774 0.13003159 0.13003159
 5 1.7847834  -1.5949131  -1.9400207 0.49604155 1.5040774 1.5040774 0.56141197 0.56141197
 4 1.8134133  -1.5946708   -1.8935821 0.50487997 1.5040774 1.5040774 0.61867181 0.61867181
 1 1.6851347   -1.860257  -0.58449359 0.54105693 1.5040774 1.5040774 0.36211462 0.36211462
 2 1.6571697  -1.8669189  -0.61602376 0.54905775 1.5040774 1.5040774 0.30618462 0.30618462
 5 1.5921098  -1.6567128  -0.79004838 0.67684869 1.5040774 1.5040774 0.17606484 0.17606484
 1 1.7556477  -1.8753435 -0.023198103 0.46913429 1.5040774 1.5040774 0.50314059 0.50314059
 2 1.7481673  -1.8036299   -1.9023192 0.67919908 1.5040774 1.5040774 0.48817971 0.48817971
 4 1.7602025 -0.30400899   -3.1830686 0.73131632 1.5040774 1.5040774 0.51225017 0.51225017
 4  1.755776  -1.4609285    -2.722812 0.84883879 1.5040774 1.5040774 0.50339727 0.50339727
 4 1.7559635   -1.361125   -3.1230617 0.86399039 1.5040774 1.5040774 0.50377228 0.50377228
 2  2.022073  -1.8342706   -1.2675232 0.58622928 1.5040774 1.5040774  1.0359912  1.0359912
 1 1.7559329  -1.8673338   -2.5948916   0.605757 1.5040774 1.5040774 0.50371105 0.50371105
10 1.7559649  -1.0329852   -3.4428091 0.82514163 1.5040774 1.5040774 0.50377504 0.50377504
 1  1.756239 -0.88372055   -2.9739296 0.83741273 1.5040774 1.5040774 0.50432314 0.50432314
10 1.8017843  -1.0109981   -2.5562638 0.88181125 1.5040774 1.5040774 0.59541384 0.59541384
 8 1.7967372 -0.96325048    -2.616273 0.88643153 1.5040774 1.5040774 0.58531956 0.58531956
 5  1.755963  -1.4248452   -3.0841318 0.82768314 1.5040774 1.5040774 0.50377125 0.50377125
 4 1.7559605  -1.5335604   -2.9851031 0.86227669 1.5040774 1.5040774 0.50376612 0.50376612
 5 1.6644288   -1.805689 -0.074486296   0.588761 1.5040774 1.5040774 0.32070289 0.32070289
 5 1.7559649  -0.9452247   -3.9829472 0.76273005 1.5040774 1.5040774 0.50377507 0.50377507
 1 1.7559646  -1.1639297   -3.2626711 0.81891289 1.5040774 1.5040774 0.50377443 0.50377443
2 1.7559642  -0.9235608    -3.1868622 0.79922511 1.5040774 1.5040774   0.5037737   0.5037737
9 1.7559649  -1.0789087    -3.4593963 0.57386752 1.5040774 1.5040774  0.50377505  0.50377505
6 1.7559649   -1.996069    -3.5255164 0.50985102 1.5040774 1.5040774  0.50377507  0.50377507
4 1.7559649  -1.7025335    -3.8691656 0.51024792 1.5040774 1.5040774  0.50377507  0.50377507
2 1.7559649  -1.3744678    -3.5296464 0.50113969 1.5040774 1.5040774  0.50377506  0.50377506
2 1.7559649  -1.3638314     -3.680263 0.46445827 1.5040774 1.5040774  0.50377507  0.50377507
3 1.7559649  -1.5157251    -3.3839295 0.59063351 1.5040774 1.5040774  0.50377506  0.50377506
8 1.5213006  -1.6633246 -0.0097318464 0.64436852 1.5040774 1.5040774 0.034446317 0.034446317
4 1.6030005   -1.813622   -0.98376227 0.54283143 1.5040774 1.5040774  0.19784616  0.19784616
6 1.5995872  -1.7714749    -1.0643057 0.53573983 1.5040774 1.5040774  0.19101963  0.19101963
1 1.6286748  -1.6773816    -1.0878923  0.4713583 1.5040774 1.5040774   0.2491949   0.2491949
8 1.5917627  -1.4492359   -0.38871843 0.54005027 1.5040774 1.5040774  0.17537052  0.17537052
6 1.7125033  -1.6561875     -1.839485 0.46176574 1.5040774 1.5040774  0.41685181  0.41685181
2 1.7558505   -1.459884    -2.9038994 0.41479588 1.5040774 1.5040774  0.50354613  0.50354613
1 1.7545001  -1.5303199    -2.5516849 0.43461878 1.5040774 1.5040774  0.50084546  0.50084546
1 1.7559646  -1.5687986    -3.1860236 0.52645195 1.5040774 1.5040774   0.5037744   0.5037744
4 1.7574712 -0.63648905    -3.0045999 0.71768833 1.5040774 1.5040774  0.50678767  0.50678767
3 1.7559649 -0.45074665    -3.9133961 0.72763887 1.5040774 1.5040774  0.50377507  0.50377507
5 1.7559677 -0.91868301    -2.9817024  0.7179209 1.5040774 1.5040774  0.50378069  0.50378069
6 1.7559649 -0.86347084    -3.7036049 0.71921317 1.5040774 1.5040774  0.50377507  0.50377507
 2 1.7559649 -0.70333446  -3.9753802 0.48399562 1.5040774 1.5040774 0.50377507 0.50377507
 1 1.7510755  -1.6343218  -2.1573538 0.88078105 1.5040774 1.5040774 0.49399627 0.49399627
 3   1.75596  -1.7805716  0.30583841 0.82421443 1.5040774 1.5040774 0.50376512 0.50376512
 6 1.7559723 -0.82198203  -3.1789874 0.88772831 1.5040774 1.5040774 0.50378988 0.50378988
 1 1.7254318  -1.7510284 -0.88816874 0.72815139 1.5040774 1.5040774  0.4427088  0.4427088
 4 1.7550316  -1.6321071  -2.5183312 0.52512702 1.5040774 1.5040774 0.50190833 0.50190833
 2 1.7560205  -1.7572861  -1.8646323 0.55173891 1.5040774 1.5040774 0.50388621 0.50388621
 5 1.7560242 -0.98750046  -3.2618656 0.41034295 1.5040774 1.5040774 0.50389364 0.50389364
12 1.8513071 -0.91917781  -2.8501727 0.47727675 1.5040774 1.5040774 0.69445942 0.69445942
 1 2.1519966  -1.2731558 -0.58715367  0.7313009 1.5040774 1.5040774  1.2958384  1.2958384
 2 1.7559648  -0.8828983   -3.301065 0.84796415 1.5040774 1.5040774 0.50377485 0.50377485
10 1.7559649 -0.61667144  -3.7985949 0.73371587 1.5040774 1.5040774 0.50377507 0.50377507
 3 1.7559649 -0.98627363  -3.4930895  0.6382969 1.5040774 1.5040774 0.50377506 0.50377506
14 1.7559649 -0.97574389  -3.9609834 0.63839568 1.5040774 1.5040774 0.50377507 0.50377507
 2 1.7559649  -1.8377885  -3.3771938 0.64717591 1.5040774 1.5040774 0.50377507 0.50377507
10 1.7559649  -1.4806058   -3.958594 0.55198918 1.5040774 1.5040774 0.50377507 0.50377507
 1 1.7559649 -0.87370666  -3.4760537 0.74945023 1.5040774 1.5040774 0.50377505 0.50377505
 1 1.7563335 -0.68871529  -3.0205444 0.75132087 1.5040774 1.5040774 0.50451215 0.50451215
 4 1.7559693 -0.62464531  -3.2713838 0.74205825 1.5040774 1.5040774 0.50378382 0.50378382
 1 1.7559649 -0.56015526  -3.8961249  0.5460192 1.5040774 1.5040774 0.50377507 0.50377507
 1 1.6295226  -1.2676832 -0.49506327  0.7385601 1.5040774 1.5040774 0.25089037 0.25089037
 8 1.7489502    -1.85147  -1.7672346 0.78391101 1.5040774 1.5040774 0.48974558 0.48974558
 5 1.7474148  -1.8187585  -1.7814869 0.78441679 1.5040774 1.5040774 0.48667479 0.48667479
 9 1.7357553  -1.7850595  -1.2941619 0.77469261 1.5040774 1.5040774 0.46335583 0.46335583
 5 1.7413482  -1.8289352  -1.1828878 0.76406809 1.5040774 1.5040774 0.47454155 0.47454155
 2 1.7544083  -1.3778672  -2.3408656 0.63702468 1.5040774 1.5040774 0.50066186 0.50066186
 3  1.755189   -1.305088  -2.5754028 0.69987395 1.5040774 1.5040774 0.50222322 0.50222322
 5 1.7559649  -1.0546784  -3.1912127 0.54254903 1.5040774 1.5040774 0.50377501 0.50377501
 4 1.7559649 -0.54441779  -3.7501532 0.53397481 1.5040774 1.5040774  0.5037751  0.5037751
 4 1.7559653 -0.52354376  -3.5947226 0.57690062 1.5040774 1.5040774 0.50377578 0.50377578
 4 1.7559656 -0.40544305  -3.6806626 0.53250262 1.5040774 1.5040774 0.50377648 0.50377648
 5  1.757202 -0.21877134  -3.4626417 0.54595537 1.5040774 1.5040774 0.50624929 0.50624929
 3 1.7559649 -0.69745826  -3.6459328 0.56842965 1.5040774 1.5040774 0.50377509 0.50377509
 6  1.755965 -0.58784085   -3.598072 0.61104397 1.5040774 1.5040774 0.50377517 0.50377517
11  1.755965 -0.58047362  -3.5857658 0.61549839 1.5040774 1.5040774 0.50377521 0.50377521
 3  1.755965 -0.58040407  -3.5848326 0.62096446 1.5040774 1.5040774 0.50377519 0.50377519
 5 1.7559832 -0.72834873  -3.1400996 0.72177268 1.5040774 1.5040774 0.50381157 0.50381157
 5 1.7559649   -1.057029  -3.9711224 0.56989556 1.5040774 1.5040774 0.50377507 0.50377507
 3 1.7559649  -1.0565416  -3.7530156 0.55415172 1.5040774 1.5040774 0.50377507 0.50377507
15 1.7381314  -1.8267628  -1.6111857 0.66150745 1.5040774 1.5040774 0.46810808 0.46810808
 2 1.7839097  -1.8466946  -1.5800323 0.58236846 1.5040774 1.5040774  0.5596646  0.5596646
 5 1.7650806  -1.8338092  -1.6814322 0.58224516 1.5040774 1.5040774 0.52200648 0.52200648
 2 2.2411782  -1.6778506  -1.5844128 0.58189114 1.5040774 1.5040774  1.4742015  1.4742015
 4 1.7493947  -1.9843694  -1.1839999 0.73114786 1.5040774 1.5040774 0.49063463 0.49063463
 3 1.5804119  -1.6672499 -0.13491002 0.63372444 1.5040774 1.5040774 0.15266903 0.15266903
 1 1.7451542  -1.7092866  0.15637048 0.67818892 1.5040774 1.5040774 0.48215358 0.48215358
 9 1.6454414  -1.0589944 -0.35665221 0.84741851 1.5040774 1.5040774 0.28272795 0.28272795
 4 1.6752758   -1.096363  -0.4105054 0.86763698 1.5040774 1.5040774 0.34239691 0.34239691
 3 1.6356369  -1.2859508 -0.65605732 0.81384856 1.5040774 1.5040774  0.2631191  0.2631191
 1 1.7559649  -0.8968046  -3.8055964 0.74159309 1.5040774 1.5040774 0.50377507 0.50377507
 5 1.7559649  -0.6862598  -3.7787521 0.74124253 1.5040774 1.5040774 0.50377507 0.50377507
 5 1.7559649 -0.83932451  -3.5556482 0.72345073 1.5040774 1.5040774 0.50377506 0.50377506
 1 1.7559649 -0.79333498  -3.9544256 0.77552541 1.5040774 1.5040774 0.50377507 0.50377507
 4 1.7559649  -1.1504632  -3.5014224 0.79914445 1.5040774 1.5040774 0.50377506 0.50377506
 4 1.7599205 -0.93065382  -2.7312424 0.68055832 1.5040774 1.5040774  0.5116863  0.5116863
19 1.7559646  -1.1682013  -3.2968485 0.52026459 1.5040774 1.5040774 0.50377435 0.50377435
 2 1.7559649  -1.3053735  -3.5791264 0.58554485 1.5040774 1.5040774 0.50377507 0.50377507
 3 1.7559649  -1.2010786  -3.6479228 0.53799879 1.5040774 1.5040774 0.50377507 0.50377507
 2 1.7559638  -1.2990183  -3.1259134 0.61602679 1.5040774 1.5040774 0.50377291 0.50377291
14 1.7559998  -1.5170182  0.19864276 0.42314453 1.5040774 1.5040774 0.50384486 0.50384486
 2 1.6585756 -1.6562651   -1.4522471 0.40274202 1.5040774 1.5040774 0.30899639 0.30899639
 3 1.7545394  -1.914357   -0.5076466 0.44459132 1.5040774 1.5040774   0.500924   0.500924
 2 1.7547707 -1.8324281  -0.47368094 0.41329778 1.5040774 1.5040774 0.50138665 0.50138665
 3 1.7557433 -1.8470775 -0.089648469 0.43014831 1.5040774 1.5040774 0.50333171 0.50333171
 6 1.7558278 -1.8477078 0.0048076815 0.43302706 1.5040774 1.5040774 0.50350077 0.50350077
 1 1.6992878 -1.5912684  -0.66290024 0.46360656 1.5040774 1.5040774 0.39042071 0.39042071
 1 1.7355961 -1.9165838   -1.6557514 0.46527081 1.5040774 1.5040774 0.46303734 0.46303734
 7 1.7559647 -1.3569512    -3.205764 0.71072371 1.5040774 1.5040774 0.50377466 0.50377466
 2 1.7559642 -1.5035775   -3.0781434 0.68641225 1.5040774 1.5040774 0.50377367 0.50377367
 3 1.7559556 -1.4898196   -2.9117228 0.68729091 1.5040774 1.5040774 0.50375648 0.50375648
 7 1.7559649 -1.2219217   -3.6596681 0.48019104 1.5040774 1.5040774 0.50377507 0.50377507
 4 3.0574477 -1.2052557   -1.9065873 0.76951261 1.5040774 1.5040774  3.1067405  3.1067405
 1 1.6837163 -1.7489955  -0.82493989 0.49489064 1.5040774 1.5040774  0.3592779  0.3592779
 6 1.7390921 -1.8886019  -0.38466258 0.53005714 1.5040774 1.5040774 0.47002944 0.47002944
 4 1.7574277 -1.8993485   0.81714372 0.48873826 1.5040774 1.5040774 0.50670061 0.50670061
 7 1.7827046  -1.663732   0.23980476 0.50257939 1.5040774 1.5040774 0.55725432 0.55725432
 2 1.7558744 -1.6624784   0.23055581 0.50214973 1.5040774 1.5040774 0.50359397 0.50359397
 9 1.7808481 -1.7972716   0.53631045 0.41967959 1.5040774 1.5040774 0.55354141 0.55354141
 2 1.5999285 -1.9444742  -0.25760895 0.60945547 1.5040774 1.5040774  0.1917023  0.1917023
11  1.714497 -1.9949755   -0.8512491  0.6401606 1.5040774 1.5040774 0.42083927 0.42083927
 4   1.74219 -1.8841378  -0.63043979 0.68824244 1.5040774 1.5040774 0.47622528 0.47622528
 2 1.6117923 -1.6160113   0.43003714 0.66751917 1.5040774 1.5040774 0.21542972 0.21542972
16 1.6200216 -1.5640436  -0.40998324 0.69461525 1.5040774 1.5040774 0.23188832 0.23188832
 3  1.707229  -1.623155  -0.45447942 0.70547868 1.5040774 1.5040774 0.40630312 0.40630312
 1 1.7354112 -1.6407762  -0.37517402 0.71394769 1.5040774 1.5040774 0.46266756 0.46266756
 3  1.735804 -1.5386523 -0.083337329 0.71049607 1.5040774 1.5040774  0.4634533  0.4634533
 4 1.7558557 -1.6634316   0.27048747 0.75353605 1.5040774 1.5040774 0.50355651 0.50355651
12 1.7555324 -1.9938371  -0.49237173 0.74697825 1.5040774 1.5040774 0.50290999 0.50290999
 4 1.8712294 -1.2363074   -1.9590295 0.85743419 1.5040774 1.5040774 0.73430393 0.73430393
 6  2.233419 -1.8222722  -0.98505005 0.59394938 1.5040774 1.5040774  1.4586832  1.4586832
18 1.9333386 -1.7546772   -1.1112294  0.5645135 1.5040774 1.5040774 0.85852232 0.85852232
 2 1.7519541 -1.6756141  -0.59896713 0.80474973 1.5040774 1.5040774 0.49575347 0.49575347
 3 1.6416488 -1.2595632   -0.6793276 0.44977332 1.5040774 1.5040774 0.27514282 0.27514282
 1 1.7541743 -1.5165276   -2.3654819 0.60398134 1.5040774 1.5040774  0.5001939  0.5001939
 5 1.7559649 -1.5233613   -3.5703288 0.42955259 1.5040774 1.5040774 0.50377507 0.50377507
 1 1.7559499 -1.9807228   -2.5924276 0.60432695 1.5040774 1.5040774 0.50374505 0.50374505
 6 1.6216385 -1.1140309  -0.60679516 0.81180508 1.5040774 1.5040774  0.2351223  0.2351223
 4 1.6673577 -1.1161961  -0.62871612 0.80769398 1.5040774 1.5040774 0.32656058 0.32656058
 6 1.7559328 -1.5673342   -2.8255312 0.57392146 1.5040774 1.5040774 0.50371081 0.50371081
 4 1.7559602  -1.516578   -2.9765596 0.58438488 1.5040774 1.5040774 0.50376552 0.50376552
 8 1.7518483 -1.9028796   -1.8074421 0.61286432 1.5040774 1.5040774  0.4955418  0.4955418
 4 1.7532613 -1.8351838   -2.0320354 0.65787371 1.5040774 1.5040774 0.49836782 0.49836782
 1  1.754332 -1.3598913   -2.4330271 0.71835293 1.5040774 1.5040774 0.50050923 0.50050923
 2 1.7559745 -1.5102971    0.1767437 0.77916304 1.5040774 1.5040774 0.50379423 0.50379423
 4 1.7550522 -1.4467472 -0.053700763 0.83727438 1.5040774 1.5040774 0.50194968 0.50194968
 1 1.8111492 -1.3933484   0.32848447 0.69863448 1.5040774 1.5040774 0.61414365 0.61414365
13 1.6382374 -1.7582096    0.2586608 0.64967665 1.5040774 1.5040774 0.26832003 0.26832003
 6 1.7749447 -1.5708879   -2.0117876 0.58977953 1.5040774 1.5040774 0.54173464 0.54173464
 1 1.7558295 -1.3885308   -2.6327369  0.5130657 1.5040774 1.5040774 0.50350411 0.50350411
20 1.9662417 -1.0596646  0.038442944 0.45046762 1.5040774 1.5040774 0.92432855 0.92432855
 8  1.681257 -1.2190236  -0.21469179 0.45535305 1.5040774 1.5040774 0.35435913 0.35435913
 5 1.7478299 -1.5257495 -0.042121753 0.48802282 1.5040774 1.5040774 0.48750491 0.48750491
 2 1.7470197 -1.5257992 -0.053294068 0.48715015 1.5040774 1.5040774  0.4858847  0.4858847
 3 1.6528552 -1.4287872   -0.6677991 0.43914628 1.5040774 1.5040774 0.29755565 0.29755565
 2   1.75241 -1.9502069  -0.61827852 0.70763702 1.5040774 1.5040774  0.4966653  0.4966653
 7  1.754588 -1.9406172   -2.0839098 0.65896859 1.5040774 1.5040774 0.50102118 0.50102118
 4 1.7559597 -1.7254636   -2.8463348 0.66283981 1.5040774 1.5040774 0.50376463 0.50376463
 4 1.7548174 -1.8199669   -2.2578893 0.73473744 1.5040774 1.5040774 0.50148008 0.50148008
 1 1.7559256  -1.848707   -2.6569196 0.72775797 1.5040774 1.5040774 0.50369647 0.50369647
 2 1.7559649 -1.6962016   -3.4684522   0.778458 1.5040774 1.5040774 0.50377507 0.50377507
 4 1.7557248   -1.541009  -2.6514269 0.88507279 1.5040774 1.5040774 0.50329484 0.50329484
 2 1.7559642  -1.6801975   -3.023692 0.67668659 1.5040774 1.5040774 0.50377366 0.50377366
 2 1.7557734  -1.3702226   -2.700555 0.64455647 1.5040774 1.5040774 0.50339198 0.50339198
 5 1.7559604  -1.0884225  -3.0803209 0.65495358 1.5040774 1.5040774 0.50376603 0.50376603
14 1.7559649  -1.1101756  -3.9767749 0.73494028 1.5040774 1.5040774 0.50377507 0.50377507
 4 1.7559649  -1.4705459  -3.6956241 0.62625407 1.5040774 1.5040774 0.50377507 0.50377507
 4  1.713007  -1.5579599 -0.76929475 0.41539599 1.5040774 1.5040774 0.41785914 0.41785914
 4 1.7214449  -1.5706072 -0.72845232 0.41773979 1.5040774 1.5040774 0.43473506 0.43473506
 1  1.943364  -1.0537867  -2.3970289 0.63353662 1.5040774 1.5040774  0.8785733  0.8785733
 4 1.7555466  -1.9393211  -2.2164362 0.60185203 1.5040774 1.5040774 0.50293842 0.50293842
 3 1.5926195  -1.1178768 -0.56907715 0.81146289 1.5040774 1.5040774 0.17708429 0.17708429
 2  1.758213 -0.43291972  -3.1077218 0.75493444 1.5040774 1.5040774 0.50827115 0.50827115
 8 1.7356155  -1.8314487  -1.1099681 0.42674812 1.5040774 1.5040774 0.46307619 0.46307619
16 1.7528228  -1.8914827  -1.2312439 0.85441055 1.5040774 1.5040774 0.49749088 0.49749088
 3 2.3592002  -1.0812502  -0.9212099    0.83948 1.5040774 1.5040774  1.7102455  1.7102455
 2 1.7556107  -1.1495295  0.51985574 0.85976953 1.5040774 1.5040774  0.5030667  0.5030667
 3 1.6662377 -0.72976304   0.1823908 0.87533713 1.5040774 1.5040774 0.32432058 0.32432058
 4 1.6723409 -0.80498759  0.17576723 0.83728606 1.5040774 1.5040774 0.33652706 0.33652706
15  1.749189  -0.6929329  0.37102648 0.84511007 1.5040774 1.5040774 0.49022328 0.49022328
 7 1.7549685   -1.126521  0.28337053 0.88798053 1.5040774 1.5040774 0.50178214 0.50178214
1 1.7550515 -1.2391355  0.30794127 0.82949477 1.5040774 1.5040774  0.50194824  0.50194824
1 1.7559428 -1.3711066   0.6072769 0.85358503 1.5040774 1.5040774  0.50373081  0.50373081
7 1.5860973 -1.1019846 -0.99312609 0.89319451 1.5040774 1.5040774  0.16403972  0.16403972
2 1.7036817 -1.1451191  -1.0988736 0.86112308 1.5040774 1.5040774  0.39920857  0.39920857
5 1.7559451 -1.2000975  -2.9975728 0.87446193 1.5040774 1.5040774  0.50373545  0.50373545
7 1.7561816 -1.0336455  -2.8623814 0.84772744 1.5040774 1.5040774  0.50420838  0.50420838
1 1.7559488 -1.0839407  -3.0124316 0.83562326 1.5040774 1.5040774  0.50374287  0.50374287
3 1.7467985 -1.7075061 -0.55851497 0.74468322 1.5040774 1.5040774  0.48544226  0.48544226
2 1.6843312 -1.3358522 -0.65713112 0.82345741 1.5040774 1.5040774  0.36050764  0.36050764
2 1.6878407 -1.3399633   -0.651944 0.82329288 1.5040774 1.5040774  0.36752662  0.36752662
6 1.5411329 -1.3423381  -1.2619693 0.83850278 1.5040774 1.5040774  0.07411108  0.07411108
1 1.7011744 -1.5898218  -1.5109742 0.82167948 1.5040774 1.5040774    0.394194    0.394194
3  1.708312 -1.6539104  -1.2449682 0.78631176 1.5040774 1.5040774  0.40846913  0.40846913
3   1.75464 -1.4878808  -2.4942135 0.81727067 1.5040774 1.5040774  0.50112516  0.50112516
5 1.5354195 -1.3934727  -1.1778264 0.78936762 1.5040774 1.5040774 0.062684301 0.062684301
2 1.7559617 -1.1562488  -3.0833706 0.70289625 1.5040774 1.5040774   0.5037686   0.5037686
6 1.7559622 -0.9453987  -3.1304772 0.75884742 1.5040774 1.5040774  0.50376954  0.50376954
3 1.7559177 -1.1725241  -2.8898403 0.66993861 1.5040774 1.5040774   0.5036806   0.5036806
1 1.7558357 -1.2064871  -2.7918865 0.67534643 1.5040774 1.5040774  0.50351658  0.50351658
4 1.7559649 -1.5465239   -3.817669 0.59969622 1.5040774 1.5040774  0.50377507  0.50377507
12 1.7559649  -1.5128544  -3.9393185 0.53163123 1.5040774 1.5040774 0.50377507 0.50377507
 7 1.7549799  -1.5551959  -2.5237373 0.54672756 1.5040774 1.5040774 0.50180505 0.50180505
 3 1.7559649 -0.70318881    -3.99955 0.65050608 1.5040774 1.5040774 0.50377507 0.50377507
 1 1.7559646  -1.1822502  -3.2126649 0.67735034 1.5040774 1.5040774 0.50377448 0.50377448
 6 1.7574069  -1.3122566  -2.7210184 0.47904567 1.5040774 1.5040774 0.50665896 0.50665896
 6 1.7571662  -1.3542362  -2.7398903 0.43477536 1.5040774 1.5040774 0.50617766 0.50617766
 5 1.7560141  -1.3737693  -2.8229706 0.42853683 1.5040774 1.5040774 0.50387348 0.50387348
11 1.7512209  -1.9712106  -1.7051017 0.62263656 1.5040774 1.5040774 0.49428703 0.49428703
 1 1.7421982  -1.4465861  -2.1438554 0.88344806 1.5040774 1.5040774 0.47624156 0.47624156
 7 1.7505433  -1.3957324  -2.3257432 0.87313093 1.5040774 1.5040774 0.49293181 0.49293181
 2 1.7545112  -1.9602326   -1.024732 0.82163252 1.5040774 1.5040774 0.50086761 0.50086761
 1   1.75356  -1.0790192  0.32141187 0.85959873 1.5040774 1.5040774 0.49896529 0.49896529
11 1.6637163 -0.97608757 -0.15191007 0.84576364 1.5040774 1.5040774 0.31927777 0.31927777
 1 1.7513693  -1.4431417  -2.2882225 0.76763414 1.5040774 1.5040774 0.49458376 0.49458376
 1 1.7390998  -1.5487432  -2.0195209 0.79060024 1.5040774 1.5040774  0.4700448  0.4700448
 9 1.7559691 -0.72618426  -3.2521808   0.832261 1.5040774 1.5040774 0.50378346 0.50378346
 2 1.7559761 -0.81686719  -3.2715144 0.56251515 1.5040774 1.5040774 0.50379731 0.50379731
 2 1.7559619  -1.8516091  -2.8671303 0.57090758 1.5040774 1.5040774 0.50376897 0.50376897
 1 1.7555427   -1.884852  -2.3195628 0.57795773 1.5040774 1.5040774 0.50293064 0.50293064
 2 1.7531089  -1.8401402  -2.2798506 0.45937475 1.5040774 1.5040774   0.498063   0.498063
3 1.7559649 -1.2405901 -3.4804583 0.72266747 1.5040774 1.5040774 0.50377506 0.50377506
4 1.7559649 -1.2143933 -3.5976615 0.70251807 1.5040774 1.5040774 0.50377507 0.50377507
2 1.7559573 -1.1260372 -3.0581313 0.74790323 1.5040774 1.5040774 0.50375971 0.50375971
2 1.7559585 -1.7206854   -2.88179 0.72188104 1.5040774 1.5040774 0.50376228 0.50376228
1 1.7559432 -1.6388031 -2.8109442 0.68882264 1.5040774 1.5040774  0.5037316  0.5037316
6 1.7559649 -1.9792265 -3.5336996 0.52197777 1.5040774 1.5040774 0.50377507 0.50377507
2 1.7559649 -1.7780194 -3.7896154 0.54598423 1.5040774 1.5040774 0.50377507 0.50377507
