#weight  minuslogpost  log10_alpha    log10_rs         vw  minuslogprior  minuslogprior__0        chi2  chi2__lisa_likelihood
      1     1.5942984   -1.2119386 -0.80339582 0.86502706      1.5040774         1.5040774  0.18044193             0.18044193
      1     1.6223433   -1.1992437 -0.77740038 0.88380412      1.5040774         1.5040774  0.23653187             0.23653187
      1     1.5813012   -1.1713862 -0.78238915 0.87187664      1.5040774         1.5040774  0.15444762             0.15444762
      1      1.579093   -1.1721093 -0.78013513   0.869245      1.5040774         1.5040774  0.15003116             0.15003116
      1     1.5813825   -1.1739043 -0.77988867 0.86984189      1.5040774         1.5040774  0.15461016             0.15461016
      3     1.6001867    -1.169316 -0.80958668 0.89590184      1.5040774         1.5040774  0.19221867             0.19221867
      1     1.5924057   -1.1647752 -0.79867888 0.88896008      1.5040774         1.5040774  0.17665662             0.17665662
      3     1.6222419   -1.1846553 -0.78620503 0.89555627      1.5040774         1.5040774  0.23632895             0.23632895
      1     1.6221286   -1.1791616 -0.77787159 0.89598049      1.5040774         1.5040774  0.23610235             0.23610235
      2     1.5931471   -1.1520782 -0.77412086 0.88834554      1.5040774         1.5040774  0.17813936             0.17813936
      1     1.5410064   -1.1547959  -0.8262135 0.85311396      1.5040774         1.5040774 0.073857952            0.073857952
      1     1.5645296    -1.173714 -0.80809823 0.86666926      1.5040774         1.5040774  0.12090445             0.12090445
      1      1.548193   -1.1585648 -0.77814433 0.84778158      1.5040774         1.5040774 0.088231181            0.088231181
      1     1.5405828   -1.1766289 -0.78181338  0.8274742      1.5040774         1.5040774 0.073010895            0.073010895
      1     1.5593165   -1.1779805 -0.76988243 0.84915936      1.5040774         1.5040774  0.11047827             0.11047827
      1     1.5895735   -1.2202174 -0.77566138 0.84970639      1.5040774         1.5040774  0.17099222             0.17099222
      1      1.601443   -1.2144796 -0.81548979  0.8719772      1.5040774         1.5040774  0.19473121             0.19473121
      1      1.683945     -1.27675 -0.78023622 0.89343103      1.5040774         1.5040774  0.35973513             0.35973513
      1     1.6779456   -1.2706389 -0.76424518 0.88489176      1.5040774         1.5040774  0.34773635             0.34773635
      1     1.6721569    -1.274874 -0.76687944 0.87692788      1.5040774         1.5040774  0.33615896             0.33615896
1 1.6813936 -1.2736106 -0.76712622  0.8878971 1.5040774 1.5040774 0.35463235 0.35463235
1 1.7040207 -1.2958014 -0.72921484   0.891306 1.5040774 1.5040774 0.39988652 0.39988652
3 1.7177583 -1.3425304 -0.75699476 0.89606335 1.5040774 1.5040774 0.42736184 0.42736184
2 1.7129148 -1.3322789 -0.74776814 0.88958991 1.5040774 1.5040774 0.41767486 0.41767486
1 1.7105265  -1.343355 -0.70478097 0.86399991 1.5040774 1.5040774 0.41289817 0.41289817
1 1.7155275 -1.3506277 -0.70419401 0.86813373 1.5040774 1.5040774 0.42290015 0.42290015
2 1.7156196 -1.3443537 -0.71486555 0.87572646 1.5040774 1.5040774 0.42308437 0.42308437
1 1.7282636 -1.3770769 -0.72535566 0.88802245 1.5040774 1.5040774 0.44837238 0.44837238
2 1.7278076 -1.3795981 -0.72263691 0.88408125 1.5040774 1.5040774  0.4474604  0.4474604
1 1.7002994 -1.3408149 -0.72598538 0.85696189 1.5040774 1.5040774 0.39244409 0.39244409
1 1.7111805 -1.3509989 -0.73033299  0.8686085 1.5040774 1.5040774 0.41420619 0.41420619
1 1.7181176 -1.3517231 -0.71163167  0.8749564 1.5040774 1.5040774 0.42808036 0.42808036
1 1.7146641 -1.3988992 -0.70082531 0.83773862 1.5040774 1.5040774 0.42117335 0.42117335
1 1.6809397 -1.3750995 -0.72345223 0.81728401 1.5040774 1.5040774  0.3537247  0.3537247
1 1.6888705 -1.3961168 -0.74773113  0.8196871 1.5040774 1.5040774 0.36958629 0.36958629
1 1.6634949  -1.411316 -0.73744991 0.79062923 1.5040774 1.5040774 0.31883503 0.31883503
1 1.6831534 -1.4219137 -0.73681582 0.79952301 1.5040774 1.5040774 0.35815194 0.35815194
1  1.699578 -1.4085068 -0.70008713  0.8128798 1.5040774 1.5040774 0.39100124 0.39100124
1 1.6855079 -1.4291393 -0.68317655 0.78708877 1.5040774 1.5040774 0.36286096 0.36286096
1 1.6889034 -1.4080243 -0.67351801 0.79711423 1.5040774 1.5040774 0.36965196 0.36965196
1 1.7232279 -1.4249377 -0.67122766 0.83052992 1.5040774 1.5040774  0.43830097  0.43830097
1 1.7140627 -1.4004744 -0.74264161 0.84780693 1.5040774 1.5040774  0.41997062  0.41997062
1 1.7171756 -1.3857531 -0.76028354 0.86776784 1.5040774 1.5040774  0.42619631  0.42619631
1 1.7155961  -1.389147 -0.76667742 0.86461978 1.5040774 1.5040774  0.42303739  0.42303739
1  1.681972 -1.3584417 -0.77026508 0.83880363 1.5040774 1.5040774   0.3557892   0.3557892
1 1.6718339 -1.3420182 -0.77058145 0.83861674 1.5040774 1.5040774  0.33551308  0.33551308
1 1.6590163 -1.3419974 -0.76226914  0.8263774 1.5040774 1.5040774  0.30987788  0.30987788
1 1.7052523 -1.3406634 -0.71284862 0.85994345 1.5040774 1.5040774  0.40234976  0.40234976
1 1.7083991  -1.341433 -0.71682222 0.86551998 1.5040774 1.5040774  0.40864349  0.40864349
1 1.6696249 -1.2847113  -0.7365976 0.85925681 1.5040774 1.5040774  0.33109506  0.33109506
1 1.6937183 -1.2709541 -0.70489379 0.88374623 1.5040774 1.5040774  0.37928179  0.37928179
1 1.7027382   -1.27815 -0.70540137 0.89232519 1.5040774 1.5040774  0.39732164  0.39732164
3 1.7004159 -1.2823962 -0.71204337  0.8883705 1.5040774 1.5040774  0.39267706  0.39267706
1 1.6637248 -1.2504447  -0.7358108 0.87370868 1.5040774 1.5040774   0.3192949   0.3192949
1 1.6383104 -1.2467108 -0.71609227 0.84988109 1.5040774 1.5040774   0.2684661   0.2684661
1 1.5584681 -1.2244798  -0.7136419 0.81470648 1.5040774 1.5040774  0.10878136  0.10878136
1   1.53205  -1.252267 -0.74248937 0.79513492 1.5040774 1.5040774 0.055945127 0.055945127
1 1.5371298 -1.4166491 -0.49146674 0.71914157 1.5040774 1.5040774 0.066104723 0.066104723
1 1.5416745 -1.3561609 -0.49397914 0.73445482 1.5040774 1.5040774  0.07519425  0.07519425
1 1.7467239 -1.3682525 -0.32041453  0.8333884 1.5040774 1.5040774  0.48529297  0.48529297
3 1.7472651 -1.3821939  -0.38708977 0.85032355 1.5040774 1.5040774 0.48637542 0.48637542
2 1.7522662 -1.4071728   -0.2801695 0.85304503 1.5040774 1.5040774 0.49637752 0.49637752
1 1.7558312 -1.6402752  0.088500609 0.79573518 1.5040774 1.5040774 0.50350755 0.50350755
1 1.7554118 -1.4862439   0.24302836 0.76814677 1.5040774 1.5040774 0.50266881 0.50266881
1 1.7555114 -1.5245277   0.05925505 0.80142614 1.5040774 1.5040774 0.50286803 0.50286803
1 1.7556605  -1.437442  0.090750306 0.85441502 1.5040774 1.5040774 0.50316618 0.50316618
1 1.7557103 -1.4475369  0.099270181 0.85805933 1.5040774 1.5040774 0.50326585 0.50326585
1 1.7559137 -1.5777704   0.14121927 0.86473358 1.5040774 1.5040774 0.50367253 0.50367253
1 1.7559291 -1.5514549   0.16820255 0.89337855 1.5040774 1.5040774 0.50370346 0.50370346
1 1.7559455 -1.5133824   0.44775463 0.84162727 1.5040774 1.5040774 0.50373619 0.50373619
1 1.7556638 -1.4543962   0.40235065 0.76938524 1.5040774 1.5040774 0.50317272 0.50317272
1 1.7556473 -1.4050897   0.36663879 0.79245158 1.5040774 1.5040774 0.50313973 0.50313973
1 1.7551318 -1.6076383  -0.03021412 0.76545557 1.5040774 1.5040774 0.50210882 0.50210882
1 1.7550692 -1.5984027 -0.035678196 0.76756617 1.5040774 1.5040774 0.50198353 0.50198353
1 1.7546338 -1.6484831  -0.21398532 0.62476335 1.5040774 1.5040774 0.50111289 0.50111289
1 1.6051153 -1.5722144 -0.056619798 0.59652293 1.5040774 1.5040774  0.2020759  0.2020759
1 1.7399097 -1.5830109     0.100926  0.5439005 1.5040774 1.5040774 0.47166459 0.47166459
1 1.7435427 -1.6377437   0.10970279 0.54779731 1.5040774 1.5040774 0.47893065 0.47893065
1 1.7114559  -1.601941    0.1711205 0.58191804 1.5040774 1.5040774 0.41475692 0.41475692
1 1.6418442 -1.8049834  -0.24951683 0.65244591 1.5040774 1.5040774 0.27553351 0.27553351
1 1.7168762 -1.9174294 -0.28162938 0.56108765 1.5040774 1.5040774 0.42559765 0.42559765
1 1.6784453 -1.6941512 -0.55696671 0.51699572 1.5040774 1.5040774 0.34873575 0.34873575
2 1.6731542 -1.6976611 -0.55958545 0.51944717 1.5040774 1.5040774 0.33815353 0.33815353
1 1.7194003 -1.7285306 -0.33300197 0.52959534 1.5040774 1.5040774 0.43064583 0.43064583
2 1.7194521 -1.6745341 -0.41609092 0.50864413 1.5040774 1.5040774 0.43074943 0.43074943
1 1.7530133 -1.4363293 0.011286707 0.45793038 1.5040774 1.5040774 0.49787173 0.49787173
1 1.8105831 -1.6386816 -0.25955164 0.61496156 1.5040774 1.5040774 0.61301133 0.61301133
1 1.8060073  -1.283752 -0.44491971 0.72751372 1.5040774 1.5040774 0.60385985 0.60385985
1  1.630307 -1.2537338 -0.32562073 0.76529659 1.5040774 1.5040774 0.25245913 0.25245913
1 1.7299221 -1.4329226 -0.61307452 0.82453988 1.5040774 1.5040774 0.45168943 0.45168943
2 1.6808771  -1.424738 -0.69498277 0.78794382 1.5040774 1.5040774  0.3535995  0.3535995
1 1.7469279 -1.4360167 -0.56609051 0.87748333 1.5040774 1.5040774 0.48570096 0.48570096
2 1.7516944 -1.5740205 -0.56339699 0.84455475 1.5040774 1.5040774 0.49523399 0.49523399
1 1.7419879 -1.5396678 -0.69734306 0.82941625 1.5040774 1.5040774 0.47582096 0.47582096
3 1.6445455 -1.4342588 -0.54478468 0.74275482 1.5040774 1.5040774 0.28093616 0.28093616
2 1.7519804 -1.3497366 -0.13199839 0.83162207 1.5040774 1.5040774  0.4958061  0.4958061
1 1.5974623 -1.4324274 -0.26969223 0.71158138 1.5040774 1.5040774 0.18676975 0.18676975
1 1.6009147 -1.3454425 -0.42999201 0.74369304 1.5040774 1.5040774 0.19367451 0.19367451
1 1.7435192 -1.5970221 -0.62485937 0.78881472 1.5040774 1.5040774 0.47888351 0.47888351
4  1.742907 -1.7127846 -0.88729354 0.78849161 1.5040774 1.5040774 0.47765913 0.47765913
 1 1.7533155 -1.6783857  -0.61106776 0.83091101 1.5040774 1.5040774 0.49847623 0.49847623
 1 1.7263743 -1.6111254   -0.5191989 0.72953896 1.5040774 1.5040774 0.44459387 0.44459387
 4 1.7171293 -1.5584072  -0.58729633 0.74692606 1.5040774 1.5040774 0.42610375 0.42610375
 2 1.7427509  -1.161447   0.16816315 0.79545729 1.5040774 1.5040774 0.47734695 0.47734695
 1 1.7354893 -1.2807538 -0.089103962 0.78241663 1.5040774 1.5040774 0.46282387 0.46282387
 7   1.57825 -1.1504753  -0.57792803 0.82114413 1.5040774 1.5040774 0.14834525 0.14834525
 1 1.7559435 -1.3393904   0.68511514 0.83201073 1.5040774 1.5040774 0.50373212 0.50373212
 3 1.7559189 -1.5836982   0.24015589 0.83117737 1.5040774 1.5040774 0.50368301 0.50368301
 2 1.7559529 -1.5006803   0.71708798 0.79334089 1.5040774 1.5040774 0.50375108 0.50375108
 3  1.755943 -1.3973033   0.64128308 0.83102009 1.5040774 1.5040774 0.50373121 0.50373121
 2 1.7571621  -1.433346   0.60999008 0.82093169 1.5040774 1.5040774 0.50616933 0.50616933
 3 1.7559647 -1.7151638    0.8831073 0.84658723 1.5040774 1.5040774 0.50377469 0.50377469
 5 1.7954866 -1.7311864   0.98391223 0.51630409 1.5040774 1.5040774 0.58281848 0.58281848
 2 1.7412804 -1.5531179  -0.45075722 0.43031915 1.5040774 1.5040774 0.47440593 0.47440593
 5 1.6942943 -1.2343515   -0.1298807 0.47073112 1.5040774 1.5040774 0.38043376 0.38043376
 4 1.7399763 -1.3039933  -0.15063444  0.4060263 1.5040774 1.5040774 0.47179772 0.47179772
 4 1.7402758 -1.6592697  -0.44839258 0.47006075 1.5040774 1.5040774 0.47239678 0.47239678
 5 1.7374624 -1.3431433   0.10879994  0.5023652 1.5040774 1.5040774 0.46676999 0.46676999
 3 1.7577906 -1.8418604   0.67981374 0.49639985 1.5040774 1.5040774  0.5074264  0.5074264
20 1.7560118 -1.7835123   0.47281632 0.44413214 1.5040774 1.5040774 0.50386883 0.50386883
2 1.7564104 -1.8037427    0.39110106 0.40633755 1.5040774 1.5040774 0.50466606 0.50466606
1  1.749324 -1.6806673    0.20550788  0.5507098 1.5040774 1.5040774 0.49049323 0.49049323
1 1.6961676 -1.5736367   -0.31762558 0.51920101 1.5040774 1.5040774 0.38418033 0.38418033
3 1.7189084 -1.4757185   -0.11008847 0.51758158 1.5040774 1.5040774 0.42966193 0.42966193
1 1.7367502 -1.4581567  -0.069674806 0.49595896 1.5040774 1.5040774 0.46534559 0.46534559
7 1.7564024 -1.4696148   0.089124657 0.48323132 1.5040774 1.5040774 0.50465004 0.50465004
3 1.7475363 -1.2920409   0.023124428 0.41503903 1.5040774 1.5040774 0.48691771 0.48691771
1  1.710772 -1.2779215 -0.0043777724 0.74962669 1.5040774 1.5040774 0.41338919 0.41338919
2 1.7017675 -1.1184327    0.19813307 0.76993088 1.5040774 1.5040774  0.3953802  0.3953802
9 1.7454855 -1.3133027    0.10942272 0.76089319 1.5040774 1.5040774 0.48281612 0.48281612
4 1.7523863 -1.2331758    0.33363041 0.77244826 1.5040774 1.5040774 0.49661789 0.49661789
7 1.7559629 -1.5849365    0.80486114 0.82182432 1.5040774 1.5040774 0.50377106 0.50377106
5 1.7559608 -1.5282865      0.625557 0.85963436 1.5040774 1.5040774  0.5037668  0.5037668
9 1.7544936 -1.7138482   -0.74275325 0.89748496 1.5040774 1.5040774  0.5008325  0.5008325
2 1.7523079 -1.6723028   -0.58717444 0.80829375 1.5040774 1.5040774 0.49646092 0.49646092
4 1.7448004 -1.5941189     -2.026468 0.89028992 1.5040774 1.5040774 0.48144595 0.48144595
1 1.7511091  -1.745503    -2.0833278 0.73027882 1.5040774 1.5040774 0.49406338 0.49406338
2 1.7431912 -1.7579353    -1.8481971  0.7345237 1.5040774 1.5040774  0.4782276  0.4782276
2 1.7406664 -1.7288869    -1.8405398 0.74236442 1.5040774 1.5040774   0.473178   0.473178
2 1.6991514 -1.6457812    -1.5141698 0.75957634 1.5040774 1.5040774 0.39014795 0.39014795
 3 1.7559677  -0.3881915  -3.4475779 0.88425259 1.5040774 1.5040774 0.50378057 0.50378057
 7 1.7559801 -0.38103458  -3.3638424 0.86639877 1.5040774 1.5040774 0.50380542 0.50380542
 1  1.897943 -0.48917219  -3.0928065 0.52037997 1.5040774 1.5040774 0.78773118 0.78773118
 1 1.7599093 -0.52002268   -3.252404 0.51517564 1.5040774 1.5040774 0.51166376 0.51166376
 4  1.757969 -0.65805695  -3.1004447 0.59355581 1.5040774 1.5040774 0.50778312 0.50778312
 2 1.7595982 -0.64782797  -3.0830303 0.58975686 1.5040774 1.5040774 0.51104161 0.51104161
 4 1.7561972 -0.65598611  -3.1069626 0.68565923 1.5040774 1.5040774 0.50423963 0.50423963
 2 1.7559649 -0.44931812  -3.8528565 0.65728691 1.5040774 1.5040774 0.50377507 0.50377507
 6 1.7560867 -0.59252688  -3.2647792 0.60498679 1.5040774 1.5040774 0.50401853 0.50401853
12 1.7557213  -1.3133656  0.49855367 0.81031369 1.5040774 1.5040774 0.50328781 0.50328781
 1 1.7507446  -1.4744026 -0.40045931 0.83534578 1.5040774 1.5040774 0.49333447 0.49333447
 3 1.7562479 -0.52708114  -3.1580193 0.84859304 1.5040774 1.5040774 0.50434095 0.50434095
 2 1.7848317 -0.65049333  -2.8100705  0.7627516 1.5040774 1.5040774 0.56150863 0.56150863
 7 1.7588377 -0.21701143  -3.2534415 0.74547444 1.5040774 1.5040774 0.50952064 0.50952064
 3 1.7559649 -0.29341668  -3.7296185  0.7427455 1.5040774 1.5040774 0.50377509 0.50377509
 4 1.7559649 -0.24208231   -3.801384 0.78174525 1.5040774 1.5040774 0.50377507 0.50377507
10 2.2659941  -1.5945667  0.42146266 0.61665482 1.5040774 1.5040774  1.5238334  1.5238334
 1 1.9055404  -1.6266001  0.39706651 0.62728882 1.5040774 1.5040774  0.8029261  0.8029261
 3 1.7405228  -1.8118178 -0.94323566  0.4310372 1.5040774 1.5040774 0.47289086 0.47289086
 2 1.6613229  -1.8097356 -0.69254857 0.53150173 1.5040774 1.5040774 0.31449091 0.31449091
 1 1.7480996 -1.5826855  -0.22554556 0.67878155 1.5040774 1.5040774 0.48804432 0.48804432
 4 1.6055414 -1.5666585  -0.42686417 0.68678969 1.5040774 1.5040774 0.20292793 0.20292793
 5 1.7559932 -1.2295612   0.83140613 0.88453253 1.5040774 1.5040774 0.50383164 0.50383164
12 1.8705979 -1.4529643   0.69124922  0.5083746 1.5040774 1.5040774 0.73304098 0.73304098
 6 1.7559649 -1.1591652   -3.4578068 0.65460346 1.5040774 1.5040774 0.50377506 0.50377506
 2  1.755197 -1.2970353   -2.5580731  0.7293277 1.5040774 1.5040774 0.50223911 0.50223911
 3 1.7555155 -1.2224991   -2.6491939 0.69166988 1.5040774 1.5040774 0.50287611 0.50287611
 1 1.7556994 -1.2738397   -2.7485195 0.81030659 1.5040774 1.5040774 0.50324393 0.50324393
 4 1.7558527 -1.7250745 -0.099035465  0.8237467 1.5040774 1.5040774 0.50355063 0.50355063
 9 1.7557141 -1.9384806     -0.67085 0.85190613 1.5040774 1.5040774  0.5032734  0.5032734
 3 1.7559649 -1.6465125   -3.6498463 0.55783923 1.5040774 1.5040774 0.50377507 0.50377507
 1 1.7559649  -1.861595   -3.2370056 0.78536669 1.5040774 1.5040774 0.50377505 0.50377505
 5 1.7559649 -1.3231542   -3.4360331 0.79247583 1.5040774 1.5040774 0.50377506 0.50377506
18 1.7559341 -1.6787298   0.11410826 0.84755462 1.5040774 1.5040774 0.50371338 0.50371338
 5 1.7555751 -1.5794015  -0.19607731 0.86523134 1.5040774 1.5040774 0.50299533 0.50299533
 6 1.7535724 -1.2685795  0.052502634 0.84367336 1.5040774 1.5040774  0.4989901  0.4989901
 2  1.745012 -1.4752941  -0.64349173 0.86649654 1.5040774 1.5040774 0.48186916 0.48186916
10 1.7573031 -1.2519293   0.86065453 0.81717317 1.5040774 1.5040774 0.50645137 0.50645137
 3 1.7559683 -1.0303055   -3.3254796 0.43901196 1.5040774 1.5040774 0.50378185 0.50378185
 5 1.7791011 -1.5136064   -1.7705037 0.71398941 1.5040774 1.5040774 0.55004749 0.55004749
3 1.7559653 -0.57474097  -3.4019576 0.75650042 1.5040774 1.5040774 0.50377586 0.50377586
1 1.7559654 -0.90494902   -3.075772 0.77506755 1.5040774 1.5040774 0.50377603 0.50377603
3 1.7559752 -0.94502932  -2.9239122 0.71481436 1.5040774 1.5040774 0.50379564 0.50379564
1 1.9087308 -0.93444154  -2.4513104 0.75049918 1.5040774 1.5040774 0.80930674 0.80930674
1 1.7484545  -1.8090387 -0.11203518 0.53213601 1.5040774 1.5040774 0.48875412 0.48875412
1 1.7547682  -1.9073854 -0.25394795 0.48152427 1.5040774 1.5040774 0.50138163 0.50138163
2 1.6667499  -1.8674683  -1.1554858 0.52664892 1.5040774 1.5040774   0.325345   0.325345
1 1.7218107  -1.9364616  -1.4529929 0.52005849 1.5040774 1.5040774 0.43546651 0.43546651
5 1.7550988  -1.6532981  -2.4387382 0.80082273 1.5040774 1.5040774 0.50204281 0.50204281
5 1.7559649  -1.2020956  -3.5181983 0.73832718 1.5040774 1.5040774 0.50377506 0.50377506
9 1.6096288  -1.6513013 -0.53596212 0.53305528 1.5040774 1.5040774 0.21110272 0.21110272
4 1.8300843 -0.86868536  -2.5711775 0.75500024 1.5040774 1.5040774 0.65201375 0.65201375
3 1.8788427  -1.4551926  -1.7954244 0.71181737 1.5040774 1.5040774 0.74953063 0.74953063
6 1.7559414  -1.9148752  -2.5934603 0.64190713 1.5040774 1.5040774 0.50372809 0.50372809
4 1.6783695  -1.6050237  -1.5012891 0.74304782 1.5040774 1.5040774 0.34858424 0.34858424
2 1.6909378  -1.6055191   -1.571593 0.74347969 1.5040774 1.5040774 0.37372091 0.37372091
7   1.73646  -1.6486434  -1.8732839 0.72990027 1.5040774 1.5040774 0.46476527 0.46476527
5 1.7350439  -1.7614619  -1.6262522 0.76393131 1.5040774 1.5040774 0.46193291 0.46193291
9 1.7571327 -0.87657892  -2.9058215  0.6336757 1.5040774 1.5040774 0.50611064 0.50611064
3   1.80096 -0.69910892  -3.0084236 0.51818408 1.5040774 1.5040774 0.59376515 0.59376515
 8  1.761957 -0.78376445  -3.1297988 0.45448898 1.5040774 1.5040774 0.51575919 0.51575919
 2 1.7559651 -0.81982859  -3.5425301 0.49067439 1.5040774 1.5040774  0.5037754  0.5037754
 2 1.7463401  -1.5637826  -1.9216128 0.71040514 1.5040774 1.5040774 0.48452541 0.48452541
 1 1.7556738  -1.8730359  -2.3974969 0.79279619 1.5040774 1.5040774 0.50319281 0.50319281
 3 1.7556753  -1.8671896  -2.4030207 0.79531096 1.5040774 1.5040774  0.5031958  0.5031958
17 1.7427321  -1.7603436 -0.91993894 0.40511964 1.5040774 1.5040774 0.47730942 0.47730942
 6 1.7559649  -1.7274454  -3.7297853 0.84071432 1.5040774 1.5040774 0.50377507 0.50377507
 8 1.7559643  -1.4990549  -3.0757657  0.6736577 1.5040774 1.5040774 0.50377383 0.50377383
 2 1.7559076  -1.4509822  -2.8013322 0.60177389 1.5040774 1.5040774  0.5036604  0.5036604
 3 1.7559161  -1.7599349  -2.6749169 0.87552424 1.5040774 1.5040774 0.50367747 0.50367747
 3 1.7559649  -1.6714448  -3.4240648 0.80117232 1.5040774 1.5040774 0.50377507 0.50377507
 8 1.7535098  -1.5699503  -2.2977043 0.53824324 1.5040774 1.5040774  0.4988649  0.4988649
 9 1.7559649   -1.763358  -3.2912801 0.48626147 1.5040774 1.5040774 0.50377501 0.50377501
11 1.7559573  -1.7641678  -2.9463691 0.48152935 1.5040774 1.5040774 0.50375984 0.50375984
 2 1.7559648   -1.769396  -3.0818338  0.6159259 1.5040774 1.5040774 0.50377486 0.50377486
 1 1.7559648  -1.7637409  -3.0908195 0.61382403 1.5040774 1.5040774 0.50377487 0.50377487
 1 1.7559649  -1.4108433  -3.5168831 0.72278004 1.5040774 1.5040774 0.50377507 0.50377507
 4 1.7559649  -1.3352048  -3.6451768 0.71562168 1.5040774 1.5040774 0.50377507 0.50377507
 2 1.9145428  -1.5378544  -1.5498067 0.67374675 1.5040774 1.5040774 0.82093082 0.82093082
 3 1.7559649  -1.6160088   -3.767284 0.64623308 1.5040774 1.5040774 0.50377507 0.50377507
4 1.7559649  -1.6071815  -3.8971484 0.55749076 1.5040774 1.5040774  0.50377507  0.50377507
5 1.7559649  -1.5766204  -3.8573565 0.55885945 1.5040774 1.5040774  0.50377507  0.50377507
8 1.7559649  -1.5238828   -3.642822 0.55791172 1.5040774 1.5040774  0.50377507  0.50377507
2 1.7559649  -1.4097936  -3.5559965 0.72947717 1.5040774 1.5040774  0.50377507  0.50377507
3 1.7559649  -1.6677613  -3.5386574 0.60374909 1.5040774 1.5040774  0.50377507  0.50377507
6 1.7559649  -1.9838705  -3.3584039 0.60487486 1.5040774 1.5040774  0.50377507  0.50377507
4 1.7559649 -0.40640568  -3.9146811 0.46359323 1.5040774 1.5040774  0.50377509  0.50377509
1 1.7559551  -1.7149295  0.15524164 0.88232393 1.5040774 1.5040774  0.50375532  0.50375532
1 1.7559649  -1.3746412  -3.9425536 0.69343286 1.5040774 1.5040774  0.50377507  0.50377507
3 1.7559649 -0.71911202  -3.7914434 0.58805861 1.5040774 1.5040774  0.50377507  0.50377507
1 1.7713025 -0.90252109  -2.8937157  0.5333515 1.5040774 1.5040774  0.53445017  0.53445017
1 1.7559648  -1.2376128  -3.3633768 0.51659856 1.5040774 1.5040774  0.50377488  0.50377488
2 1.7558957  -1.3207173   -2.903728 0.52485173 1.5040774 1.5040774  0.50363665  0.50363665
4  1.755894  -1.3271006   -2.903144 0.52028871 1.5040774 1.5040774  0.50363329  0.50363329
1  1.757001  -1.1134108  -2.6953372 0.61516006 1.5040774 1.5040774  0.50584725  0.50584725
6 1.7520995  -1.4921279  -2.2850688 0.71976353 1.5040774 1.5040774   0.4960443   0.4960443
2 1.5104154  -1.6955825 -0.68775409 0.55452212 1.5040774 1.5040774 0.012675943 0.012675943
1 1.7559682 -0.94289978  -3.0547616 0.64324915 1.5040774 1.5040774  0.50378151  0.50378151
6 1.7559649  -1.3305376  -3.9631411 0.72647228 1.5040774 1.5040774  0.50377507  0.50377507
2 1.7559649  -1.3233837  -3.8525688 0.73448995 1.5040774 1.5040774  0.50377507  0.50377507
 4 1.7559473  -1.1763721  -3.0048079 0.77790373 1.5040774 1.5040774 0.50373982 0.50373982
 3 2.0890622  -1.1277192  -2.1758533 0.84967418 1.5040774 1.5040774  1.1699696  1.1699696
 4  1.755959  -1.4233467  -3.0897148 0.49459582 1.5040774 1.5040774 0.50376316 0.50376316
 2 1.7559649  -1.4534322  -3.3206677 0.50860596 1.5040774 1.5040774 0.50377491 0.50377491
 1 1.7559649  -1.3926377   -3.677916 0.46095847 1.5040774 1.5040774 0.50377507 0.50377507
 1  1.755965  -1.0426959  -3.4239294 0.46658673 1.5040774 1.5040774 0.50377521 0.50377521
 8 1.7559649  -1.0901728  -3.7616316 0.47825541 1.5040774 1.5040774 0.50377507 0.50377507
 3 1.7978547  -1.5869993  -1.7266009 0.48713896 1.5040774 1.5040774 0.58755459 0.58755459
 1 1.6764116  -1.7110167  -1.0735519 0.45770737 1.5040774 1.5040774 0.34466846 0.34466846
 2 1.6647829  -1.6018213 -0.85107327 0.45692758 1.5040774 1.5040774 0.32141106 0.32141106
12 1.7344354  -1.6804749 -0.54014336 0.47194856 1.5040774 1.5040774 0.46071592 0.46071592
 8 1.7558822  -1.9859871    -2.61723 0.46861256 1.5040774 1.5040774 0.50360955 0.50360955
 3 1.7554146  -1.6729018  -2.6478187 0.44489365 1.5040774 1.5040774 0.50267442 0.50267442
 2 1.6174311  -1.2422197 -0.52906774 0.43366507 1.5040774 1.5040774 0.22670744 0.22670744
 4 1.6809437   -1.289869 -0.36322131  0.4455224 1.5040774 1.5040774 0.35373259 0.35373259
 7 1.7156848  -1.3058217 -0.21717291 0.44903258 1.5040774 1.5040774 0.42321474 0.42321474
14 1.6449909  -1.5799974 -0.89664492 0.45225277 1.5040774 1.5040774 0.28182707 0.28182707
12 1.6457972   -1.551743 -0.88544217 0.44338431 1.5040774 1.5040774 0.28343955 0.28343955
 2 1.7375267  -1.3361071  0.46977268 0.61606462 1.5040774 1.5040774 0.46689864 0.46689864
 2 1.7559649 -0.77600668  -3.9144663 0.67419406 1.5040774 1.5040774 0.50377507 0.50377507
5 1.7559649 -0.91288128    -3.8639382 0.69679351 1.5040774 1.5040774 0.50377507 0.50377507
7 1.7563365 -0.84326994    -2.9472667 0.67167842 1.5040774 1.5040774 0.50451822 0.50451822
1 1.7559683 -0.28276747    -3.5543209 0.68030128 1.5040774 1.5040774  0.5037819  0.5037819
4 1.7567471 -0.33659885    -3.2804465 0.67893741 1.5040774 1.5040774 0.50533935 0.50533935
3 1.7706845    -1.09462    0.60448245 0.48671961 1.5040774 1.5040774 0.53321423 0.53321423
2 1.7559644   -1.710407    0.36417088 0.89091015 1.5040774 1.5040774 0.50377406 0.50377406
5 1.7558909  -1.1752598    -2.8868418 0.86702318 1.5040774 1.5040774 0.50362696 0.50362696
3 1.6586857  -1.4386016     -1.628181 0.81165063 1.5040774 1.5040774 0.30921652 0.30921652
2 1.6733191  -1.5128902    -1.5346815 0.83048955 1.5040774 1.5040774 0.33848337 0.33848337
3 1.7465323  -1.7245702    -1.8796043  0.8436342 1.5040774 1.5040774 0.48490974 0.48490974
2  1.716768  -1.6767082    -1.4087379 0.79308871 1.5040774 1.5040774 0.42538116 0.42538116
4  1.741679  -1.1666569 -0.0062274763 0.82379137 1.5040774 1.5040774 0.47520324 0.47520324
6 1.6754116  -1.1377973   -0.54157144 0.88707289 1.5040774 1.5040774 0.34266831 0.34266831
2 1.6764991  -1.2390057   -0.67950522 0.87478493 1.5040774 1.5040774 0.34484334 0.34484334
7 1.7242639  -1.2111343   -0.33407034 0.84754905 1.5040774 1.5040774 0.44037296 0.44037296
5  1.755892   -1.548188    0.14809265 0.85452042 1.5040774 1.5040774 0.50362925 0.50362925
4 1.7557608  -1.5579477    0.24361364 0.77330299 1.5040774 1.5040774 0.50336671 0.50336671
1  1.723641  -1.6909158   -0.35846655 0.69117546 1.5040774 1.5040774 0.43912728 0.43912728
2 1.7361825  -1.7081055   -0.36381125 0.69752248 1.5040774 1.5040774 0.46421017 0.46421017
6 1.7512922  -1.4311232   -0.46406351 0.89032184 1.5040774 1.5040774 0.49442962 0.49442962
 2 1.7481624  -1.0850758   0.10089013 0.86237659 1.5040774 1.5040774  0.48817001  0.48817001
11 1.7325084  -1.1837136   -0.2149599 0.84424216 1.5040774 1.5040774  0.45686209  0.45686209
 3 1.7546674  -1.7266838   -2.2235252 0.63644894 1.5040774 1.5040774  0.50117991  0.50117991
 2 1.7559635 -0.94252578   -3.0935787 0.78333564 1.5040774 1.5040774  0.50377227  0.50377227
 3 1.7559226  -1.3711076   -2.8490491 0.70335915 1.5040774 1.5040774  0.50369041  0.50369041
 1 1.7558128  -1.4285685   -2.7501246 0.72867724 1.5040774 1.5040774  0.50347081  0.50347081
 1 1.7560821 -0.93127445   -2.9795199 0.84828805 1.5040774 1.5040774  0.50400936  0.50400936
 5 1.7559651 -0.47963839    -3.517236 0.87057549 1.5040774 1.5040774  0.50377545  0.50377545
 4 1.7559649 -0.69349292   -3.9011688  0.5961408 1.5040774 1.5040774  0.50377507  0.50377507
 1 1.7559649 -0.95577763   -3.7355119 0.54270504 1.5040774 1.5040774  0.50377507  0.50377507
 1 1.7559649  -1.0727758   -3.8562879 0.61779664 1.5040774 1.5040774  0.50377507  0.50377507
13 1.7561847  -1.5263163   0.50554254 0.74631962 1.5040774 1.5040774  0.50421459  0.50421459
 3 1.8618439  -1.6696459    -1.645002 0.62925198 1.5040774 1.5040774  0.71553308  0.71553308
 4 1.7524817  -1.5815778   -0.1916442  0.4336985 1.5040774 1.5040774   0.4968087   0.4968087
 3 1.7557604  -1.7024476 -0.088469803 0.44519108 1.5040774 1.5040774  0.50336601  0.50336601
 3  1.755698  -1.8060584   0.13958823 0.47725573 1.5040774 1.5040774  0.50324126  0.50324126
 2 1.7405354   -1.870139   -1.1729295 0.41913027 1.5040774 1.5040774  0.47291602  0.47291602
 6 1.5307977  -1.5120707   -1.3522779  0.4267407 1.5040774 1.5040774 0.053440552 0.053440552
 2 1.7516691  -1.9275358   -1.8254039 0.74239434 1.5040774 1.5040774  0.49518331  0.49518331
 1 1.7546014  -1.6832704   -2.3552999 0.76653932 1.5040774 1.5040774  0.50104798  0.50104798
 1 1.7549627  -1.9904777   -2.016184 0.63871618 1.5040774 1.5040774 0.50177052 0.50177052
 3 1.7535705  -1.8240378  -2.0531606 0.59753458 1.5040774 1.5040774 0.49898611 0.49898611
 1 1.7247877  -1.7810285  -1.5596903 0.70260089 1.5040774 1.5040774 0.44142063 0.44142063
10 1.7559649  -1.3205559  -3.7451416 0.77973256 1.5040774 1.5040774 0.50377507 0.50377507
 1 1.7559649  -1.6474748  -3.1934891 0.81583429 1.5040774 1.5040774 0.50377491 0.50377491
 2 1.7273416  -1.6633282  -1.7557275 0.75590881 1.5040774 1.5040774 0.44652837 0.44652837
 1 1.7488983  -1.9125335  -1.7066872 0.73614107 1.5040774 1.5040774 0.48964176 0.48964176
 1 1.7542863  -1.8394754  -2.1733172 0.69038606 1.5040774 1.5040774 0.50041772 0.50041772
 1 1.7554471  -1.8280571  -2.3685751 0.71052745 1.5040774 1.5040774 0.50273932 0.50273932
 3 1.7556958  -1.7182463  -2.5300524  0.6961505 1.5040774 1.5040774 0.50323676 0.50323676
 5 1.7537279  -1.7437249  -2.1621198 0.59164029 1.5040774 1.5040774 0.49930104 0.49930104
 9 1.7559649 -0.65421927  -3.8153898 0.45422103 1.5040774 1.5040774 0.50377508 0.50377508
 4 1.7559654  -0.8109501  -3.5448263 0.45306913 1.5040774 1.5040774 0.50377604 0.50377604
 2  1.755597  -1.7562857   -2.473734 0.74025778 1.5040774 1.5040774 0.50303915 0.50303915
 7 1.7559649  -1.5494786  -3.4210354 0.79993317 1.5040774 1.5040774 0.50377506 0.50377506
 1 1.7559649  -1.1044037  -3.7024418   0.823179 1.5040774 1.5040774 0.50377507 0.50377507
 1 1.5775919  -1.3181151 -0.20560591  0.7298868 1.5040774 1.5040774 0.14702904 0.14702904
14 1.7542902  -1.3636533 0.073375891 0.81142143 1.5040774 1.5040774 0.50042568 0.50042568
 4 1.8153339  -1.5582235  0.90385029 0.79370446 1.5040774 1.5040774 0.62251297 0.62251297
 1 1.7446946   -1.319294  0.16949954 0.74891065 1.5040774 1.5040774 0.48123442 0.48123442
 1 1.7559649  -1.0284273  -3.3459037 0.53038886 1.5040774 1.5040774 0.50377499 0.50377499
 3 1.7559649  -1.0361679  -3.8410372 0.62962987 1.5040774 1.5040774 0.50377507 0.50377507
 2 1.7559649 -0.75842689  -3.7366447 0.71536526 1.5040774 1.5040774 0.50377507 0.50377507
 3 1.7559603  -1.3349995  -3.0534644 0.75375272 1.5040774 1.5040774 0.50376575 0.50376575
 1 1.7559649 -0.80818453  -3.9125766 0.63844794 1.5040774 1.5040774 0.50377507 0.50377507
 6 1.7559649 -0.83543925  -3.6141472 0.62322149 1.5040774 1.5040774 0.50377507 0.50377507
 6 1.7551562  -1.8857535  -2.2221458 0.79971418 1.5040774 1.5040774 0.50215758 0.50215758
 2 1.7559324  -1.3509821  -2.8685855  0.6316304 1.5040774 1.5040774 0.50371001 0.50371001
 4 1.7559649  -1.0778622  -3.9804149 0.63703202 1.5040774 1.5040774 0.50377507 0.50377507
 1 1.7832736  -1.2305937  -2.4097501 0.59111595 1.5040774 1.5040774 0.55839235 0.55839235
 2 1.7478696  -1.8177553  -1.3420189 0.83940137 1.5040774 1.5040774 0.48758431 0.48758431
 4 1.7557513  -1.9137221 -0.63520079 0.86614388 1.5040774 1.5040774 0.50334784 0.50334784
 4 1.7559649  -1.8275946  -3.3976286 0.82242318 1.5040774 1.5040774 0.50377507 0.50377507
 8 1.7559649  -1.6173946  -3.5117646 0.85054349 1.5040774 1.5040774 0.50377507 0.50377507
 9 1.7559649  -1.6282107  -3.5378689 0.86219928 1.5040774 1.5040774 0.50377507 0.50377507
 4 1.8129897  -1.0470924  -2.5014662 0.85674886 1.5040774 1.5040774 0.61782453 0.61782453
16 1.7557863  -1.1813146  -2.7604198 0.89054167 1.5040774 1.5040774 0.50341779 0.50341779
 1 1.7559446  -1.3905771  -2.9378336 0.77931228 1.5040774 1.5040774 0.50373431 0.50373431
 5 1.7559649  -1.3588096  -3.7535136 0.80675695 1.5040774 1.5040774 0.50377507 0.50377507
 5 1.7559649 -0.86599373  -3.8773236 0.83036841 1.5040774 1.5040774 0.50377507 0.50377507
 1 1.7559649 -0.94395921  -3.4099881 0.83627405 1.5040774 1.5040774   0.503775   0.503775
 2 1.7559649  -1.3864587  -3.5789111 0.75010305 1.5040774 1.5040774 0.50377507 0.50377507
 3 1.7559649  -1.5481441  -3.5551053 0.76007197 1.5040774 1.5040774 0.50377507 0.50377507
 1 1.7559649  -1.5905563  -3.4890925 0.76338748 1.5040774 1.5040774 0.50377507 0.50377507
 1 1.7559649  -1.5875112  -3.5001809 0.76744476 1.5040774 1.5040774 0.50377507 0.50377507
 2 1.7547025  -1.5385463  -2.4710366 0.79913399 1.5040774 1.5040774 0.50125018 0.50125018
 2 1.7445944  -1.6915669  -1.8847544 0.84946641 1.5040774 1.5040774 0.48103394 0.48103394
 5 1.7508518  -1.8749991  -1.1826705 0.81427098 1.5040774 1.5040774 0.49354883 0.49354883
 2 1.7545338  -1.9113033 -0.95254874 0.83573563 1.5040774 1.5040774  0.5009128  0.5009128
10 1.7398514  -1.9991536 -0.80332441 0.66777391 1.5040774 1.5040774 0.47154798 0.47154798
 1 1.7428583  -1.9940765 -0.78781706 0.67364236 1.5040774 1.5040774 0.47756177 0.47756177
 2 1.7543129  -1.8703492 -0.46053764 0.73416529 1.5040774 1.5040774 0.50047109 0.50047109
 4 1.7534046  -1.6914285  -2.2252467 0.84992208 1.5040774 1.5040774  0.4986544  0.4986544
 4 1.7559649 -0.93744758  -3.6467523 0.81534524 1.5040774 1.5040774 0.50377507 0.50377507
 4 1.7559608  -1.7302555  -2.9047129  0.8473202 1.5040774 1.5040774 0.50376682 0.50376682
14 1.6093123  -1.5034475  -1.3001517 0.77389509 1.5040774 1.5040774 0.21046974 0.21046974
 4 1.7721405  -1.3498512  -2.1952291 0.73915712 1.5040774 1.5040774 0.53612626 0.53612626
 5 1.7559653  -0.2378472  -3.7267248 0.61138613 1.5040774 1.5040774 0.50377588 0.50377588
 4 1.7558523  -1.2862525  -2.8368181 0.55285061 1.5040774 1.5040774 0.50354981 0.50354981
 6 1.7559649 -0.38555859  -3.9445355 0.80659814 1.5040774 1.5040774 0.50377507 0.50377507
 1 2.5445928 -0.96496744 -2.4098524 0.62059026 1.5040774 1.5040774  2.0810308  2.0810308
 2 1.7582484 -0.52529447 -3.1276876 0.64771418 1.5040774 1.5040774 0.50834205 0.50834205
 6 1.7617379 -0.58176959 -2.9522223 0.76115491 1.5040774 1.5040774 0.51532096 0.51532096
 2 1.7559674 -0.62738649 -3.2863275 0.76133064 1.5040774 1.5040774 0.50378003 0.50378003
 3 1.7469643   -1.826798 -1.2650714  0.8126854 1.5040774 1.5040774 0.48577374 0.48577374
 3  1.749347  -1.7727125  -1.293958 0.89465437 1.5040774 1.5040774 0.49053919 0.49053919
 6 1.7559575  -1.8043903 0.46355282 0.71649102 1.5040774 1.5040774 0.50376015 0.50376015
 2 1.7559854 -0.60864052 -3.2576441 0.87350793 1.5040774 1.5040774 0.50381603 0.50381603
 8 1.7559649 -0.82587297 -3.3794891 0.88369284 1.5040774 1.5040774 0.50377507 0.50377507
 5 1.7559649 -0.90725757 -3.4461062 0.81046035 1.5040774 1.5040774 0.50377504 0.50377504
 8 1.7586494 -0.90541121 -2.9656239 0.54771357 1.5040774 1.5040774 0.50914393 0.50914393
 4 1.7573978  -1.2261383 -2.5347843 0.79802207 1.5040774 1.5040774 0.50664078 0.50664078
 3 1.7559645  -1.0753525 -3.2540391 0.79189435 1.5040774 1.5040774 0.50377414 0.50377414
 3 1.7559649 -0.90795674 -3.8326054 0.82189969 1.5040774 1.5040774 0.50377507 0.50377507
 2 1.7559649  -0.9452443 -3.7768495 0.82467435 1.5040774 1.5040774 0.50377507 0.50377507
 7 1.7559649  -1.4337757  -3.448008 0.60113914 1.5040774 1.5040774 0.50377506 0.50377506
 1 1.7559649  -1.4817009 -3.4207269 0.56334841 1.5040774 1.5040774 0.50377506 0.50377506
10 1.7559649  -1.8373559 -3.9955615 0.61266704 1.5040774 1.5040774 0.50377507 0.50377507
 9 1.7559649   -1.970167 -3.8440256 0.59519377 1.5040774 1.5040774 0.50377507 0.50377507
11 1.7559649  -1.7146837 -3.8863847 0.60585471 1.5040774 1.5040774 0.50377507 0.50377507
 8 2.0519912 -0.53160932 -2.8024993 0.70723518 1.5040774 1.5040774  1.0958275  1.0958275
 7 1.7866657 -0.56446602 -2.9047171   0.711211 1.5040774 1.5040774 0.56517653 0.56517653
 1  1.755773   -1.336843 -2.7721117 0.86722387 1.5040774 1.5040774 0.50339124 0.50339124
 4 1.7559649 -0.78307351 -3.3207876 0.75229515 1.5040774 1.5040774 0.50377496 0.50377496
 3 1.7559649 -0.78428321  -3.851124 0.73735409 1.5040774 1.5040774 0.50377507 0.50377507
 3 1.7559649 -0.83917529 -3.4364505 0.73034211 1.5040774 1.5040774 0.50377504 0.50377504
 2 1.7574836  -1.2728983 -2.4082431 0.63725544 1.5040774 1.5040774 0.50681238 0.50681238
 2 1.7559649  -1.3776918  -3.320902 0.65585375 1.5040774 1.5040774 0.50377504 0.50377504
 7 1.7559649  -1.0964698 -3.9648217 0.64346633 1.5040774 1.5040774 0.50377507 0.50377507
 1 1.7559597  -1.2728903 -3.0586387 0.73983973 1.5040774 1.5040774 0.50376469 0.50376469
 4 1.7559649  -1.5642028 -3.5067858 0.74211647 1.5040774 1.5040774 0.50377507 0.50377507
 4 1.6744042  -1.5207288 -1.5299878 0.74402102 1.5040774 1.5040774 0.34065359 0.34065359
 4 1.7559649  -1.7993397 -3.7566053 0.55198584 1.5040774 1.5040774 0.50377507 0.50377507
 2 1.7557648  -1.8515039 -2.5289228 0.53876311 1.5040774 1.5040774 0.50337483 0.50337483
23 1.7559655 -0.88423918 -3.5164571 0.43176053 1.5040774 1.5040774 0.50377616 0.50377616
 3 2.0412331   -1.090449  -2.293556 0.64996323 1.5040774 1.5040774  1.0743115  1.0743115
 4 1.7452601  -1.6550745 -1.9992383 0.71658148 1.5040774 1.5040774 0.48236544 0.48236544
 2 1.7558662  -1.6965808 -2.6041912 0.66770581 1.5040774 1.5040774 0.50357754 0.50357754
11 1.7559649  -1.9749115  -3.190118   0.871717 1.5040774 1.5040774 0.50377505 0.50377505
 5 1.7559649  -1.6820192 -3.6086082 0.68545793 1.5040774 1.5040774 0.50377507 0.50377507
 5  1.755958 -1.8634835  -2.7974209 0.82867097 1.5040774 1.5040774 0.50376122 0.50376122
 5 1.7558446 -1.5936444  -2.6945333 0.71799176 1.5040774 1.5040774  0.5035344  0.5035344
10 1.7559639 -1.7502971  -2.9950955 0.71066791 1.5040774 1.5040774 0.50377295 0.50377295
 2 1.7559646 -1.6610703  -3.0417008 0.64200245 1.5040774 1.5040774 0.50377434 0.50377434
 6 1.7559649 -1.8939754  -3.6729696 0.77421091 1.5040774 1.5040774 0.50377507 0.50377507
 1 1.7559649 -1.6322613  -3.8564806 0.69909201 1.5040774 1.5040774 0.50377507 0.50377507
 1 1.7553662 -1.6186261  -2.5130724  0.7548007 1.5040774 1.5040774 0.50257756 0.50257756
 1 1.7558511 -1.8187262  -2.5725278 0.56296821 1.5040774 1.5040774 0.50354738 0.50354738
 1 1.5788661 -1.7524279  -0.7371798 0.53974761 1.5040774 1.5040774 0.14957732 0.14957732
 2 1.5660022 -1.6160759 -0.98925341 0.52544108 1.5040774 1.5040774 0.12384965 0.12384965
 4 1.7559042 -1.4079996   -2.931887 0.48177252 1.5040774 1.5040774 0.50365368 0.50365368
 1 1.7559106 -1.5310165    -2.82435 0.55681307 1.5040774 1.5040774 0.50366643 0.50366643
 5 1.7559367 -1.5605177  -2.7930327  0.6114922 1.5040774 1.5040774 0.50371866 0.50371866
 3 1.7559649 -1.6144058  -3.4686323 0.60822253 1.5040774 1.5040774 0.50377507 0.50377507
 5 1.7541107 -1.8676147  -2.0707001 0.81954763 1.5040774 1.5040774 0.50006662 0.50006662
 2 1.7536457 -1.8558634  -2.0374301 0.82047897 1.5040774 1.5040774 0.49913665 0.49913665
 7 1.7490143 -1.8761773  -1.6477844 0.79404285 1.5040774 1.5040774 0.48987379 0.48987379
 2 1.7065991 -1.4790945  -1.8193376 0.82916717 1.5040774 1.5040774 0.40504349 0.40504349
 1  1.737287  -1.560503 -0.54663175 0.42294931 1.5040774 1.5040774 0.46641926 0.46641926
 7 1.7559515 -1.9749635  0.72161174 0.46198472 1.5040774 1.5040774  0.5037482  0.5037482
 8 1.7553932 -1.7216642 -0.034734054 0.43839206 1.5040774 1.5040774 0.50263155 0.50263155
14 1.7407041 -1.9758154  -0.77424097 0.50386454 1.5040774 1.5040774 0.47325342 0.47325342
 1 1.7559649 -1.9058333   -3.9536078 0.77794708 1.5040774 1.5040774 0.50377507 0.50377507
 3 1.7559648 -1.9604177   -3.0092123  0.8931246 1.5040774 1.5040774 0.50377471 0.50377471
 7 1.7559358  -1.584468   -2.8208485 0.70883118 1.5040774 1.5040774 0.50371679 0.50371679
 3 1.7558293 -1.9758324   -2.3986489 0.81256175 1.5040774 1.5040774 0.50350378 0.50350378
 6 1.7559649 -1.6510558   -3.5754985 0.82262529 1.5040774 1.5040774 0.50377507 0.50377507
 2 1.7522992 -1.9555667   -1.8131942 0.64358903 1.5040774 1.5040774 0.49644364 0.49644364
 9 1.7513547 -1.9767519   -1.7021594  0.6175036 1.5040774 1.5040774 0.49455458 0.49455458
 5 1.7559648 -1.6515023   -3.1597886  0.7735423 1.5040774 1.5040774 0.50377478 0.50377478
 3 1.7552969 -1.5828161   -2.5235149 0.76996185 1.5040774 1.5040774 0.50243899 0.50243899
 2 1.7559649 -1.6781428   -3.4294319 0.58875325 1.5040774 1.5040774 0.50377507 0.50377507
 4 1.7556129 -1.8323902   -2.4551222 0.55010623 1.5040774 1.5040774 0.50307102 0.50307102
 4 1.7551682 -1.2226729   0.34988938 0.83105517 1.5040774 1.5040774 0.50218152 0.50218152
12 1.7559461 -1.3618385   0.87718967 0.80898026 1.5040774 1.5040774 0.50373741 0.50373741
 9 1.7548304 -1.7378228  0.060452318 0.70474005 1.5040774 1.5040774 0.50150601 0.50150601
14 1.7357362 -1.6729429  -0.80135173 0.76694117 1.5040774 1.5040774 0.46331767 0.46331767
 4 1.7812389 -1.3287201   -1.3057357 0.77619291 1.5040774 1.5040774 0.55432305 0.55432305
 1 1.8378629 -1.1484804   -2.3372404   0.823772 1.5040774 1.5040774 0.66757101 0.66757101
 7 1.7559637 -1.9947051   -2.8702386 0.81039919 1.5040774 1.5040774 0.50377269 0.50377269
 3 1.8151296  -1.5522407   -1.4969543 0.69641137 1.5040774 1.5040774 0.62210441 0.62210441
 1 1.7559621  -1.9221535   -2.8162079 0.58110933 1.5040774 1.5040774 0.50376936 0.50376936
 5 1.7559649  -1.9899357   -3.4721345 0.77983708 1.5040774 1.5040774 0.50377507 0.50377507
 8 1.7559649  -1.9937626   -3.4833832 0.77444734 1.5040774 1.5040774 0.50377507 0.50377507
 4 1.7558272  -1.7385322 -0.067384682 0.79599538 1.5040774 1.5040774 0.50349967 0.50349967
 6 1.7224749  -1.5733757   -0.6801509 0.76282742 1.5040774 1.5040774 0.43679507 0.43679507
 6 1.7559001  -1.6841144   -2.6784809 0.67901568 1.5040774 1.5040774 0.50364539 0.50364539
 7 1.8304029  -1.2856533   -2.5191822 0.44867609 1.5040774 1.5040774 0.65265094 0.65265094
 3 1.7559617  -1.3169477   -3.1990466 0.41521554 1.5040774 1.5040774 0.50376854 0.50376854
 3 1.7518229   -1.548342   -2.3229942 0.42832502 1.5040774 1.5040774 0.49549094 0.49549094
 5 1.7556187  -1.5389279   -2.7522692 0.45167779 1.5040774 1.5040774 0.50308269 0.50308269
14 1.7559643   -1.402204   -3.1637685  0.5718545 1.5040774 1.5040774 0.50377385 0.50377385
10 1.8087455  -1.2746555   -2.0750431 0.83066171 1.5040774 1.5040774 0.60933619 0.60933619
 1 1.7559535  -1.7337767    -2.988229 0.40849198 1.5040774 1.5040774 0.50375219 0.50375219
10 1.7558814  -1.7184161   -2.8444456 0.40144992 1.5040774 1.5040774 0.50360798 0.50360798
 5 1.7551619  -1.7007511   -2.6261462 0.40225582 1.5040774 1.5040774 0.50216893 0.50216893
 5 1.7583229 -0.66274268   -3.2965135 0.41341643 1.5040774 1.5040774 0.50849096 0.50849096
 2 1.7574519 -0.83572499   -2.9266525 0.89454938 1.5040774 1.5040774 0.50674892 0.50674892
 3 1.7339977   -1.625959   -1.7921714 0.85970577 1.5040774 1.5040774 0.45984066 0.45984066
 3 1.7438864  -1.8212578   -1.7503898 0.73308588 1.5040774 1.5040774 0.47961809 0.47961809
12 1.7559389 -1.5787469   -2.8354188 0.71797874 1.5040774 1.5040774    0.503723    0.503723
 5 1.7559649 -1.6386406   -3.2991565 0.70994015 1.5040774 1.5040774  0.50377504  0.50377504
 7 1.7558504 -1.6535301  -0.17740845 0.89514181 1.5040774 1.5040774    0.503546    0.503546
 7 1.7553842  -1.615927  -0.39311047 0.89371217 1.5040774 1.5040774  0.50261359  0.50261359
 4 1.7559013 -1.4865804   0.23199431  0.8678326 1.5040774 1.5040774  0.50364776  0.50364776
 5 1.7496542 -1.0937627   0.18843678 0.84520192 1.5040774 1.5040774   0.4911537   0.4911537
13 1.7606466 -1.2383807   0.76543273 0.80358025 1.5040774 1.5040774  0.51313846  0.51313846
 2 1.7558872 -1.5225916    -2.775295 0.82436831 1.5040774 1.5040774  0.50361959  0.50361959
 2 1.7557233 -1.4307058   -2.7136123 0.84547751 1.5040774 1.5040774  0.50329179  0.50329179
 3 1.7318234 -1.6576432   -1.4761096 0.87021653 1.5040774 1.5040774  0.45549191  0.45549191
 1 1.7557094 -1.7240566   -2.5291176 0.84075668 1.5040774 1.5040774    0.503264    0.503264
 6 1.7548154  -1.943718 -0.041949022 0.52002589 1.5040774 1.5040774  0.50147606  0.50147606
 6 1.6398047 -1.8043802  -0.38734412 0.56321787 1.5040774 1.5040774  0.27145469  0.27145469
 3 1.5383074 -1.7837076  -0.49603388 0.57240911 1.5040774 1.5040774 0.068459962 0.068459962
 3 1.5991578 -1.8990932  -0.76906776 0.57087863 1.5040774 1.5040774   0.1901609   0.1901609
 2 2.8906398 -1.4295106    -1.913127 0.53659615 1.5040774 1.5040774   2.7731248   2.7731248
 7 1.7559648 -1.4896991   -3.2254642  0.7053487 1.5040774 1.5040774  0.50377488  0.50377488
 1 1.7427042 -1.5045131   -2.0811598 0.77787723 1.5040774 1.5040774  0.47725362  0.47725362
 6 1.7538694 -1.7989973   -2.1184417 0.86059794 1.5040774 1.5040774  0.49958393  0.49958393
 1 1.7549004 -1.8381965   -2.2104477 0.84136137 1.5040774 1.5040774  0.50164598  0.50164598
 3 1.7558914   -1.198171  -2.8457246 0.66689123 1.5040774 1.5040774 0.50362795 0.50362795
 8 1.7559573  -0.9657684  -3.0371678 0.69408609 1.5040774 1.5040774 0.50375978 0.50375978
 4  1.756975  -1.0391408   -2.723897 0.65145186 1.5040774 1.5040774 0.50579512 0.50579512
 4 1.7559678  -1.0063506  -2.9314154 0.64885891 1.5040774 1.5040774  0.5037808  0.5037808
 5 1.7550742  -1.3485236  -2.3222006 0.64887166 1.5040774 1.5040774 0.50199356 0.50199356
11 1.7594918 -0.96044204  -2.8619503 0.57511938 1.5040774 1.5040774 0.51082888 0.51082888
 1 1.7603339 -0.96953212  -2.7884357 0.60666801 1.5040774 1.5040774 0.51251304 0.51251304
11  1.755965 -0.53231719  -3.5848283 0.62568459 1.5040774 1.5040774 0.50377531 0.50377531
 2 1.7559649  -1.0969075  -3.6595736 0.51759477 1.5040774 1.5040774 0.50377507 0.50377507
 4 1.7559649   -1.299506  -3.8493341 0.42210782 1.5040774 1.5040774 0.50377507 0.50377507
 7 1.7559649  -1.3014144  -3.6011117   0.483685 1.5040774 1.5040774 0.50377507 0.50377507
 6 1.7559569  -1.6486702  -3.0232401 0.44598576 1.5040774 1.5040774 0.50375907 0.50375907
11 1.7557381  -1.8935784 -0.42455765 0.80318688 1.5040774 1.5040774  0.5033214  0.5033214
 1 1.7559623   -1.365434  -3.0366256 0.69321422 1.5040774 1.5040774 0.50376978 0.50376978
 1 1.7559649  -1.5559458  -3.2031166 0.66851201 1.5040774 1.5040774 0.50377497 0.50377497
11 1.7559649  -1.4594906  -3.2424944 0.66784559 1.5040774 1.5040774 0.50377499 0.50377499
 2 1.7559649  -1.3713372   -3.582148 0.45842141 1.5040774 1.5040774 0.50377506 0.50377506
 2 1.7559649  -1.4197027  -3.4048451 0.45853359 1.5040774 1.5040774 0.50377499 0.50377499
 2 1.7556391  -1.7608196  -2.4852922 0.74476023 1.5040774 1.5040774 0.50312341 0.50312341
 1 1.6327241 -0.99565566 -0.21751028 0.82804551 1.5040774 1.5040774 0.25729339 0.25729339
 4 1.7619397  -1.1055853  -2.6080454 0.85334649 1.5040774 1.5040774  0.51572462  0.51572462
 2 1.7559649 -0.79920262  -3.5310397 0.71150985 1.5040774 1.5040774  0.50377506  0.50377506
 2 1.7559597  -0.9615484  -3.0119593  0.7654365 1.5040774 1.5040774  0.50376453  0.50376453
 2 1.7559649   -1.157038  -3.4296052 0.73483047 1.5040774 1.5040774  0.50377505  0.50377505
 2 1.7559648  -1.6304724  -3.1673941 0.80139808 1.5040774 1.5040774  0.50377479  0.50377479
 1 1.7559649  -1.5754137  -3.6913996 0.78948343 1.5040774 1.5040774  0.50377507  0.50377507
 1 1.7559649  -1.5257674  -3.7896277 0.85964876 1.5040774 1.5040774  0.50377507  0.50377507
 2 1.7559649  -1.9326326  -3.7513835 0.87984946 1.5040774 1.5040774  0.50377507  0.50377507
 1 2.0418174  -1.2613378  -1.7086573 0.81718619 1.5040774 1.5040774     1.07548     1.07548
 3 2.1637534  -1.2111034   -1.810772 0.84133868 1.5040774 1.5040774   1.3193521   1.3193521
 1 1.7578831  -1.2162322  -2.4954303 0.86873822 1.5040774 1.5040774  0.50761139  0.50761139
 5 1.7518609  -1.4160553  0.12808364 0.74954083 1.5040774 1.5040774  0.49556692  0.49556692
13 1.7518481  -1.3289378   0.2712118 0.75820382 1.5040774 1.5040774  0.49554138  0.49554138
 1 1.7533137  -1.4743172  0.20039538 0.73447163 1.5040774 1.5040774  0.49847259  0.49847259
 5 1.8533525  -1.2888684  -1.6388003 0.81822349 1.5040774 1.5040774  0.69855024  0.69855024
 5 1.5356612  -1.6302929 -0.61234737 0.55958493 1.5040774 1.5040774 0.063167609 0.063167609
 7 1.6981293  -1.4209951 -0.33167688 0.48014661 1.5040774 1.5040774  0.38810388  0.38810388
13 1.7216907  -1.7711346  0.32372671 0.62274018 1.5040774 1.5040774  0.43522669  0.43522669
 9  1.596024  -1.5329929  0.28904636 0.65905858 1.5040774 1.5040774  0.18389316  0.18389316
 2 1.6666696  -1.4659532  0.26247451 0.64607687 1.5040774 1.5040774  0.32518436  0.32518436
 4 1.7135587  -1.5311941  -1.8068364 0.79529454 1.5040774 1.5040774 0.41896259 0.41896259
 6 1.7557754  -1.2571506  -2.7848865 0.79212827 1.5040774 1.5040774 0.50339598 0.50339598
 9 1.7453056  -1.3011527  -1.8232791 0.85151827 1.5040774 1.5040774 0.48245643 0.48245643
 2  1.753261  -1.3560512  -2.3295721 0.80816026 1.5040774 1.5040774 0.49836719 0.49836719
 8 1.7559383  -1.8094202 0.089437037  0.7951828 1.5040774 1.5040774 0.50372184 0.50372184
 1 1.7559649  -1.0289382  -3.3519014 0.74388373 1.5040774 1.5040774 0.50377496 0.50377496
 7 1.7559495  -1.0704488  -2.9338577 0.80820124 1.5040774 1.5040774 0.50374411 0.50374411
 5 1.7608587 -0.97230981   -2.755421 0.83790207 1.5040774 1.5040774 0.51356261 0.51356261
 7 1.7559677 -0.66094993   -3.259023  0.7810213 1.5040774 1.5040774 0.50378055 0.50378055
 3 1.7559647  -1.2688298  -3.3330086 0.48746382 1.5040774 1.5040774 0.50377465 0.50377465
 1 1.6873125  -1.3504034 -0.72161662 0.83544911 1.5040774 1.5040774 0.36647025 0.36647025
 5 1.5711846  -1.1759105 -0.59587565 0.81265717 1.5040774 1.5040774 0.13421448 0.13421448
 2 1.6829073  -1.0181277 -0.41392974 0.82252185 1.5040774 1.5040774 0.35765977 0.35765977
 2 1.7747632  -1.3079922   0.2000006 0.40600034 1.5040774 1.5040774 0.54137166 0.54137166
 4 1.7512554  -1.5801363  -0.3412363 0.40815871 1.5040774 1.5040774 0.49435602 0.49435602
 1 1.8774833 -0.78439272 0.010015764 0.42600662 1.5040774 1.5040774 0.74681176 0.74681176
 1 1.7183241 -0.81021318  0.19475779 0.47623101 1.5040774 1.5040774 0.42849343 0.42849343
 4 1.7567016 -0.25692183  -3.4251468 0.58330807 1.5040774 1.5040774  0.5052484  0.5052484
10 1.7705371 -0.72028844  -3.1158579 0.46486353 1.5040774 1.5040774 0.53291942 0.53291942
 3  1.801956 -0.64535696  -3.0554997 0.50973716 1.5040774 1.5040774 0.59575723 0.59575723
 2 1.7572081 -0.61830486  -3.3483723 0.41863994 1.5040774 1.5040774 0.50626144 0.50626144
 4 1.7562861 -0.60088389  -3.4076741 0.43135585 1.5040774 1.5040774 0.50441745 0.50441745
 3 1.8292853  -1.8650582  -1.4212876 0.58321257 1.5040774 1.5040774 0.65041583 0.65041583
 2  1.842718  -1.8675102  -1.3789519 0.58252704 1.5040774 1.5040774  0.6772812  0.6772812
 1 1.7545647  -1.9228374  -2.1097201 0.67095561 1.5040774 1.5040774  0.5009746  0.5009746
 8 1.7536932  -1.4552303  -2.4128517 0.73888307 1.5040774 1.5040774 0.49923165 0.49923165
 1 1.7559649  -1.3005042  -3.7323238 0.64890908 1.5040774 1.5040774 0.50377507 0.50377507
 1 1.7559649  -1.6122235  -3.6466489 0.62701535 1.5040774 1.5040774 0.50377507 0.50377507
 9 1.7488482  -1.6603368   -2.320087 0.42085347 1.5040774 1.5040774 0.48954156 0.48954156
 4 1.7401073  -1.6535821   -2.196996 0.40678352 1.5040774 1.5040774 0.47205986 0.47205986
 5 1.7546971  -1.6903136 -0.10966386 0.44599854 1.5040774 1.5040774 0.50123941 0.50123941
 4 1.6991097   -1.540282 -0.55441246 0.46862262 1.5040774 1.5040774 0.39006454 0.39006454
 7 1.5721073  -1.4636782 -0.77651939 0.46651745 1.5040774 1.5040774 0.13605989 0.13605989
 7 1.7525259  -1.5017474  0.33351557 0.52713993 1.5040774 1.5040774 0.49689702 0.49689702
12 1.6446914 -0.95792207 -0.25496505 0.85790159 1.5040774 1.5040774 0.28122797 0.28122797
 1 1.7522817  -1.1138736  0.15668295  0.8708199 1.5040774 1.5040774 0.49640857 0.49640857
 5 3.9053868  -1.0935927  0.13540779 0.87488842 1.5040774 1.5040774  4.8026188  4.8026188
 1  1.751572  -1.0952232  0.14204326 0.87411372 1.5040774 1.5040774 0.49498916 0.49498916
 1 1.8958796  -1.1901763  -1.6036074 0.88175556 1.5040774 1.5040774 0.78360439 0.78360439
 1 1.7503855  -1.7526859  -0.7317032 0.78266577 1.5040774 1.5040774 0.49261615 0.49261615
2 1.7389688  -1.7191773 -0.82427272  0.7594535 1.5040774 1.5040774 0.46978282 0.46978282
4  1.743402     -1.8484  -1.0084199 0.74435368 1.5040774 1.5040774 0.47864925 0.47864925
1 1.7559584   -1.308698  -3.0343385 0.58866589 1.5040774 1.5040774 0.50376203 0.50376203
6 1.7555052  -1.5640142  -2.5122697 0.61564108 1.5040774 1.5040774 0.50285568 0.50285568
4  1.755961  -1.5197952  -2.9637488 0.68670045 1.5040774 1.5040774 0.50376723 0.50376723
3 1.7530008  -1.7582909  -1.9273137 0.58638082 1.5040774 1.5040774 0.49784673 0.49784673
6 1.7559649   -1.972607  -3.8915106 0.44341739 1.5040774 1.5040774 0.50377507 0.50377507
2 1.7559649  -1.4722409  -3.7728528 0.64752802 1.5040774 1.5040774 0.50377507 0.50377507
2 1.7554619  -1.6823281 -0.23347969 0.80717015 1.5040774 1.5040774 0.50276901 0.50276901
1 1.7553882  -1.6722865 -0.26582202 0.81489943 1.5040774 1.5040774 0.50262152 0.50262152
3 1.7553882  -1.6722878 -0.26581142 0.81489777 1.5040774 1.5040774 0.50262164 0.50262164
3 1.7559649 -0.44444416   -3.727836 0.67635388 1.5040774 1.5040774 0.50377508 0.50377508
1 1.8086504  -1.0003589   -2.718173 0.54237176 1.5040774 1.5040774 0.60914597 0.60914597
1 1.7559649  -1.6624856  -3.3357857 0.79032285 1.5040774 1.5040774 0.50377506 0.50377506
2 1.7470034  -1.7543489  -1.4320684 0.89892848 1.5040774 1.5040774 0.48585197 0.48585197
5 1.7538371  -1.8506629 -0.84511109 0.81586733 1.5040774 1.5040774 0.49951942 0.49951942
2 1.7534015  -1.8128846 -0.88436597 0.83688799 1.5040774 1.5040774 0.49864814 0.49864814
2 1.7559079  -1.8566461 -0.25869595 0.84824403 1.5040774 1.5040774 0.50366101 0.50366101
2 1.7558825  -1.8501088 -0.29669447  0.8429466 1.5040774 1.5040774 0.50361013 0.50361013
2 1.7439545  -1.5681774 -0.47382603 0.42018763 1.5040774 1.5040774 0.47975411 0.47975411
 3 1.9397842  -1.3904229  -2.2033259 0.41026251 1.5040774 1.5040774  0.87141366  0.87141366
 3 1.7559695  -1.0024684   -3.225686 0.51861268 1.5040774 1.5040774  0.50378424  0.50378424
 1 1.7559355  -1.8085869  0.11951793 0.78516872 1.5040774 1.5040774  0.50371613  0.50371613
 2  1.755825  -1.7403542 -0.17999325 0.83114246 1.5040774 1.5040774  0.50349515  0.50349515
 1 1.6316191  -1.5536534  -1.3614786 0.74502759 1.5040774 1.5040774  0.25508345  0.25508345
 6  1.638664  -1.5338167  -1.3676994 0.73034682 1.5040774 1.5040774  0.26917313  0.26917313
 1 1.7957213  -1.7560645  -1.6180736  0.5464087 1.5040774 1.5040774  0.58328784  0.58328784
 2  1.699366  -1.8289665 -0.56583392 0.53141743 1.5040774 1.5040774  0.39057725  0.39057725
 3 1.5373109   -1.612884 -0.86308153 0.53371753 1.5040774 1.5040774 0.066466947 0.066466947
 7 1.7513477  -1.9746739 -0.57825123 0.49038568 1.5040774 1.5040774  0.49454053  0.49454053
 1 1.7484265  -1.9188505  0.16566452 0.57277444 1.5040774 1.5040774  0.48869816  0.48869816
 2 1.7559639  -1.0343904  -3.2057016 0.78139907 1.5040774 1.5040774  0.50377293  0.50377293
 1 1.7559649  -0.5913916  -3.9133926 0.64906948 1.5040774 1.5040774  0.50377507  0.50377507
 8 1.7570725 -0.56907691  -3.1208152 0.65823992 1.5040774 1.5040774  0.50599012  0.50599012
 1 3.4111237 -0.42633037  -2.8166531 0.68123632 1.5040774 1.5040774   3.8140926   3.8140926
 6 1.8616086 -0.40269142  -2.9710243 0.70335438 1.5040774 1.5040774  0.71506237  0.71506237
 8 1.7570048 -0.76824281  -3.0752452 0.57678819 1.5040774 1.5040774  0.50585473  0.50585473
 5 1.7530911  -1.5722746 -0.58183879 0.87948545 1.5040774 1.5040774  0.49802749  0.49802749
12 1.7559423   -1.873123    -0.15362 0.85735937 1.5040774 1.5040774  0.50372985  0.50372985
10 1.7559649  -1.9786021  -3.3765948 0.77125201 1.5040774 1.5040774  0.50377507  0.50377507
 2 1.7559649 -0.93276457   -3.4386755 0.65732923 1.5040774 1.5040774 0.50377505 0.50377505
 5 1.7538277  -1.5566754   -2.3616163   0.564872 1.5040774 1.5040774 0.49950068 0.49950068
14 1.7559649  -1.3386608   -3.6917708 0.82032303 1.5040774 1.5040774 0.50377507 0.50377507
 4  1.737288   -1.640234   -1.8318203 0.85081101 1.5040774 1.5040774 0.46642116 0.46642116
 1  1.756153   -1.236098   -2.6879665 0.57268007 1.5040774 1.5040774 0.50415115 0.50415115
13 1.7558921  -1.3186932   -2.8750608 0.56438194 1.5040774 1.5040774 0.50362943 0.50362943
 7 1.7628647   -1.944202   0.60012248 0.57640588 1.5040774 1.5040774 0.51757457 0.51757457
12  1.710931   -1.915631  -0.99464804 0.50847625 1.5040774 1.5040774 0.41370721 0.41370721
 4 1.6821476  -1.9169961   -1.0486717 0.53031529 1.5040774 1.5040774 0.35614033 0.35614033
 6 1.7122787  -1.6409963  -0.17041531 0.62860937 1.5040774 1.5040774 0.41640264 0.41640264
11 2.0016367  -1.0364954   -2.4787363 0.58948698 1.5040774 1.5040774 0.99511866 0.99511866
 1 1.7536544   -1.678671     -2.17937 0.61629983 1.5040774 1.5040774 0.49915397 0.49915397
 5 1.7559649   -1.408467   -3.5913379 0.75573155 1.5040774 1.5040774 0.50377507 0.50377507
 7 1.7559649  -1.0720942   -3.3783757 0.78004507 1.5040774 1.5040774 0.50377498 0.50377498
 8 1.7559649 -0.55716914   -3.7463558 0.86256174 1.5040774 1.5040774 0.50377507 0.50377507
 6 1.5546621  -1.2348805  -0.68556409 0.80261254 1.5040774 1.5040774 0.10116939 0.10116939
 7   1.72249  -1.5428287  -0.72486559 0.78430498 1.5040774 1.5040774  0.4368253  0.4368253
12 4.3072743 -0.94429071  -0.30273177 0.47436176 1.5040774 1.5040774  5.6063939  5.6063939
 3 2.1682988 -0.88959412 -0.097061937  0.4658051 1.5040774 1.5040774  1.3284428  1.3284428
 7 1.7544352  -1.5714428   0.32055301 0.50870395 1.5040774 1.5040774 0.50071553 0.50071553
3 1.7558673 -1.8985157   0.41783737 0.51569505 1.5040774 1.5040774 0.50357986 0.50357986
1 1.7532181 -1.8621277   0.32177259 0.57411268 1.5040774 1.5040774 0.49828144 0.49828144
6 1.7301244 -1.8477473 -0.066701717 0.56545275 1.5040774 1.5040774 0.45209397 0.45209397
3 1.7459764 -1.9499504 0.0095403134 0.56578429 1.5040774 1.5040774 0.48379801 0.48379801
6 1.7556417 -1.7899336  -0.58283351 0.89851491 1.5040774 1.5040774 0.50312864 0.50312864
3 1.7547049 -1.8269236  -0.79203742 0.85014491 1.5040774 1.5040774 0.50125494 0.50125494
1 1.7559641 -1.7312067   0.78185974 0.80175409 1.5040774 1.5040774 0.50377337 0.50377337
4 1.7569577 -1.8344411   0.49189637 0.77602818 1.5040774 1.5040774 0.50576067 0.50576067
2 1.7472412   -1.76989   -1.9363195 0.52714148 1.5040774 1.5040774 0.48632769 0.48632769
6  1.755706 -1.7436901   -2.4598327 0.60297634 1.5040774 1.5040774 0.50325715 0.50325715
1 1.7238178 -1.9237213   -1.1558292 0.63486582 1.5040774 1.5040774 0.43948084 0.43948084
6 1.7275421 -1.9832459   -1.1770015 0.63519286 1.5040774 1.5040774 0.44692949 0.44692949
1 1.7369643 -1.4858915   -1.7779822 0.74814863 1.5040774 1.5040774 0.46577383 0.46577383
2 1.7537212 -1.3621386    -2.363193 0.68177526 1.5040774 1.5040774 0.49928771 0.49928771
2 1.7484598 -1.7146688   -1.9817984 0.51794496 1.5040774 1.5040774 0.48876489 0.48876489
8 1.7553535 -1.9466392   -2.2129928 0.65873211 1.5040774 1.5040774 0.50255224 0.50255224
5  1.755819 -1.8987857   -2.4346003 0.65725061 1.5040774 1.5040774  0.5034832  0.5034832
8 1.7466745 -1.8034225    -1.668185 0.82849689 1.5040774 1.5040774 0.48519422 0.48519422
4 1.7559609 -1.5841223   -2.9766635 0.75622517 1.5040774 1.5040774 0.50376706 0.50376706
4 1.7559649 -1.3779307   -3.8312194  0.6736077 1.5040774 1.5040774 0.50377507 0.50377507
 1 1.7559649  -1.0885237  -3.7674742 0.59258014 1.5040774 1.5040774  0.50377507  0.50377507
 9 1.7559649 -0.40065431  -3.6943566 0.69688709 1.5040774 1.5040774  0.50377509  0.50377509
11 1.7559231  -1.9391961 -0.38572782 0.86836308 1.5040774 1.5040774  0.50369147  0.50369147
 6 1.5434233  -1.1754041  -1.0998215 0.86790324 1.5040774 1.5040774 0.078691852 0.078691852
 1 1.7616017  -1.6663019  -1.8158526  0.6328541 1.5040774 1.5040774   0.5150486   0.5150486
 7 1.7559649  -1.8620165  -3.1210052 0.68579122 1.5040774 1.5040774  0.50377493  0.50377493
 7 1.7559649  -1.4969995  -3.5198214 0.86018655 1.5040774 1.5040774  0.50377507  0.50377507
 3 1.7397843  -1.7757664  -1.0244428 0.76744541 1.5040774 1.5040774  0.47141382  0.47141382
 3 1.7378211  -1.7537203  -1.0454747 0.77500528 1.5040774 1.5040774   0.4674875   0.4674875
 2 1.7559647  -1.2758657  -3.2252604 0.73097181 1.5040774 1.5040774  0.50377453  0.50377453
 5 1.7559633  -1.2906617   -3.128012 0.74590677 1.5040774 1.5040774  0.50377178  0.50377178
 3 1.7559632  -1.2907132  -3.1258594 0.75408288 1.5040774 1.5040774  0.50377153  0.50377153
 7 1.9198984  -1.6974154  -1.6568435 0.60319893 1.5040774 1.5040774  0.83164208  0.83164208
 4 1.7554127   -1.783955  -2.3440836 0.66383309 1.5040774 1.5040774  0.50267064  0.50267064
 2 1.7545579  -1.2657368 0.015899301 0.88889563 1.5040774 1.5040774  0.50096104  0.50096104
 9  1.807183  -1.4032812  0.71331227 0.49506826 1.5040774 1.5040774  0.60621129  0.60621129
 1 1.7559649  -1.3439237   -3.709745   0.576434 1.5040774 1.5040774  0.50377507  0.50377507
 1 1.7559649  -1.2190971  -3.9100785 0.55567674 1.5040774 1.5040774  0.50377507  0.50377507
16 1.7559649  -1.6670728  -3.4469903 0.59329222 1.5040774 1.5040774  0.50377507  0.50377507
 3  1.757452 -0.89788984  -3.1766717 0.40360649 1.5040774 1.5040774  0.50674927  0.50674927
 2 1.7559704  -0.8811856    -3.4346831 0.41621985 1.5040774 1.5040774 0.50378599 0.50378599
 2 1.7700548  -1.1709071    -2.4620812 0.83206793 1.5040774 1.5040774 0.53195481 0.53195481
 7 1.7560945 -0.86583194    -3.0246015  0.8621093 1.5040774 1.5040774 0.50403428 0.50403428
 3 1.7559649  -1.6492794    -3.8687868 0.53737215 1.5040774 1.5040774 0.50377507 0.50377507
19 1.7559566  -1.9097163    -2.8916602 0.45228999 1.5040774 1.5040774 0.50375849 0.50375849
 1 1.7559394  -1.6235126    -2.9312497 0.47021433 1.5040774 1.5040774 0.50372391 0.50372391
 3 1.6930196  -1.9669172   0.039323266 0.61101951 1.5040774 1.5040774 0.37788446 0.37788446
10 1.5990814  -1.9565565   -0.35161662 0.59771435 1.5040774 1.5040774 0.19000794 0.19000794
 3 1.7546634   -1.939813    -0.3205442 0.48171846 1.5040774 1.5040774 0.50117198 0.50117198
 3 1.7147164  -1.5286681   -0.31415697 0.49712991 1.5040774 1.5040774 0.42127804 0.42127804
12 1.7552879  -1.9823461    0.43404681 0.57427407 1.5040774 1.5040774 0.50242093 0.50242093
 3 2.1601169  -1.6433922    -1.6578606 0.56304052 1.5040774 1.5040774  1.3120789  1.3120789
 4 1.7559648  -1.9758167    0.80046212 0.78614523 1.5040774 1.5040774 0.50377481 0.50377481
 2 1.7559552  -1.8436531    0.19290705 0.79629512 1.5040774 1.5040774 0.50375553 0.50375553
 4 1.7559526  -1.8262976    0.27436427 0.77162664 1.5040774 1.5040774 0.50375047 0.50375047
 4 1.6488871   -1.584009   0.049305193 0.66588773 1.5040774 1.5040774 0.28961937 0.28961937
 6 1.9990741  -1.5719382  -0.021375123 0.66223355 1.5040774 1.5040774  0.9899934  0.9899934
 4 1.7164931  -1.6837291    0.13646544 0.67736232 1.5040774 1.5040774 0.42483143 0.42483143
 1  1.755939  -1.6531607    0.63121823 0.41860352 1.5040774 1.5040774 0.50372311 0.50372311
 2 1.7535712  -1.4669481 -0.0095615511  0.4105654 1.5040774 1.5040774 0.49898759 0.49898759
3 1.7324828  -1.2003878 -0.049141094 0.41434676 1.5040774 1.5040774 0.45681089 0.45681089
1 1.8224784  -1.1010118   0.48385263 0.48539157 1.5040774 1.5040774 0.63680201 0.63680201
2 1.7377202   -1.718731   0.46624276 0.67514596 1.5040774 1.5040774 0.46728563 0.46728563
3 1.7551636  -1.7229037  -0.29409147   0.783171 1.5040774 1.5040774 0.50217236 0.50217236
9 1.7559551  -1.9318586    0.1701227 0.76805941 1.5040774 1.5040774 0.50375531 0.50375531
3 1.7571815 -0.64938549   -3.2639769   0.480973 1.5040774 1.5040774 0.50620819 0.50620819
2 1.7239354  -1.7516397  -0.94195835 0.44398524 1.5040774 1.5040774 0.43971598 0.43971598
2 1.7557564  -1.9350554   -2.3137527 0.60639366 1.5040774 1.5040774  0.5033581  0.5033581
3 1.7532863   -1.837897   -2.2680701 0.47961013 1.5040774 1.5040774 0.49841772 0.49841772
3 3.8023907  -1.6867567   -1.3297228 0.59649705 1.5040774 1.5040774  4.5966267  4.5966267
5 1.7559649  -1.1109118   -3.7365903 0.56003779 1.5040774 1.5040774 0.50377507 0.50377507
5 1.7559647  -1.1164417   -3.2663305    0.61707 1.5040774 1.5040774 0.50377461 0.50377461
3 1.7552625  -1.5517015   -2.4514181 0.65864688 1.5040774 1.5040774 0.50237027 0.50237027
3 1.7559649  -1.3751108   -3.4324493  0.5911419 1.5040774 1.5040774 0.50377506 0.50377506
9 1.7559649  -1.4693044   -3.4445121  0.6126209 1.5040774 1.5040774 0.50377507 0.50377507
3 1.7559649  -1.4870534   -3.8168828 0.57107213 1.5040774 1.5040774 0.50377507 0.50377507
1 1.7559649  -1.8611357   -3.4719657 0.60397612 1.5040774 1.5040774 0.50377507 0.50377507
4 1.7559649  -1.8226735   -3.9066933 0.57401276 1.5040774 1.5040774 0.50377507 0.50377507
2 1.7559643  -1.2769582   -3.2703368 0.49278994 1.5040774 1.5040774  0.5037739  0.5037739
5 1.7338754   -1.801817   -1.9177176  0.4034764 1.5040774 1.5040774 0.45959594 0.45959594
 1 1.7335182  -1.7858464   -1.94956 0.40085513 1.5040774 1.5040774  0.45888161  0.45888161
 3 1.7559638  -1.9848854 -2.9672498 0.49007669 1.5040774 1.5040774  0.50377271  0.50377271
 3 1.7530655  -1.8299945  -1.992049 0.60354602 1.5040774 1.5040774  0.49797618  0.49797618
 2 1.7542317  -1.8393332 -2.0772785 0.61043795 1.5040774 1.5040774   0.5003086   0.5003086
 4 1.7559462  -1.7986652 -2.8329459 0.50923782 1.5040774 1.5040774  0.50373767  0.50373767
 6 1.7559649  -1.8784277 -3.8379566  0.5696212 1.5040774 1.5040774  0.50377507  0.50377507
 1 1.7559649  -1.7531433 -3.3951643 0.52446941 1.5040774 1.5040774  0.50377506  0.50377506
26 1.7559649  -1.4293791 -3.8511793 0.60522719 1.5040774 1.5040774  0.50377507  0.50377507
 1 1.7559639  -1.2592479 -3.2508827 0.47838852 1.5040774 1.5040774  0.50377311  0.50377311
 1 1.7180209  -1.8530825 -1.5452231 0.46450165 1.5040774 1.5040774  0.42788698  0.42788698
 2 1.6434538  -1.7866579 -1.2108933 0.50877199 1.5040774 1.5040774  0.27875274  0.27875274
 4 1.7437863  -1.6383515 0.18786991 0.55604175 1.5040774 1.5040774  0.47941773  0.47941773
 1 1.7513595  -1.6412708 0.29306593 0.54765992 1.5040774 1.5040774  0.49456411  0.49456411
 2  1.550238  -1.4225556 -1.1721104 0.75676008 1.5040774 1.5040774 0.092321208 0.092321208
 8 1.7559649   -1.524327 -3.4596058 0.58048012 1.5040774 1.5040774  0.50377507  0.50377507
 1 1.7559649 -0.92600658 -3.7020866 0.68805714 1.5040774 1.5040774  0.50377507  0.50377507
 4 1.7559649   -1.000556 -3.6125873 0.74141104 1.5040774 1.5040774  0.50377507  0.50377507
13 1.8189063 -0.56256799 -2.9730606 0.61114502 1.5040774 1.5040774  0.62965786  0.62965786
 3 1.7559649 -0.75127108 -3.5284332 0.78288696 1.5040774 1.5040774  0.50377506  0.50377506
 7 1.7560275 -0.53308122 -3.2039351 0.77027572 1.5040774 1.5040774  0.50390013  0.50390013
 2 1.7515285  -1.5782775  -0.25054383 0.76045063 1.5040774 1.5040774  0.4949022  0.4949022
 3 1.7549782  -1.6207322  0.029241272 0.74378658 1.5040774 1.5040774 0.50180164 0.50180164
 7 1.7553271   -1.635334   0.04675555 0.74797405 1.5040774 1.5040774 0.50249934 0.50249934
 3 1.7545283  -1.6395919 -0.043269063 0.73822706 1.5040774 1.5040774 0.50090186 0.50090186
 5 1.7559649 -0.22096773   -3.8951375 0.67936361 1.5040774 1.5040774 0.50377507 0.50377507
 3 1.7559649 -0.24211271   -3.9727187 0.69173688 1.5040774 1.5040774 0.50377507 0.50377507
 2 1.7547458  -1.6055874   -2.3368957 0.63391811 1.5040774 1.5040774 0.50133677 0.50133677
 1 1.7559626  -1.3650203   -3.1990642 0.44333244 1.5040774 1.5040774 0.50377033 0.50377033
 1 1.7559649  -1.3139006   -3.5986385 0.45920846 1.5040774 1.5040774 0.50377506 0.50377506
12 1.7559649  -1.6800112   -3.7658592 0.41609402 1.5040774 1.5040774 0.50377507 0.50377507
 4 1.7559649  -1.8752544   -3.5702368 0.86452555 1.5040774 1.5040774 0.50377507 0.50377507
15 1.7474294   -1.862696   -1.7546997 0.74218764 1.5040774 1.5040774 0.48670392 0.48670392
19 1.7519233   -1.985887   -1.3475542 0.77366051 1.5040774 1.5040774 0.49569189 0.49569189
 2 2.0222841  -0.7850965     -2.59678 0.80531673 1.5040774 1.5040774  1.0364134  1.0364134
 6 2.0697604 -0.58186761   -2.8202235 0.64903909 1.5040774 1.5040774  1.1313659  1.1313659
 2 1.7559767 -0.57737147   -3.2854947 0.70440376 1.5040774 1.5040774 0.50379859 0.50379859
 3 1.7559647 -0.88178034   -3.2190131 0.66709245 1.5040774 1.5040774 0.50377462 0.50377462
 1 1.7385139  -1.7090994     -1.61748 0.85074355 1.5040774 1.5040774 0.46887294 0.46887294
 3 1.7160917  -1.6286707  -0.46376593 0.70989811 1.5040774 1.5040774 0.42402859 0.42402859
 4 1.7264326  -1.8235229  -0.92037298  0.7062227 1.5040774 1.5040774 0.44471042 0.44471042
 1 1.7827845  -1.7791609  0.95367594 0.72871414 1.5040774 1.5040774 0.55741412 0.55741412
 1 1.7546109  -1.3655223  0.32499685 0.43847146 1.5040774 1.5040774 0.50106696 0.50106696
 7 1.8153835  -1.2409164  0.29860696 0.60631156 1.5040774 1.5040774 0.62261223 0.62261223
 1 1.7529749   -1.810681  -2.1037636 0.70370182 1.5040774 1.5040774 0.49779499 0.49779499
 2 1.7483843    -1.90315  -1.6940366 0.74069673 1.5040774 1.5040774 0.48861373 0.48861373
 1 1.7559158  -1.7843886   -2.674405 0.77243616 1.5040774 1.5040774 0.50367675 0.50367675
 3 1.7551771  -1.4823623  -2.5622404 0.81234505 1.5040774 1.5040774 0.50219938 0.50219938
 3 1.7559627   -1.291106  -3.0623565 0.66743698 1.5040774 1.5040774  0.5037706  0.5037706
 5 2.0494451   -1.580181  -1.7996494 0.58411063 1.5040774 1.5040774  1.0907355  1.0907355
 6  1.753646   -1.669505  -2.4604244 0.44943476 1.5040774 1.5040774  0.4991373  0.4991373
 3 1.7743749  -1.5635228   -2.006154  0.5979613 1.5040774 1.5040774 0.54059501 0.54059501
 6 1.7472759  -1.8518887  -1.6696018 0.78349127 1.5040774 1.5040774  0.4863971  0.4863971
 8 1.7317002  -1.7197283  -1.4950942 0.80754037 1.5040774 1.5040774 0.45524551 0.45524551
 1 1.7554054  -1.8240416  -2.2956924 0.65713161 1.5040774 1.5040774 0.50265601 0.50265601
 1 2.1262214  -1.4215716 -0.95270608 0.50237975 1.5040774 1.5040774  1.2442881  1.2442881
11  1.755987  -0.5578967   -3.432256 0.54449774 1.5040774 1.5040774 0.50381915 0.50381915
 2 1.7595056 -0.44675621  -3.2642235 0.55182204 1.5040774 1.5040774 0.51085638 0.51085638
 8 1.7561069 -0.56768388  -3.1422876 0.79572613 1.5040774 1.5040774 0.50405902 0.50405902
10 1.7560966 -0.56773277  -3.1460847 0.79578341 1.5040774 1.5040774 0.50403843 0.50403843
14 1.7559676 -0.56486221  -3.3303817 0.81752894 1.5040774 1.5040774 0.50378031 0.50378031
 1 1.7560365 -0.54688948  -3.1877463 0.77540417 1.5040774 1.5040774 0.50391819 0.50391819
 3 1.7584588 -0.88566022  -2.8672384 0.62676176 1.5040774 1.5040774  0.5087628  0.5087628
 9 1.7581742 -0.89648157  -2.8572716 0.63164714 1.5040774 1.5040774 0.50819354 0.50819354
 3 1.8855026  -1.4600709  -2.1061686 0.46905456 1.5040774 1.5040774 0.76285042 0.76285042
 5 1.7088409  -1.6473879 -0.91787727 0.42692282 1.5040774 1.5040774 0.40952697 0.40952697
 1 1.7559646  -1.8136896  -3.0358753 0.69340124 1.5040774 1.5040774 0.50377433 0.50377433
 3 1.7549923  -1.8931669  -2.2095749 0.69167796 1.5040774 1.5040774 0.50182981 0.50182981
 5 1.7559649  -1.6478429  -3.7141711 0.86738553 1.5040774 1.5040774 0.50377507 0.50377507
 2 1.7559649  -1.5736001  -3.9225845 0.87576338 1.5040774 1.5040774 0.50377507 0.50377507
 3 1.7559649   -1.568993  -3.3370415 0.89521836 1.5040774 1.5040774 0.50377505 0.50377505
 4 1.7559649  -1.5341169  -3.4068657 0.89510535 1.5040774 1.5040774 0.50377506 0.50377506
 3 1.7501121  -1.5763517  -2.1844063 0.89379832 1.5040774 1.5040774 0.49206951 0.49206951
 2 1.7520643  -1.6187589  -2.2177833 0.88114324 1.5040774 1.5040774 0.49597376 0.49597376
 9 1.7272283  -1.6101342  -1.5005608 0.89715827 1.5040774 1.5040774 0.44630171 0.44630171
 2 2.6755895  -1.7241754  -1.3862062 0.58964666 1.5040774 1.5040774  2.3430242  2.3430242
 2 1.7559547  -1.9672789  -2.7019778   0.669235 1.5040774 1.5040774 0.50375469 0.50375469
 2 1.7559649  -1.9474068  -3.0416255 0.61110284 1.5040774 1.5040774 0.50377494 0.50377494
 2   1.75593  -1.4985158  -2.7862281 0.65514626 1.5040774 1.5040774 0.50370514 0.50370514
17 1.7559649  -1.9307033  -3.2917891 0.51330394 1.5040774 1.5040774 0.50377506 0.50377506
 6 1.7559648  -1.9818655  -3.1811807 0.42982198 1.5040774 1.5040774 0.50377489 0.50377489
 4  1.755535  -1.8839776 -2.4059579 0.53951372 1.5040774 1.5040774 0.50291512 0.50291512
 1 1.6861314  -1.8392343 -1.2064988 0.54969329 1.5040774 1.5040774  0.3641081  0.3641081
10 2.0163044  -1.3232593 -2.0175263 0.64781774 1.5040774 1.5040774   1.024454   1.024454
 3 1.7559648  -1.3469009 -3.2548585 0.87780598 1.5040774 1.5040774 0.50377478 0.50377478
 1 1.7551546  -1.2961654 -2.4382302 0.64764204 1.5040774 1.5040774 0.50215445 0.50215445
 1 1.7559651 -0.93364424 -3.4848154 0.47674148 1.5040774 1.5040774 0.50377537 0.50377537
 9 1.7559649 -0.97942318 -3.7205225 0.47380911 1.5040774 1.5040774 0.50377507 0.50377507
 3 1.7559649 -0.70273271 -3.5793909 0.72566348 1.5040774 1.5040774 0.50377507 0.50377507
11 1.7573108 -0.54396224 -3.1274517 0.66019825 1.5040774 1.5040774 0.50646687 0.50646687
 4 1.7565786 -0.84770543  -2.919058 0.67137172 1.5040774 1.5040774 0.50500244 0.50500244
 5 1.7613847 -0.76480395 -2.8571423 0.68964677 1.5040774 1.5040774  0.5146146  0.5146146
 1 1.7559649 -0.83843204 -3.7074744 0.65529513 1.5040774 1.5040774 0.50377507 0.50377507
 4 1.7559649 -0.62085667 -3.9789591 0.57611416 1.5040774 1.5040774 0.50377507 0.50377507
12 1.7559693 -0.41126476 -3.5546371  0.5794947 1.5040774 1.5040774  0.5037838  0.5037838
 3 1.7559649 -0.45880091 -3.8818107 0.56511271 1.5040774 1.5040774 0.50377507 0.50377507
13 1.7559739 -0.30732588 -3.5715079 0.59575766 1.5040774 1.5040774 0.50379308 0.50379308
 2 1.7559732 -0.30833385 -3.5758393 0.59424569 1.5040774 1.5040774 0.50379164 0.50379164
14 1.7559649 -0.39112272 -3.8405625 0.61262289 1.5040774 1.5040774 0.50377507 0.50377507
 4 1.7559649  -0.5487445 -3.9705776 0.62011622 1.5040774 1.5040774 0.50377507 0.50377507
 2 1.7559649 -0.94848944 -3.6098576 0.82494356 1.5040774 1.5040774 0.50377507 0.50377507
 2 1.7559649 -0.82274469 -3.7160142 0.72011455 1.5040774 1.5040774 0.50377507 0.50377507
23 1.7559649 -0.81044458 -3.6694093 0.71893445 1.5040774 1.5040774 0.50377507 0.50377507
 3 1.7559649   -1.579881 -3.5116096 0.57314978 1.5040774 1.5040774 0.50377507 0.50377507
 1 1.7559649  -1.8434853 -3.6796269 0.59102441 1.5040774 1.5040774 0.50377507 0.50377507
 8 1.7559649  -1.7123205 -3.4337033 0.56697173 1.5040774 1.5040774 0.50377507 0.50377507
 5 1.7559649  -1.5794553  -3.470762  0.5585956 1.5040774 1.5040774 0.50377507 0.50377507
 2 1.7559624  -1.7139522 -3.0091666 0.52075736 1.5040774 1.5040774 0.50376996 0.50376996
 5 1.7559649  -1.2031748 -3.9876575 0.59657664 1.5040774 1.5040774 0.50377507 0.50377507
 2 2.0730771  -1.6217453  -1.736008 0.56989226 1.5040774 1.5040774  1.1379994  1.1379994
 2 2.2442837  -1.6800755 -1.5806531 0.58690041 1.5040774 1.5040774  1.4804127  1.4804127
 7 1.7545534   -1.056635 0.42030985 0.86810783 1.5040774 1.5040774 0.50095196 0.50095196
 2 1.7559506  -1.6721709 0.60648747  0.7399487 1.5040774 1.5040774 0.50374646 0.50374646
 1 1.7551459  -1.4528884 -2.4995755 0.63243089 1.5040774 1.5040774 0.50213695 0.50213695
 2 1.7551606  -1.5163382 -2.4627524 0.63043797 1.5040774 1.5040774 0.50216644 0.50216644
 7 1.7559649  -1.3155008 -3.5195889 0.69200448 1.5040774 1.5040774 0.50377507 0.50377507
 1 1.7559381  -1.9100362 -2.6378394 0.66342794 1.5040774 1.5040774 0.50372144 0.50372144
 7 1.7456974  -1.9019932 -1.3616602 0.75405236 1.5040774 1.5040774 0.48323991 0.48323991
14 1.7458109  -1.9037588 -1.4697834 0.74968157 1.5040774 1.5040774 0.48346691 0.48346691
 1 1.7531893  -1.7252675 -2.2061114 0.72606039 1.5040774 1.5040774 0.49822386 0.49822386
 3 1.7559649 -0.95033282 -3.8457883 0.61734296 1.5040774 1.5040774 0.50377507 0.50377507
1 1.7559649 -0.86359809 -3.8470011 0.60795547 1.5040774 1.5040774 0.50377507 0.50377507
5 1.7559649 -0.88221217 -3.7288063 0.60431538 1.5040774 1.5040774 0.50377507 0.50377507
1 1.7559649 -0.92900837 -3.7191785 0.62761095 1.5040774 1.5040774 0.50377507 0.50377507
2 1.7559649 -0.35112709 -3.7045194 0.78828417 1.5040774 1.5040774 0.50377507 0.50377507
3 1.7559649 -0.80224478 -3.5118921  0.8132268 1.5040774 1.5040774 0.50377506 0.50377506
3 1.9748218 -0.73443188 -2.6068267 0.75018234 1.5040774 1.5040774  0.9414889  0.9414889
3 1.7559649 -0.61065229  -3.827256  0.6833099 1.5040774 1.5040774 0.50377507 0.50377507
4 1.7561069 -0.62868549 -3.1378921 0.70020416 1.5040774 1.5040774 0.50405911 0.50405911
4 1.7559655 -0.60058799 -3.4224662 0.67594962 1.5040774 1.5040774 0.50377629 0.50377629
3  1.792993 -0.69824367 -2.9350587 0.58201553 1.5040774 1.5040774 0.57783112 0.57783112
4 1.8000134 -0.46061294 -3.1247777  0.5606038 1.5040774 1.5040774 0.59187208 0.59187208
1 1.7559651 -0.29818997 -3.7563792 0.59164189 1.5040774 1.5040774 0.50377531 0.50377531
6 1.7559677 -0.40762967 -3.4884954 0.67286864 1.5040774 1.5040774 0.50378065 0.50378065
3 1.7560504 -0.38291757 -3.2978338 0.88513945 1.5040774 1.5040774 0.50394591 0.50394591
1 1.7559649  -1.1540105 -3.8991377  0.5461739 1.5040774 1.5040774 0.50377507 0.50377507
3  1.755681  -1.8071786 -2.4553772 0.68250584 1.5040774 1.5040774  0.5032072  0.5032072
6 1.7559647  -1.9126075 -3.0240132 0.73376614 1.5040774 1.5040774 0.50377456 0.50377456
1 1.7559649   -1.749997 -3.9428028 0.63971362 1.5040774 1.5040774 0.50377507 0.50377507
4 1.7559649  -1.5031778 -3.4121643 0.49161865 1.5040774 1.5040774 0.50377504 0.50377504
1 1.7559177  -1.3513843 -2.8725227 0.45354926 1.5040774 1.5040774 0.50368062 0.50368062
 1 1.7559649  -1.1477732  -3.4316569  0.4717195 1.5040774 1.5040774 0.50377498 0.50377498
 8 1.7559649  -1.1743087   -3.565309 0.49697446 1.5040774 1.5040774 0.50377506 0.50377506
 3 1.7559649  -1.2226669  -3.6531828 0.49670764 1.5040774 1.5040774 0.50377507 0.50377507
 2 1.7559599  -1.5367309  -2.9184668 0.64370567 1.5040774 1.5040774 0.50376507 0.50376507
 4 1.7546687   -1.731757   -2.298633 0.84340479 1.5040774 1.5040774 0.50118255 0.50118255
 2 1.7553437  -1.9001954  -2.2518385 0.79643716 1.5040774 1.5040774 0.50253265 0.50253265
 2 1.7554043  -1.9010017  -2.2676566 0.79733039 1.5040774 1.5040774 0.50265373 0.50265373
 1 1.7559648  -1.5360312  -3.1637723 0.68722935 1.5040774 1.5040774 0.50377477 0.50377477
18 2.1963335  -1.3232794  -1.8311362 0.71201091 1.5040774 1.5040774  1.3845122  1.3845122
 2  1.757873  -1.1688675  -2.4917181  0.7216084 1.5040774 1.5040774  0.5075912  0.5075912
 3 1.7555389  -1.3251733  -2.6379027 0.64049109 1.5040774 1.5040774 0.50292293 0.50292293
 6 1.7559649  -1.5694224  -3.3106818  0.7777535 1.5040774 1.5040774 0.50377504 0.50377504
 3 1.7559976 -0.75145421  -3.1525233 0.65721551 1.5040774 1.5040774  0.5038405  0.5038405
 2  1.755981 -0.22097456  -3.7475422 0.43735852 1.5040774 1.5040774 0.50380723 0.50380723
 3 1.7560521 -0.28163226  -3.6597455 0.42087541 1.5040774 1.5040774 0.50394949 0.50394949
 8 1.7561955 -0.29448618  -3.6098942 0.42245057 1.5040774 1.5040774 0.50423621 0.50423621
 6 2.6110747 -0.43637022  -2.7513384 0.81616627 1.5040774 1.5040774  2.2139945  2.2139945
 2 1.7571792 -0.30502436   -3.214189 0.77711394 1.5040774 1.5040774 0.50620355 0.50620355
 1 1.7415792  -1.7848426 -0.85245671 0.74422999 1.5040774 1.5040774 0.47500356 0.47500356
 3 1.7515903  -1.7788971 -0.69583187 0.77513878 1.5040774 1.5040774 0.49502578 0.49502578
 1 1.7276475  -1.6890316  -0.39135721 0.69679652 1.5040774 1.5040774 0.44714019 0.44714019
 6 1.7559649  -1.0300252    -3.360115 0.64361217 1.5040774 1.5040774 0.50377498 0.50377498
 5 1.7559614  -1.0674059   -3.1283975  0.7825863 1.5040774 1.5040774 0.50376805 0.50376805
 4 1.8006551  -1.8097682   0.58588235 0.63744907 1.5040774 1.5040774 0.59315546 0.59315546
 1  1.751398  -1.8244072  -0.23530805 0.68946749 1.5040774 1.5040774 0.49464128 0.49464128
 1 1.7559305  -1.8503593   0.54550659  0.6885464 1.5040774 1.5040774 0.50370618 0.50370618
 1 1.7528712  -1.4163511   0.15743605 0.72930369 1.5040774 1.5040774 0.49758767 0.49758767
 4 2.6231412  -1.3394872 -0.029604022    0.60432 1.5040774 1.5040774  2.2381275  2.2381275
 1 1.7561302  -1.8277288    0.7841176 0.72163084 1.5040774 1.5040774 0.50410551 0.50410551
 9 1.7551941  -1.8387435   -2.3004936 0.73984815 1.5040774 1.5040774  0.5022334  0.5022334
 3 1.7559649  -1.4619784   -3.4371026 0.82850001 1.5040774 1.5040774 0.50377506 0.50377506
 2 1.6868307  -1.4627846   -1.7028266 0.79406673 1.5040774 1.5040774 0.36550652 0.36550652
 1 1.7559649 -0.92737441   -3.9115794 0.72564199 1.5040774 1.5040774 0.50377507 0.50377507
 1 1.7559649  -0.7938163   -3.5313704 0.70265715 1.5040774 1.5040774 0.50377506 0.50377506
 4 1.7559649 -0.79378104   -3.5313835 0.70268087 1.5040774 1.5040774 0.50377506 0.50377506
 3 1.7559649 -0.76923783    -3.977051 0.70759377 1.5040774 1.5040774 0.50377507 0.50377507
 5 1.7559649 -0.68460896    -3.816325 0.71098739 1.5040774 1.5040774 0.50377507 0.50377507
11 1.7620473  -1.1471478    -2.524341 0.63368031 1.5040774 1.5040774  0.5159398  0.5159398
 2 1.7559654 -0.89174535   -3.2617705 0.60760361 1.5040774 1.5040774 0.50377603 0.50377603
 1 3.5285666 -0.83848586   -2.6384641 0.53516376 1.5040774 1.5040774  4.0489785  4.0489785
11 1.7183224  -1.8469219 -0.63861271 0.51613038 1.5040774 1.5040774  0.42849004  0.42849004
 2 1.7559649  -1.5638369  -3.9722476 0.66794379 1.5040774 1.5040774  0.50377507  0.50377507
 2 1.7559649  -1.5478928  -3.9478744  0.6750876 1.5040774 1.5040774  0.50377507  0.50377507
 1 1.7359179  -1.7349347  0.22519504 0.58385486 1.5040774 1.5040774  0.46368099  0.46368099
 9 1.6295093  -1.3249014 -0.32736165 0.51500688 1.5040774 1.5040774  0.25086383  0.25086383
 5  1.798545  -1.6481967  -1.8873622 0.56790826 1.5040774 1.5040774  0.58893519  0.58893519
 5 1.7559649 -0.62696542  -3.9988563 0.65540151 1.5040774 1.5040774  0.50377507  0.50377507
 7 1.7559649 -0.66024599  -3.9478671 0.65539483 1.5040774 1.5040774  0.50377507  0.50377507
 1 1.7559653 -0.51325109  -3.5267309 0.65446038 1.5040774 1.5040774  0.50377573  0.50377573
 4 1.7475726   -1.529209 -0.32381342 0.42260784 1.5040774 1.5040774  0.48699035  0.48699035
 2 1.7657189  -1.0818345  -2.8069172 0.50752435 1.5040774 1.5040774    0.523283    0.523283
 2  1.755964  -1.3549416  -3.2594427 0.43863848 1.5040774 1.5040774  0.50377318  0.50377318
 4 1.6984302  -1.4180501  -1.8128729 0.83403801 1.5040774 1.5040774  0.38870563  0.38870563
 1 1.7457709  -1.6524483  -1.7911701 0.66770426 1.5040774 1.5040774  0.48338694  0.48338694
 1 1.7445794  -1.6536459  -1.8191265 0.67163423 1.5040774 1.5040774  0.48100407  0.48100407
 1 1.7591515  -1.3901444  -2.1199589 0.68960764 1.5040774 1.5040774  0.51014828  0.51014828
 2 1.5572119  -1.4342531  -1.0840818 0.77761666 1.5040774 1.5040774  0.10626893  0.10626893
 3 1.5436293  -1.6130567  -0.6051081 0.55801518 1.5040774 1.5040774 0.079103768 0.079103768
 2  1.896809 -0.44928347  -2.8739674 0.85378525 1.5040774 1.5040774  0.78546321  0.78546321
 1 1.7691869  -1.8694465  -1.4895724 0.56579169 1.5040774 1.5040774  0.53021899  0.53021899
 4 1.7724601 -1.8716774   -1.4645209 0.56688885 1.5040774 1.5040774 0.53676533 0.53676533
 1 1.7490311 -1.4388145   0.05889508 0.47760339 1.5040774 1.5040774  0.4899075  0.4899075
10 1.7555393 -1.7336172    -2.467471  0.7984046 1.5040774 1.5040774 0.50292383 0.50292383
 2  1.835704 -1.3000402   -1.9771268 0.80865038 1.5040774 1.5040774 0.66325315 0.66325315
 2 1.7590105 -1.2823008   -2.4095446 0.74744511 1.5040774 1.5040774 0.50986624 0.50986624
 1 1.7591626 -1.2798533   -2.4110066 0.74746622 1.5040774 1.5040774 0.51017039 0.51017039
 4 1.7559648 -1.3363219   -3.2297377 0.70675423 1.5040774 1.5040774  0.5037748  0.5037748
14 1.7559648  -1.428124   -3.2273147 0.71213929 1.5040774 1.5040774 0.50377483 0.50377483
 3 1.7559646  -1.717919   -3.0775605 0.73326432 1.5040774 1.5040774 0.50377433 0.50377433
 5 1.7484503 -1.7075872   -2.1979229 0.47521479 1.5040774 1.5040774 0.48874578 0.48874578
 2  1.579813 -1.7073828  -0.84190531 0.52105666 1.5040774 1.5040774 0.15147119 0.15147119
 1 1.7179464 -1.6725256 -0.058687791 0.55772614 1.5040774 1.5040774 0.42773799 0.42773799
 9 2.1472504  -1.164925   -1.8155144 0.88497818 1.5040774 1.5040774   1.286346   1.286346
 1 1.7544477  -1.653275   -2.4839493 0.48999565 1.5040774 1.5040774 0.50074064 0.50074064
 2 1.7556343 -1.7475432   -2.5848777 0.51261874 1.5040774 1.5040774  0.5031138  0.5031138
 3 1.7559649 -1.3707722   -3.4461859 0.62354874 1.5040774 1.5040774 0.50377506 0.50377506
 4 1.7559649 -0.9651456   -3.7116367 0.52183423 1.5040774 1.5040774 0.50377507 0.50377507
 8 1.7554442 -1.8431033    -2.386653 0.55422803 1.5040774 1.5040774 0.50273358 0.50273358
 2 1.7556323 -1.9253312   -2.3056184 0.58151713 1.5040774 1.5040774 0.50310989 0.50310989
 8  1.755963 -1.9513811    -2.926474 0.51152185 1.5040774 1.5040774 0.50377112 0.50377112
9 1.7559649   -1.884199   -3.5247748 0.40901066 1.5040774 1.5040774  0.50377507  0.50377507
5 1.7559517  -1.9677165   -2.7893464 0.48713213 1.5040774 1.5040774  0.50374856  0.50374856
1 1.7123069  -1.8655595  -0.63573007 0.66670884 1.5040774 1.5040774  0.41645905  0.41645905
1 1.7112327   -1.860056  -0.66041827 0.66841014 1.5040774 1.5040774  0.41431051  0.41431051
5 1.7520441  -1.7883712  -0.28603137 0.70633086 1.5040774 1.5040774  0.49593332  0.49593332
3 1.7479532  -1.2705558 -0.026088243 0.80892758 1.5040774 1.5040774  0.48775159  0.48775159
1 1.7497772  -1.4076958  -0.46619436  0.8856892 1.5040774 1.5040774  0.49139967  0.49139967
3 1.7512489  -1.4965845  -0.48230602 0.85579956 1.5040774 1.5040774  0.49434309  0.49434309
4 1.7482775  -1.3362883 -0.011041323  0.7512865 1.5040774 1.5040774   0.4884003   0.4884003
1 1.7548638  -1.6586626   -2.5944044 0.42238627 1.5040774 1.5040774  0.50157281  0.50157281
6 1.7452406  -1.8223656    -1.987314 0.49525082 1.5040774 1.5040774  0.48232644  0.48232644
1 1.7463407   -1.927142    -1.830634 0.52315292 1.5040774 1.5040774  0.48452651  0.48452651
1 2.2141908  -1.2860537   -1.7849788 0.78051407 1.5040774 1.5040774   1.4202268   1.4202268
5  1.818627  -1.4181424   0.99560465 0.72605549 1.5040774 1.5040774  0.62909922  0.62909922
2 1.7411742  -1.4056398  -0.09720398 0.46206035 1.5040774 1.5040774  0.47419363  0.47419363
1  1.768458  -1.2148653   0.97615931 0.87198442 1.5040774 1.5040774  0.52876129  0.52876129
4 1.6935404 -0.93141891  -0.13376445 0.88757537 1.5040774 1.5040774  0.37892609  0.37892609
9 1.5191111  -1.2031231   -1.0324559 0.88291582 1.5040774 1.5040774 0.030067427 0.030067427
1 1.7506077  -1.5968795    -2.089674 0.66908098 1.5040774 1.5040774   0.4930607   0.4930607
4 2.4644349  -1.0520988   -2.2511766  0.8069068 1.5040774 1.5040774    1.920715    1.920715
 4 1.7536904    -1.83835  -2.1231476 0.71702492 1.5040774 1.5040774  0.49922595  0.49922595
 3 1.7559649  -1.1097828  -3.9758391 0.72236805 1.5040774 1.5040774  0.50377507  0.50377507
 2 1.7559649  -1.1704509  -3.3496137 0.73632451 1.5040774 1.5040774    0.503775    0.503775
 8 1.7558551  -1.3360658  0.47707264 0.83158832 1.5040774 1.5040774  0.50355533  0.50355533
10 1.7559649  -1.9327287  -3.1993593 0.71403592 1.5040774 1.5040774  0.50377504  0.50377504
 4 1.7554266  -1.9482213  -2.2352192 0.75907837 1.5040774 1.5040774  0.50269838  0.50269838
 3  1.746405  -1.8655204  -1.3604982 0.78612297 1.5040774 1.5040774  0.48465518  0.48465518
 5 1.7525623  -1.8349659  -1.8907138 0.88460531 1.5040774 1.5040774  0.49696977  0.49696977
 2 1.7480924  -1.9277418  -1.6687897 0.71905855 1.5040774 1.5040774  0.48803003  0.48803003
 5 1.7529632  -1.5965127  -2.1765664 0.60279266 1.5040774 1.5040774  0.49777164  0.49777164
 4 1.7600801   -1.893622  -1.6078335 0.59316715 1.5040774 1.5040774  0.51200544  0.51200544
 4 1.7523137  -1.8069921 -0.78538619 0.79168824 1.5040774 1.5040774  0.49647265  0.49647265
10 1.9516411  -1.0961783  -2.2972365 0.86378157 1.5040774 1.5040774  0.89512749  0.89512749
 5  1.918437  -1.1272281  -2.2607828 0.86404158 1.5040774 1.5040774   0.8287192   0.8287192
 2  1.554634  -1.2530177 -0.64597305 0.78848839 1.5040774 1.5040774  0.10111319  0.10111319
 2 1.7761195  -1.6321163  0.45998766 0.62697866 1.5040774 1.5040774  0.54408417  0.54408417
12 1.5486243  -1.6450853   -0.397971   0.580927 1.5040774 1.5040774 0.089093806 0.089093806
11 1.7559649  -1.4146168  -3.3779984 0.71857077 1.5040774 1.5040774  0.50377505  0.50377505
 3 1.7559651  -0.6077829  -3.4409193 0.72591856 1.5040774 1.5040774  0.50377533  0.50377533
 1 1.7559649 -0.64545822  -3.5437735 0.71646772 1.5040774 1.5040774  0.50377508  0.50377508
 2 1.7559651 -0.82922969   -3.2704414  0.8080088 1.5040774 1.5040774 0.50377546 0.50377546
 3 1.7559649 -0.78403219   -3.6919422 0.52583821 1.5040774 1.5040774 0.50377507 0.50377507
11 1.7348438  -1.7363246   -1.0016704 0.40376419 1.5040774 1.5040774 0.46153271 0.46153271
 1 1.7480463  -1.7564283  -0.71746646 0.41995034 1.5040774 1.5040774 0.48793777 0.48793777
 9 1.7535994  -1.8132545   -0.6204553 0.40466019 1.5040774 1.5040774 0.49904405 0.49904405
 1 1.7544915  -1.7975357  -0.45954132 0.41232234 1.5040774 1.5040774 0.50082816 0.50082816
 5 1.7559649 -0.54739325   -3.8226795 0.72635989 1.5040774 1.5040774 0.50377507 0.50377507
 1 1.7559649  -1.3304326   -3.6809231  0.4307261 1.5040774 1.5040774 0.50377507 0.50377507
 3 1.7555075  -1.8181219   0.07317771  0.4837379 1.5040774 1.5040774 0.50286016 0.50286016
10 1.7560001   -1.795288   0.48522838  0.4260735 1.5040774 1.5040774 0.50384533 0.50384533
 3 1.6490751  -1.7394509 -0.056679244 0.58906102 1.5040774 1.5040774 0.28999532 0.28999532
 2 1.6604485  -1.8189609  -0.27031619 0.57075109 1.5040774 1.5040774 0.31274216 0.31274216
 1 1.7559649  -1.1169738   -3.3541446  0.7250464 1.5040774 1.5040774   0.503775   0.503775
 2 1.7487708  -1.4702745  -0.19347359 0.77021074 1.5040774 1.5040774 0.48938678 0.48938678
 2 1.7553094  -1.5941068  -0.26455943 0.84858623 1.5040774 1.5040774 0.50246395 0.50246395
 5 1.7553658  -1.5965149  -0.25380591 0.84937161 1.5040774 1.5040774 0.50257687 0.50257687
17 1.8102067  -1.9589436   0.72443791 0.71741892 1.5040774 1.5040774 0.61225868 0.61225868
14 1.7555373  -1.8140815  0.036896036 0.70967554 1.5040774 1.5040774 0.50291979 0.50291979
 4 1.7565723  -1.5798005   -2.0581263 0.60981463 1.5040774 1.5040774 0.50498978 0.50498978
 2 1.8802102  -1.4021011   -2.1141272 0.57880204 1.5040774 1.5040774 0.75226557 0.75226557
 5 1.5823675  -1.5166047  -1.2124447 0.73608477 1.5040774 1.5040774  0.1565802  0.1565802
 2 1.7450768  -1.8021148  -1.8141126 0.73753198 1.5040774 1.5040774 0.48199889 0.48199889
 1 1.7441385  -1.8284729  -1.7791505 0.69118341 1.5040774 1.5040774 0.48012229 0.48012229
 8 1.7550852   -1.839061 -0.38860956 0.75488674 1.5040774 1.5040774 0.50201569 0.50201569
 1 1.7022995  -1.6967726  -1.4437757 0.68642688 1.5040774 1.5040774 0.39644413 0.39644413
14 1.7559649 -0.95195076  -3.5489701 0.58689109 1.5040774 1.5040774 0.50377506 0.50377506
 3 1.7559649  -1.0815196  -3.6253902 0.63708394 1.5040774 1.5040774 0.50377507 0.50377507
 2 1.7559649  -1.1572841  -3.5966595 0.78198999 1.5040774 1.5040774 0.50377507 0.50377507
 6 1.7559649  -1.2390088   -3.697901 0.82115447 1.5040774 1.5040774 0.50377507 0.50377507
 3 1.7568458  -1.1217676  -2.7296678  0.5971373 1.5040774 1.5040774 0.50553683 0.50553683
 1 1.7820284  -1.2504452  -2.3751723 0.59735154 1.5040774 1.5040774  0.5559021  0.5559021
