#weight  minuslogpost  log10_alpha   log10_rs         vw  minuslogprior  minuslogprior__0      chi2  chi2__lisa_likelihood
      3     3.5346912   -1.3881729 -1.1538568 0.67819532      1.5040774         1.5040774 4.0612277              4.0612277
      3     3.0241859   -1.4045583 -1.1839083 0.66875639      1.5040774         1.5040774  3.040217               3.040217
      2     3.2231381   -1.4289272 -1.1894298 0.66096451      1.5040774         1.5040774 3.4381214              3.4381214
      2     5.3393515    -1.412686 -1.1884395 0.67358944      1.5040774         1.5040774 7.6705481              7.6705481
      6      2.746916   -1.3961115  -1.207946 0.66605364      1.5040774         1.5040774 2.4856771              2.4856771
      5      2.902085   -1.4180017 -1.1991559 0.66000064      1.5040774         1.5040774 2.7960151              2.7960151
      4     2.8522844   -1.4088023 -1.1851201 0.66191474      1.5040774         1.5040774  2.696414               2.696414
      5      3.068807   -1.3806221  -1.180698 0.66802673      1.5040774         1.5040774 3.1294592              3.1294592
      9     2.6149151   -1.3878934 -1.1963394 0.66788454      1.5040774         1.5040774 2.2216754              2.2216754
      1     3.4438922   -1.3956049 -1.1931286 0.67322777      1.5040774         1.5040774 3.8796295              3.8796295
      2     2.8984473   -1.3892835 -1.1971637 0.67203943      1.5040774         1.5040774 2.7887399              2.7887399
      1     4.1454842   -1.3856983 -1.1890076 0.66341702      1.5040774         1.5040774 5.2828137              5.2828137
      4     3.5003858   -1.3838891 -1.1966889 0.66452326      1.5040774         1.5040774 3.9926168              3.9926168
      3     3.5769149   -1.4105245 -1.1561719 0.65941818      1.5040774         1.5040774 4.1456751              4.1456751
      6     3.5397076   -1.4165966 -1.1613079 0.65728051      1.5040774         1.5040774 4.0712604              4.0712604
      2     2.9634477   -1.4097328 -1.1575962 0.66222154      1.5040774         1.5040774 2.9187406              2.9187406
      3     3.5055507   -1.4532136  -1.142212 0.64812793      1.5040774         1.5040774 4.0029465              4.0029465
      5     3.3015704   -1.4202285 -1.1476401 0.66804216      1.5040774         1.5040774  3.594986               3.594986
      3     4.0548467   -1.4240086 -1.1340966 0.67139926      1.5040774         1.5040774 5.1015386              5.1015386
      1     2.3932487   -1.4127131 -1.1125428 0.66673789      1.5040774         1.5040774 1.7783427              1.7783427
1 3.6214507 -1.4081929 -1.1401653  0.6613782 1.5040774 1.5040774 4.2347467 4.2347467
4  2.495559  -1.399828 -1.1399514 0.66733039 1.5040774 1.5040774 1.9829633 1.9829633
2 2.9183889 -1.3904313 -1.1336339 0.66863922 1.5040774 1.5040774  2.828623  2.828623
2 2.3317695 -1.3859355 -1.1238357 0.67705334 1.5040774 1.5040774 1.6553842 1.6553842
2 2.2279449 -1.3844685  -1.124176 0.67651243 1.5040774 1.5040774 1.4477351 1.4477351
8 2.6477213 -1.3941985 -1.1604274 0.67293079 1.5040774 1.5040774 2.2872878 2.2872878
1 2.4311256 -1.3813326 -1.1545251 0.67197008 1.5040774 1.5040774 1.8540964 1.8540964
1 2.6519032 -1.3811178 -1.1552017 0.67069018 1.5040774 1.5040774 2.2956515 2.2956515
6 2.4828423 -1.3995519 -1.1353213  0.6714866 1.5040774 1.5040774 1.9575299 1.9575299
1 2.3507815 -1.3994535 -1.1350666 0.67154922 1.5040774 1.5040774 1.6934082 1.6934082
4 2.7461546 -1.3985547 -1.1359496 0.67372838 1.5040774 1.5040774 2.4841544 2.4841544
9 2.8057847 -1.4098861 -1.1670486 0.66803317 1.5040774 1.5040774 2.6034147 2.6034147
1 2.6550078 -1.4111961 -1.1664421 0.66601746 1.5040774 1.5040774 2.3018609 2.3018609
8 3.0059563 -1.4288521 -1.1828436 0.66131468 1.5040774 1.5040774 3.0037578 3.0037578
1 4.3987758 -1.4644272   -1.24197 0.62954655 1.5040774 1.5040774 5.7893967 5.7893967
1 3.9069036 -1.4572547 -1.2677663  0.6413051 1.5040774 1.5040774 4.8056523 4.8056523
3 3.9343577 -1.4607368 -1.2719919  0.6341586 1.5040774 1.5040774 4.8605605 4.8605605
1 3.7918482 -1.4633423 -1.2452968 0.63599797 1.5040774 1.5040774 4.5755417 4.5755417
4 4.6681533 -1.4619507 -1.2461484 0.65032932 1.5040774 1.5040774 6.3281517 6.3281517
1 4.3497067 -1.4612543 -1.2593405 0.64654674 1.5040774 1.5040774 5.6912586 5.6912586
2 4.2459366 -1.4602633 -1.2591337  0.6460078 1.5040774 1.5040774 5.4837185 5.4837185
1 4.4156041 -1.3883529 -1.2696976 0.65461303 1.5040774 1.5040774 5.8230534 5.8230534
1 4.8117719 -1.3908645 -1.2737705 0.67060206 1.5040774 1.5040774 6.6153891 6.6153891
6 3.9121656 -1.3940545 -1.3016856 0.66299013 1.5040774 1.5040774 4.8161764 4.8161764
7 3.7775216 -1.4017184 -1.2798645 0.65266321 1.5040774 1.5040774 4.5468884 4.5468884
2 4.3799495 -1.3946128  -1.281432 0.65184465 1.5040774 1.5040774 5.7517441 5.7517441
2 3.8403299 -1.3963503 -1.2903826 0.65390115 1.5040774 1.5040774  4.672505  4.672505
6 3.6377114 -1.3959163 -1.2872362 0.65488004 1.5040774 1.5040774  4.267268  4.267268
3 3.4398018 -1.3750353 -1.2636261 0.67206109 1.5040774 1.5040774 3.8714488 3.8714488
1 5.3631768 -1.3849042 -1.2644759  0.6545477 1.5040774 1.5040774 7.7181988 7.7181988
2  4.905608 -1.3878297 -1.2546591 0.65571986 1.5040774 1.5040774 6.8030611 6.8030611
5 3.9428156 -1.3961975 -1.2406492 0.65689576 1.5040774 1.5040774 4.8774765 4.8774765
2 3.3276688 -1.3954923 -1.2390067  0.6596083 1.5040774 1.5040774 3.6471827 3.6471827
2 3.2732127  -1.455357 -1.1927181 0.64714251 1.5040774 1.5040774 3.5382705 3.5382705
3 3.2821677 -1.4575844 -1.1949744  0.6488018 1.5040774 1.5040774 3.5561806 3.5561806
3 3.5320162 -1.4352996 -1.1804059 0.65090037 1.5040774 1.5040774 4.0558777 4.0558777
3 3.4366322 -1.4332318 -1.1740852 0.65178874 1.5040774 1.5040774 3.8651095 3.8651095
1 3.6929187 -1.4261234 -1.1982406 0.66372303 1.5040774 1.5040774 4.3776826 4.3776826
5 2.6971911 -1.3859958 -1.1842155  0.6682093 1.5040774 1.5040774 2.3862274 2.3862274
3 2.4660985 -1.3876262 -1.1761195 0.67050574 1.5040774 1.5040774 1.9240422 1.9240422
9 2.4095929 -1.3708327 -1.1877856 0.67580439 1.5040774 1.5040774  1.811031  1.811031
4 2.2734122 -1.3654397 -1.1825807 0.67627999 1.5040774 1.5040774 1.5386697 1.5386697
6 4.3182904 -1.3609392 -1.2005424 0.66826647 1.5040774 1.5040774  5.628426  5.628426
2 4.2182017 -1.3708354 -1.2353363 0.67823014 1.5040774 1.5040774 5.4282487 5.4282487
6 2.8786203 -1.3536498 -1.2604915 0.67111194 1.5040774 1.5040774 2.7490857 2.7490857
2 3.2470585 -1.3440441 -1.2669242 0.67170611 1.5040774 1.5040774 3.4859623 3.4859623
2 2.4057677 -1.3285896 -1.2563394 0.68155341 1.5040774 1.5040774 1.8033807 1.8033807
5 2.4761153 -1.3297619 -1.2529116  0.6797086 1.5040774 1.5040774 1.9440758 1.9440758
7 3.3363866 -1.3332243 -1.2785753 0.68303852 1.5040774 1.5040774 3.6646184 3.6646184
3 3.1454223  -1.333435 -1.2782348 0.68338675 1.5040774 1.5040774 3.2826898 3.2826898
2 4.3033303 -1.3735023 -1.2535643 0.67689344 1.5040774 1.5040774 5.5985058 5.5985058
1 4.7508316 -1.3757769 -1.2519754 0.67750971 1.5040774 1.5040774 6.4935085 6.4935085
2 5.6438984 -1.3730344 -1.2493001 0.68073396 1.5040774 1.5040774  8.279642  8.279642
1 3.7228869 -1.3546993 -1.2766948 0.66701791 1.5040774 1.5040774  4.437619  4.437619
1 2.8365702 -1.3478135 -1.2763495 0.67553304 1.5040774 1.5040774 2.6649857 2.6649857
7 2.7097791 -1.3437253 -1.2714873 0.67545206 1.5040774 1.5040774 2.4114034 2.4114034
7 2.8202292 -1.3553338 -1.2540685 0.67651275 1.5040774 1.5040774 2.6323037 2.6323037
4 3.8235645 -1.3634914 -1.2483947 0.67821635 1.5040774 1.5040774 4.6389742 4.6389742
7 5.0970919 -1.4026784 -1.2360536 0.67175782 1.5040774 1.5040774  7.186029  7.186029
3  6.284679 -1.4149188 -1.2314281 0.64483716 1.5040774 1.5040774 9.5612032 9.5612032
 3 4.3891312 -1.3988912 -1.2384084 0.65439913 1.5040774 1.5040774 5.7701077 5.7701077
 1 3.9849573 -1.4605802 -1.1942011 0.65427515 1.5040774 1.5040774 4.9617598 4.9617598
 1 4.1364884 -1.4598791 -1.1932203 0.65510721 1.5040774 1.5040774  5.264822  5.264822
 5 3.7173512 -1.4501685 -1.1515794  0.6467756 1.5040774 1.5040774 4.4265476 4.4265476
11 3.1581505 -1.4386854 -1.1846933 0.65151328 1.5040774 1.5040774 3.3081461 3.3081461
 3 3.0519722 -1.4412243 -1.1824655 0.65302882 1.5040774 1.5040774 3.0957897 3.0957897
 5 3.8358848 -1.4169851 -1.1861986  0.6687844 1.5040774 1.5040774 4.6636149 4.6636149
 3 2.9067597 -1.4324149 -1.1512587 0.65660774 1.5040774 1.5040774 2.8053645 2.8053645
 9  2.488085  -1.414323 -1.1266561 0.66497828 1.5040774 1.5040774 1.9680152 1.9680152
11 2.3521468 -1.4047765 -1.1160781  0.6689407 1.5040774 1.5040774 1.6961388 1.6961388
 6 2.2359589 -1.4074135 -1.0938911 0.67131737 1.5040774 1.5040774  1.463763  1.463763
10 2.3155537 -1.4090087 -1.0979329 0.66999669 1.5040774 1.5040774 1.6229526 1.6229526
 2 2.4161362 -1.4234002 -1.0915276 0.66798379 1.5040774 1.5040774 1.8241177 1.8241177
 2 3.2438631 -1.4236818 -1.0911489 0.67120221 1.5040774 1.5040774 3.4795715 3.4795715
 4 3.4836931 -1.4294926 -1.1293047 0.66776581 1.5040774 1.5040774 3.9592315 3.9592315
 4 3.6511792 -1.4678003 -1.1235255 0.65720297 1.5040774 1.5040774 4.2942035 4.2942035
 2 3.5853013 -1.4895579 -1.1454234 0.63842821 1.5040774 1.5040774 4.1624477 4.1624477
 1 3.5822767 -1.4882526 -1.1469712 0.63872083 1.5040774 1.5040774 4.1563987 4.1563987
 3 3.7385667 -1.4994646 -1.1498674 0.64003646 1.5040774 1.5040774 4.4689787 4.4689787
 5 4.0670799 -1.4916114 -1.1093781  0.6517188 1.5040774 1.5040774 5.1260049 5.1260049
 1 4.6216184 -1.4991792 -1.1205725 0.64972191 1.5040774 1.5040774  6.235082  6.235082
 2 3.3346658 -1.4837315 -1.1193287 0.64820272 1.5040774 1.5040774 3.6611767 3.6611767
 7 3.5378129  -1.487481 -1.0660751  0.6536756 1.5040774 1.5040774  4.067471  4.067471
 2 3.3747228 -1.4870806 -1.0659418 0.65234794 1.5040774 1.5040774 3.7412908 3.7412908
 1  3.275561  -1.484152 -1.0628804 0.65353859 1.5040774 1.5040774 3.5429671 3.5429671
14 2.7817685   -1.46404  -1.039455 0.65805506 1.5040774 1.5040774 2.5553821 2.5553821
 3 2.7111768 -1.4443325  -1.063481  0.6642951 1.5040774 1.5040774 2.4141987 2.4141987
 4 2.6514435  -1.448983 -1.0599498 0.66225162 1.5040774 1.5040774 2.2947321 2.2947321
 2 2.9148963 -1.4704823 -1.0252026 0.65584789 1.5040774 1.5040774 2.8216378 2.8216378
 3 2.9078837 -1.4702769 -1.0250755 0.65584823 1.5040774 1.5040774 2.8076126 2.8076126
 2 3.1176001 -1.4754518  -1.024725 0.65834099 1.5040774 1.5040774 3.2270454 3.2270454
 1 3.5952783 -1.4751031 -1.0210619 0.64987969 1.5040774 1.5040774 4.1824018 4.1824018
 3 3.8036923 -1.4883858 -1.0305728 0.64521461 1.5040774 1.5040774 4.5992299 4.5992299
 2 2.7244182 -1.4533131 -1.0254041 0.66162264 1.5040774 1.5040774 2.4406815 2.4406815
 1 2.7593281 -1.4522554 -1.0264049 0.65957141 1.5040774 1.5040774 2.5105014 2.5105014
 1 2.7293631 -1.4501814 -1.0258102 0.66035076 1.5040774 1.5040774 2.4505714 2.4505714
12 2.6956766 -1.4500366 -1.0258321 0.66020107 1.5040774 1.5040774 2.3831985 2.3831985
26 3.3401365  -1.452205 -1.0008235  0.6583226 1.5040774 1.5040774 3.6721183 3.6721183
 1 4.4468108 -1.1301063 -1.4495912 0.73975367 1.5040774 1.5040774 5.8854668 5.8854668
 3 5.1307384 -1.1290141 -1.4493257 0.74268805 1.5040774 1.5040774 7.2533221 7.2533221
  8 3.0702118 -1.1351372  -1.3212976 0.73200832 1.5040774 1.5040774  3.1322688  3.1322688
  5 3.3613458 -1.1527253   -1.298193 0.73146083 1.5040774 1.5040774  3.7145368  3.7145368
 25 2.7574849 -1.2146173  -1.1875557 0.71816339 1.5040774 1.5040774  2.5068151  2.5068151
 47  2.882311 -1.3638835 -0.90571125 0.69146412 1.5040774 1.5040774  2.7564673  2.7564673
  5 1.7784683 -1.3575167 -0.93472922 0.68840463 1.5040774 1.5040774 0.54878182 0.54878182
 12  2.349263  -1.406768  -0.7652415 0.68237551 1.5040774 1.5040774  1.6903712  1.6903712
  5 3.1874926 -1.4188175 -0.76224213 0.67742465 1.5040774 1.5040774  3.3668303  3.3668303
  2 3.8322795 -1.3308485 -0.69354506 0.69616166 1.5040774 1.5040774  4.6564041  4.6564041
118 2.6877841 -1.3229828 -0.69678231 0.69985527 1.5040774 1.5040774  2.3674135  2.3674135
 27 2.2448591 -1.3489125 -0.68129339 0.69620688 1.5040774 1.5040774  1.4815635  1.4815635
 10 2.0448158 -1.3451209 -0.67802162 0.69834469 1.5040774 1.5040774  1.0814768  1.0814768
 18 2.2836304 -1.3221198 -0.76044486 0.70334339 1.5040774 1.5040774   1.559106   1.559106
 25 2.0501875 -1.3217899  -0.7607263 0.70343857 1.5040774 1.5040774  1.0922202  1.0922202
 32 2.4486837 -1.3289716 -0.70056273 0.69950156 1.5040774 1.5040774  1.8892126  1.8892126
  1 3.8438567 -1.3069345 -0.75518749 0.69993067 1.5040774 1.5040774  4.6795587  4.6795587
 71 3.1988798 -1.3052037 -0.75548821 0.70135741 1.5040774 1.5040774  3.3896049  3.3896049
  8 3.4585281 -1.3392694 -0.74849106 0.70167187 1.5040774 1.5040774  3.9089014  3.9089014
 11 3.2033429 -1.2109703  -1.1732139 0.72091444 1.5040774 1.5040774   3.398531   3.398531
  1 3.5316765 -1.0903583  -1.6322041  0.7309117 1.5040774 1.5040774  4.0551982  4.0551982
 17  3.901138 -1.0999448  -1.6269299  0.7309289 1.5040774 1.5040774  4.7941211  4.7941211
12 2.7324927   -1.218951 -1.4360285 0.70170246 1.5040774 1.5040774 2.4568306 2.4568306
 4  2.902411  -1.4307079 -1.1794774 0.65725936 1.5040774 1.5040774 2.7966673 2.7966673
13 4.0014653  -1.4401421 -1.1320305 0.66630139 1.5040774 1.5040774 4.9947757 4.9947757
 7  3.952695  -1.4495948 -1.1121535 0.66459838 1.5040774 1.5040774 4.8972353 4.8972353
12 4.7491102  -1.2141159 -1.1980568 0.72270295 1.5040774 1.5040774 6.4900655 6.4900655
 2 2.7060864  -1.1177351 -1.3891317 0.72999848 1.5040774 1.5040774 2.4040181 2.4040181
 8 3.2335656  -1.1111129 -1.3924079 0.73616984 1.5040774 1.5040774 3.4589764 3.4589764
14 2.8183471  -1.1258412 -1.3616994 0.73090789 1.5040774 1.5040774 2.6285395 2.6285395
 7 3.0112744  -1.0709197 -1.4921196  0.7385029 1.5040774 1.5040774 3.0143939 3.0143939
20 4.3869752  -1.2803859 -1.4747775 0.67760511 1.5040774 1.5040774 5.7657956 5.7657956
16 4.2157525  -1.2829673 -1.4603648 0.67780191 1.5040774 1.5040774 5.4233503 5.4233503
17 3.7854645  -1.3075583  -1.370869 0.67269016 1.5040774 1.5040774 4.5627743 4.5627743
14 2.6415966  -1.2979499  -1.332386  0.6846871 1.5040774 1.5040774 2.2750383 2.2750383
18 2.9729029  -1.4140547 -1.0629442 0.66630308 1.5040774 1.5040774  2.937651  2.937651
10 3.2046751  -1.4235442 -1.0568521  0.6730891 1.5040774 1.5040774 3.4011953 3.4011953
 4 7.4265049  -1.4279615 -1.3842359 0.65208912 1.5040774 1.5040774 11.844855 11.844855
11 5.9274559 -0.84987429 -1.9258014 0.85195792 1.5040774 1.5040774  8.846757  8.846757
 4  6.036743  -1.4219608 -1.4388045 0.56665241 1.5040774 1.5040774 9.0653313 9.0653313
 8 5.7068704  -1.4197793  -1.431669 0.56858563 1.5040774 1.5040774 8.4055859 8.4055859
 4  6.176332   -1.457978 -1.3505804 0.57688293 1.5040774 1.5040774 9.3445092 9.3445092
 2 6.9298276 -1.4594129  -1.3154949 0.57400667 1.5040774 1.5040774   10.8515   10.8515
 3 8.5084682 -1.4352528  -1.4749652 0.55723631 1.5040774 1.5040774 14.008782 14.008782
 1 7.9306944 -1.4346965  -1.3856507 0.55960617 1.5040774 1.5040774 12.853234 12.853234
50  2.976857 -1.4408944  -1.1750632 0.65442743 1.5040774 1.5040774 2.9455593 2.9455593
23 4.7374319 -1.4812887   -1.069981 0.63943961 1.5040774 1.5040774 6.4667091 6.4667091
 2 6.5324617 -1.4948883 -0.89228937  0.6446855 1.5040774 1.5040774 10.056769 10.056769
11  5.827555 -1.5086296 -0.86449438 0.64674861 1.5040774 1.5040774 8.6469552 8.6469552
 1 5.6739852 -1.5332927  -0.9683454  0.6341021 1.5040774 1.5040774 8.3398156 8.3398156
24 5.3147854 -1.5162686  -1.0126292 0.63280038 1.5040774 1.5040774 7.6214161 7.6214161
 6 6.0726868 -1.5255193 -0.96407466 0.63299254 1.5040774 1.5040774 9.1372188 9.1372188
 3 5.4261901 -1.4878906  -1.0720249 0.63390598 1.5040774 1.5040774 7.8442253 7.8442253
 2 4.9175428 -1.4886124  -1.2159144 0.61560187 1.5040774 1.5040774 6.8269309 6.8269309
 5 5.8069248 -1.5460299  -1.0829051 0.63892505 1.5040774 1.5040774 8.6056947 8.6056947
 3 5.3551108 -1.5153106  -1.2867798 0.61450842 1.5040774 1.5040774 7.7020668 7.7020668
33 3.3092135 -1.4035376  -1.2611815 0.65681114 1.5040774 1.5040774 3.6102721 3.6102721
13 3.3622453 -1.3753389  -1.2952122  0.6623207 1.5040774 1.5040774 3.7163359 3.7163359
 1 3.3724281 -1.3754122  -1.2951467 0.66229105 1.5040774 1.5040774 3.7367015 3.7367015
 3 5.1168225 -1.3368924  -1.4702188 0.65576209 1.5040774 1.5040774 7.2254902 7.2254902
11 6.8028844 -1.4257737  -1.3383318 0.60134147 1.5040774 1.5040774 10.597614 10.597614
13 7.2380194    -1.3622   -1.647804   0.588916 1.5040774 1.5040774 11.467884 11.467884
14 6.0714277    -1.40771  -1.5480858 0.58632563 1.5040774 1.5040774  9.1347006  9.1347006
 6 6.0745374  -1.4077333  -1.5492215 0.58582301 1.5040774 1.5040774    9.14092    9.14092
 9 6.0259976  -1.3440189  -1.6199338 0.59565496 1.5040774 1.5040774  9.0438405  9.0438405
 4 5.0874557  -1.3227386  -1.6314903  0.5789098 1.5040774 1.5040774  7.1667566  7.1667566
 3 5.6998365  -1.1083121  -1.6302154 0.74644804 1.5040774 1.5040774  8.3915181  8.3915181
 5 5.8453298  -1.0979319  -1.6404351 0.74612115 1.5040774 1.5040774  8.6825048  8.6825048
 6 1.7966036  -1.2140669  -1.3324183 0.70721673 1.5040774 1.5040774 0.58505233 0.58505233
22 1.7972195  -1.2083459  -1.3387326 0.70845907 1.5040774 1.5040774 0.58628414 0.58628414
 8 1.9491026  -1.2008278  -1.3507523   0.712857 1.5040774 1.5040774 0.89005034 0.89005034
19  1.980533  -1.2462939  -1.3210516 0.70068929 1.5040774 1.5040774 0.95291118 0.95291118
26 2.7122258  -1.2941417    -1.29833 0.68481357 1.5040774 1.5040774  2.4162968  2.4162968
 8 2.5347302  -1.3506455   -1.109352 0.68031216 1.5040774 1.5040774  2.0613057  2.0613057
 9 2.1276996  -1.3398419  -1.1244482 0.68374163 1.5040774 1.5040774  1.2472443  1.2472443
27  2.831881  -1.2019166 -0.93525288 0.72344243 1.5040774 1.5040774  2.6556072  2.6556072
29 2.6500222  -1.2131178 -0.92590869 0.72125873 1.5040774 1.5040774  2.2918897  2.2918897
16 3.6559503 -0.93761298  -1.9054418 0.80235482 1.5040774 1.5040774  4.3037458  4.3037458
 2 4.0215206 -0.90341173  -1.9606828 0.78853268 1.5040774 1.5040774  5.0348864  5.0348864
 8  3.335088 -0.94895961  -1.8498995  0.7752525 1.5040774 1.5040774  3.6620213  3.6620213
 6 4.2236028 -0.92660118   -1.881415 0.74472171 1.5040774 1.5040774  5.4390509  5.4390509
14 2.1590366  -1.1063185  -1.5030998 0.72595034 1.5040774 1.5040774  1.3099185  1.3099185
 8 2.2510801  -1.1022912  -1.5452647 0.72492786 1.5040774 1.5040774 1.4940054 1.4940054
 5 2.5996785  -1.0993936  -1.5954097 0.72102431 1.5040774 1.5040774 2.1912022 2.1912022
26 2.3290579  -1.0971701  -1.4928693 0.72907405 1.5040774 1.5040774 1.6499611 1.6499611
 8  3.342859  -1.3793908  -1.0517808 0.67411105 1.5040774 1.5040774 3.6775633 3.6775633
12 3.6198828  -1.3722562  -1.0100365   0.677733 1.5040774 1.5040774 4.2316108 4.2316108
 6 3.7627952  -1.4186944  -1.0294917 0.66425008 1.5040774 1.5040774 4.5174356 4.5174356
19 3.4196191  -1.4323083  -1.0301643 0.66112018 1.5040774 1.5040774 3.8310834 3.8310834
39 2.9888068  -1.4470748  -0.9964926 0.66982201 1.5040774 1.5040774 2.9694589 2.9694589
 7 3.0876299  -1.4634957 -0.96464505 0.66548073 1.5040774 1.5040774 3.1671051 3.1671051
11 2.8766092  -1.4696381 -0.91910429 0.66385998 1.5040774 1.5040774 2.7450635 2.7450635
 4  4.051136  -1.1686664  -1.5921441 0.69533901 1.5040774 1.5040774 5.0941172 5.0941172
 6 3.6054519  -1.2252364  -1.3648428 0.71051692 1.5040774 1.5040774 4.2027491 4.2027491
 5 3.5115039  -1.1092752  -1.3841081 0.73811005 1.5040774 1.5040774  4.014853  4.014853
35 2.9499144  -1.1273584  -1.3776638 0.72560005 1.5040774 1.5040774  2.891674  2.891674
52 2.8843034  -1.2867144  -1.0749074 0.70580536 1.5040774 1.5040774  2.760452  2.760452
 4 5.5362761 -0.96000137   -1.886043  0.7557043 1.5040774 1.5040774 8.0643974 8.0643974
10 6.1153437 -0.82292623  -1.9811708 0.85687273 1.5040774 1.5040774 9.2225326 9.2225326
14 6.0651365 -0.81754995  -1.9608591 0.88095327 1.5040774 1.5040774 9.1221182 9.1221182
58 6.0362146 -0.89857765  -1.8122143 0.85592094 1.5040774 1.5040774 9.0642745 9.0642745
42 4.3329149 -0.90127153  -1.8824456 0.83137086 1.5040774 1.5040774 5.6576751 5.6576751
 1 5.3091081 -0.86202447  -1.9187573 0.84702951 1.5040774 1.5040774  7.6100613  7.6100613
16 5.5156322 -0.86787581  -1.9008105 0.84582957 1.5040774 1.5040774  8.0231096  8.0231096
 6 7.1380923 -0.75791896  -2.2234523  0.8878573 1.5040774 1.5040774   11.26803   11.26803
63  6.257369 -0.75177591  -2.2037159 0.89368533 1.5040774 1.5040774  9.5065832  9.5065832
 1 5.9367925  -0.7686345  -2.1803699 0.87044106 1.5040774 1.5040774  8.8654302  8.8654302
19 4.7832071 -0.81896178  -2.0916048 0.86211187 1.5040774 1.5040774  6.5582594  6.5582594
 2 4.2065396 -0.85065943  -2.0238092 0.85087483 1.5040774 1.5040774  5.4049244  5.4049244
19 4.2326949 -0.84316071  -2.0283511 0.84984163 1.5040774 1.5040774   5.457235   5.457235
 1 4.4330361 -0.83458892  -2.0491812 0.86678433 1.5040774 1.5040774  5.8579175  5.8579175
 3  4.246613 -0.85008076  -1.9849111 0.86813144 1.5040774 1.5040774  5.4850711  5.4850711
32 4.4506842 -0.81907526  -2.0267632 0.87882623 1.5040774 1.5040774  5.8932135  5.8932135
 9  4.344228 -0.82858108  -2.0430807  0.8679607 1.5040774 1.5040774  5.6803012  5.6803012
11 4.4378002 -0.87298864  -2.0185727  0.8419202 1.5040774 1.5040774  5.8674456  5.8674456
27 4.2084208  -1.0547586  -1.5439091 0.75660126 1.5040774 1.5040774  5.4086868  5.4086868
23 3.8770136  -1.1537337  -1.1780575  0.7303008 1.5040774 1.5040774  4.7458725  4.7458725
26 2.3103604  -1.3074554 -0.82868578 0.70018718 1.5040774 1.5040774  1.6125661  1.6125661
12 1.9762812  -1.3002282 -0.87760689 0.70196669 1.5040774 1.5040774 0.94440758 0.94440758
30 2.8255185  -1.2580793  -0.9911162 0.71336204 1.5040774 1.5040774  2.6428821  2.6428821
29 2.3986404  -1.2291587 -0.82778284 0.71932635 1.5040774 1.5040774  1.7891259  1.7891259
70 3.0288978  -1.2254136 -0.80368922 0.72291333 1.5040774 1.5040774  3.0496407  3.0496407
59 2.7680138  -1.2662661  -0.6787056  0.7136146 1.5040774 1.5040774  2.5278727  2.5278727
44 3.6481422  -1.3044218 -0.49324743 0.70682618 1.5040774 1.5040774  4.2881297  4.2881297
99 2.3490926  -1.2712312 -0.55355308 0.71471753 1.5040774 1.5040774  1.6900305  1.6900305
66 2.2274279  -1.2690705 -0.55789061 0.71449823 1.5040774 1.5040774  1.4467011  1.4467011
31 2.4338812  -1.2750438  -0.5432948 0.71245033 1.5040774 1.5040774  1.8596077  1.8596077
 3 2.1091131  -1.2641704 -0.56138101  0.7177016 1.5040774 1.5040774  1.2100715  1.2100715
46  2.252269  -1.2816084 -0.56897715 0.71284253 1.5040774 1.5040774  1.4963833  1.4963833
 4 2.2088408  -1.2505448 -0.78292338 0.71719257 1.5040774 1.5040774  1.4095268  1.4095268
 4 3.1684219  -1.0330334  -1.6544344 0.75805384 1.5040774 1.5040774  3.3286891  3.3286891
 3 4.5590385  -1.0425112  -1.7500029 0.73108413 1.5040774 1.5040774  6.1099222  6.1099222
 6 6.4418262  -1.0092307  -1.8954573 0.78520935 1.5040774 1.5040774  9.8754977  9.8754977
 4 4.5248676 -0.94810326  -1.8633246 0.82688336 1.5040774 1.5040774  6.0415804  6.0415804
 1 4.2903128  -1.2426361  -1.3422657 0.70795592 1.5040774 1.5040774  5.5724708  5.5724708
82 2.6483044  -1.2053867   -1.306122 0.70751784 1.5040774 1.5040774  2.2884539  2.2884539
 3 2.6628047  -1.1019181  -1.5756097 0.72927163 1.5040774 1.5040774  2.3174546  2.3174546
12 2.1605813  -1.2582753  -1.2641086 0.70269015 1.5040774 1.5040774  1.3130079  1.3130079
41 1.7206487  -1.2145148  -1.2662259 0.71186557 1.5040774 1.5040774 0.43314267 0.43314267
25 1.7261143  -1.2279476  -1.2541411 0.70732786 1.5040774 1.5040774 0.44407376 0.44407376
32 1.8010221   -1.278483  -1.0200425 0.70297766 1.5040774 1.5040774 0.59388946 0.59388946
11 1.6933573  -1.2703875  -1.0275861   0.705806 1.5040774 1.5040774 0.37855977 0.37855977
 9 1.8190518  -1.271531 -0.97160373 0.70857871 1.5040774 1.5040774 0.62994877 0.62994877
34 1.5801347 -1.2767215  -1.0445193 0.70555105 1.5040774 1.5040774 0.15211462 0.15211462
 6 1.7318808 -1.2190637  -1.3052321 0.70739013 1.5040774 1.5040774  0.4556068  0.4556068
19 1.6451728 -1.2385155  -1.1925518  0.7079769 1.5040774 1.5040774 0.28219078 0.28219078
 7 2.5101207 -1.2475205  -1.1885069 0.70233151 1.5040774 1.5040774  2.0120865  2.0120865
 8 4.3045883 -1.2266879  -1.1860246  0.7053936 1.5040774 1.5040774  5.6010217  5.6010217
14  1.703983 -1.2159201  -1.2373818 0.71129424 1.5040774 1.5040774 0.39981117 0.39981117
 1 2.0507533 -1.2183789  -1.2504015 0.71378312 1.5040774 1.5040774  1.0933518  1.0933518
 9 2.9145641 -1.1207823  -1.4587041 0.73416588 1.5040774 1.5040774  2.8209734  2.8209734
11  2.768108 -1.1209809  -1.4581669 0.73363392 1.5040774 1.5040774  2.5280611  2.5280611
66 3.4532437 -1.1159011  -1.4207196 0.73881905 1.5040774 1.5040774  3.8983325  3.8983325
33 3.1502864 -1.1519926  -1.3562844 0.71823812 1.5040774 1.5040774   3.292418   3.292418
 4 2.5705614 -1.1567322  -1.3516484 0.71798062 1.5040774 1.5040774   2.132968   2.132968
 8 5.9929603 -1.0634015  -1.7685606 0.76062824 1.5040774 1.5040774  8.9777657  8.9777657
27 4.1613666 -1.0747389  -1.4621166 0.74765476 1.5040774 1.5040774  5.3145784  5.3145784
35 3.2954401  -1.156685  -1.2297735 0.72929763 1.5040774 1.5040774  3.5827254  3.5827254
 6 4.1184412 -1.2374374   -1.089118 0.71791195 1.5040774 1.5040774  5.2287277  5.2287277
 6 6.8592485 -1.2411938  -1.1248241 0.72021929 1.5040774 1.5040774  10.710342  10.710342
13 2.3966705 -1.1659672  -1.4094848 0.71112286 1.5040774 1.5040774  1.7851861  1.7851861
11 2.1007738 -1.1538085  -1.4638436 0.71456195 1.5040774 1.5040774  1.1933927  1.1933927
 3 2.1966212  -1.1425725 -1.4781105 0.71952821 1.5040774 1.5040774  1.3850876  1.3850876
70 2.1206007  -1.1346547 -1.4937022 0.71957144 1.5040774 1.5040774  1.2330466  1.2330466
39 2.1524691  -1.1630654 -1.4362275 0.71196384 1.5040774 1.5040774  1.2967833  1.2967833
59 1.9233213  -1.1551549 -1.4008709 0.71944241 1.5040774 1.5040774 0.83848788 0.83848788
23 1.9440421   -1.158232 -1.3941373 0.71869548 1.5040774 1.5040774 0.87992942 0.87992942
 2  1.921693  -1.1556988 -1.3987086 0.71947472 1.5040774 1.5040774 0.83523116 0.83523116
11 2.0595241  -1.1543716 -1.4002163 0.71921336 1.5040774 1.5040774  1.1108935  1.1108935
31 1.9747449  -1.1639506 -1.3891637 0.71530656 1.5040774 1.5040774 0.94133497 0.94133497
21 1.9209155  -1.1620367 -1.3923317  0.7162393 1.5040774 1.5040774 0.83367611 0.83367611
13  2.392861  -1.1687502 -1.4011442 0.71162064 1.5040774 1.5040774  1.7775671  1.7775671
35   1.88786  -1.1881583 -1.3531832 0.71243183 1.5040774 1.5040774 0.76756526 0.76756526
14 1.7744748  -1.1974164 -1.3111354 0.71384598 1.5040774 1.5040774 0.54079481 0.54079481
62 2.8997719  -1.1736815 -1.5135931 0.70241039 1.5040774 1.5040774   2.791389   2.791389
25 3.1429774  -1.1775714 -1.5035603 0.70043872 1.5040774 1.5040774     3.2778     3.2778
20 2.7437849  -1.1745847  -1.503558 0.70358404 1.5040774 1.5040774  2.4794149  2.4794149
28 4.4940872 -0.82889902 -2.0017739 0.78192141 1.5040774 1.5040774  5.9800196  5.9800196
 5 4.3858303 -0.85477895  -2.035946 0.82290551 1.5040774 1.5040774  5.7635058  5.7635058
22  4.207128  -0.8602047 -2.0129574 0.82608802 1.5040774 1.5040774  5.4061012  5.4061012
42 4.4812299 -0.98593541 -1.7656371  0.8068694 1.5040774 1.5040774  5.9543051  5.9543051
40 4.4645436 -0.98455693  -1.766895 0.80720544 1.5040774 1.5040774  5.9209324  5.9209324
10  4.402655 -0.98913637  -1.7612101 0.80409085 1.5040774 1.5040774  5.7971552  5.7971552
 9 4.7015661 -0.95329671  -1.8929694  0.8199883 1.5040774 1.5040774  6.3949774  6.3949774
22 4.0825452   -1.029678  -1.7399692 0.74918529 1.5040774 1.5040774  5.1569357  5.1569357
 7   3.89048 -0.94980789  -1.8429984 0.74227071 1.5040774 1.5040774  4.7728053  4.7728053
 4 4.0810551 -0.96378715  -1.8410539 0.74206585 1.5040774 1.5040774  5.1539555  5.1539555
22 2.8828263  -1.3591619  -1.0151006 0.68249944 1.5040774 1.5040774  2.7574977  2.7574977
23 2.6858292  -1.3627098 -0.99200363 0.68268206 1.5040774 1.5040774  2.3635037  2.3635037
 5 2.4748466  -1.3675519 -0.99753038 0.68895312 1.5040774 1.5040774  1.9415383  1.9415383
 1 3.1398713  -1.3684691    -1.00151  0.6888723 1.5040774 1.5040774  3.2715878  3.2715878
 1 3.2595752  -1.4060613 -0.91118447 0.68301654 1.5040774 1.5040774  3.5109956  3.5109956
11 2.8813429   -1.360532 -0.99403554 0.69167774 1.5040774 1.5040774   2.754531   2.754531
 4 2.9954785  -1.1965056   -1.031933 0.72439285 1.5040774 1.5040774  2.9828022  2.9828022
17 4.0046996  -1.1902124  -1.1272689 0.72726475 1.5040774 1.5040774  5.0012444  5.0012444
50 2.1106696  -1.3981069 -0.92551305 0.67943974 1.5040774 1.5040774  1.2131843  1.2131843
17 2.0088792  -1.3971033 -0.91155679  0.6824448 1.5040774 1.5040774  1.0096036  1.0096036
 2 3.1429378  -1.4060851 -0.95113274 0.67331754 1.5040774 1.5040774  3.2777209  3.2777209
 8 6.0000406  -1.0544351  -1.8046131 0.76606355 1.5040774 1.5040774  8.9919265  8.9919265
26 3.9040714  -1.0083902   -1.785558  0.7866932 1.5040774 1.5040774  4.7999881  4.7999881
11 4.0250295 -0.93125579  -1.8851571 0.75999047 1.5040774 1.5040774  5.0419042  5.0419042
 7 1.9322716  -1.1746898  -1.3258062 0.71928623 1.5040774 1.5040774 0.85638844 0.85638844
 24 3.1854128  -1.1828007  -1.4297476 0.70262674 1.5040774 1.5040774  3.3626709  3.3626709
 18 2.7186505  -1.1829776  -1.3947444 0.70620054 1.5040774 1.5040774  2.4291462  2.4291462
 16 2.4614944  -1.1727897  -1.4689049 0.70603459 1.5040774 1.5040774  1.9148339  1.9148339
 17   2.03539  -1.1351566  -1.4399774 0.72363385 1.5040774 1.5040774  1.0626252  1.0626252
 58 2.4762222  -1.1488444 -0.26668044 0.74105487 1.5040774 1.5040774  1.9442896  1.9442896
 57 2.7463581  -1.1499856 -0.25128022  0.7403196 1.5040774 1.5040774  2.4845614  2.4845614
  5 2.1626286  -1.1438885 -0.25571273 0.74221327 1.5040774 1.5040774  1.3171024  1.3171024
 68 2.5222159  -1.1218673 -0.29579005 0.74577539 1.5040774 1.5040774  2.0362769  2.0362769
 26 2.6615267  -1.1422558 -0.19897611 0.74244751 1.5040774 1.5040774  2.3148987  2.3148987
 62 2.6227507   -1.100235 -0.23011666 0.74971763 1.5040774 1.5040774  2.2373467  2.2373467
107 4.4338637  -1.1611305 -0.26430185 0.74140851 1.5040774 1.5040774  5.8595726  5.8595726
108 2.5859485  -1.1667539 -0.28117334 0.73615576 1.5040774 1.5040774  2.1637422  2.1637422
  2 2.2709742  -1.3886077  -1.0515745 0.67533952 1.5040774 1.5040774  1.5337936  1.5337936
 61 2.6067146  -1.3933327 -0.73429662 0.68563554 1.5040774 1.5040774  2.2052744  2.2052744
 19 2.5984292   -1.354135 -0.84405637 0.68963314 1.5040774 1.5040774  2.1887036  2.1887036
 12 4.7630137  -1.3426259  -1.5451412  0.5674836 1.5040774 1.5040774  6.5178727  6.5178727
  5 6.0819955   -1.357196  -1.5137788 0.54556131 1.5040774 1.5040774  9.1558362  9.1558362
 24  5.939584 -0.93275787  -1.9296054 0.72876776 1.5040774 1.5040774  8.8710133  8.8710133
 16  2.986834  -1.3491152 -0.65601404 0.69474788 1.5040774 1.5040774  2.9655132  2.9655132
 65 1.8481628  -1.3132255 -0.77918242 0.70520107 1.5040774 1.5040774 0.68817071 0.68817071
27 2.7584954 -1.2900361 -0.89807181 0.70294734 1.5040774 1.5040774   2.508836   2.508836
 5 1.8742716 -1.2819149 -0.88725416  0.7068801 1.5040774 1.5040774 0.74038849 0.74038849
 8 1.8880969 -1.2269984  -1.1624257  0.7113105 1.5040774 1.5040774 0.76803895 0.76803895
30 2.0679348  -1.348728  -1.1342349 0.68464937 1.5040774 1.5040774  1.1277148  1.1277148
 4 2.3170381 -1.3515943  -1.1148882  0.6862825 1.5040774 1.5040774  1.6259214  1.6259214
18  2.298394   -1.35288  -1.1161652 0.68603753 1.5040774 1.5040774  1.5886331  1.5886331
 2 3.4975591 -1.3280114  -1.3092949 0.68229749 1.5040774 1.5040774  3.9869633  3.9869633
 2 3.5772037 -1.3734913  -1.2689988 0.66209056 1.5040774 1.5040774  4.1462526  4.1462526
 3 4.1817156 -1.3556934  -1.3894925 0.65856286 1.5040774 1.5040774  5.3552763  5.3552763
11 2.5121103  -1.432281  -1.0946148  0.6635744 1.5040774 1.5040774  2.0160657  2.0160657
 9  2.902929 -1.4532564   -1.120163  0.6572996 1.5040774 1.5040774  2.7977032  2.7977032
 8 2.8592707 -1.4516125  -1.1290566 0.65515177 1.5040774 1.5040774  2.7103865  2.7103865
 7 2.9521444 -1.4498294  -1.1373157  0.6529939 1.5040774 1.5040774  2.8961339  2.8961339
27 3.1666675 -1.4412995  -1.1814172 0.65144944 1.5040774 1.5040774  3.3251802  3.3251802
16 3.6512061 -1.3299844  -1.3702276 0.67418784 1.5040774 1.5040774  4.2942574  4.2942574
 9 3.1250611 -1.3554535  -1.3053191 0.67095289 1.5040774 1.5040774  3.2419674  3.2419674
16 3.6023073 -1.4258082  -1.2702496 0.65253175 1.5040774 1.5040774  4.1964597  4.1964597
18 2.4648886 -1.4325914  -1.0200006 0.66815144 1.5040774 1.5040774  1.9216224  1.9216224
10 2.5269516 -1.4469548 -0.89439165 0.66900396 1.5040774 1.5040774  2.0457484  2.0457484
 1 6.1791985 -1.4626666 -0.99562398 0.67177237 1.5040774 1.5040774  9.3502423  9.3502423
14 5.3001816 -0.84921217  -2.0722985 0.86194376 1.5040774 1.5040774  7.5922084  7.5922084
 2 3.8781133 -0.90509294  -1.9106269 0.82719399 1.5040774 1.5040774  4.7480718  4.7480718
 4  4.235656 -0.87211684  -1.9475545 0.83783432 1.5040774 1.5040774  5.4631571  5.4631571
31  4.138059 -0.85826814  -2.0151319 0.84194766 1.5040774 1.5040774  5.2679631  5.2679631
 1 4.3941077 -0.86380023  -2.0345411 0.83386291 1.5040774 1.5040774  5.7800607  5.7800607
 3 6.7738017 -0.87411156  -1.9075339 0.79396725 1.5040774 1.5040774  10.539449  10.539449
64 3.3883693  -1.2368981  -1.4582727 0.68699656 1.5040774 1.5040774  3.7685839  3.7685839
12 2.5386485  -1.2171392  -1.2964406 0.71439589 1.5040774 1.5040774  2.0691422  2.0691422
14 3.8779022    -1.25368 -0.94276983 0.71661406 1.5040774 1.5040774  4.7476496  4.7476496
 7 3.4207576   -1.268029 -0.93023816 0.71330024 1.5040774 1.5040774  3.8333603  3.8333603
62 2.2783692  -1.2674839 -0.91186579 0.71156261 1.5040774 1.5040774  1.5485836  1.5485836
 9 3.1626044  -1.2061637 -0.93892736 0.72111694 1.5040774 1.5040774   3.317054   3.317054
51 1.8950054  -1.2486955 -0.92992105 0.71358378 1.5040774 1.5040774 0.78185593 0.78185593
24 2.1397558  -1.2525387 -0.92244795 0.71237101 1.5040774 1.5040774  1.2713568  1.2713568
 9 3.1536492  -1.2896669 -0.66499957 0.71286552 1.5040774 1.5040774  3.2991435  3.2991435
29 4.5881974  -1.2914042 -0.65739181 0.71308336 1.5040774 1.5040774  6.1682399  6.1682399
23 5.2295849  -1.1461118  -1.1198902 0.73201615 1.5040774 1.5040774  7.4510151  7.4510151
13 4.7435133  -1.2608439 -0.86021696 0.71646661 1.5040774 1.5040774  6.4788718  6.4788718
85 2.7079259  -1.2445802  -0.8815125 0.71411227 1.5040774 1.5040774  2.4076969  2.4076969
17 3.5474105  -1.3906685  -1.3044953 0.65752349 1.5040774 1.5040774  4.0866662  4.0866662
 17  3.589562  -1.5026466 -1.0782319 0.64347736 1.5040774 1.5040774  4.1709693  4.1709693
 18 3.6909093  -1.5049323 -1.0886706 0.64063459 1.5040774 1.5040774  4.3736638  4.3736638
  1 3.4168742  -1.4554311 -1.2132206 0.64469972 1.5040774 1.5040774  3.8255936  3.8255936
 11 5.2065957  -1.4811061 -1.2253806 0.61435056 1.5040774 1.5040774  7.4050365  7.4050365
  5 5.1279556  -1.4414602 -1.3379601 0.61725614 1.5040774 1.5040774  7.2477564  7.2477564
 26  3.193674  -1.3795001 -1.2281679 0.66446049 1.5040774 1.5040774  3.3791932  3.3791932
192 1.7019856  -1.3217773 -1.1140637 0.69135773 1.5040774 1.5040774 0.39581641 0.39581641
 14 2.3565892  -1.3165948 -1.1277825 0.69578052 1.5040774 1.5040774  1.7050236  1.7050236
 20  5.388073  -1.3543598 -1.1332119  0.6911479 1.5040774 1.5040774  7.7679911  7.7679911
  1 4.1844416  -1.3159725 -1.0767353   0.689156 1.5040774 1.5040774  5.3607284  5.3607284
 37 3.6027798 -0.96399388 -1.8322706 0.79867284 1.5040774 1.5040774  4.1974047  4.1974047
  6 3.7242925 -0.96676756  -1.809347 0.79906165 1.5040774 1.5040774  4.4404302  4.4404302
 24 3.7773183    -0.97901 -1.7936756 0.79748778 1.5040774 1.5040774  4.5464818  4.5464818
 11 3.6093802  -1.4764257 -1.1791776 0.63817041 1.5040774 1.5040774  4.2106057  4.2106057
 14 3.4676278  -1.4680608 -1.1955464 0.64181915 1.5040774 1.5040774  3.9271007  3.9271007
  9 3.5954287 -0.94254964  -1.844063 0.75048645 1.5040774 1.5040774  4.1827025  4.1827025
 30 3.7926899  -0.9027098  -1.862769 0.76884407 1.5040774 1.5040774   4.577225   4.577225
 14 3.7532292  -1.0458974 -1.7009847  0.7415348 1.5040774 1.5040774  4.4983037  4.4983037
  2 4.0057483  -1.0721382 -1.6941943 0.72447033 1.5040774 1.5040774  5.0033418  5.0033418
  7 3.0569847  -1.0772266 -1.6534927 0.72186828 1.5040774 1.5040774  3.1058145  3.1058145
 18 2.9502712 -1.2765103   -1.381274  0.6883029 1.5040774 1.5040774  2.8923877  2.8923877
 33 2.2430342 -1.3642812  -1.1719267 0.67638983 1.5040774 1.5040774  1.4779135  1.4779135
  5 4.7406183 -1.3974085  -1.2962111 0.66652206 1.5040774 1.5040774  6.4730819  6.4730819
  4 4.4090417 -1.4161516  -1.2747005 0.66100449 1.5040774 1.5040774  5.8099287  5.8099287
  3 3.8622111 -1.5003968  -1.1553811 0.63317076 1.5040774 1.5040774  4.7162674  4.7162674
 17 5.0526551 -1.4567464  -1.3104413 0.61159144 1.5040774 1.5040774  7.0971554  7.0971554
  1 4.8024781 -1.4572315  -1.3097339 0.61576294 1.5040774 1.5040774  6.5968013  6.5968013
  3 5.0363933 -1.4506655  -1.3126431 0.61817933 1.5040774 1.5040774  7.0646318  7.0646318
 12  6.593178 -1.0698621  -1.7998618  0.6936646 1.5040774 1.5040774  10.178201  10.178201
  2 6.4042736 -1.0849033  -1.7428797 0.71986884 1.5040774 1.5040774  9.8003924  9.8003924
  5 4.0133591 -1.0479352   -1.698143  0.7170363 1.5040774 1.5040774  5.0185634  5.0185634
 32 4.6940129 -1.2310737 -0.89562575 0.71383639 1.5040774 1.5040774   6.379871   6.379871
 45 1.7203569 -1.2782214 -0.83218254  0.7103824 1.5040774 1.5040774 0.43255911 0.43255911
 15 1.9144609 -1.3049978 -0.80289224 0.70482796 1.5040774 1.5040774 0.82076696 0.82076696
 10 1.6160402 -1.3053438 -0.80162099  0.7046013 1.5040774 1.5040774 0.22392562 0.22392562
 16 2.3797877 -1.3064775 -0.84100606 0.70476491 1.5040774 1.5040774  1.7514206  1.7514206
167 2.6772095 -1.2966265 -0.95633598 0.69900326 1.5040774 1.5040774  2.3462642  2.3462642
 19 2.0535781 -1.3318247  -1.0254994 0.69422481 1.5040774 1.5040774  1.0990013  1.0990013
 59 1.6075424 -1.3322877  -1.0308981 0.69207178 1.5040774 1.5040774    0.20693    0.20693
 14 2.1104345 -1.3167301  -1.0873342 0.69018789 1.5040774 1.5040774  1.2127142  1.2127142
71 2.1107453  -1.3167462  -1.0873011 0.69018912 1.5040774 1.5040774  1.2133357  1.2133357
 3 2.5836788  -1.3671238 -0.80655376 0.68800712 1.5040774 1.5040774  2.1592027  2.1592027
 4 1.8619135   -1.357512 -0.80011592 0.69308898 1.5040774 1.5040774 0.71567225 0.71567225
23 1.9288051  -1.3522087 -0.85229165 0.69173982 1.5040774 1.5040774 0.84945531 0.84945531
45 2.2074303  -1.3814664 -0.87035219 0.68822065 1.5040774 1.5040774  1.4067059  1.4067059
15 2.6854286  -1.3771952 -0.86684078 0.68991994 1.5040774 1.5040774  2.3627024  2.3627024
31 3.2799706  -1.3905234 -0.84324195 0.69015102 1.5040774 1.5040774  3.5517864  3.5517864
 3 2.5748973  -1.1736953  -1.4966863 0.70619772 1.5040774 1.5040774  2.1416398  2.1416398
 6 1.9050012  -1.1742198  -1.3389433 0.71704266 1.5040774 1.5040774 0.80184765 0.80184765
35 1.9815688  -1.1579123   -1.384753 0.71939817 1.5040774 1.5040774 0.95498276 0.95498276
78 1.9588217  -1.1553492  -1.3743007 0.72094826 1.5040774 1.5040774 0.90948867 0.90948867
 4 4.2529845  -1.1418747   -1.284065  0.7355546 1.5040774 1.5040774  5.4978142  5.4978142
 4 5.7387052  -1.0212779  -1.6260584 0.78905952 1.5040774 1.5040774  8.4692556  8.4692556
 2 4.1760712  -1.0074627  -1.7019077 0.78071798 1.5040774 1.5040774  5.3439877  5.3439877
 5 4.5966533  -1.0543109  -1.4827302 0.74776349 1.5040774 1.5040774  6.1851518  6.1851518
 1 4.6724951   -1.077822  -1.4098465 0.73847058 1.5040774 1.5040774  6.3368354  6.3368354
 5 5.2638289  -1.1963953  -1.5781162 0.68108172 1.5040774 1.5040774   7.519503   7.519503
 3 5.2251133  -1.1960979  -1.5784148 0.68111511 1.5040774 1.5040774  7.4420719  7.4420719
 4 4.7172576  -1.1939881  -1.5400775 0.68699376 1.5040774 1.5040774  6.4263603  6.4263603
12 5.0264425 -0.96322586  -1.7998297 0.82711735 1.5040774 1.5040774  7.0447301  7.0447301
  1 5.0376501  -0.9650967  -1.7946409 0.82607804 1.5040774 1.5040774  7.0671455  7.0671455
 33 5.3255552 -0.90659481  -1.9044154 0.73754826 1.5040774 1.5040774  7.6429556  7.6429556
 12 5.2404809 -0.89699382   -1.931063 0.73970481 1.5040774 1.5040774  7.4728069  7.4728069
  4 3.6311602  -1.4812655  -1.1952789 0.63751616 1.5040774 1.5040774  4.2541657  4.2541657
 59 2.5550456  -1.2736894  -1.3249882 0.68895133 1.5040774 1.5040774  2.1019363  2.1019363
  4 3.2582141  -1.2721275  -1.3170877 0.68737506 1.5040774 1.5040774  3.5082734  3.5082734
 10 3.1272502  -1.2668738  -1.4094932 0.68480052 1.5040774 1.5040774  3.2463456  3.2463456
 32 3.1965382  -1.2703074  -1.4028112 0.68771154 1.5040774 1.5040774  3.3849217  3.3849217
 39 3.4015694  -1.2778296  -1.3564386 0.68315911 1.5040774 1.5040774   3.794984   3.794984
 12 3.8546312  -1.4858972  -1.0828683 0.64169419 1.5040774 1.5040774  4.7011076  4.7011076
 25 4.3398168  -1.5232091  -1.0300898 0.63807255 1.5040774 1.5040774  5.6714788  5.6714788
 33 3.7810854  -1.0612662  -1.6758272 0.73768731 1.5040774 1.5040774  4.5540161  4.5540161
 10 3.6404706  -1.0609554   -1.675108 0.73715191 1.5040774 1.5040774  4.2727863  4.2727863
 80  1.982423  -1.2413294 -0.65037923 0.72022336 1.5040774 1.5040774 0.95669123 0.95669123
 52 1.9759101  -1.2465616 -0.65759483 0.71823026 1.5040774 1.5040774 0.94366545 0.94366545
 19 4.6367711  -1.2525748 -0.65974268 0.72113274 1.5040774 1.5040774  6.2653874  6.2653874
  7 6.0173036  -1.2467178 -0.66346115 0.72186152 1.5040774 1.5040774  9.0264524  9.0264524
107 2.2668398  -1.2908728 -0.66107484 0.70965192 1.5040774 1.5040774  1.5255248  1.5255248
 32 3.1408381  -1.2899059 -0.65889172 0.70711125 1.5040774 1.5040774  3.2735214  3.2735214
 45  2.259673  -1.3058198 -0.73424431  0.7036874 1.5040774 1.5040774  1.5111912  1.5111912
18 4.8906045 -1.2908668 -0.70211613 0.70536089 1.5040774 1.5040774   6.7730542   6.7730542
24 2.2058758 -1.2904549 -0.67680709 0.70708246 1.5040774 1.5040774   1.4035969   1.4035969
 6 1.6059575 -1.2804745  -1.0725811 0.70296799 1.5040774 1.5040774  0.20376029  0.20376029
52 1.6157804 -1.2805477   -1.072558 0.70298425 1.5040774 1.5040774  0.22340609  0.22340609
 3 2.8351903 -1.2244155  -1.2266217 0.71545767 1.5040774 1.5040774   2.6622257   2.6622257
23 2.0418569 -1.2164406  -1.3149914 0.71030792 1.5040774 1.5040774    1.075559    1.075559
63 1.8972286 -1.2231824  -1.3438703 0.70371295 1.5040774 1.5040774  0.78630239  0.78630239
 3 2.1820346  -1.294029 -0.95367449 0.70129432 1.5040774 1.5040774   1.3559144   1.3559144
 8 2.4514568 -1.2819086 -0.97947648 0.70812571 1.5040774 1.5040774   1.8947589   1.8947589
70 2.7202343 -1.2754649 -0.98766902 0.71023747 1.5040774 1.5040774   2.4323139   2.4323139
 2 1.5195565 -1.2938856 -0.97907647 0.70310515 1.5040774 1.5040774 0.030958248 0.030958248
48 1.6236402 -1.2871866   -1.014711 0.70238781 1.5040774 1.5040774  0.23912554  0.23912554
17   2.12709 -1.1846643  -1.2717665 0.71777378 1.5040774 1.5040774   1.2460252   1.2460252
 2 2.1448122 -1.1881726  -1.2676011 0.71620453 1.5040774 1.5040774   1.2814697   1.2814697
99 1.9354404 -1.1980005  -1.2449784 0.71465371 1.5040774 1.5040774  0.86272609  0.86272609
10 2.0953715 -1.2028208  -1.2080868 0.71388896 1.5040774 1.5040774   1.1825882   1.1825882
 1 2.4194021 -1.1853776  -1.2067585 0.72221971 1.5040774 1.5040774   1.8306493   1.8306493
19 2.7981203 -1.1864166  -1.2069832 0.72364956 1.5040774 1.5040774   2.5880858   2.5880858
16 3.7994064 -1.3186988  -1.3196555 0.68530107 1.5040774 1.5040774   4.5906579   4.5906579
 6 2.8224289 -1.3265449   -1.274416 0.68376681 1.5040774 1.5040774    2.636703    2.636703
 12 2.3079422  -1.3764029  -1.0763544 0.68243817 1.5040774 1.5040774 1.6077295 1.6077295
 27 2.5313382   -1.354971  -1.1409453 0.67765014 1.5040774 1.5040774 2.0545217 2.0545217
 38 4.0231654  -1.4434316   -1.051297 0.65533343 1.5040774 1.5040774  5.038176  5.038176
  3 3.7513771 -0.99018014  -1.7545388 0.78115889 1.5040774 1.5040774 4.4945994 4.4945994
  3 3.4912837 -0.98777512  -1.8120739  0.7863408 1.5040774 1.5040774 3.9744126 3.9744126
  9  3.458819 -0.95529708   -1.859952 0.77839229 1.5040774 1.5040774 3.9094831 3.9094831
 22 3.7755853 -0.98372439  -1.8046521 0.79629609 1.5040774 1.5040774 4.5430158 4.5430158
  2 3.8518483 -0.91585842  -1.8908348 0.81842513 1.5040774 1.5040774 4.6955418 4.6955418
  7 3.6988935 -0.91954739  -1.9109114 0.81430225 1.5040774 1.5040774 4.3896322 4.3896322
  8 4.3438123 -0.86077689  -1.9538302 0.85186115 1.5040774 1.5040774 5.6794699 5.6794699
 25 4.6545389   -0.841093  -1.9700609 0.86487765 1.5040774 1.5040774 6.3009231 6.3009231
108 4.2857053 -0.86032572  -1.9552902 0.85853033 1.5040774 1.5040774 5.5632557 5.5632557
  1 4.1533695 -0.86151122  -1.9913828 0.85718684 1.5040774 1.5040774 5.2985841 5.2985841
 11 3.2037507  -1.4555043  -1.0859633 0.65237958 1.5040774 1.5040774 3.3993466 3.3993466
 63 3.0766131  -1.4541245  -1.0767492 0.65396611 1.5040774 1.5040774 3.1450715 3.1450715
 21 3.3815696  -1.4606948  -1.1839974 0.65109459 1.5040774 1.5040774 3.7549843 3.7549843
 17  2.966481  -1.4433117  -1.1242456 0.66192176 1.5040774 1.5040774 2.9248072 2.9248072
 63  2.209962  -1.4200233 -0.99308742 0.67107302 1.5040774 1.5040774 1.4117691 1.4117691
120 2.1558257  -1.4173964  -1.0056246 0.67192343 1.5040774 1.5040774 1.3034966 1.3034966
 28 2.1936376  -1.4188332  -1.0030076  0.6717756 1.5040774 1.5040774 1.3791204 1.3791204
