\relax 
\providecommand\hyper@newdestlabel[2]{}
\providecommand\HyperFirstAtBeginDocument{\AtBeginDocument}
\HyperFirstAtBeginDocument{\ifx\hyper@anchor\@undefined
\global\let\oldcontentsline\contentsline
\gdef\contentsline#1#2#3#4{\oldcontentsline{#1}{#2}{#3}}
\global\let\oldnewlabel\newlabel
\gdef\newlabel#1#2{\newlabelxx{#1}#2}
\gdef\newlabelxx#1#2#3#4#5#6{\oldnewlabel{#1}{{#2}{#3}}}
\AtEndDocument{\ifx\hyper@anchor\@undefined
\let\contentsline\oldcontentsline
\let\newlabel\oldnewlabel
\fi}
\fi}
\global\let\hyper@last\relax 
\gdef\HyperFirstAtBeginDocument#1{#1}
\providecommand\HyField@AuxAddToFields[1]{}
\providecommand\HyField@AuxAddToCoFields[2]{}
\@writefile{toc}{\contentsline {section}{\numberline {1}Abstract}{1}{section.1}}
\@writefile{toc}{\contentsline {section}{\numberline {2}Introduction}{1}{section.2}}
\@writefile{toc}{\contentsline {subsection}{\numberline {2.1}LISA setup}{1}{subsection.2.1}}
\@writefile{toc}{\contentsline {subsection}{\numberline {2.2}LISA sensitivity curve}{2}{subsection.2.2}}
\@writefile{toc}{\contentsline {subsection}{\numberline {2.3}GWs from the early universe}{2}{subsection.2.3}}
\@writefile{toc}{\contentsline {subsection}{\numberline {2.4}overview }{2}{subsection.2.4}}
\@writefile{toc}{\contentsline {section}{\numberline {3}Sound shell model}{3}{section.3}}
\@writefile{lof}{\contentsline {figure}{\numberline {1}{\ignorespaces Effect of $v_w$ on the shape of the GW power spectrum, $\alpha = 0.1$ and $r_* = 0.08$}}{3}{figure.1}}
\@writefile{toc}{\contentsline {section}{\numberline {4}MCMC SSM }{3}{section.4}}
\@writefile{toc}{\contentsline {section}{\numberline {5}Results}{3}{section.5}}
\@writefile{toc}{\contentsline {section}{\numberline {6}Analysing double power law}{3}{section.6}}
\@writefile{toc}{\contentsline {subsection}{\numberline {6.1}Simplified SSM as a double broken power law}{4}{subsection.6.1}}
\newlabel{Eq: M doubele_break}{{6.1}{4}{Simplified SSM as a double broken power law}{equation.6.7}{}}
\newlabel{Eq: m}{{6.1}{5}{Simplified SSM as a double broken power law}{equation.6.8}{}}
\@writefile{toc}{\contentsline {subsection}{\numberline {6.2}Relationship between observable and thermodynamic parameters}{5}{subsection.6.2}}
\@writefile{lof}{\contentsline {figure}{\numberline {2}{\ignorespaces Triangle plots from $v_w= 0.5,0.6,0.7,0.8,0.9$,$\alpha = 0.1$, $r_* = 0.1$ and $T=100GeV$}}{6}{figure.2}}
\@writefile{lof}{\contentsline {figure}{\numberline {3}{\ignorespaces Relationship between $\alpha $, $v_w$ and $z_b$}}{7}{figure.3}}
\@writefile{toc}{\contentsline {section}{\numberline {7}MCMC simplified models}{8}{section.7}}
\@writefile{toc}{\contentsline {subsection}{\numberline {7.1}}{8}{subsection.7.1}}
